<?xml version="1.0" encoding="UTF-8" standalone="no"?>
<svg
   xmlns:dc="http://purl.org/dc/elements/1.1/"
   xmlns:cc="http://creativecommons.org/ns#"
   xmlns:rdf="http://www.w3.org/1999/02/22-rdf-syntax-ns#"
   xmlns:svg="http://www.w3.org/2000/svg"
   xmlns="http://www.w3.org/2000/svg"
   id="svg8"
   version="1.1"
   viewBox="0 0 80.743365 96.142804"
   height="96.142807mm"
   width="80.74337mm">
  <defs
     id="defs2" />
  <metadata
     id="metadata5">
    <rdf:RDF>
      <cc:Work
         rdf:about="">
        <dc:format>image/svg+xml</dc:format>
        <dc:type
           rdf:resource="http://purl.org/dc/dcmitype/StillImage" />
        <dc:title></dc:title>
      </cc:Work>
    </rdf:RDF>
  </metadata>
  <g
     transform="translate(-7.2354279,15.555924)"
     id="layer1">
    <path
       id="path6928"
       d="M 17.546692,80.108355 C 14.840889,79.571177 14.20209,79.021087 12.623893,75.869173 11.94383,74.510979 10.872495,72.764729 10.243148,71.988617 8.2865999,69.575797 7.2354279,67.124098 7.2354279,64.973561 c 0,-1.789473 0.07974,-1.972444 1.146528,-2.630809 0.639936,-0.394935 2.1597091,-0.818592 3.4395831,-0.958825 1.48501,-0.162712 3.480639,-0.770816 5.663154,-1.725662 3.026495,-1.324084 4.642723,-2.280186 8.359696,-4.945278 0.630554,-0.452113 1.979929,-1.021824 2.998611,-1.266031 1.018683,-0.244207 2.777619,-0.857109 3.908747,-1.362004 L 34.808344,51.16696 31.517025,49.792588 C 25.799976,47.405284 24.757731,46.771885 20.668079,43.199414 18.47072,41.279933 16.494142,39.696222 16.275682,39.680054 13.795792,39.496507 12.972481,38.770321 12.706837,36.532211 12.60335,35.660317 12.260893,33.915076 11.945821,32.653895 11.313465,30.122686 11.239084,24.586414 11.808996,22.46992 c 0.438947,-1.630126 2.998153,-5.171969 4.934968,-6.829813 0.813593,-0.696404 2.618569,-1.826865 4.011057,-2.512133 1.750833,-0.861615 2.989513,-1.783978 4.015661,-2.990196 1.129994,-1.3282872 2.349882,-2.1862912 5.115278,-3.5978164 1.997277,-1.019458 4.367057,-2.387124 5.266177,-3.039258 0.89912,-0.652134 1.759745,-1.185698 1.9125,-1.185698 0.152755,0 0.55625,-0.252052 0.896657,-0.560116 0.340406,-0.308063 2.749034,-1.08731402 5.35251,-1.73166702 2.603472,-0.644353 5.554207,-1.60064198 6.55719,-2.12508598 1.474198,-0.770838 2.109989,-0.91232 3.318323,-0.738427 1.704386,0.245281 1.902245,0.147672 3.136826,-1.5474812 1.024446,-1.4066257 1.664956,-3.6077438 1.79578,-6.1712234 0.08957,-1.755041 0.09895,-1.767714 2.55934,-3.455534 2.24193,-1.537963 2.59945,-1.672968 3.88056,-1.465386 0.77611,0.125756 1.56192,0.371059 1.74625,0.545118 0.18432,0.174058 0.87995,0.31647 1.54584,0.31647 0.94192,0 1.48754,0.293526 2.45763,1.322125 0.69094,0.732603 1.51647,1.276462 1.85143,1.219714 0.47067,-0.07974 0.65792,0.253739 0.84574,1.506181 0.13267,0.8847253 0.56631,2.3435087 0.96364,3.2417409 0.63255,1.429995 0.66979,1.8132182 0.29933,3.0807215 -0.75302,2.5764682 -2.08039,5.10615018 -2.99307,5.7041602 -0.50134,0.328495 -1.07556,1.199906 -1.31309,1.992684 -0.47619,1.589395 -1.11804,2.000785 -2.13284,1.367033 -0.57104,-0.356619 -0.81054,-0.325832 -1.36438,0.175389 -0.36947,0.334365 -0.67176,0.511538 -0.67176,0.393716 0,-0.117821 -0.41732,0.172536 -0.92737,0.645238 -0.85223,0.789818 -0.90774,1.009983 -0.68505,2.7171832 0.13327,1.021749 0.22364,2.6354692 0.20081,3.5860442 -0.0423,1.76361 0.5412,3.739737 1.10435,3.739737 0.59146,0 2.33574,4.178194 2.58835,6.200034 0.22362,1.789797 0.45616,2.239257 2.00682,3.878848 1.76294,1.864049 2.61536,3.593507 3.82283,7.756059 1.10416,3.806384 1.42529,4.197805 3.54658,4.322823 1.6487,0.09716 2.07651,0.304313 3.89486,1.885865 1.74061,1.513928 2.09816,2.035164 2.4175,3.524183 0.48821,2.276457 0.4729,3.032344 -0.065,3.211657 -0.29343,0.09781 -0.088,0.586846 0.61736,1.469415 0.581434,0.727551 1.380004,1.854676 1.774584,2.504722 0.39459,0.650043 1.00916,1.504248 1.36571,1.89823 1.00114,1.106244 0.5137,1.802282 -1.09456,1.562972 -1.660164,-0.247029 -2.848714,-0.964057 -3.322804,-2.004565 -0.199,-0.436756 -0.64332,-0.969899 -0.98737,-1.184765 -0.5443,-0.339923 -0.60442,-0.28018 -0.46293,0.459987 0.26008,1.360537 -0.84659,1.050293 -1.95147,-0.547077 -0.53173,-0.768749 -1.22024,-1.403749 -1.53003,-1.411112 -0.79615,-0.01891 -3.01664,-2.267338 -3.84743,-3.89582 -0.38533,-0.755301 -1.11803,-1.659177 -1.62822,-2.008614 -0.51019,-0.349437 -1.35433,-1.074565 -1.87587,-1.61139 -0.60435,-0.622067 -1.82058,-1.225511 -3.3536,-1.663915 -2.85607,-0.816766 -6.22492,-2.405941 -8.01045,-3.778744 -0.707932,-0.544294 -2.246859,-1.704002 -3.419838,-2.577127 -1.856697,-1.38206 -2.210562,-1.838593 -2.734447,-3.527777 -0.343091,-1.106252 -0.673608,-3.63745 -0.768911,-5.888588 -0.166099,-3.923457 -0.171874,-3.945322 -0.917293,-3.474212 -0.412577,0.260755 -1.292313,0.587431 -1.954967,0.725949 -0.662655,0.138519 -2.250155,0.792286 -3.527778,1.45282 -1.948127,1.007181 -2.664489,1.192918 -4.439617,1.151082 -2.806697,-0.06615 -4.772127,0.345052 -5.020676,1.05041 -0.111016,0.315049 -0.430117,0.839216 -0.709114,1.164816 -0.652413,0.761386 -0.537825,0.943603 3.043205,4.839293 1.626823,1.76977 3.475897,3.8911 4.109052,4.714071 1.739269,2.260681 4.707654,7.628526 5.279425,9.546985 0.278776,0.935376 1.008959,2.578248 1.622627,3.650833 1.011664,1.768207 1.097696,2.149419 0.922094,4.085968 -0.215897,2.380943 -0.977325,3.697637 -2.57556,4.453756 -0.564635,0.267123 -1.437175,0.86723 -1.938976,1.333567 -0.697735,0.648427 -1.527634,0.920207 -3.527778,1.155308 -1.802931,0.211917 -3.486641,0.715204 -5.419946,1.620107 -3.896853,1.823957 -6.402241,2.637279 -8.12396,2.637279 -1.827521,0 -4.426079,0.861762 -5.436163,1.802797 -0.419959,0.391251 -1.830962,1.142061 -3.135563,1.668466 l -2.372001,0.957096 0.05664,1.401795 c 0.03115,0.770985 0.258574,2.223681 0.505382,3.228213 0.431526,1.756353 0.508683,1.841514 2.011162,2.219843 1.846034,0.464838 4.305982,2.32349 4.305982,3.253455 0,1.342989 -3.281432,1.69334 -7.680403,0.820017 z m 5.688022,-1.156268 c 0.277633,-0.449216 -0.65084,-1.444822 -1.730049,-1.855134 -0.828862,-0.315133 -1.094168,-0.284798 -1.421253,0.162517 -0.586179,0.801649 -0.853539,0.676543 -0.853539,-0.39939 0,-0.908054 -0.02209,-0.919568 -0.507606,-0.264583 -0.489959,0.660982 -0.529817,0.662576 -1.146528,0.04586 -0.607282,-0.607282 -0.60835,-0.661617 -0.02156,-1.097223 1.337114,-0.992615 0.164845,-4.45751 -1.620672,-4.790243 -1.462817,-0.272598 -3.277803,-1.934538 -4.269981,-3.909917 -1.107505,-2.204995 -1.218663,-3.396283 -0.194764,-2.087305 0.379427,0.485069 0.693397,0.735693 0.697711,0.556944 0.01569,-0.649876 -1.126657,-1.564209 -1.700995,-1.361475 -2.0177431,0.712234 -2.3663401,2.684473 -0.8343521,4.720474 3.5763981,4.75301 4.3070811,5.79224 4.3070811,6.125838 0,0.318745 1.270577,2.942586 1.601938,3.308127 0.754261,0.832062 7.260995,1.547047 7.69457,0.845506 z m -6.121508,-9.568158 c 0,-0.171398 -0.3175,-0.39466 -0.705556,-0.49614 -0.764386,-0.199891 -0.986791,0.282716 -0.264583,0.574135 0.695036,0.280451 0.970139,0.258336 0.970139,-0.078 z M 13.557743,67.66709 c -0.9677,-1.61888 -1.383426,-2.115242 -1.383426,-1.651752 0,0.410563 1.708244,2.974668 1.981768,2.974668 0.105844,0 -0.16341,-0.595312 -0.598342,-1.322916 z m 5.481575,-0.705556 c 0.327465,-0.727604 0.852152,-1.828172 1.165969,-2.445709 0.461414,-0.907976 0.491628,-1.296067 0.157923,-2.028473 -0.226961,-0.498122 -0.616664,-0.905679 -0.866008,-0.905679 -0.480556,0 -3.25574,5.595849 -2.934499,5.917089 0.182204,0.182206 1.607536,-2.796427 2.113996,-4.417783 0.136368,-0.436563 0.395994,-0.79375 0.576947,-0.79375 0.448551,0 0.414414,0.242083 -0.163429,1.158938 -0.270839,0.429736 -0.594627,1.178214 -0.719529,1.663284 -0.154834,0.601309 0.0721,0.400268 0.713174,-0.631804 1.442133,-2.321705 1.449999,-1.462772 0.01018,1.11186 -1.358389,2.42903 -1.45338,2.694944 -0.9627,2.694944 0.17192,0 0.580509,-0.595313 0.907976,-1.322917 z m -4.535198,0.0073 c -0.358604,-0.358602 -0.65449,0.181289 -0.360263,0.657359 0.222263,0.359629 0.305357,0.359907 0.424851,0.0014 0.0817,-0.245106 0.05264,-0.54156 -0.06459,-0.658784 z M 18.171539,66.3943 c 0,-0.448218 -0.162948,-0.248084 -0.677232,0.831779 -0.396044,0.831593 -0.388701,0.84285 0.128604,0.197157 0.301746,-0.376632 0.548628,-0.839653 0.548628,-1.028936 z m 3.197784,0.08365 c 0.281403,-0.525805 0.285092,-0.676872 0.01241,-0.508346 -0.518291,0.320322 -0.496548,-0.257729 0.02948,-0.783756 0.2296,-0.229602 0.320681,-0.51423 0.202402,-0.632506 -0.118279,-0.118279 -0.477995,0.293423 -0.79937,0.914891 -0.374846,0.724873 -0.425913,1.032047 -0.142451,0.856858 0.310521,-0.191911 0.374905,-0.09859 0.2166,0.313951 -0.320934,0.836337 0.0057,0.726941 0.480927,-0.161092 z M 16.23571,64.889127 c 1.010484,-2.284882 1.050968,-2.47952 0.404065,-1.942638 -0.260387,0.216101 -0.586278,0.280067 -0.724201,0.142141 -0.137923,-0.137922 -0.151518,0.0079 -0.03021,0.323998 0.121308,0.316124 -0.02905,1.057462 -0.334132,1.647423 -0.55793,1.078918 -0.709333,1.81325 -0.373853,1.81325 0.09946,0 0.57571,-0.892877 1.058333,-1.984174 z m -2.162899,1.083906 c 0.120472,-0.313944 0.06133,-0.455549 -0.138646,-0.331957 -0.191805,0.11854 -0.348737,0.364913 -0.348737,0.54749 0,0.507446 0.252859,0.395626 0.487383,-0.215533 z m 3.040395,-1.216399 c 0.207681,-0.388056 0.298227,-0.705556 0.201213,-0.705556 -0.09701,0 -0.34631,0.3175 -0.553991,0.705556 -0.207681,0.388056 -0.298227,0.705556 -0.201213,0.705556 0.09701,0 0.34631,-0.3175 0.553991,-0.705556 z m -3.704167,0 c -0.119916,-0.194028 0.01624,-0.352778 0.30256,-0.352778 0.286324,0 0.586593,0.198014 0.667266,0.440034 0.08829,0.264862 0.32698,0.103131 0.599605,-0.406269 0.402276,-0.751661 0.385934,-0.820597 -0.146133,-0.616423 -0.329482,0.126435 -0.903575,0.22988 -1.275762,0.22988 -0.372186,0 -0.676703,0.238125 -0.676703,0.529167 0,0.291042 0.16812,0.529167 0.373598,0.529167 0.205479,0 0.275485,-0.15875 0.155569,-0.352778 z m 11.516854,-0.146935 c 0.657841,-0.274864 2.383791,-0.609487 3.835444,-0.743606 2.050045,-0.189407 3.663366,-0.674374 7.22548,-2.171983 2.849974,-1.198202 5.32063,-2.001121 6.526389,-2.120949 2.105847,-0.209282 5.291667,-1.898756 5.291667,-2.806227 0,-0.284378 0.265462,-0.462242 0.603254,-0.404199 0.816518,0.140307 1.491703,-1.339077 1.584498,-3.471757 0.05815,-1.336428 -0.112297,-1.976952 -0.758758,-2.851333 -0.458562,-0.620243 -1.495189,-2.761707 -2.303611,-4.758814 -1.729835,-4.273341 -3.918998,-7.759305 -6.971683,-11.101514 -1.214327,-1.3295 -2.779948,-3.091162 -3.479158,-3.91481 l -1.27129,-1.497539 -0.845376,0.650085 c -0.464957,0.357548 -2.829751,1.689185 -5.255098,2.959195 -3.496167,1.830737 -8.116554,4.583106 -9.144031,5.447108 -0.219089,0.184231 5.186574,5.713839 7.027364,7.188493 2.227999,1.784847 5.816451,3.711303 8.172533,4.38742 1.099408,0.315492 2.188958,0.802601 2.421223,1.082463 0.232265,0.279862 0.571903,0.41638 0.754751,0.303371 0.182849,-0.113005 1.217681,0.245929 2.299622,0.797634 1.41199,0.720002 2.012114,0.87865 2.126421,0.56213 0.286205,-0.792536 1.072268,-0.463169 1.262895,0.529167 0.192102,1.000019 -0.07827,1.665732 -0.358196,0.881945 -0.08662,-0.242535 -0.626833,-0.440973 -1.200478,-0.440973 -0.573645,0 -1.684571,-0.32731 -2.468729,-0.727357 -1.17076,-0.597277 -1.783373,-0.684431 -3.425528,-0.487341 -3.025768,0.363153 -6.893746,2.287545 -9.028956,4.492078 -0.99108,1.023257 -2.303795,2.068333 -2.917146,2.322389 -0.61335,0.254056 -1.389388,0.764917 -1.724529,1.135246 -0.335141,0.370325 -0.803429,0.673319 -1.040641,0.673319 -0.237212,0 -0.612283,0.218076 -0.833491,0.484618 -0.309867,0.373365 -0.186809,0.899766 0.536055,2.293055 1.016289,1.958852 1.423419,2.117468 3.359103,1.308686 z m 4.284474,-1.837225 c 0.469475,-0.469473 4.874379,-1.767162 5.047526,-1.487004 0.100686,0.162913 0.131767,0.296203 0.06907,0.296203 -0.0627,0 -0.982638,0.3175 -2.044312,0.705556 -1.857316,0.678871 -3.530117,0.94308 -3.072284,0.485245 z M 25.93265,61.248436 c 0,-0.370795 1.17119,-0.801854 2.470213,-0.909165 0.485492,-0.04011 2.231742,-0.751791 3.880556,-1.581521 2.957202,-1.488147 5.627066,-2.238745 5.135804,-1.443866 -0.131628,0.212979 -0.461093,0.387233 -0.732146,0.387233 -0.271052,0 -1.25387,0.438122 -2.184041,0.973607 -3.230317,1.859643 -4.951112,2.553928 -6.755746,2.725727 -0.998052,0.09501 -1.81464,0.02661 -1.81464,-0.152015 z m 8.819445,-0.372319 c 0,-0.194027 0.165388,-0.352777 0.367529,-0.352777 0.202141,0 0.708325,-0.3175 1.124853,-0.705556 0.416529,-0.388055 1.168318,-0.705555 1.670643,-0.705555 0.502325,0 1.276408,-0.254318 1.720182,-0.56515 0.443777,-0.310833 0.90407,-0.467943 1.022882,-0.349134 0.248444,0.248447 -0.954295,1.239051 -1.524772,1.255843 -0.209652,0.0062 -1.162152,0.40743 -2.116668,0.891685 -1.914525,0.971303 -2.264649,1.053345 -2.264649,0.530644 z m 6.232409,-2.70463 c -0.403486,-0.403483 -0.258223,-0.823147 0.284921,-0.823147 0.28606,0 0.76907,-0.48144 1.073358,-1.06987 0.304288,-0.588426 0.704656,-0.976291 0.889709,-0.861924 0.198854,0.122901 0.100436,0.668669 -0.240637,1.334453 -0.748866,1.461808 -1.461643,1.9662 -2.007351,1.420488 z m 3.645369,-2.90207 c 0,-0.414288 1.031628,-0.801444 1.4487,-0.54368 0.179684,0.111051 0.235366,0.349691 0.123733,0.530313 -0.259401,0.419717 -1.572433,0.430879 -1.572433,0.01337 z m 2.648112,-0.302327 c 0.139789,-0.339549 0.334039,-0.895174 0.431666,-1.234723 0.207053,-0.720104 0.65271,-0.808125 0.893068,-0.176388 0.272419,0.716004 -0.374999,2.028472 -1.000608,2.028472 -0.41238,0 -0.505365,-0.177112 -0.324126,-0.617361 z m -0.178667,-2.848924 c 0,-0.160204 0.396875,-0.664126 0.881944,-1.119826 0.660566,-0.620568 0.881945,-0.694006 0.881945,-0.292559 0,0.294792 -0.290312,0.798714 -0.645139,1.119826 -0.705065,0.638076 -1.11875,0.746256 -1.11875,0.292559 z M 34.95989,46.575649 c -0.758838,-0.670073 -2.386025,-1.708562 -3.615972,-2.307752 -2.024526,-0.986282 -2.832006,-1.736224 -1.869436,-1.736224 1.197378,0 7.897282,4.410417 7.551016,4.970688 -0.310395,0.502229 -0.588862,0.3773 -2.065608,-0.926712 z m 9.40099,-3.395747 c -0.240108,-0.240111 -0.436562,-0.585459 -0.436562,-0.767443 0,-0.748387 -4.153818,-6.042727 -5.379862,-6.857023 -1.244013,-0.826227 -1.699599,-1.49043 -1.022308,-1.49043 1.26606,0 5.555376,4.741013 6.956271,7.68882 0.622166,1.309176 0.55694,2.100555 -0.117539,1.426076 z M 32.988206,37.732198 c -1.649236,-1.054706 -3.049939,-2.152544 -3.112672,-2.439641 -0.06273,-0.287098 -0.02918,-0.521995 0.07456,-0.521995 0.103745,0 1.44647,0.856495 2.983833,1.903321 1.537363,1.046825 3.289746,2.011941 3.894185,2.144694 1.358384,0.298352 1.448649,0.901616 0.12884,0.861071 -0.533576,-0.0164 -2.319514,-0.892743 -3.96875,-1.94745 z m 1.146528,-5.002251 c -1.480525,-0.56744 -1.976863,-1.134385 -0.993105,-1.134385 0.278411,0 0.935428,0.163191 1.460038,0.362648 1.238793,0.470987 1.441959,0.22219 0.719249,-0.880805 -0.686109,-1.047136 -0.246741,-1.195856 0.639574,-0.216492 0.632118,0.698486 0.648895,2.199287 0.02633,2.355275 -0.194027,0.04862 -1.027465,-0.170191 -1.852083,-0.486241 z M 18.227372,62.206975 c 0.241877,-0.470538 0.190815,-0.562434 -0.224059,-0.403232 -0.305446,0.11721 -0.52531,0.608566 -0.509479,1.13859 0.01635,0.547349 0.108878,0.713871 0.224059,0.403229 0.107915,-0.291042 0.33718,-0.803406 0.509479,-1.138587 z m -7.464166,0.785809 c 0,-0.194028 -0.228756,-0.352778 -0.508347,-0.352778 -0.2795911,0 -0.6064601,0.15875 -0.7263761,0.352778 -0.119915,0.194028 0.108841,0.352778 0.5083471,0.352778 0.399507,0 0.726376,-0.15875 0.726376,-0.352778 z m 3.145602,-0.57984 c 0.08084,-0.06914 -0.435093,-0.125715 -1.146528,-0.125715 -0.711435,0 -1.293519,0.154781 -1.293519,0.343958 0,0.303886 2.043237,0.121133 2.440047,-0.218243 z m 4.968287,-1.692395 c 0,-0.08556 -0.15875,-0.253682 -0.352778,-0.373598 -0.194028,-0.119916 -0.352778,-0.04991 -0.352778,0.155568 0,0.205479 0.15875,0.373598 0.352778,0.373598 0.194028,0 0.352778,-0.07 0.352778,-0.155568 z M 22.4427,59.018301 c 2.937021,-1.634578 7.158591,-5.150978 5.606617,-4.670089 -0.485069,0.150304 -1.794711,0.964812 -2.910315,1.810018 -1.115604,0.845206 -2.901541,2.029527 -3.96875,2.631824 -1.067209,0.602294 -1.940379,1.238677 -1.940379,1.414184 0,0.525896 0.406811,0.375733 3.212827,-1.185937 z m 62.958557,-7.769045 c -0.31434,-0.429044 -1.112334,-1.588636 -1.773314,-2.576868 -0.84889,-1.269182 -1.90821,-2.224226 -3.60756,-3.252453 -2.58696,-1.565282 -2.52709,-1.496444 -4.50573,-5.181318 -0.7293,-1.358194 -1.45623,-2.630304 -1.61539,-2.826914 -0.15917,-0.196606 -0.47679,-1.149106 -0.70583,-2.116666 -0.77997,-3.295044 -2.26759,-6.579687 -3.72932,-8.234324 -1.48993,-1.68656 -1.80644,-2.413416 -2.82254,-6.481773 -0.48239,-1.931444 -0.96129,-2.811396 -2.57101,-4.724097 -2.97966,-3.5405 -3.26083,-3.943579 -2.9045,-4.163805 0.18044,-0.111518 0.65576,0.352629 1.05627,1.031437 0.74737,1.266702 1.77184,1.769238 1.25747,0.616837 -0.15155,-0.339549 -0.29837,-1.649236 -0.32627,-2.910417 -0.11853,-5.3578564 -1.18537,-6.8246384 -5.855219,-8.0502604 -1.63188,-0.428293 -3.165489,-0.77657 -3.408024,-0.77395 -0.242535,0.0026 -0.440972,-0.153984 -0.440972,-0.348012 0,-0.49217902 1.329161,-0.41382202 2.985107,0.17598 0.768681,0.273783 1.483056,0.409957 1.5875,0.302608 0.346498,-0.356147 -3.106332,-3.201583 -4.134542,-3.407225 -0.555752,-0.111151 -1.635735,-0.06161 -2.399958,0.110082 -1.367398,0.307208 -1.915072,0.79950798 -3.682552,3.310217 -0.486357,0.690873 -1.189895,1.25716 -1.56851,1.262515 -0.588564,0.0083 -0.525621,-0.156337 0.440972,-1.153611 1.521136,-1.56941102 1.482362,-2.12393002 -0.102217,-1.46185102 -0.676363,0.282603 -2.065426,0.68432402 -3.086806,0.89271302 -2.910208,0.593762 -5.304336,1.573114 -7.915243,3.237845 -1.324661,0.844612 -3.633676,2.137813 -5.131144,2.873781 -1.697353,0.8342052 -3.270396,1.9323342 -4.177122,2.9160154 -2.086434,2.263515 -1.476838,2.270158 0.784767,0.0086 1.304663,-1.3046642 2.456131,-2.0875742 3.656874,-2.4863974 1.928225,-0.640454 2.271645,-0.693906 2.302533,-0.358381 0.01142,0.124092 -1.012405,0.6615112 -2.275176,1.1942642 -2.196451,0.926666 -4.060728,2.4926012 -4.084447,3.4308102 -0.0061,0.242534 0.162783,0.440972 0.375366,0.440972 0.212582,0 0.852139,0.331555 1.421237,0.736788 0.569098,0.405233 1.604196,0.894027 2.300217,1.086208 1.616216,0.446258 2.792705,1.808509 3.300339,3.821448 0.534095,2.117863 2.128186,5.644445 2.551411,5.644445 0.186101,0 0.796968,-0.270902 1.357482,-0.602008 0.861025,-0.508618 1.201705,-0.535983 2.196144,-0.176389 0.647365,0.234092 1.642007,0.40472 2.210315,0.379179 0.989704,-0.04448 0.981209,-0.05659 -0.201436,-0.287009 l -1.234723,-0.240566 0.996277,-0.487084 c 0.740223,-0.361897 1.154543,-0.388246 1.612057,-0.102524 0.821929,0.513302 2.284084,0.197467 4.568257,-0.98678 1.036704,-0.537489 2.068579,-0.909292 2.293055,-0.82623 0.224473,0.08306 0.884382,0.0067 1.466466,-0.169739 1.010267,-0.306194 0.987037,-0.322139 -0.511528,-0.351085 -1.152511,-0.02226 -1.465513,-0.134669 -1.177354,-0.422828 0.215883,-0.215883 0.842945,-0.421485 1.393473,-0.456897 1.232947,-0.07931 4.017119,-1.31288 4.624521,-2.048965 0.328585,-0.398202 0.352835,-0.795348 0.09067,-1.484891 -0.379476,-0.998096 -0.369965,-0.997297 -3.956067,-0.33243 -0.558973,0.103635 -1.31451,-0.06489 -1.842816,-0.411053 -0.847634,-0.555392 -0.959634,-0.547015 -2.098735,0.156988 -0.661822,0.40903 -1.975683,0.799375 -2.919685,0.867433 -0.944005,0.06806 -2.152932,0.242383 -2.686508,0.387389 -0.561446,0.152576 -0.970139,0.12277 -0.970139,-0.07075 0,-0.553953 1.702124,-1.153118 3.279793,-1.154521 0.870916,-7.76e-4 1.971297,-0.299194 2.666834,-0.723235 1.057307,-0.6446 2.188069,-0.984293 5.430456,-1.631364 1.235425,-0.246549 1.235665,-0.919591 7.06e-4,-1.819239 -1.227321,-0.8940402 -0.828975,-1.3865822 0.445851,-0.551284 1.447345,0.948338 2.480762,2.863565 3.715255,6.885465 1.213319,3.952931 2.499138,6.512885 4.197068,8.35599 0.59098,0.641523 1.17919,1.583443 1.30712,2.093154 0.12793,0.509711 0.44523,1.334205 0.70511,1.832208 0.25989,0.498002 0.4735,1.163831 0.4747,1.479624 0.001,0.315789 0.24029,0.771789 0.53134,1.013333 0.29104,0.241543 0.52916,0.587177 0.52916,0.768074 0,0.377762 2.39819,4.500418 3.60054,6.189575 0.44505,0.625249 0.98869,1.141186 1.2081,1.146528 0.62269,0.01517 5.42192,4.848754 5.42192,5.460742 0,0.300404 0.21352,0.546192 0.47449,0.546192 0.26097,0 0.76182,0.3175 1.11301,0.705555 0.35118,0.388056 0.85204,0.705556 1.11301,0.705556 0.59774,0 0.62161,0.587392 0.0335,0.824696 -0.24253,0.09786 -0.0288,0.190468 0.47497,0.205785 1.36255,0.04143 3.17313,1.046452 4.44923,2.469681 0.62252,0.694284 1.13846,1.095044 1.14653,0.89057 0.008,-0.204473 -0.54094,-0.910304 -1.22003,-1.56851 -1.25595,-1.217309 -1.52559,-1.763889 -0.87019,-1.763889 0.53203,0 2.810464,2.364229 2.810464,2.916298 0,0.258702 0.19646,0.66682 0.43657,0.906931 0.68649,0.686495 0.78123,-0.19782 0.11815,-1.102868 z M 70.078813,34.617989 c -0.79582,-1.054054 -1.93268,-2.203394 -2.52635,-2.554086 -1.06827,-0.631042 -1.62965,-1.776011 -1.30325,-2.658065 0.1008,-0.2724 0.3217,-0.07217 0.54845,0.497131 0.20882,0.524285 0.84684,1.194823 1.41782,1.490088 0.81639,0.422169 3.93106,4.387913 3.93106,5.005204 0,0.565894 -0.84684,-0.163216 -2.06773,-1.780272 z m 1.00939,-1.118531 c 0,-0.971649 -1.67152,-3.553968 -2.8382,-4.384721 -0.87511,-0.623136 -0.99351,-0.857123 -0.64573,-1.27617 0.36075,-0.434675 0.53009,-0.348509 1.10759,0.563601 0.37496,0.592201 0.79067,1.076727 0.92381,1.076727 0.72369,0 2.35898,4.067539 1.77932,4.425784 -0.17973,0.111083 -0.32679,-0.07127 -0.32679,-0.405221 z m -5.26755,-7.460414 c -0.27777,-0.301467 -0.6127,-1.198637 -0.74427,-1.993717 -0.13158,-0.79508 -0.35808,-1.882161 -0.50334,-2.415737 -0.14526,-0.533577 -0.12459,-0.970139 0.0459,-0.970139 0.35034,0 2.01302,5.097289 1.82711,5.601356 -0.0662,0.179493 -0.34765,0.0797 -0.62543,-0.221763 z M 39.60279,21.474604 c -0.339549,-0.08873 -0.617361,-0.467191 -0.617361,-0.841019 0,-0.57936 -0.257298,-0.67969 -1.743069,-0.67969 -0.958689,0 -1.841182,-0.15875 -1.961098,-0.352778 -0.134198,-0.217134 0.457089,-0.352777 1.537827,-0.352777 2.051717,0 2.871895,0.251728 2.871895,0.881443 0,0.249248 0.403366,0.554419 0.896373,0.678155 0.493004,0.123737 0.801134,0.379071 0.684735,0.567412 -0.218631,0.353748 -0.607071,0.376844 -1.669302,0.09925 z m 2.557639,-0.390222 c 0,-0.199602 0.635,-0.470196 1.411111,-0.60132 0.88096,-0.148837 1.411111,-0.428844 1.411111,-0.745296 0,-0.492488 0.887367,-0.961545 2.661391,-1.4068 0.529685,-0.132941 0.866387,-0.06549 0.866387,0.173573 0,0.215064 -0.230657,0.391023 -0.512569,0.391023 -0.94143,0 -2.247879,0.783999 -2.423117,1.454115 -0.10679,0.408368 -0.49045,0.6644 -1.000037,0.667367 -0.454727,0.0028 -1.183965,0.100542 -1.620527,0.217537 -0.446613,0.119687 -0.79375,0.054 -0.79375,-0.150199 z m 20.436564,-1.352737 c -0.2731,-0.510293 -1.51351,-1.859668 -2.75646,-2.998611 -1.24296,-1.138943 -2.162475,-2.070805 -2.043377,-2.070805 0.533185,0 3.023507,1.502653 3.721307,2.245427 0.62865,0.669173 2.16141,3.257553 2.16141,3.649997 0,0.444705 -0.68069,-0.07452 -1.08288,-0.826008 z M 41.890741,19.52061 c 0.480624,-0.723858 2.204593,-1.94969 2.827327,-2.010375 0.69735,-0.06796 0.143485,0.644335 -0.807234,1.038134 -0.589498,0.244178 -1.230083,0.739686 -1.423521,1.101132 -0.193439,0.361445 -0.524235,0.657172 -0.735105,0.657172 -0.234558,0 -0.180781,-0.305153 0.138533,-0.786063 z m 8.800542,-1.85977 c 0.221016,-0.48507 0.535111,-0.881945 0.697996,-0.881945 0.389826,0 0.373585,0.254476 -0.06904,1.081525 -0.542706,1.014053 -1.101178,0.836835 -0.628956,-0.19958 z m -10.647521,0.03774 c 0,-0.270284 0.238125,-0.582799 0.529167,-0.694485 0.591583,-0.227009 0.620769,-0.16884 0.315034,0.627888 -0.264478,0.689218 -0.844201,0.734949 -0.844201,0.0666 z m -3.880556,-3.615972 c 0,-0.854262 1.98939,-1.085118 3.827914,-0.444205 1.724699,0.601234 1.330033,0.847434 -1.358469,0.847434 -1.617093,0 -2.469445,-0.139179 -2.469445,-0.403229 z m 20.641621,-3.649162 c -0.348918,-0.385551 -1.167271,-0.8936922 -1.818566,-1.1292032 -1.309716,-0.473599 -1.652457,-1.178893 -0.390415,-0.8034 1.067918,0.317737 3.03488,1.6461512 3.246599,2.1926332 0.260671,0.672845 -0.326555,0.525684 -1.037618,-0.26003 z M 36.744476,10.160421 c -0.254068,-0.4110902 0.483194,-1.2442792 2.37419,-2.6830974 2.46865,-1.878346 2.481156,-1.25444 0.02039,1.0178022 -2.320291,2.1425352 -2.165966,2.0352122 -2.394587,1.6652952 z M 55.492099,7.5917816 c -0.324394,-0.565222 -0.458901,-1.108581 -0.298902,-1.207465 0.296619,-0.18332 1.290232,1.8336132 1.031011,2.0928382 -0.07827,0.07827 -0.407716,-0.320151 -0.732109,-0.8853732 z M 40.39654,2.7055266 c 0,-0.391254 1.085292,-0.833933 1.363193,-0.556032 0.11213,0.112131 -0.02967,0.351562 -0.315076,0.532069 -0.659645,0.417173 -1.048117,0.426055 -1.048117,0.02396 z m 11.651555,-0.376945 c -0.44692,-0.282635 -0.436982,-0.359979 0.0713,-0.555025 0.697128,-0.267514 1.428764,0.09612 1.138467,0.565826 -0.253647,0.410412 -0.547878,0.407785 -1.209767,-0.010801 z M 80.552793,50.327138 c -0.25415,-0.406951 -0.68969,-0.739909 -0.96788,-0.739909 -0.35337,0 -0.25649,0.265377 0.32143,0.880554 0.95651,1.018155 1.32066,0.938932 0.64645,-0.140645 z m -44.036809,0.318424 c 0,-0.194028 -0.304516,-0.352778 -0.676703,-0.352778 -0.372186,0 -0.967499,-0.100732 -1.322917,-0.223848 -0.567895,-0.196719 -0.560703,-0.155325 0.05934,0.341556 0.791744,0.634478 1.940278,0.773624 1.940278,0.23507 z m -6.702778,-2.612313 c 0,-0.07858 -0.754062,-0.584365 -1.675694,-1.123978 -0.921632,-0.539612 -3.277619,-2.539072 -5.235525,-4.443243 -3.338264,-3.246646 -4.730448,-4.121767 -4.730448,-2.973539 0,0.268725 0.357188,0.723159 0.79375,1.009847 0.436563,0.286689 2.030208,1.645003 3.541433,3.018473 2.532997,2.302104 7.306484,5.25018 7.306484,4.51244 z m 52.691467,-2.855743 c -0.23271,-0.606428 -0.22632,-0.604506 -1.01025,-0.303685 -0.46873,0.179871 -0.49241,0.285824 -0.11705,0.523766 0.74877,0.474641 1.34892,0.357473 1.1273,-0.220081 z m 0.46619,-1.300868 c -0.11262,-0.281421 -0.19621,-0.19783 -0.21314,0.213138 -0.0153,0.371884 0.0681,0.580245 0.18529,0.463021 0.11722,-0.117228 0.12975,-0.421499 0.0278,-0.676159 z m -1.29932,0.06615 c 0,-0.194028 -0.15875,-0.352778 -0.35278,-0.352778 -0.19403,0 -0.35278,0.15875 -0.35278,0.352778 0,0.194028 0.15875,0.352778 0.35278,0.352778 0.19403,0 0.35278,-0.15875 0.35278,-0.352778 z m -1.18476,-0.529167 c 0.0596,-0.194027 -0.52252,-0.819792 -1.29369,-1.39059 -0.77116,-0.570794 -1.40211,-1.166107 -1.40211,-1.322916 0,-0.643005 1.36021,-0.217096 2.46945,0.773229 1.25519,1.120637 1.6013,1.254033 1.91919,0.739679 0.36362,-0.588355 -3.52434,-2.856346 -4.89656,-2.856346 h -1.27031 l 0.74089,1.452256 c 1.19488,2.342165 3.35137,3.846794 3.73314,2.604688 z m -13.61939,-5.732642 c -0.7397,-1.11566 -1.67661,-2.663473 -2.08203,-3.439584 -0.40542,-0.776111 -1.71427,-2.292558 -2.90857,-3.369881 l -2.17145,-1.958771 0.05,-2.305364 c 0.0404,-1.863224 -0.0794,-2.422444 -0.62458,-2.915839 -0.371011,-0.335763 -0.967675,-1.560791 -1.325917,-2.722283 -0.694662,-2.252229 -0.556634,-2.179924 -2.944407,-1.542408 -0.6838,0.182569 -0.763058,0.150555 -0.352778,-0.142505 0.345461,-0.246761 0.379226,-0.379853 0.09725,-0.383381 -0.237554,-0.0028 -0.689271,0.492277 -1.003822,1.10055 -0.46161,0.892655 -0.528673,1.726099 -0.347723,4.321528 0.236333,3.389831 1.202694,7.625299 1.73978,7.625299 0.174855,0 1.367462,0.847792 2.65024,1.883981 3.140367,2.536688 5.257847,3.927175 6.742057,4.427315 0.67909,0.228837 1.63159,0.643037 2.11666,0.92044 1.62532,0.929499 1.71943,0.543292 0.3653,-1.499097 z M 19.024044,37.365902 c 0.324097,-0.844582 0.07147,-0.90944 -0.427876,-0.109851 -0.236834,0.379232 -0.287497,0.689511 -0.112584,0.689511 0.174913,0 0.418121,-0.260848 0.54046,-0.57966 z m -0.323338,-2.097768 c -0.661013,-0.504338 -0.666581,-0.560412 -0.08819,-0.888256 0.339549,-0.192461 0.617362,-0.668912 0.617362,-1.058778 0,-0.412891 -0.157332,-0.611607 -0.376828,-0.475953 -0.207256,0.128093 -0.291613,0.454959 -0.187461,0.726376 0.215468,0.561502 -0.338512,0.677767 -0.670434,0.140706 -0.119916,-0.194028 -0.393868,-0.352778 -0.608783,-0.352778 -0.214914,0 -0.286298,0.104457 -0.158629,0.232124 0.127668,0.12767 0.06639,0.431818 -0.136167,0.675887 -0.271426,0.32705 -0.177837,0.504211 0.355839,0.673594 0.398271,0.126407 0.724129,0.377881 0.724129,0.558835 0,0.18095 0.277813,0.323956 0.617361,0.317786 0.551013,-0.01002 0.541534,-0.06907 -0.08819,-0.549543 z m 2.293055,-0.28344 c 0,-0.07626 -0.24637,-0.233186 -0.547489,-0.348738 -0.313946,-0.12047 -0.455549,-0.06133 -0.331958,0.138645 0.207172,0.335213 0.879447,0.495812 0.879447,0.210093 z m 0.347376,-1.713438 c 0.003,-0.145521 -0.162717,-0.264583 -0.368195,-0.264583 -0.205479,0 -0.275485,0.15875 -0.155569,0.352778 0.119915,0.194028 0.04054,0.352778 -0.176389,0.352778 -0.21693,0 -0.28583,0.175697 -0.153112,0.39044 0.237107,0.383649 0.84046,-0.204255 0.853265,-0.831413 z M 16.40765,32.851105 c 0,-0.08556 -0.15875,-0.253682 -0.352778,-0.373599 -0.194027,-0.119916 -0.352777,-0.04991 -0.352777,0.155568 0,0.205479 0.15875,0.373599 0.352777,0.373599 0.194028,0 0.352778,-0.07 0.352778,-0.155568 z m 7.326464,-0.549988 c -0.242345,-0.388055 -0.680253,-0.700274 -0.973129,-0.693818 -0.377823,0.0083 -0.290584,0.213272 0.300331,0.705555 1.055711,0.879496 1.22751,0.876498 0.672798,-0.01175 z m 2.022148,0.352778 c 0.119915,-0.194028 0.04991,-0.352778 -0.155569,-0.352778 -0.205479,0 -0.373598,0.15875 -0.373598,0.352778 0,0.194028 0.07001,0.352778 0.155569,0.352778 0.08556,0 0.253682,-0.15875 0.373598,-0.352778 z M 15.936308,30.36084 c -0.06521,-0.194028 -0.343023,-0.356973 -0.617361,-0.362102 -0.274338,-0.0051 -0.697234,-0.133562 -0.939769,-0.285404 -0.4809,-0.301075 -0.53642,-0.188098 -0.260683,0.530457 0.206609,0.538417 1.998201,0.653775 1.817813,0.117049 z m 46.486805,-1.668403 c -0.30203,-0.886414 -0.85719,-1.890441 -1.2337,-2.231168 -0.6664,-0.603091 -0.68462,-0.583007 -0.68772,0.758088 -0.002,1.127968 0.20474,1.548469 1.14427,2.32059 0.6311,0.518647 1.1877,0.902758 1.23688,0.853574 0.0492,-0.04918 -0.1577,-0.81467 -0.45973,-1.701084 z m -43.546018,1.353369 c 0,-0.07626 -0.24637,-0.233187 -0.547489,-0.348739 -0.313946,-0.12047 -0.45555,-0.06133 -0.331958,0.138645 0.207171,0.335213 0.879447,0.495812 0.879447,0.210094 z m 0.196602,-1.124921 c -1.04568,-0.764621 -1.546015,-0.57236 -0.587599,0.225789 0.464049,0.386454 0.94005,0.606315 1.057779,0.488586 0.117729,-0.117729 -0.09385,-0.439197 -0.47018,-0.714375 z m 7.564509,-0.500323 c -1.152892,-0.901806 -1.838448,-0.891145 -0.754668,0.01175 0.458058,0.3816 1.013683,0.690288 1.234722,0.685973 0.22104,-0.0043 0.005,-0.318294 -0.480054,-0.69772 z m 5.775082,0.259383 c -0.413218,-0.239673 -1.603843,-1.078251 -2.645833,-1.863503 -2.27056,-1.711109 -4.566354,-3.07359 -4.79454,-2.845403 -0.09089,0.09089 0.447383,0.552002 1.196167,1.024689 1.364054,0.861088 2.544636,2.013723 2.062551,2.013723 -0.141269,0 -0.728513,-0.396875 -1.304985,-0.881945 -0.919931,-0.774072 -1.699553,-1.123692 -1.699553,-0.762162 0,0.06588 0.956387,0.862482 2.125305,1.770228 1.660334,1.289364 2.17,1.533977 2.329595,1.11808 0.174002,-0.453443 0.336683,-0.42823 1.09727,0.170046 0.491139,0.386331 1.228759,0.70008 1.639155,0.697219 l 0.746175,-0.0052 z m 0.69314,-1.169694 c -1.447376,-0.889597 -1.882111,-1.021292 -1.882111,-0.570142 0,0.417251 2.568764,1.813489 2.927975,1.591483 0.168895,-0.104384 -0.301744,-0.563986 -1.045864,-1.021341 z M 16.315256,27.118643 c -0.327999,-0.327999 -0.695414,-0.497311 -0.816476,-0.376249 -0.347198,0.347201 0.185803,0.972612 0.828897,0.972612 0.538505,0 0.537539,-0.0464 -0.01242,-0.596363 z m 18.084061,0.255996 c 0,-0.187201 -0.357187,-0.527798 -0.79375,-0.756888 -0.789494,-0.414288 -0.790147,-0.412464 -0.121712,0.340367 0.746595,0.84086 0.915462,0.917691 0.915462,0.416521 z M 18.925323,26.731547 c -0.254508,-0.08484 -0.63047,0.01348 -0.835469,0.218478 -0.261786,0.261786 -0.12405,0.307697 0.462741,0.154249 0.477028,-0.124746 0.63694,-0.284657 0.372728,-0.372727 z m 2.837124,-0.707948 c -0.450348,-0.330905 -1.350499,-1.043538 -2.000335,-1.583626 -0.78445,-0.651969 -1.263636,-0.849115 -1.425864,-0.586624 -0.281627,0.455683 -0.138437,0.607184 1.769267,1.871959 1.576557,1.045231 3.029447,1.306791 1.656932,0.298291 z m 1.697154,-0.882131 c -0.962512,-0.887236 -4.445874,-3.476996 -5.288062,-3.931486 -0.678923,-0.366388 1.815275,1.87894 3.880556,3.493353 1.771263,1.384579 2.772292,1.696184 1.407506,0.438133 z m 7.059161,0.456872 c 0,-0.194028 -0.247494,-0.352778 -0.549987,-0.352778 -0.302492,0 -0.451874,0.15875 -0.331958,0.352778 0.119916,0.194027 0.36741,0.352777 0.549987,0.352777 0.182577,0 0.331958,-0.15875 0.331958,-0.352777 z M 35.6046,25.371458 c 0.295339,-0.769638 -0.0968,-1.127372 -0.513507,-0.468457 -0.417173,0.659645 -0.426055,1.048116 -0.02396,1.048116 0.173269,0 0.41513,-0.260847 0.53747,-0.579659 z m -6.144172,-0.59526 c 0,-0.348273 -3.25659,-2.385854 -3.461046,-2.165505 -0.133716,0.14411 -0.06823,0.325039 0.145515,0.402064 0.21375,0.07702 0.919279,0.531541 1.567843,1.010035 1.058051,0.780605 1.747688,1.077898 1.747688,0.753406 z m 0.939506,-1.095343 c -0.106873,-0.278508 -0.08417,-0.56999 0.05045,-0.647739 0.134621,-0.07775 0.03483,-0.08857 -0.221763,-0.02406 -0.25659,0.06452 -0.812215,-0.06242 -1.234722,-0.282085 -0.724938,-0.376904 -0.720036,-0.347035 0.08705,0.53043 0.928171,1.00911 1.630211,1.234492 1.318984,0.423449 z m 2.58287,0.24179 c -0.003,-0.145521 -0.139629,-0.476331 -0.303684,-0.735136 -0.243131,-0.383547 -0.335478,-0.373616 -0.499458,0.05371 -0.110647,0.288339 -0.10628,0.61915 0.0097,0.735133 0.29666,0.296661 0.799898,0.262597 0.79344,-0.0537 z M 35.4298,23.372658 c -0.01912,-0.288382 -0.0852,-0.277234 -0.210695,0.03554 -0.149427,0.37241 -0.289408,0.37241 -0.765899,0 -0.520143,-0.406527 -0.531161,-0.389501 -0.102111,0.15778 0.502593,0.641093 1.126603,0.529259 1.078705,-0.193325 z m -12.411146,0.02081 c -0.08281,-0.242534 0.145345,-0.700549 0.50702,-1.017806 0.61666,-0.540932 0.619382,-0.591499 0.04373,-0.812398 -0.337623,-0.129557 -0.507196,-0.128894 -0.376828,0.0014 0.40524,0.405242 -0.772334,1.291759 -1.414132,1.064605 -0.352564,-0.124784 -0.237521,0.07998 0.27365,0.487059 1.040189,0.828372 1.167238,0.864793 0.966559,0.277068 z m -5.587666,-0.483139 c -0.239879,-0.289035 -0.725635,-0.680452 -1.079458,-0.869813 -0.544548,-0.291433 -0.632628,-0.215159 -0.573704,0.49681 0.05515,0.666426 0.279329,0.847062 1.079458,0.869809 0.855799,0.02434 0.943315,-0.05145 0.573704,-0.496806 z m 3.245543,-1.326113 c -0.312228,-0.376213 -0.315156,-0.537591 -0.01159,-0.638782 0.257001,-0.08566 0.172753,-0.325011 -0.229384,-0.651665 -0.481226,-0.390899 -0.565313,-0.399609 -0.346264,-0.03586 0.172217,0.285983 0.117687,0.586479 -0.134737,0.742488 -0.314102,0.194123 -0.2692,0.416909 0.17319,0.8593 0.698166,0.698168 1.163129,0.464763 0.548783,-0.275481 z m 11.60612,0.486343 c 0,-0.194028 -0.277813,-0.350347 -0.617361,-0.347377 -0.527596,0.0046 -0.54042,0.05513 -0.08819,0.347377 0.665767,0.430251 0.705556,0.430251 0.705556,0 z m 0.995797,-1.499306 c -0.242076,-0.436562 -0.393183,-0.9525 -0.335792,-1.146527 0.05739,-0.194028 -0.01506,-0.23337 -0.161006,-0.08743 -0.145945,0.145944 -0.593001,-0.01281 -0.993458,-0.352778 -0.707047,-0.600255 -0.713461,-0.597725 -0.221758,0.08743 0.682407,0.95088 1.867591,2.293055 2.024845,2.293055 0.07002,0 -0.07076,-0.357187 -0.312831,-0.79375 z m -15.45838,-0.79236 c -0.45498,-0.484304 -0.905012,-0.802777 -1.000072,-0.707718 -0.234194,0.234195 1.017102,1.588273 1.467714,1.588273 0.197777,0 -0.01266,-0.396251 -0.467642,-0.880555 z m 10.670221,0.646917 c -0.242534,-0.09786 -0.639409,-0.09786 -0.881944,0 -0.242535,0.09786 -0.0441,0.177938 0.440972,0.177938 0.48507,0 0.683507,-0.08007 0.440972,-0.177938 z m -1.859158,-0.656833 c -0.245435,-0.29573 -0.518894,-0.465043 -0.607688,-0.376248 -0.244651,0.244651 0.252427,0.913941 0.678779,0.913941 0.233924,0 0.207162,-0.202417 -0.07109,-0.537693 z m -1.944774,-0.186585 c -0.12628,-0.204325 0.10048,-0.657778 0.503911,-1.00767 0.706936,-0.613125 0.710299,-0.65718 0.09281,-1.216001 -0.763909,-0.691328 -1.865153,-0.836778 -1.18487,-0.156495 0.232833,0.232833 0.423333,0.727597 0.423333,1.099477 0,0.502462 -0.181237,0.628753 -0.705555,0.491638 -0.956521,-0.250137 -0.895419,0.255609 0.08819,0.729989 1.028735,0.49614 1.053462,0.498006 0.782179,0.05906 z m -5.809262,-0.510444 c -0.241543,-0.291042 -0.618169,-0.524119 -0.836946,-0.517949 -0.218777,0.0062 -0.08962,0.244299 0.287011,0.529167 0.87971,0.665381 1.107603,0.660732 0.549935,-0.01122 z m 14.704876,-0.242535 c -0.112615,-0.281421 -0.196209,-0.197831 -0.213136,0.213138 -0.01532,0.371884 0.06806,0.580245 0.185286,0.463021 0.117225,-0.117228 0.129758,-0.421499 0.02785,-0.676159 z m -1.29932,-0.419827 c 0,-0.07325 -0.277813,-0.351067 -0.617361,-0.617361 -0.559526,-0.43881 -0.572004,-0.426332 -0.133193,0.133195 0.460857,0.58764 0.750554,0.774517 0.750554,0.484166 z m 24.694445,-0.395969 c 0,-0.291041 -0.15875,-0.529166 -0.352778,-0.529166 -0.194028,0 -0.352778,0.238125 -0.352778,0.529166 0,0.291042 0.15875,0.529167 0.352778,0.529167 0.194028,0 0.352778,-0.238125 0.352778,-0.529167 z M 27.520151,17.837229 c -0.119916,-0.194028 -0.36741,-0.352778 -0.549987,-0.352778 -0.182577,0 -0.331958,0.15875 -0.331958,0.352778 0,0.194027 0.247494,0.352777 0.549987,0.352777 0.302492,0 0.451873,-0.15875 0.331958,-0.352777 z m 1.234722,0 c 0,-0.194028 -0.168119,-0.352778 -0.373598,-0.352778 -0.205478,0 -0.275485,0.15875 -0.155569,0.352778 0.119916,0.194027 0.288035,0.352777 0.373598,0.352777 0.08556,0 0.155569,-0.15875 0.155569,-0.352777 z m 1.763889,0.04319 c 0,-0.170269 -0.238125,-0.507207 -0.529167,-0.74875 -0.698295,-0.579533 -0.668802,-0.970107 0.08819,-1.167931 0.405036,-0.105847 0.303983,-0.175408 -0.293821,-0.202258 -0.69261,-0.03111 -0.899235,0.121264 -0.861372,0.635201 0.08101,1.099545 1.596166,2.507982 1.596166,1.483738 z m -2.917766,-0.961888 c -0.117226,-0.117224 -0.421497,-0.129755 -0.676158,-0.02783 -0.281422,0.112614 -0.197829,0.196208 0.213137,0.213134 0.371886,0.01531 0.580245,-0.06806 0.463021,-0.185286 z m -1.179367,-0.679016 c 0.60249,-0.602488 0.432714,-1.418865 -0.358189,-1.722362 -0.286117,-0.109793 -0.431603,-0.05625 -0.323303,0.118981 0.1083,0.175234 0.04122,0.371853 -0.149064,0.436932 -0.190286,0.06508 -0.252135,0.475513 -0.137443,0.912075 0.24746,0.941924 0.273585,0.948789 0.967999,0.254374 z m 1.451299,-0.518957 c 0.119916,-0.194028 0.04991,-0.352778 -0.155569,-0.352778 -0.205478,0 -0.373597,0.15875 -0.373597,0.352778 0,0.194028 0.07001,0.352778 0.155569,0.352778 0.08556,0 0.253681,-0.15875 0.373597,-0.352778 z m -2.998611,-0.861121 c 0,-0.372348 -0.67702,-0.528782 -0.878388,-0.202963 -0.121872,0.197193 0.02591,0.358532 0.328402,0.358532 0.302492,0 0.549986,-0.07001 0.549986,-0.155569 z m 29.536818,-0.69406 c 0.905658,0.01585 1.059003,-0.07551 0.750556,-0.447167 -0.496951,-0.59879 -1.86737,-0.586686 -3.645712,0.0322 -1.275249,0.443804 -1.323834,0.503286 -0.529167,0.647851 0.481253,0.08755 1.192506,0.06648 1.580561,-0.04681 0.388056,-0.113298 1.21775,-0.19703 1.843762,-0.186071 z M 26.990984,13.801104 c 0,-0.08556 -0.15875,-0.253682 -0.352778,-0.373598 -0.194028,-0.119916 -0.352778,-0.04991 -0.352778,0.155569 0,0.205479 0.15875,0.373598 0.352778,0.373598 0.194028,0 0.352778,-0.07001 0.352778,-0.155569 z M 64.635993,5.1372286 c 0.10148,-0.388056 0.4705,-0.705556 0.82006,-0.705556 0.88497,0 1.7516,-0.367757 1.7516,-0.743299 0,-0.528888 -2.35379,-0.350298 -2.82222,0.214132 -0.24155,0.291042 -0.59792,0.529167 -0.79195,0.529167 -0.5601,0 0.46471,-1.053423 1.59184,-1.636286 0.56522,-0.292287 1.24905,-0.446481 1.51962,-0.342653 0.56909,0.218379 1.20826,-0.799058 1.20826,-1.92330802 0,-0.713186 0.13445,-0.760713 1.72077,-0.608288 l 1.72076,0.165344 0.74868,-1.54100898 c 1.00466,-2.0678752 0.96718,-3.0732192 -0.13326,-3.5746109 -0.48507,-0.2210125 -0.88195,-0.5467844 -0.88195,-0.7239378 0,-0.1771533 -0.3676,-0.4143586 -0.81688,-0.5271233 -1.17961,-0.2960617 -2.41981,-1.4802443 -2.29178,-2.188258 0.0605,-0.3347399 -0.0701,-0.6719203 -0.29036,-0.7492901 -0.24564,-0.086297 -0.38393,0.2627206 -0.35777,0.9029365 0.0235,0.5739846 0.15253,0.9757004 0.28682,0.8927013 0.1343,-0.082999 0.35168,0.1878143 0.48308,0.6018075 0.23452,0.7389086 -0.3674,2.3531056 -1.06949,2.8681006 -0.57527,0.421971 -1.62493,0.305884 -1.54606,-0.170987 0.0401,-0.242535 -0.0529,-0.8909708 -0.20666,-1.440969 -0.20562,-0.7354224 -0.12749,-1.1521016 0.29531,-1.5749005 0.53135,-0.5313539 0.57855,-0.4556019 0.62295,0.9999962 0.0311,1.021623 0.10857,1.2650653 0.22034,0.6929565 0.16083,-0.8231953 0.19123,-0.8349449 0.45633,-0.1763889 0.27403,0.6807077 0.2849,0.6786377 0.30882,-0.058796 0.0136,-0.4203933 -0.16206,-0.8266374 -0.39044,-0.9027643 -0.26896,-0.089653 -0.30313,-0.3174898 -0.097,-0.6467592 0.70101,-1.1197798 -0.0393,-2.4321907 -1.37809,-2.4432225 -0.50528,-0.00416 -0.60975,0.1772758 -0.45565,0.7912788 0.10997,0.4381744 0.0502,1.0334869 -0.13274,1.3229167 -0.2397,0.3791366 -0.33421,0.1153516 -0.3381,-0.9436717 -0.003,-0.8394122 0.18375,-1.5552115 0.43557,-1.6687825 0.65457,-0.295204 -2.94733,0.0037 -3.93572,0.3266549 -0.59257,0.1935946 -0.77526,0.1581612 -0.60499,-0.1173413 0.13416,-0.2170766 0.7926,-0.4976156 1.46319,-0.6234196 0.67059,-0.125804 1.13155,-0.37066 1.02434,-0.544125 -0.3017,-0.488165 -2.02129,0.03345 -2.70932,0.821841 -0.49004,0.5615126 -0.61736,0.5943393 -0.61736,0.159166 0,-1.231135 3.58666,-2.351884 3.95832,-1.236887 0.0808,0.242415 0.84783,0.398946 1.87854,0.383364 1.58454,-0.02395 1.68036,0.01872 1.06013,0.472246 -0.64221,0.469599 -0.61923,0.49858 0.3954,0.49858 0.9556,0 1.06568,-0.105431 0.97476,-0.933627 -0.098,-0.893032 -0.65712,-1.518862 -1.36722,-1.530415 -0.1826,-0.003 -0.0238,0.245682 0.35278,0.552563 0.67725,0.551822 0.6772,0.555523 -0.005,0.336127 -0.37929,-0.122012 -1.35887,-0.313572 -2.17686,-0.42569 -1.09451,-0.150019 -1.43626,-0.336749 -1.29414,-0.70711 0.13774,-0.358947 0.49643,-0.436641 1.25086,-0.270941 0.73117,0.160593 0.98322,0.111756 0.81639,-0.158183 -0.3008,-0.486738 -2.1975,-0.515441 -2.49274,-0.03772 -0.11992,0.194028 -0.64523,0.363935 -1.16735,0.377572 -0.84766,0.02214 -0.87377,0.05726 -0.24377,0.327983 0.63076,0.271046 0.60526,0.305817 -0.24056,0.327983 -1.46207,0.03832 -3.199964,2.8761 -2.00524,3.2743403 0.26219,0.087399 0.20142,0.3319441 -0.17639,0.709755 -0.648221,0.6482182 -0.754562,1.5334037 -0.223638,1.8615328 0.195848,0.1210392 0.355178,-0.1443305 0.358178,-0.5965412 0.004,-0.6553334 0.0723,-0.7111255 0.34738,-0.2854032 0.36382,0.5629712 0.44431,0.3544626 0.40855,-1.0583333 l -0.0223,-0.8819445 0.30089,0.8819445 0.30088,0.8819444 0.0703,-0.8819444 0.0703,-0.8819445 0.25223,0.8819445 c 0.13872,0.4850694 0.1229,0.9348611 -0.0352,0.9995369 -0.15805,0.064676 -0.28738,0.512578 -0.28738,0.9953374 0,0.7979499 0.0504,0.8273479 0.55437,0.3233798 0.30489,-0.3049009 0.70177,-0.5543652 0.88194,-0.5543652 0.18017,0 0.35299,-0.5159375 0.38404,-1.1465278 l 0.0564,-1.1465278 0.14229,1.1465278 c 0.13902,1.1202416 0.55805,1.4756991 0.96445,0.8181262 0.11164,-0.1806208 0.0416,-0.4281145 -0.15556,-0.5499865 -0.1972,-0.1218717 -0.35853,-0.5390851 -0.35853,-0.9271406 0,-0.3880556 0.14673,-0.614868 0.32607,-0.5040277 0.17935,0.1108403 0.39906,-0.078228 0.48825,-0.4201524 0.0892,-0.3419242 0.18058,0.1200711 0.20309,1.0266557 0.0392,1.5807284 -0.009,1.66488 -1.1813,2.0517054 -0.67223,0.2218535 -1.53078,0.8269493 -1.90791,1.3446568 -0.65711,0.902072 -0.73957,0.921801 -1.97918,0.473549 -0.711437,-0.257257 -1.340814,-0.413479 -1.398627,-0.34716 -0.05781,0.06632 -0.364691,0.631076 -0.681951,1.255017 l -0.576838,1.1344372 1.590305,1.59030698 c 0.87467,0.874669 1.590311,1.82516202 1.590311,2.11220602 0,0.287044 0.51593,0.771294 1.14652,1.07611 0.6306,0.304816 1.61355,1.185389 2.18435,1.956829 1.16229,1.570859 1.58829,1.730632 1.85858,0.697063 z m -4.12355,-4.056945 c 0.004,-0.82411102 0.56848,-1.83459902 0.8615,-1.54157602 0.11104,0.111034 -0.0381,0.662062 -0.33142,1.224506 -0.42619,0.81723202 -0.53265,0.88091502 -0.53008,0.31707002 z m 1.18892,-2.441878 c -0.10587,-0.27588 -0.0215,-0.821069 0.18746,-1.21153 0.20897,-0.390461 0.37994,-1.0132622 0.37994,-1.3840012 0,-0.37074 0.31452,-0.958711 0.69894,-1.3066025 0.57198,-0.5176383 0.79626,-0.5517625 1.23472,-0.187869 0.29468,0.2445635 0.53578,0.6936895 0.53578,0.9980585 0,0.444282 -0.10433,0.418375 -0.52916,-0.13139 -0.52382,-0.6778654 -0.53452,-0.6778654 -1.05834,0 -0.65991,0.853982 -0.67889,1.2908012 -0.0455,1.047755 0.5838,-0.224026 1.05443,0.7931842 0.51984,1.1235782 -0.20725,0.128085 -0.51538,0.01411 -0.68474,-0.253286 -0.25546,-0.403313 -0.31578,-0.395986 -0.35396,0.043 -0.0253,0.291042 -0.0178,0.80698 0.0168,1.146528 0.0751,0.73866698 -0.62805,0.82893998 -0.90173,0.115761 z m -0.0825,-6.9067332 c 0,-0.4850695 0.0801,-0.683507 0.17794,-0.4409723 0.0979,0.2425348 0.0979,0.6394098 0,0.8819445 -0.0979,0.2425347 -0.17794,0.044097 -0.17794,-0.4409722 z m 8.04596,10.7052052 c 0.39949,-0.90311 0.64505,-1.72331802 0.54568,-1.82268502 -0.0994,-0.09937 -0.18067,0.0045 -0.18067,0.230906 0,0.22636602 -0.16636,0.41157402 -0.3697,0.41157402 -0.20333,0 -0.74534,0.436562 -1.20445,0.970139 -0.6024,0.700092 -0.73296,1.092887 -0.46905,1.411111 0.60983,0.735336 0.91976,0.513523 1.67819,-1.201045 z m -12.687727,-3.473261 c -0.455701,-0.485069 -0.99931,-0.881156 -1.208021,-0.880192 -0.208714,9.53e-4 0.09677,0.39213 0.678854,0.869258 1.365448,1.11924398 1.574426,1.12356298 0.529167,0.01094 z m 3.174997,-4.0569442 c 0,-0.1940278 -0.16812,-0.3527778 -0.3736,-0.3527778 -0.20547,0 -0.27548,0.15875 -0.15556,0.3527778 0.11991,0.194028 0.28803,0.352778 0.37359,0.352778 0.0856,0 0.15557,-0.15875 0.15557,-0.352778 z m 12.34723,-1.8728514 c 0,-0.4479851 -0.24635,-1.1226726 -0.54744,-1.4993055 -0.52679,-0.658966 -0.5394,-0.6515316 -0.33451,0.1971569 0.20489,0.8486884 0.19228,0.8561228 -0.33451,0.1971569 -0.73102,-0.9144378 -0.69665,-0.3822354 0.0578,0.8949401 0.7293,1.2346093 1.15866,1.3124472 1.15866,0.2100516 z m -2.15591,-2.0571541 c -0.16798,-1.0626149 -0.57821,-2.0849669 -0.9909,-2.4694449 -1.37782,-1.28363 -1.53125,-0.404539 -0.20458,1.172119 0.50057,0.5949034 0.88194,1.4940679 0.88194,2.0793982 0,0.5671965 0.13504,1.0312665 0.30009,1.0312665 0.16506,0 0.1711,-0.8160025 0.0135,-1.8133388 z m -0.91385,0.4137843 c -0.22206,-0.8491308 -1.16358,-1.7310322 -1.16358,-1.0898935 0,0.6133571 0.68092,1.7838924 1.03772,1.7838924 0.16904,0 0.22567,-0.3122993 0.12586,-0.6939989 z m 2.58154,-1.7093002 c -0.49335,-0.49335 -0.57012,-0.498185 -0.57012,-0.03591 0,0.7247853 0.82548,1.5502659 1.00668,1.0066773 0.0735,-0.2203602 -0.123,-0.6572063 -0.43656,-0.9707693 z m -1.38747,-0.837847 c -0.11261,-0.281422 -0.1962,-0.197829 -0.21313,0.213137 -0.0153,0.371886 0.0681,0.580246 0.18529,0.463021 0.11722,-0.117225 0.12975,-0.421496 0.0278,-0.676158 z m -4.22233,-2.655282 c -0.32338,-0.32338 -0.71056,-0.465371 -0.86039,-0.315535 -0.14984,0.149835 0.0332,0.495933 0.40682,0.769106 0.88089,0.644121 1.21607,0.308933 0.45357,-0.453571 z"
       style="fill:#000000;stroke-width:0.35277778" />
  </g>
</svg>
