<?xml version="1.0" encoding="UTF-8" standalone="no"?>
<svg
   xmlns:dc="http://purl.org/dc/elements/1.1/"
   xmlns:cc="http://creativecommons.org/ns#"
   xmlns:rdf="http://www.w3.org/1999/02/22-rdf-syntax-ns#"
   xmlns:svg="http://www.w3.org/2000/svg"
   xmlns="http://www.w3.org/2000/svg"
   id="svg8"
   version="1.1"
   viewBox="0 0 67.976216 119.89238"
   height="119.89239mm"
   width="67.976219mm">
  <defs
     id="defs2" />
  <metadata
     id="metadata5">
    <rdf:RDF>
      <cc:Work
         rdf:about="">
        <dc:format>image/svg+xml</dc:format>
        <dc:type
           rdf:resource="http://purl.org/dc/dcmitype/StillImage" />
        <dc:title></dc:title>
      </cc:Work>
    </rdf:RDF>
  </metadata>
  <g
     transform="translate(-40.021683,5.5188026)"
     id="layer1">
    <path
       id="path6430"
       d="m 96.590599,114.01181 c -0.200134,-0.25076 -0.469413,-1.1703 -0.598399,-2.04342 -0.30044,-2.03374 -3.601533,-16.917421 -3.795091,-17.11098 -0.112156,-0.112159 -10.932428,-0.26706 -13.257307,-0.189787 -0.242535,0.008 -0.440972,0.379779 -0.440972,0.826043 0,0.446264 -0.142462,0.962201 -0.316583,1.146528 -0.174124,0.184326 -1.459078,3.827636 -2.855461,8.096246 -3.023739,9.24331 -3.063423,9.34862 -3.52317,9.34862 -0.884731,0 -0.603204,-0.9678 4.070258,-13.99221 1.05567,-2.942035 1.918896,-5.40266 1.918282,-5.468058 -7.06e-4,-0.0654 -0.635617,-0.12664 -1.411111,-0.136091 -0.775497,-0.0095 -1.409993,-0.0072 -1.409993,0.005 0,0.01221 -0.3175,0.890813 -0.705555,1.952487 -0.388056,1.061675 -0.705556,2.257997 -0.705556,2.658491 0,0.400499 -0.140331,0.878989 -0.311848,1.063321 -0.408383,0.43888 -2.417311,6.48856 -4.475037,13.47611 -0.07142,0.24253 -0.391473,0.44097 -0.711224,0.44097 -0.697812,0 -0.630633,-0.35414 0.895859,-4.72258 0.60253,-1.7243 1.03432,-3.19627 0.959534,-3.27106 -0.143615,-0.14362 -0.727456,1.34195 -2.067074,5.25961 -0.447839,1.30969 -1.013218,2.38125 -1.256397,2.38125 -0.645948,0 -0.561315,-0.42121 0.655039,-3.26009 0.603451,-1.4084 1.231032,-2.87824 1.394625,-3.2663 0.163592,-0.38805 1.098611,-2.5965 2.077816,-4.90766 0.979205,-2.311157 1.780374,-4.322057 1.780374,-4.468668 0,-0.146611 0.343479,-1.033791 0.763284,-1.971506 0.419802,-0.937719 0.73206,-1.83974 0.6939,-2.004494 -0.08203,-0.354157 -0.497787,-4.654359 -1.458468,-15.085032 -0.386172,-4.192912 -0.801642,-8.121022 -0.923265,-8.729137 -0.33407,-1.670343 0.447318,-3.149964 2.080104,-3.938838 0.775416,-0.374643 1.547008,-0.596396 1.714648,-0.492788 0.63747,0.393975 0.984208,-0.228879 0.63651,-1.143389 -0.203034,-0.534027 -0.217417,-1.077432 -0.03468,-1.310428 0.500228,-0.637801 0.834845,-3.27606 0.959312,-7.563672 0.125836,-4.334828 0.01471,-5.005222 -0.829627,-5.005222 -0.726871,0 -4.636329,1.387574 -5.541994,1.967008 -0.388055,0.248271 -1.73743,0.627013 -2.998611,0.84165 -2.612829,0.444669 -2.638163,0.453891 -6.749674,2.457207 -4.520539,2.202614 -4.577071,2.277946 -4.330322,5.770277 0.212518,3.007832 0.270696,3.117335 2.234139,4.20509 1.344414,0.744809 1.439781,1.898241 0.203522,2.461517 -1.402688,0.63911 -6.174334,-0.608115 -6.174334,-1.613856 0,-0.746241 -2.144218,-4.768875 -3.498807,-6.563889 -1.780607,-2.359547 -2.048578,-3.261346 -1.305917,-4.394789 0.550488,-0.840151 2.435746,-1.596507 3.989246,-1.600465 1.579572,-0.004 7.018814,-3.361672 10.147045,-6.263774 1.098017,-1.018646 2.146354,-1.852084 2.329636,-1.852084 0.183282,0 0.333241,-0.15875 0.333241,-0.352777 0,-0.194028 -0.249845,-0.352778 -0.555211,-0.352778 -0.515028,0 -5.011686,-2.161103 -9.146177,-4.395668 -1.160722,-0.627334 -2.395265,-0.980983 -3.610273,-1.034203 -1.280032,-0.05607 -2.091603,-0.30208 -2.645833,-0.802033 -0.439697,-0.396636 -1.513824,-1.100194 -2.386949,-1.563469 -2.497738,-1.325281 -4.579372,-3.147272 -5.146485,-4.504563 -0.799647,-1.913827 -1.433996,-6.697208 -1.165201,-8.786336 0.131614,-1.022935 0.653086,-2.705633 1.158826,-3.739329 0.50574,-1.033695 0.919527,-1.98406 0.919527,-2.111922 0,-0.127861 0.422312,-0.706449 0.938472,-1.28575 0.516159,-0.579301 1.190847,-1.426016 1.499305,-1.881589 2.738298,-4.044286 6.210733,-6.8976877 10.615,-8.7226573 C 56.282649,6.023704 57.314524,5.5487925 57.508552,5.4105346 58.20246,4.9160781 61.470688,4.4113 66.504384,4.0211274 c 4.526301,-0.3508431 5.273943,-0.3300116 6.493281,0.1809232 1.308071,0.5481157 1.424442,0.54281 2.293055,-0.1045496 0.776707,-0.5788639 0.958067,-1.0716165 1.199568,-3.2592191 0.346054,-3.1346741 1.005536,-4.0541548 3.929051,-5.4780619 2.333886,-1.1367252 3.494236,-1.1626524 5.642278,-0.1260725 0.76405,0.3687064 1.585412,0.6703751 1.825251,0.6703751 0.23984,0 0.805335,0.4815883 1.256654,1.0701962 0.45132,0.588608 1.339614,1.6182849 1.973986,2.28817074 2.064688,2.18027856 2.184848,3.69209756 0.553215,6.96038336 -0.576386,1.1545426 -1.054145,1.6756945 -1.536174,1.6756945 -0.721963,0 -0.945737,-0.5118023 -0.377356,-0.86308 C 90.310178,6.6940983 91.612506,3.7132107 91.48901,3.0719302 91.41488,2.6870119 90.875931,2.3587313 90.029363,2.1828406 89.291197,2.0294718 88.368973,1.7336567 87.979979,1.5254737 86.945691,0.97193998 87.7739,0.14370664 89.38994,0.11546889 90.606635,0.0942105 90.626225,0.0754399 89.787718,-0.26561649 c -0.48507,-0.19729803 -1.477257,-0.2817167 -2.204861,-0.18759664 -0.982123,0.12704339 -1.322917,0.0434576 -1.322917,-0.32447055 0,-0.56907362 -1.603876,-0.68713142 -1.940277,-0.14281962 -0.119917,0.19402779 0.01002,0.35277779 0.288762,0.35277779 0.882707,0 1.488856,1.02566896 1.035325,1.75188531 -0.218542,0.3499429 -0.325987,0.9323645 -0.23877,1.2942704 0.254106,1.054389 -0.356225,1.6666214 -1.400231,1.4045929 -0.603981,-0.15159 -0.919808,-0.4708098 -0.919808,-0.9296919 0,-0.7227259 -0.852273,-0.9648723 -1.232225,-0.3500973 -0.123592,0.1999756 0.01803,0.2591177 0.331957,0.1386455 0.30112,-0.1155502 0.54749,-0.045055 0.54749,0.156657 0,0.2017113 -0.3175,0.4675187 -0.705556,0.5906826 -0.388055,0.1231639 -0.705555,0.3571248 -0.705555,0.5199127 0,0.1627879 0.3175,0.2129497 0.705555,0.111471 0.394473,-0.1031568 0.705556,-0.010823 0.705556,0.209416 0,0.3669196 -0.490806,0.5454996 -1.173113,0.4268371 -0.160144,-0.027852 -0.189131,0.2708497 -0.06442,0.6637793 0.161851,0.5099477 0.06849,0.7144173 -0.326192,0.7144173 -0.33491,0 -0.557365,0.3129845 -0.564159,0.7937501 -0.01344,0.9498383 -0.888721,2.2173837 -1.19216,1.7264087 -0.261895,-0.4237535 0.311584,-2.0106386 0.845972,-2.3409081 0.262005,-0.1619289 0.27589,-0.3815687 0.04194,-0.6634615 C 80.081729,5.3878045 80.073262,5.0350317 80.277491,4.7121098 80.45745,4.4275755 80.607119,3.8465889 80.61009,3.4210285 80.61289,2.9954681 80.972678,2.3956125 81.409241,2.088016 82.197142,1.5328718 82.19439,1.5293889 81.036094,1.6154359 c -0.641791,0.047678 -1.356166,0.320819 -1.5875,0.606981 -0.329668,0.4078041 -0.325261,0.4630159 0.02035,0.2553674 0.604901,-0.363413 0.553385,0.1647871 -0.108197,1.1093285 -0.689987,0.9850949 -1.574345,1.0104519 -1.824902,0.052324 -0.173097,-0.6619194 -0.242361,-0.6264017 -0.726048,0.3723012 -0.35656,0.7362138 -0.870532,1.1711944 -1.542743,1.305637 l -1.008048,0.2016097 0.903351,0.8372002 c 0.496869,0.4604604 1.117677,0.8372006 1.379601,0.8372006 0.815989,0 4.694801,3.5295355 5.169559,4.7040545 0.762977,1.887542 2.048009,2.23962 2.727907,0.747402 0.523352,-1.148627 0.516519,-1.218123 -0.119761,-1.218123 -0.715973,0 -0.671633,-0.575399 0.06616,-0.858517 0.362874,-0.139249 0.715704,-0.01334 0.903626,0.322454 0.41796,0.746853 0.970491,0.33723 0.970491,-0.719479 0,-1.0937394 0.886005,-1.1367412 1.456535,-0.07069 0.414898,0.775241 0.430858,0.767176 0.830467,-0.4196757 0.460354,-1.3672622 1.240776,-1.8552869 1.240776,-0.7758987 0,0.9559925 -0.654657,2.6251004 -1.14959,2.9309854 -0.219943,0.135932 -0.647026,0.114886 -0.949082,-0.04677 -0.640969,-0.343037 -2.155567,0.759231 -2.828596,2.058545 -0.38076,0.735075 -0.599147,0.806683 -1.850104,0.606647 -1.408758,-0.225269 -1.416763,-0.220152 -1.179587,0.754045 0.290887,1.194819 1.460359,2.959981 3.258093,4.917653 0.741112,0.807045 1.871553,2.115751 2.512092,2.908235 0.640538,0.792485 1.593038,1.546852 2.116666,1.676372 1.049994,0.259719 7.882406,6.534916 10.152436,9.324457 1.054174,1.295425 2.182414,2.14424 4.216674,3.172355 3.39485,1.715759 4.26743,2.548809 3.79066,3.618946 -0.18692,0.419559 -0.3007,1.286803 -0.25283,1.927211 0.0603,0.806873 -0.13962,1.375519 -0.65115,1.852083 -0.79081,0.736748 -1.66346,0.912453 -1.66346,0.334931 0,-0.194028 0.16812,-0.352778 0.3736,-0.352778 0.20548,0 0.27388,-0.161339 0.15201,-0.358531 -0.12187,-0.197193 -0.37049,-0.266506 -0.55248,-0.15403 -0.18199,0.112476 -0.44082,-0.08337 -0.57517,-0.435219 -0.57374,-1.502501 -1.28789,-1.83872 -4.20303,-1.978773 -1.563311,-0.07511 -3.01872,-0.245543 -3.234249,-0.378749 -0.541412,-0.33461 -3.602348,-4.391773 -3.602348,-4.774784 0,-0.1711 -0.206929,-0.3905 -0.459842,-0.487553 -0.252914,-0.09705 -1.230016,-1.6267 -2.17134,-3.399222 -1.330625,-2.505572 -2.08837,-3.499411 -3.405004,-4.465909 -1.292814,-0.949011 -1.98507,-1.84391 -2.925801,-3.782271 -0.67776,-1.396519 -1.805848,-3.401252 -2.50686,-4.454962 -1.889971,-2.84087 -1.988403,-3.085044 -2.325327,-5.768324 C 79.508063,11.23438 78.082598,9.0327057 75.947774,8.0851756 75.223793,7.7638391 74.359106,7.0398968 74.026247,6.4764143 73.310408,5.2645927 71.589843,4.8834032 68.100251,5.1635144 66.469488,5.2944161 65.688232,5.5400959 65.131118,6.09721 l -0.756051,0.7560507 0.911237,0.3464515 c 0.50118,0.1905483 1.029834,0.3464514 1.174786,0.3464514 0.144953,0 0.928368,0.3212052 1.740923,0.713789 1.687417,0.815272 2.015888,1.6198406 0.507234,1.2424453 C 68.175671,9.368922 67.228734,9.1749464 66.604943,9.0713416 65.981151,8.9677367 65.287026,8.6615626 65.062441,8.3909553 64.837857,8.1203475 64.365555,7.8989414 64.012882,7.8989414 c -0.793846,0 -0.77614,-1.6019678 0.02387,-2.1591447 0.381396,-0.2656297 0.08797,-0.3032365 -1.060138,-0.1358703 -0.873125,0.1272809 -2.286764,0.311984 -3.141421,0.4104513 -1.517618,0.1748491 -3.513253,1.041224 -7.446567,3.2328169 -1.688985,0.9410804 -7.403677,6.2702594 -7.403677,6.9042234 0,0.125198 0.382767,0.131564 0.850594,0.01415 1.144076,-0.287145 3.408796,0.756292 6.463006,2.977738 2.093462,1.522655 2.729413,1.807871 4.024568,1.80497 l 1.53822,-0.0034 -1.852084,-0.862269 c -1.671429,-0.778162 -2.434454,-1.600283 -1.485251,-1.600283 0.51903,0 3.293818,1.438239 3.553421,1.841823 0.286911,0.446038 9.715342,0.402873 11.072802,-0.05069 1.020127,-0.340854 1.004404,-0.351406 -0.435592,-0.292298 -1.970553,0.08088 -2.103506,-0.560509 -0.169685,-0.818598 1.81946,-0.242826 3.670838,-0.01563 3.403079,0.417612 -0.106486,0.172296 0.138846,0.313266 0.545179,0.313266 0.65151,0 0.690725,-0.09377 0.331936,-0.79375 -0.223767,-0.436562 -0.954528,-1.293642 -1.623917,-1.904622 -0.785079,-0.716578 -1.075439,-1.198402 -0.818053,-1.357475 0.219456,-0.135632 0.678967,0.0068 1.021133,0.31641 0.582316,0.526986 0.612584,0.498009 0.473029,-0.452832 -0.082,-0.558714 0.01348,-1.116324 0.212192,-1.239133 0.408503,-0.252467 0.674832,0.430447 0.900914,2.310086 0.196102,1.630406 0.725755,2.62921 2.210971,4.169363 0.649418,0.67344 1.180757,1.358825 1.180757,1.523079 0,0.164253 0.300161,0.203375 0.667022,0.08694 0.503495,-0.159804 0.755837,0.02896 1.02931,0.769977 0.19926,0.539925 1.327852,2.002511 2.507978,3.250191 2.125024,2.246662 2.639251,3.111652 1.616523,2.719193 -0.652469,-0.250377 -0.652469,0.04453 0,1.185909 0.277291,0.485069 0.509792,1.193775 0.516664,1.574902 0.02222,1.232556 -0.969877,-0.146036 -1.777294,-2.469649 -0.520929,-1.499147 -1.252555,-2.636213 -2.545387,-3.955948 -1.6458,-1.680049 -1.958844,-1.852083 -3.370205,-1.852083 -0.855737,0 -2.924909,-0.302337 -4.598162,-0.671861 -1.673256,-0.369523 -3.954505,-0.857026 -5.069445,-1.08334 -2.269858,-0.460743 -6.222585,-0.425867 -6.849067,0.06043 -0.249545,0.193706 -0.498888,0.173393 -0.638181,-0.05199 -0.26631,-0.430899 -0.892532,-0.497183 -0.892532,-0.09447 0,0.151489 0.47625,0.4552 1.058334,0.674911 0.582083,0.219713 1.058333,0.254517 1.058333,0.07734 0,-0.177174 0.179039,-0.322134 0.397865,-0.322134 0.268398,0 0.324212,0.487885 0.171522,1.499305 -0.38654,2.56044 -1.641501,5.453779 -3.007142,6.933036 -1.440079,1.559885 -1.844937,2.289906 -2.523084,4.5495 -0.250332,0.834108 -0.704989,1.674128 -1.010349,1.866713 -0.392168,0.247329 -0.03724,0.296517 1.208688,0.167513 0.970139,-0.10045 2.875139,-0.285503 4.233333,-0.411226 2.616052,-0.242164 10.100379,-1.800331 13.934721,-2.901085 2.995129,-0.859833 6.637842,-0.98877 7.584722,-0.268471 0.691105,0.525727 0.687493,0.537047 -0.176389,0.552756 -2.595538,0.04719 -3.069999,0.722719 -3.473397,4.945292 -0.273611,2.864076 0.204068,9.080134 0.908173,11.818056 0.149691,0.582084 0.272168,2.432428 0.272168,4.111879 0,1.679448 0.116632,2.870073 0.259183,2.645834 0.14255,-0.224243 0.261613,-0.685525 0.264583,-1.025074 0.0028,-0.339548 0.164151,-0.617361 0.358179,-0.617361 0.45467,0 0.448853,0.759711 -0.01517,1.980163 -0.324195,0.852703 -0.254314,1.058362 0.58777,1.729818 0.685338,0.54647 0.831942,0.838549 0.518217,1.032443 -0.260149,0.160778 -0.774936,-0.04662 -1.269926,-0.511644 l -0.832432,-0.782028 -0.242133,1.290684 c -0.133173,0.709877 -0.161148,1.37167 -0.06217,1.470656 0.283704,0.283701 3.297459,-1.241534 4.313156,-2.182848 1.064556,-0.986599 1.236013,-1.035766 1.236013,-0.354435 0,0.564278 -1.954145,2.323278 -2.584707,2.326587 -0.227648,0.0011 -0.879715,0.245081 -1.449042,0.541969 -0.569323,0.296887 -1.24401,0.459641 -1.499305,0.361675 -0.573924,-0.220236 -0.58903,0.198049 -0.04988,1.381347 l 0.414281,0.909253 3.944503,-0.235825 c 2.797376,-0.167241 4.016671,-0.119059 4.192647,0.165682 0.156849,0.253781 -0.05155,0.411752 -0.566423,0.429355 -0.448014,0.01531 -0.617516,0.10746 -0.376675,0.204763 0.240845,0.0973 0.987136,-0.0043 1.658422,-0.225898 0.887473,-0.292893 1.41677,-0.297779 1.939724,-0.01789 0.562921,0.301265 1.060743,0.229316 2.290974,-0.331121 0.864478,-0.393831 1.739237,-0.716044 1.943911,-0.716044 0.204671,0 0.372131,-0.15875 0.372131,-0.352778 0,-0.194027 -0.555625,-0.352777 -1.234722,-0.352777 -0.679097,0 -1.234722,-0.15875 -1.234722,-0.352778 0,-0.621214 2.326231,-0.390197 2.943934,0.292361 0.809731,0.89474 0.752468,1.008595 -0.638503,1.269541 -2.247304,0.421598 -1.741427,0.907542 0.94476,0.907542 2.37629,0 2.694897,0.08953 3.924123,1.10277 l 1.33785,1.102765 -0.195421,3.924318 c -0.107481,2.158372 -0.279824,6.940564 -0.382979,10.627092 -0.206016,7.362137 -0.443802,10.008496 -0.957743,10.658754 -0.221332,0.280042 -0.151969,1.012412 0.200473,2.116667 0.296401,0.928659 0.959722,3.275968 1.474047,5.216251 0.514329,1.94028 1.477112,5.32294 2.139522,7.51702 1.26711,4.19704 1.52642,6.22841 0.7634,5.98036 -0.56406,-0.18338 -0.91809,-1.34551 -3.090822,-10.14599 -2.625855,-10.63579 -2.492089,-10.230562 -3.37705,-10.230562 -1.175674,0 -1.717798,0.863357 -1.273527,2.028155 0.203581,0.533749 0.776089,2.478582 1.27224,4.321847 0.496146,1.84327 1.527383,5.64838 2.291637,8.45581 0.76425,2.80743 1.308181,5.23608 1.208729,5.39699 -0.360281,0.58295 -1.126715,-0.52143 -1.364989,-1.96686 -0.296837,-1.8007 -4.343731,-17.241472 -4.581037,-17.478778 -0.262358,-0.262357 -0.234217,-0.111672 0.850804,4.556132 2.410319,10.369276 2.935348,12.558776 3.246339,13.538046 0.36092,1.13649 -0.05731,1.91191 -0.638461,1.18375 z M 94.250286,93.512304 c 0.132623,-0.132627 0.683464,-0.241138 1.224089,-0.241138 0.834041,0 1.039738,-0.20042 1.357775,-1.322917 0.206149,-0.727604 0.476461,-6.246252 0.600699,-12.263663 L 97.658733,68.743839 96.81003,67.765508 95.961328,66.787181 85.554385,66.670606 c -11.072537,-0.12403 -11.854214,-0.02702 -12.713027,1.577679 -0.212697,0.397429 -0.293226,1.149847 -0.178957,1.672043 0.114271,0.522196 0.277075,2.140073 0.361787,3.595282 0.229041,3.93453 0.541994,7.6142 0.900109,10.583333 0.175514,1.455209 0.411325,4.14945 0.524023,5.987204 0.112702,1.837753 0.341786,3.425253 0.509076,3.527778 0.452212,0.277135 19.011892,0.179373 19.29289,-0.101621 z M 57.332165,66.838401 c 0,-0.179966 -0.515937,-0.749377 -1.146528,-1.265364 -0.730591,-0.597811 -0.986552,-1.001692 -0.705555,-1.1133 0.525331,-0.20865 0.591245,-1.745724 0.08819,-2.056628 -0.194027,-0.119916 -0.352777,-0.674211 -0.352777,-1.231769 0,-0.700394 -0.215841,-1.082245 -0.698293,-1.235371 -0.38406,-0.121896 -0.973913,-0.688217 -1.310783,-1.258493 -0.33687,-0.570276 -0.729821,-1.036867 -0.873222,-1.036867 -0.143402,0 -0.364967,-0.555625 -0.492367,-1.234722 -0.280026,-1.492673 -0.84411,-1.558487 -2.267656,-0.264583 l -1.067342,0.970139 1.410804,1.763889 c 0.775943,0.970139 1.412492,1.942962 1.414554,2.161832 0.002,0.218867 0.331209,0.615742 0.731436,0.881945 0.457454,0.304264 0.798344,1.011876 0.917954,1.905466 0.309432,2.311742 0.935371,2.81722 4.086998,3.300465 0.145521,0.02233 0.264583,-0.106673 0.264583,-0.286639 z m -1.058333,-9.061157 c 2.528842,-2.564377 6.831094,-4.632819 10.93611,-5.257871 0.873125,-0.132948 2.54,-0.607131 3.704166,-1.05374 1.164167,-0.44661 2.751667,-1.00704 3.527778,-1.245401 0.776111,-0.238361 1.501725,-0.483701 1.612476,-0.545197 0.110751,-0.0615 -0.0028,-1.270963 -0.25256,-2.687705 -0.249661,-1.416737 -0.474123,-3.792699 -0.498803,-5.279919 -0.04162,-2.507964 -0.103572,-2.718759 -0.854396,-2.907206 -0.445238,-0.111746 -1.807447,-0.767236 -3.027133,-1.456641 l -2.217607,-1.253469 -4.789322,1.056481 c -2.634126,0.581064 -6.098514,1.10399 -7.69864,1.162061 -1.600125,0.05807 -2.909812,0.202008 -2.910416,0.31986 -0.0013,0.246218 4.617442,3.00953 7.230846,4.326125 2.746354,1.38357 4.409146,1.985987 5.48174,1.985987 0.542219,0 1.046106,0.180763 1.11975,0.401694 0.07364,0.220931 0.840936,0.426942 1.705093,0.457803 0.864157,0.03087 2.563382,0.08822 3.776055,0.127473 1.212674,0.03925 2.204861,0.230113 2.204861,0.424141 0,0.194028 -0.238125,0.352778 -0.529167,0.352778 -0.291041,0 -0.529166,0.176766 -0.529166,0.392818 0,0.235797 -0.423048,0.330729 -1.058333,0.237487 -0.722203,-0.105996 -1.058334,-0.0067 -1.058334,0.312737 0,0.612443 -0.577977,0.603814 -0.814348,-0.01214 -0.112586,-0.293398 -1.052297,-0.578428 -2.4155,-0.732656 -1.227172,-0.138839 -2.42376,-0.412227 -2.659084,-0.607529 -0.289134,-0.239959 -0.576226,-0.229478 -0.885437,0.03231 -0.251666,0.213081 -1.211637,0.947967 -2.133269,1.633079 -0.921632,0.685108 -1.675694,1.367994 -1.675694,1.517516 0,0.460851 -5.186502,3.92147 -7.23483,4.82734 -1.065565,0.471237 -1.937391,0.993162 -1.937391,1.159824 0,0.9667 1.799585,3.563938 2.469444,3.564008 0.09701,8e-6 0.732014,-0.563417 1.411111,-1.252057 z m -2.234259,-0.01905 c -0.445202,-0.445202 -0.234272,-0.898282 0.319298,-0.685857 0.320204,0.122873 1.069538,-0.180079 1.773491,-0.71701 1.710089,-1.304346 1.89113,-0.806037 0.195166,0.537192 -1.410071,1.116796 -1.864787,1.288846 -2.287955,0.865675 z m 1.528703,-2.555149 c 0,-0.31437 4.692527,-3.559658 5.147093,-3.559658 0.507233,0 -0.758002,1.131521 -2.760403,2.468672 -2.285435,1.526155 -2.38669,1.57244 -2.38669,1.090986 z m 5.193687,-13.534189 c -1.121041,-1.01394 -2.033854,-2.041962 -2.028472,-2.284497 0.01483,-0.668302 0.366844,-0.537524 1.424353,0.529167 0.528982,0.533576 1.538356,1.413467 2.243053,1.955316 0.704697,0.541849 1.281267,1.137162 1.281267,1.322917 0,0.742682 -0.980849,0.231165 -2.920201,-1.522903 z m 45.685257,1.798479 c -0.31278,-0.312776 -0.31525,-0.535058 -0.0101,-0.902815 0.54598,-0.657867 0.68721,-2.253188 0.24648,-2.784235 -0.19654,-0.236816 -1.69352,-1.092479 -3.32662,-1.901479 -2.17228,-1.0761 -3.17089,-1.797139 -3.720442,-2.686333 -0.413149,-0.668482 -2.016957,-2.311033 -3.564029,-3.65011 -1.547068,-1.339081 -3.236866,-2.998065 -3.755104,-3.686631 -0.518223,-0.688569 -1.735987,-1.641139 -2.706126,-2.116825 -1.317078,-0.645801 -2.376586,-1.629748 -4.182664,-3.884369 -1.330328,-1.660717 -2.49635,-3.019485 -2.591163,-3.019485 -0.09481,0 0.221869,0.674687 0.703735,1.499305 0.481867,0.824618 1.476661,2.593869 2.210657,3.931668 0.740728,1.350069 1.759864,2.676464 2.290421,2.980964 0.913842,0.524471 1.658775,1.512146 4.217895,5.592332 0.982116,1.565857 1.542051,2.024115 3.836641,3.139952 2.930846,1.425243 4.274199,2.447798 4.274199,3.25351 0,0.346629 -0.28313,0.213685 -0.851877,-0.400004 -0.468531,-0.505555 -1.301969,-1.026308 -1.852083,-1.157231 -0.550115,-0.130919 -1.238331,-0.434439 -1.529373,-0.67449 -0.291041,-0.240051 -0.920108,-0.639254 -1.397924,-0.88712 l -0.868761,-0.450663 0.642472,0.980536 c 0.35336,0.539291 1.025743,1.410691 1.49419,1.936443 0.468446,0.525752 1.05144,1.229039 1.295537,1.562865 0.25387,0.347187 1.100483,0.6824 1.978117,0.783227 1.274392,0.146406 1.499252,0.08494 1.327412,-0.362881 -0.11379,-0.296535 -0.0444,-0.639583 0.15422,-0.762332 0.19861,-0.122749 0.44448,0.09561 0.54637,0.485253 0.25895,0.990198 1.44889,1.233745 1.90095,0.389068 0.40432,-0.755474 1.73672,-0.895544 2.38186,-0.250402 0.56932,0.56932 0.55511,2.148304 -0.0176,1.959684 -0.24253,-0.07988 -0.4917,-0.48998 -0.5537,-0.911344 -0.11083,-0.753188 -1.12199,-1.114514 -1.12199,-0.400929 0,0.659254 1.17013,2.167827 1.91546,2.469487 1.01651,0.411409 1.10815,0.400607 0.63293,-0.07462 z M 50.790711,37.90943 c 0.11163,-0.180622 0.04162,-0.428117 -0.155569,-0.549987 -0.197193,-0.121871 -0.358532,0.02591 -0.358532,0.3284 0,0.619665 0.211686,0.710904 0.514101,0.221587 z m 25.002398,-0.818127 c 0.114847,-0.63059 0.312886,-1.503715 0.44008,-1.940278 0.194578,-0.667833 0.09882,-0.790331 -0.603631,-0.772198 -0.459193,0.01185 -1.69986,0.292844 -2.757039,0.62442 l -1.922145,0.602869 2.098534,1.285751 c 1.154193,0.707161 2.196824,1.299299 2.316959,1.315858 0.120132,0.01654 0.312392,-0.485831 0.427242,-1.116422 z m -25.573125,-0.45757 c 0.526315,-1.155139 0.516602,-1.237118 -0.117736,-0.993698 -0.289928,0.111256 -0.435011,0.351353 -0.322408,0.533549 0.112604,0.182195 0.01288,0.562437 -0.221611,0.844976 -0.234489,0.282544 -0.273637,0.513715 -0.087,0.513715 0.186641,0 0.523579,-0.404343 0.748751,-0.898542 z m -1.26819,-1.495651 c -0.245222,-1.670801 -0.731797,-1.378193 -0.704557,0.423697 0.01832,1.211957 0.117496,1.463326 0.447237,1.133584 0.236634,-0.236633 0.350241,-0.924172 0.25732,-1.557281 z m 3.441483,-1.309973 c 0,-0.850223 -0.15875,-1.643973 -0.352778,-1.763889 -0.219195,-0.13547 -0.352778,0.532444 -0.352778,1.763889 0,1.231445 0.133583,1.899359 0.352778,1.763889 0.194028,-0.119917 0.352778,-0.913667 0.352778,-1.763889 z m -3.992346,-1.300868 c -0.112616,-0.281422 -0.196209,-0.197831 -0.213137,0.213137 -0.01532,0.371885 0.06806,0.580246 0.185286,0.463021 0.117225,-0.117228 0.129758,-0.421499 0.02785,-0.676158 z m 1.007675,-1.531945 c -0.188089,-1.505412 -0.368328,-1.93687 -0.748219,-1.791092 -0.348786,0.133841 -0.500443,-0.07188 -0.500443,-0.678832 0,-0.478981 -0.1905,-0.870875 -0.423334,-0.870875 -0.329259,0 -0.329259,-0.09408 0,-0.423333 0.505305,-0.505305 0.551379,-0.987778 0.09433,-0.987778 -0.558209,0 -0.812284,1.415253 -0.35335,1.968232 0.351122,0.42308 0.316752,0.609198 -0.17951,0.972072 -0.533754,0.390293 -0.561804,0.641834 -0.215138,1.929254 0.516305,1.917411 0.851035,1.906097 0.558015,-0.01887 -0.166142,-1.091448 -0.128063,-1.355354 0.139978,-0.970139 0.202513,0.291042 0.386461,0.846667 0.408772,1.234723 0.03314,0.576379 0.0867,0.544085 0.292535,-0.176389 0.222915,-0.780253 0.281224,-0.70364 0.505702,0.664457 0.364361,2.22063 0.715655,1.509599 0.420663,-0.851437 z m -3.723509,-1.234447 c 0.004,-1.185019 -0.172781,-1.726244 -0.684296,-2.094922 -0.573731,-0.413522 -0.653374,-0.76213 -0.47366,-2.073282 0.1599,-1.166601 0.107513,-1.509103 -0.201602,-1.318059 -0.229702,0.141963 -0.38757,0.444582 -0.350818,0.672486 0.03675,0.227903 -0.05569,0.851186 -0.205418,1.385073 -0.219985,0.784377 -0.112513,1.10465 0.559894,1.668526 0.545175,0.457183 0.700524,0.791538 0.450484,0.969575 -0.448988,0.319698 -0.458861,2.179154 -0.01522,2.867053 0.488727,0.757816 0.914302,-0.202046 0.920639,-2.07645 z m -0.672302,0.510085 c 0.01693,-0.410969 0.10052,-0.494559 0.213136,-0.213138 0.101908,0.25466 0.08937,0.558931 -0.02785,0.676159 -0.117226,0.117224 -0.200604,-0.09114 -0.185286,-0.463021 z m 1.736038,1.08773 c 0,-0.291041 -0.06239,-0.529166 -0.138646,-0.529166 -0.07626,0 -0.230023,0.238125 -0.341706,0.529166 -0.111683,0.291042 -0.04929,0.529167 0.138646,0.529167 0.187938,0 0.341706,-0.238125 0.341706,-0.529167 z m 4.426119,-0.264583 c -0.09539,-0.436563 -0.217476,-1.825625 -0.271305,-3.086806 -0.106603,-2.497649 -0.43882,-3.060836 -1.298462,-2.201194 -0.396867,0.396867 -0.43509,0.597632 -0.132955,0.698347 0.268384,0.08946 0.348164,0.520735 0.217336,1.174873 -0.139087,0.695435 -0.06453,1.03353 0.227912,1.03353 0.239041,0 0.345192,0.233041 0.235894,0.517867 -0.109299,0.284829 -0.04691,0.611699 0.138645,0.726377 0.185554,0.114681 0.337371,0.596014 0.337371,1.069632 0,0.473619 0.161774,0.861124 0.359499,0.861124 0.197724,0 0.281453,-0.357188 0.186065,-0.79375 z m 1.490018,-2.352495 c -0.285851,-1.825029 -0.748463,-2.844578 -1.12146,-2.471583 -0.08578,0.08579 -0.01091,0.789577 0.166377,1.563984 0.177291,0.774404 0.422561,2.043011 0.545045,2.819122 0.170845,1.082548 0.280413,1.253525 0.470572,0.73431 0.13633,-0.372244 0.10909,-1.562869 -0.06053,-2.645833 z m 2.197751,1.029578 c 0,-0.388055 -0.223263,-0.705555 -0.49614,-0.705555 -0.322457,0 -0.43155,0.246993 -0.311633,0.705555 0.101479,0.388056 0.324742,0.705556 0.49614,0.705556 0.171398,0 0.311633,-0.3175 0.311633,-0.705556 z M 42.868277,28.028096 c 0,-0.182576 -0.15875,-0.430071 -0.352777,-0.549987 -0.194028,-0.119917 -0.352778,0.02946 -0.352778,0.331956 0,0.302493 0.15875,0.549988 0.352778,0.549988 0.194027,0 0.352777,-0.14938 0.352777,-0.331957 z m 14.463888,-0.394419 c 0,-0.182577 -0.15875,-0.331957 -0.352778,-0.331957 -0.194027,0 -0.352777,0.247494 -0.352777,0.549987 0,0.302493 0.15875,0.451873 0.352777,0.331957 0.194028,-0.119916 0.352778,-0.367411 0.352778,-0.549987 z m -4.002923,-1.700998 c -0.513873,-1.491526 -0.294091,-2.041256 0.668428,-1.671903 0.330624,0.126872 0.512273,0.700877 0.512273,1.618761 0,0.782724 0.171223,1.422183 0.380808,1.422183 0.233361,0 0.301658,-0.40978 0.176389,-1.058334 -0.112431,-0.582083 -0.295129,-1.528762 -0.405997,-2.103731 l -0.201578,-1.045399 -1.474116,0.569284 c -0.810764,0.313105 -1.618201,0.697432 -1.794304,0.854058 -0.506805,0.450751 0.439183,1.321965 1.215103,1.119058 0.52069,-0.136164 0.692584,-0.003 0.692584,0.536732 0,0.92396 0.443805,2.089972 0.607997,1.597399 0.06915,-0.207465 -0.10076,-1.034612 -0.377587,-1.838108 z m -4.582883,0.575291 c -0.09786,-0.242535 -0.177936,-0.0441 -0.177936,0.440972 0,0.485069 0.08007,0.683507 0.177936,0.440972 0.09786,-0.242535 0.09786,-0.63941 0,-0.881944 z m -2.25753,0.05208 c -0.109077,-0.417111 0.0048,-0.864487 0.260185,-1.022335 0.370033,-0.228693 0.370548,-0.89166 0.0028,-3.579863 -0.248247,-1.814556 -0.463861,-3.577005 -0.479146,-3.916553 -0.01528,-0.339549 -0.152523,-0.617361 -0.304973,-0.617361 -0.373658,0 -0.345857,1.498195 0.07528,4.056944 0.381662,2.318901 0.144563,4.540512 -0.445652,4.175739 -0.202731,-0.125295 -0.289178,-0.08422 -0.192102,0.09128 0.09707,0.1755 0.275371,0.596903 0.396213,0.936452 0.3125,0.878081 0.920773,0.768085 0.687408,-0.124305 z m -3.768435,-1.287699 c -0.407014,-0.407015 -0.615824,0.230426 -0.338267,1.03264 l 0.283827,0.820336 0.129667,-0.82404 c 0.07132,-0.453224 0.03747,-0.916244 -0.07523,-1.028936 z M 56.869121,26.1121 c -0.102164,-0.266236 -0.297817,-1.231362 -0.434784,-2.144724 -0.137367,-0.916025 -0.473283,-1.746713 -0.749149,-1.852573 -0.759786,-0.291557 -1.079285,0.252647 -0.378556,0.644794 0.34493,0.193033 0.616535,0.761673 0.619239,1.296458 0.0068,1.354214 0.37083,2.540109 0.779627,2.540109 0.192157,0 0.265787,-0.21783 0.163623,-0.484064 z m -8.3564,-0.729838 c 0,-0.08556 -0.15875,-0.253682 -0.352777,-0.373598 -0.194028,-0.119916 -0.352778,-0.04991 -0.352778,0.155569 0,0.205479 0.15875,0.373598 0.352778,0.373598 0.194027,0 0.352777,-0.07001 0.352777,-0.155569 z m -5.110979,-2.747029 c 0.181549,-1.000932 0.327099,-1.270152 0.433358,-0.801569 0.411406,1.814241 0.763219,1.143235 0.568005,-1.083346 -0.117872,-1.344437 -0.373672,-2.603182 -0.568443,-2.79721 -0.236853,-0.235948 -0.283187,0.02692 -0.13991,0.79375 0.122577,0.656043 0.06707,1.146528 -0.129739,1.146528 -0.189177,0 -0.343958,-0.264583 -0.343958,-0.587963 0,-0.323379 -0.106072,-0.48189 -0.235716,-0.352246 -0.129645,0.129644 -0.03131,0.617655 0.21852,1.084467 0.381272,0.712413 0.362468,1.032709 -0.11706,1.993947 -0.610985,1.224748 -0.770824,2.612859 -0.26486,2.300156 0.168542,-0.104164 0.429453,-0.867596 0.579803,-1.696514 z m 4.856713,0.16857 c -0.09822,-0.63059 -0.336308,-1.146528 -0.529072,-1.146528 -0.192765,0 -0.254122,0.251109 -0.136349,0.558019 0.117772,0.306911 0.214132,0.973661 0.214132,1.481667 0,0.556869 0.125062,0.790565 0.31494,0.588509 0.173217,-0.184327 0.234574,-0.851077 0.136349,-1.481667 z m 10.373031,0.903993 c -0.112616,-0.281423 -0.196209,-0.197829 -0.213137,0.213137 -0.01532,0.371886 0.06806,0.580245 0.185286,0.463021 0.117225,-0.117226 0.129758,-0.421497 0.02785,-0.676158 z M 45.690499,22.5184 c 0,-0.302493 -0.15875,-0.451874 -0.352777,-0.331958 -0.194028,0.119916 -0.352778,0.367409 -0.352778,0.549986 0,0.182577 0.15875,0.331958 0.352778,0.331958 0.194027,0 0.352777,-0.247494 0.352777,-0.549986 z m 29.154887,-0.577461 c -0.718658,-0.918272 -1.16519,-1.143666 -2.406819,-1.214871 -0.838451,-0.04808 -2.159459,0.08422 -2.93557,0.294004 l -1.411111,0.381426 3.175,0.809172 c 4.474898,1.140458 4.670594,1.125708 3.5785,-0.269731 z m -26.091677,0.003 c -0.112616,-0.281423 -0.196209,-0.19783 -0.213137,0.213136 -0.01532,0.371887 0.06806,0.580246 0.185286,0.463021 0.117225,-0.117225 0.129758,-0.421496 0.02785,-0.676157 z m 0.845196,-2.491489 c 0.02228,-0.352778 0.06344,-0.352778 0.205788,0 0.217879,0.539961 1.53025,0.590386 1.53025,0.0588 0,-0.210197 -0.19702,-0.316502 -0.437822,-0.236235 -0.240802,0.08027 -0.649017,-0.06525 -0.907143,-0.32338 -0.673518,-0.673518 -1.124479,-0.578778 -1.124479,0.236236 0,0.755537 0.686751,1.003289 0.733406,0.264583 z m -1.479884,-0.881945 c -0.02518,-0.596863 -0.102998,-0.7326 -0.202256,-0.352777 -0.08873,0.339548 -0.308443,0.617361 -0.488244,0.617361 -0.179801,0 -0.326911,0.15875 -0.326911,0.352778 0,0.194027 0.238125,0.352777 0.529167,0.352777 0.352008,0 0.515466,-0.32479 0.488244,-0.970139 z M 81.67383,17.071164 c -0.207681,-0.388056 -0.456978,-0.705556 -0.553992,-0.705556 -0.09701,0 -0.0065,0.3175 0.201214,0.705556 0.20768,0.388055 0.456978,0.705555 0.553991,0.705555 0.09701,0 0.0065,-0.3175 -0.201213,-0.705555 z m -0.471918,-3.263195 c -0.09786,-0.242534 -0.177938,-0.0441 -0.177938,0.440973 0,0.485069 0.08007,0.683507 0.177938,0.440972 0.09786,-0.242535 0.09786,-0.63941 0,-0.881945 z m 3.29414,-11.7676044 c 0,-0.076255 -0.238125,-0.1386456 -0.529167,-0.1386456 -0.291042,0 -0.529167,0.1537677 -0.529167,0.3417059 0,0.1879384 0.238125,0.250329 0.529167,0.1386455 0.291042,-0.1116831 0.529167,-0.2654508 0.529167,-0.3417058 z M 84.319663,1.1961634 c 0.27759,-0.44915207 -0.539708,-0.44915207 -1.234722,0 -0.430206,0.2780193 -0.384616,0.342984 0.243762,0.3473757 0.425111,0.00297 0.871043,-0.1533479 0.99096,-0.3473757 z M 82.07691,0.64098432 c 0.590479,-0.30534857 0.994452,-0.63432656 0.897717,-0.73106211 -0.09674,-0.09673555 -0.786176,0.14607893 -1.532093,0.53958774 -0.745913,0.3935088 -1.149882,0.72248675 -0.897713,0.73106215 0.252169,0.00858 0.941609,-0.2342392 1.532089,-0.53958778 z M 78.49883,0.13783006 c 0,-0.19402778 -0.07,-0.35277778 -0.155568,-0.35277778 -0.08556,0 -0.253683,0.15875 -0.373599,0.35277778 -0.119916,0.19402779 -0.04991,0.35277779 0.155568,0.35277779 0.205479,0 0.373599,-0.15875 0.373599,-0.35277779 z m 3.764668,-0.9390359 c -0.193259,-0.19325767 -2.353557,0.73442373 -2.353557,1.01067061 0,0.14835047 0.553632,0.005719 1.230291,-0.31695744 0.676663,-0.32267702 1.18213,-0.63484797 1.123266,-0.69371317 z m 2.232554,-1.28013566 c 0.310105,-0.1140238 0.164066,-0.1958362 -0.352778,-0.1976269 -0.48507,-0.00169 -1.199445,0.1333786 -1.5875,0.3001317 -0.629797,0.2706325 -0.637029,0.3058499 -0.06737,0.3279828 0.409678,0.015917 0.545857,0.182686 0.38033,0.4657673 -0.141817,0.24253469 0.04725,0.1838748 0.420155,-0.1303557 0.3729,-0.3142304 0.916125,-0.6588852 1.207167,-0.7658992 z m -4.233333,0.4552826 c 0.456032,-0.2947102 0.446718,-0.3427204 -0.06737,-0.3473757 -0.328097,-0.00297 -0.694655,0.1533479 -0.814571,0.3473757 -0.275936,0.4464745 0.191075,0.4464745 0.881945,0 z m 8.11526,-0.7029926 c -0.370822,-0.6928863 -1.412483,-1.22229 -1.412483,-0.7178665 0,0.1764873 0.169573,0.4256875 0.376826,0.5537786 0.207257,0.1280908 0.29851,0.4369915 0.202784,0.6864463 -0.116173,0.3027437 0.04898,0.3952318 0.49669,0.2781533 0.519155,-0.1357627 0.595129,-0.3166675 0.336183,-0.8005117 z m -4.234705,-0.9243904 c 0,-0.1392713 -1.09885,0.05373 -2.557639,0.4492227 -0.339548,0.092055 -0.617361,0.3057892 -0.617361,0.4749648 0,0.1691757 0.714375,0.06418 1.5875,-0.2333237 0.873125,-0.2975035 1.5875,-0.6083924 1.5875,-0.6908638 z m -3.205628,0.076786 c 0.224698,-0.2707449 0.99066,-0.6014695 1.702135,-0.734943 0.99871,-0.1873592 1.392029,-0.1080601 1.725411,0.3478703 0.301618,0.4124844 0.67238,0.5141997 1.229625,0.3373367 0.763919,-0.2424575 0.746287,-0.280651 -0.415065,-0.8991533 -1.624206,-0.8650069 -1.934361,-0.8373894 -4.349386,0.3872882 -1.599762,0.8112521 -1.873652,1.0538648 -1.189725,1.0538648 0.488657,0 1.072307,-0.2215187 1.297005,-0.4922637 z m 7.346491,66.3441679 c -0.535926,-0.438746 -1.820242,-1.226005 -2.854036,-1.749464 -1.7866,-0.904639 -1.912567,-1.060552 -2.545344,-3.150475 -0.905884,-2.991929 -0.858679,-7.640842 0.117411,-11.563075 0.410429,-1.649236 0.824484,-4.506736 0.920119,-6.35 0.09564,-1.843264 0.367192,-3.89151 0.603458,-4.551659 0.402343,-1.124179 0.370289,-1.243454 -0.505615,-1.881505 -0.8232,-0.599662 -1.293019,-1.680725 -0.730427,-1.680725 0.272327,0 8.514094,7.368536 11.282097,10.086742 1.203741,1.182081 2.291567,2.473593 2.417389,2.870027 0.125825,0.396434 0.898528,1.167173 1.717121,1.712751 0.818592,0.545581 1.92491,1.387203 2.45849,1.870279 1.58669,1.436511 1.23541,-0.04723 -0.49783,-2.102753 -0.807381,-0.957509 -1.350027,-1.858864 -1.205878,-2.003012 0.144148,-0.144152 0.465049,0.01549 0.713108,0.354714 0.49259,0.673658 1.60796,0.842363 1.60796,0.243209 0,-0.205479 0.16663,-0.270616 0.37028,-0.144752 0.22644,0.139947 0.0639,0.494542 -0.41833,0.912806 -0.73962,0.64147 -0.75167,0.720904 -0.19389,1.278681 0.55778,0.557777 0.59472,0.555858 0.59472,-0.03087 0,-0.344071 0.16165,-0.525681 0.35921,-0.403577 0.19757,0.122103 0.88759,-0.10455 1.53338,-0.503672 1.25115,-0.77325 1.72666,-0.679224 1.36345,0.269604 -0.45535,1.189542 -2.55049,2.392838 -2.55049,1.464821 0,-0.194028 -0.16433,-0.352778 -0.36518,-0.352778 -0.25174,0 -0.25174,0.211995 0,0.682364 1.01034,1.887852 -0.19881,2.428702 -1.62923,0.728747 -0.48979,-0.582083 -1.131309,-1.058333 -1.425604,-1.058333 -0.609293,0 -2.547944,-1.54099 -3.094506,-2.459754 -1.061177,-1.783824 -2.206505,-3.1695 -3.168195,-3.83304 -0.592352,-0.408703 -1.473877,-1.113253 -1.958946,-1.565666 -1.433851,-1.337314 -5.610768,-4.84154 -5.77095,-4.84154 -0.295893,0 -0.59647,2.451636 -0.611459,4.987332 -0.0087,1.46624 -0.404171,4.287355 -0.908174,6.477946 -0.735672,3.197546 -0.862037,4.470428 -0.717938,7.231944 0.251139,4.812856 0.663349,5.711413 3.246021,7.075816 2.241328,1.184078 3.351389,2.013416 3.351389,2.503862 0,0.486078 -0.468285,0.322569 -1.503581,-0.524997 z M 103.89883,47.410054 c 0,-0.194028 -0.07,-0.352778 -0.15557,-0.352778 -0.0856,0 -0.25368,0.15875 -0.3736,0.352778 -0.11992,0.194027 -0.0499,0.352777 0.15557,0.352777 0.20548,0 0.3736,-0.15875 0.3736,-0.352777 z M 79.868489,54.75959 c -0.02279,-0.840786 -0.10227,-2.463617 -0.176607,-3.606289 -0.105347,-1.619328 0.03432,-2.416912 0.633148,-3.615972 0.422571,-0.846113 0.984983,-1.538387 1.249814,-1.538387 0.339093,0 0.201506,0.477785 -0.465208,1.615444 -0.891509,1.521245 -0.933359,1.789127 -0.717751,4.594133 0.125931,1.638283 0.267444,3.153679 0.31448,3.367547 0.04704,0.213868 -0.112917,0.461609 -0.355452,0.550538 -0.306236,0.112289 -0.453637,-0.305397 -0.482424,-1.367014 z m -1.364258,0.499769 c 0.0028,-0.145521 0.15929,-0.502708 0.347377,-0.79375 0.276531,-0.427905 0.343005,-0.377274 0.347376,0.264584 0.0028,0.436562 -0.153349,0.79375 -0.347376,0.79375 -0.194028,0 -0.350348,-0.119063 -0.347377,-0.264584 z m 0.18941,-2.645833 c -0.0747,-0.242535 -0.231564,-1.613274 -0.34858,-3.046088 -0.11702,-1.432814 -0.380481,-3.271203 -0.585477,-4.085308 -0.462714,-1.837602 -0.299025,-3.787193 0.335485,-3.995738 0.359272,-0.118081 0.423047,0.09447 0.256458,0.854777 -0.121948,0.556567 -0.05495,1.885065 0.148883,2.952218 0.641819,3.360212 0.798199,9.284286 0.193231,7.320139 z m 24.235049,-6.642841 c 0.33955,-0.197767 0.61493,-0.629504 0.61196,-0.959411 -0.005,-0.511616 -0.0542,-0.522665 -0.33717,-0.07511 -0.26073,0.412386 -0.31903,0.355741 -0.2723,-0.264584 0.0791,-1.050632 0.53437,-0.999186 1.04335,0.117906 0.44116,0.968251 0.009,1.557609 -1.13404,1.546108 -0.41423,-0.0042 -0.39508,-0.08342 0.0882,-0.364906 z m -2.73403,-1.735632 c -0.11991,-0.194027 0.10884,-0.352777 0.50835,-0.352777 0.3995,0 0.72637,0.15875 0.72637,0.352777 0,0.194028 -0.22875,0.352778 -0.50834,0.352778 -0.27959,0 -0.60646,-0.15875 -0.72638,-0.352778 z m 1.79315,0.04735 c -0.15196,-0.245886 -0.18103,-0.542336 -0.0646,-0.658781 0.31573,-0.315722 0.65997,0.148625 0.48944,0.660206 -0.11949,0.358482 -0.20259,0.358203 -0.42485,-0.0014 z m -3.557037,-0.400124 c -0.275936,-0.446476 0.191075,-0.446476 0.881944,0 0.456032,0.29471 0.446719,0.34272 -0.06737,0.347376 -0.328097,0.003 -0.694654,-0.153349 -0.81457,-0.347376 z M 83.084941,35.768387 c 0,-0.582084 0.15875,-1.058334 0.352777,-1.058334 0.194028,0 0.352778,0.47625 0.352778,1.058334 0,0.582083 -0.15875,1.058333 -0.352778,1.058333 -0.194027,0 -0.352777,-0.47625 -0.352777,-1.058333 z M 59.184248,33.085406 c -0.242535,-0.10892 -0.440972,-0.383248 -0.440972,-0.609611 0,-0.292992 1.55003,-0.428681 5.379861,-0.470944 2.958923,-0.03267 5.840613,-0.112032 6.403755,-0.176389 1.66382,-0.190154 1.462705,0.643086 -0.216824,0.898331 -2.132946,0.32415 -10.595199,0.596911 -11.12582,0.358613 z M 76.163349,31.46641 c -0.420401,-0.680223 1.847064,-1.605379 2.922849,-1.192559 0.785304,0.30135 0.262371,0.756321 -1.378345,1.199216 -0.898941,0.242661 -1.39173,0.240538 -1.544504,-0.0067 z M 59.553913,19.429645 c -0.792153,-0.358893 -2.038838,-2.005703 -1.518377,-2.005703 0.210943,0 0.813666,0.306174 1.339386,0.680387 0.637037,0.45345 1.779515,0.739584 3.425298,0.857867 2.934391,0.210896 2.645833,0.148926 2.645833,0.568205 0,0.406411 -4.95992,0.321595 -5.89214,-0.100756 z m 19.216436,-1.300148 c -0.122767,-0.291041 -0.474292,-1.433899 -0.781167,-2.539683 -0.306877,-1.105785 -0.714621,-2.107341 -0.906099,-2.225681 -0.514092,-0.317727 -0.430318,-1.670372 0.09283,-1.498867 0.640264,0.2099 2.083026,4.466881 1.939713,5.723277 -0.07891,0.691819 -0.200974,0.883054 -0.345277,0.540954 z M 69.276013,17.60853 c -0.09251,-0.0925 -1.587401,-0.212243 -3.321992,-0.266087 -2.520566,-0.07824 -3.153801,-0.203844 -3.153801,-0.62556 0,-0.590027 1.255948,-0.632221 5.027083,-0.168884 1.488824,0.182923 2.204861,0.426426 2.204861,0.749809 0,0.469398 -0.423464,0.64341 -0.756151,0.310722 z M 58.551559,17.095056 c -0.185597,-0.183429 -1.527605,-0.391758 -2.98224,-0.462954 -2.188771,-0.107127 -2.665531,-0.237148 -2.765085,-0.75409 -0.110146,-0.571939 0.127894,-0.605063 2.821179,-0.392572 3.358466,0.264971 5.328883,0.773495 5.144179,1.327608 -0.167187,0.501563 -1.787443,0.707567 -2.218033,0.282008 z m 5.747967,-2.834065 c -1.503716,-0.963459 -2.734028,-1.902954 -2.734028,-2.087766 0,-0.184812 -0.09636,-0.587131 -0.214132,-0.894042 -0.336403,-0.876652 0.562649,-0.658587 1.335492,0.323925 0.381556,0.48507 0.987556,0.881945 1.346667,0.881945 0.359112,0 1.380838,0.555625 2.270504,1.234722 1.015873,0.775434 2.010114,1.234722 2.672853,1.234722 0.702843,0 1.055282,0.176729 1.055282,0.529167 0,0.387371 -0.401754,0.529154 -1.499306,0.529119 -1.195484,-3.8e-5 -2.05333,-0.355023 -4.233332,-1.751792 z m -13.771837,0.05028 c -1.38798,-0.262174 -0.429167,-0.701359 2.035374,-0.932305 2.834707,-0.265634 4.883403,-0.0021 4.681945,0.602281 -0.115774,0.347324 -5.281984,0.601142 -6.717319,0.330024 z M 74.631458,10.327555 C 74.009483,9.8099993 73.471719,9.6628356 72.738393,9.8095016 71.852204,9.9867389 71.738289,9.921814 71.893575,9.3280008 72.010453,8.8810663 71.870926,8.5926757 71.493585,8.5012749 70.970701,8.3746181 70.974021,8.3348107 71.527592,8.0936758 c 0.763676,-0.3326663 4.273942,1.5683985 4.439479,2.4043042 0.151423,0.764619 -0.277717,0.709859 -1.335599,-0.170425 z m 7.042372,-0.31951 c 0,-0.4812751 1.696317,-1.2359334 2.029406,-0.9028435 0.304409,0.3044056 -0.885479,1.2631845 -1.567666,1.2631845 -0.253958,0 -0.46174,-0.162153 -0.46174,-0.360341 z M 54.509943,8.9884494 c 0,-0.4872038 4.702207,-2.2296837 5.645397,-2.0919942 1.25212,0.1827876 1.320536,1.0024862 0.08367,1.0024862 -0.567878,0 -1.955334,0.3175 -3.083237,0.7055556 -2.305952,0.793364 -2.645833,0.8426863 -2.645833,0.3839524 z m 30.221295,-0.26636 c -0.524884,-0.5248825 -0.170247,-0.823148 0.978715,-0.823148 0.667646,0 1.312015,-0.15875 1.431932,-0.3527778 0.326481,-0.5282562 0.881944,-0.4249805 0.881944,0.1639768 0,0.9248288 -2.58518,1.7193613 -3.292591,1.011949 z M 84.535404,6.3533302 C 83.97308,5.7547629 83.859954,5.4282089 84.152326,5.2475133 c 0.58239,-0.3599364 2.015405,1.1208604 1.542418,1.5938472 -0.246641,0.2466411 -0.614711,0.0917 -1.15934,-0.4880303 z m 2.861366,0.290885 C 86.965542,6.3421715 86.612718,5.8659214 86.612718,5.5858819 c 0,-0.6899445 1.739685,-0.6632502 2.74678,0.042147 0.684372,0.4793523 0.72093,0.6174877 0.280085,1.0583333 -0.652611,0.6526093 -1.267404,0.6410558 -2.242813,-0.042147 z"
       style="fill:#000000;stroke-width:0.35277778" />
  </g>
</svg>
