<?xml version="1.0" encoding="UTF-8" standalone="no"?>
<!-- Created with Inkscape (http://www.inkscape.org/) -->

<svg
   xmlns:dc="http://purl.org/dc/elements/1.1/"
   xmlns:cc="http://creativecommons.org/ns#"
   xmlns:rdf="http://www.w3.org/1999/02/22-rdf-syntax-ns#"
   xmlns:svg="http://www.w3.org/2000/svg"
   xmlns="http://www.w3.org/2000/svg"
   xmlns:sodipodi="http://sodipodi.sourceforge.net/DTD/sodipodi-0.dtd"
   xmlns:inkscape="http://www.inkscape.org/namespaces/inkscape"
   width="78.302567mm"
   height="198.60567mm"
   viewBox="0 0 78.302573 198.60567"
   version="1.1"
   id="svg8"
   inkscape:version="0.92.2 5c3e80d, 2017-08-06"
   sodipodi:docname="Figure_129.svg">
  <defs
     id="defs2" />
  <sodipodi:namedview
     id="base"
     pagecolor="#ffffff"
     bordercolor="#666666"
     borderopacity="1.0"
     inkscape:pageopacity="0.0"
     inkscape:pageshadow="2"
     inkscape:zoom="0.7"
     inkscape:cx="100.90434"
     inkscape:cy="401.26341"
     inkscape:document-units="mm"
     inkscape:current-layer="layer1"
     showgrid="false"
     fit-margin-top="0"
     fit-margin-left="0"
     fit-margin-right="0"
     fit-margin-bottom="0"
     inkscape:window-width="1440"
     inkscape:window-height="807"
     inkscape:window-x="0"
     inkscape:window-y="1"
     inkscape:window-maximized="1" />
  <metadata
     id="metadata5">
    <rdf:RDF>
      <cc:Work
         rdf:about="">
        <dc:format>image/svg+xml</dc:format>
        <dc:type
           rdf:resource="http://purl.org/dc/dcmitype/StillImage" />
        <dc:title></dc:title>
      </cc:Work>
    </rdf:RDF>
  </metadata>
  <g
     inkscape:label="Layer 1"
     inkscape:groupmode="layer"
     id="layer1"
     transform="translate(-54.324274,217.21437)">
    <path
       style="fill:#000000;stroke-width:0.35277778"
       d="m 67.530337,-18.705492 c -0.38805,-0.106483 -1.1818,-0.55142 -1.76388,-0.988748 -1.76226,-1.32401 -5.03257,-2.710388 -7.03426,-2.982024 -2.57898,-0.349977 -3.46399,-1.01214 -3.99217,-2.986916 -0.58998,-2.205878 -0.55255,-3.583274 0.11551,-4.25134 0.65524,-0.655235 0.70363,-0.661137 1.57915,-0.192574 0.58963,0.315563 0.64851,0.624861 0.46081,2.420712 -0.24275,2.322477 -0.0202,2.632241 1.56455,2.177743 0.7725,-0.221552 1.26882,-0.173856 1.72592,0.165865 0.35853,0.266471 1.01208,0.386214 1.48134,0.271414 0.61244,-0.149829 0.79619,-0.07478 0.67885,0.277251 -0.18075,0.542241 2.14305,2.119165 5.71335,3.877063 2.12756,1.047539 2.3949,1.098632 3.70417,0.707884 0.77611,-0.23163 2.64142,-0.605141 4.14514,-0.830022 1.64447,-0.245932 2.73402,-0.575705 2.73402,-0.827501 0,-0.467413 -2.24745,-1.899422 -2.98103,-1.899422 -0.57855,0 -0.94891,-0.871912 -0.67432,-1.5875 0.27795,-0.72432 0.78137,-0.669248 3.0488,0.333516 2.14238,0.947466 3.076,1.977739 3.076,3.39447 0,1.408677 -1.01068,2.092847 -3.09162,2.092847 -0.99074,0 -2.20272,0.152605 -2.69331,0.339126 -1.06439,0.404682 -6.79395,0.763397 -7.79702,0.488156 z m 2.82081,-4.061432 c 0.29343,-1.414964 1.03062,-2.057517 2.36056,-2.057517 0.98695,0 0.98387,-0.0074 -1.16734,-2.822222 -1.1863,-1.552222 -2.33663,-2.824653 -2.5563,-2.827623 -0.74804,-0.01013 -1.37557,-0.615058 -1.10021,-1.060602 0.14934,-0.241632 0.3083,-0.934068 0.35325,-1.538746 0.045,-0.604679 0.19844,-1.535981 0.34109,-2.069557 0.16864,-0.630823 0.12259,-0.970139 -0.13167,-0.970139 -0.21506,0 -0.39102,0.170109 -0.39102,0.378026 0,0.207913 -0.3748,0.328909 -0.8329,0.268877 -0.45809,-0.06003 -1.06423,0.08284 -1.34696,0.317489 -0.69849,0.579699 -2.10433,0.663025 -5.14028,0.304673 -1.99091,-0.235003 -2.56012,-0.428593 -2.56886,-0.873675 -0.009,-0.478152 -0.096,-0.459645 -0.52916,0.113008 -0.78128,1.032941 -0.62634,2.02371 0.45219,2.891604 1.23676,0.995221 0.82158,1.436924 -1.49931,1.595077 l -1.76388,0.120199 -0.01,-1.703261 c -0.005,-0.936794 0.1229,-1.785345 0.28523,-1.885668 0.16233,-0.100323 0.19613,-0.6332 0.0751,-1.184172 -0.26636,-1.21273 0.78723,-2.458844 2.07894,-2.458844 0.72574,0 0.86787,-0.206855 1.03019,-1.499306 0.61515,-4.898034 0.29197,-11.90625 -0.54904,-11.90625 -0.1931,0 -0.1522,-0.239653 0.0909,-0.532561 0.25809,-0.310984 0.4081,-1.301722 0.36054,-2.38125 -0.4597,-10.434373 1.57906,-18.872194 6.54126,-27.072302 0.99752,-1.648421 1.18558,-2.311728 1.25028,-4.409722 0.11569,-3.751828 -0.28797,-8.412311 -0.84399,-9.744421 -0.27358,-0.65543 -0.61591,-1.82669 -0.76073,-2.6028 -0.14483,-0.77611 -0.39356,-1.56986 -0.55273,-1.763891 -0.15918,-0.19403 -0.37071,-1.09642 -0.47006,-2.00532 -0.0994,-0.9089 -0.44547,-2.2106 -0.76913,-2.89268 -0.32367,-0.68208 -0.49368,-1.39355 -0.3778,-1.58105 0.11588,-0.1875 0.047,-0.77157 -0.15316,-1.29792 -0.20012,-0.52636 -0.44617,-3.43686 -0.54677,-6.4678 l -0.18292,-5.51079 -1.142,-1.05833 c -1.13825,-1.05486 -1.14132,-1.06703 -0.93467,-3.70417 0.11404,-1.45521 0.0829,-3.20146 -0.0692,-3.88055 -0.1521,-0.6791 -0.28034,-2.27454 -0.28497,-3.54542 -0.005,-1.27088 -0.15351,-2.46151 -0.33085,-2.64583 -0.85834,-0.89216 -0.21812,-4.40754 1.15266,-6.32913 0.6357,-0.89114 0.77554,-1.65626 0.87108,-4.76574 0.18731,-6.09638 0.0571,-13.1471 -0.267,-14.46389 -0.41407,-1.68201 -0.19926,-9.2424 0.28849,-10.15378 0.50209,-0.93815 0.50245,-2.63112 9.2e-4,-4.30507 -0.72084,-2.40596 1.57276,-9.69389 3.67678,-11.68301 1.08302,-1.02387 6.86534,-4.90258 7.3087,-4.90258 0.20115,0 0.4571,-0.23813 0.56878,-0.52917 0.11169,-0.29104 0.36001,-0.52917 0.55183,-0.52917 0.19183,0 0.77016,-0.2896 1.28518,-0.64355 0.57571,-0.39567 1.41199,-0.60494 2.17112,-0.54331 1.63035,0.13238 4.52875,-0.5547 5.69891,-1.35095 0.51502,-0.35045 1.25149,-0.63719 1.63661,-0.63719 0.63945,0 2.70496,-1.3723 2.10624,-1.39937 -0.1428,-0.006 0.0552,-0.8532 0.43999,-1.88165 0.65363,-1.74697 0.66509,-2.00252 0.17435,-3.88662 -0.6323,-2.42754 -0.58431,-6.94519 0.0765,-7.19875 0.24792,-0.0951 0.4519,-0.59256 0.45328,-1.10538 0.002,-0.60301 0.46896,-1.40192 1.32291,-2.2615 2.78686,-2.80522 3.64419,-3.24067 4.24981,-2.15849 0.52436,0.93699 1.79882,0.30744 1.72091,-0.85009 -0.0628,-0.93395 -0.0249,-0.95233 1.80818,-0.87531 2.0102,0.0845 3.62528,0.68941 3.87371,1.45096 0.12218,0.37452 -0.25277,0.4205 -1.82603,0.22393 -1.23026,-0.15371 -1.97978,-0.116 -1.97978,0.0996 0,0.43767 2.27676,0.75371 3.80293,0.5279 0.941613,-0.13932 1.117723,-0.29529 0.945643,-0.83747 -0.2712,-0.85447 0.96226,-1.35751 2.48598,-1.01385 1.29323,0.29167 3.65006,1.93426 4.89048,3.40842 1.50822,1.79242 2.17383,10.0826 0.92987,11.58148 -0.27398,0.33012 -0.29444,0.89523 -0.0662,1.82772 0.48854,1.99593 0.50628,4.34479 0.0371,4.91014 -0.2267,0.27316 -0.94534,0.49665 -1.59698,0.49665 -0.96431,0 -1.22533,0.16144 -1.40253,0.86747 -0.11975,0.47711 -0.41322,1.02973 -0.65216,1.22803 -0.70737,0.58706 -0.25228,2.40148 0.65975,2.63038 1.02483,0.25722 2.78998,4.29338 2.77514,6.34562 -0.01,1.31177 -0.17557,2.39863 -1.16528,7.62572 -0.16533,0.87313 -0.22746,2.64637 -0.13807,3.94055 0.12211,1.76809 -0.0162,2.88349 -0.5563,4.48679 -0.99361,2.94949 -0.96593,4.90356 0.0749,5.29154 1.24213,0.46299 8.18271,0.28867 8.79652,-0.22094 0.28936,-0.24023 0.70561,-1.03398 0.92502,-1.76389 0.21941,-0.72991 0.88772,-1.86118 1.48514,-2.51395 l 1.08623,-1.18684 3.06987,0.24715 c 3.06745,0.24696 4.87027,0.903 5.35904,1.95015 0.13585,0.29104 0.42318,0.8726 0.63851,1.29236 0.61138,1.19177 0.53874,3.23644 -0.21691,6.10557 -0.58189,2.20941 -0.91106,2.8176 -2.03624,3.76225 -1.27095,1.06702 -1.53031,1.13591 -4.8889,1.29844 -4.77173,0.23093 -8.95291,0.77817 -10.83958,1.41871 -1.11989,0.38021 -1.94613,0.44178 -2.952,0.21998 -0.76826,-0.1694 -3.323,-0.45175 -5.6772,-0.62743 -4.445163,-0.33173 -5.512973,-0.70488 -6.317173,-2.20753 -0.39138,-0.73129 -0.40065,-0.72965 -0.99463,0.17688 -0.57322,0.87485 -0.5671,0.94978 0.13925,1.70528 0.52881,0.56559 0.67412,1.0409 0.51121,1.67215 -0.82275,3.18795 -0.83369,3.14396 2.50029,10.05417 0.65529,1.3582 1.27771,2.90525 1.38314,3.4379 0.10543,0.53264 1.06496,1.88202 2.132283,2.99861 1.06732,1.11658 2.41362,2.93602 2.99179,4.04318 0.90438,1.73184 0.99411,2.13837 0.64234,2.91041 -0.22489,0.49357 -0.51181,0.8974 -0.63761,0.8974 -0.1258,0 -0.51428,0.20881 -0.86329,0.46401 -0.60162,0.43992 -0.57979,0.57269 0.42058,2.55764 2.0909,4.14879 4.37426,15.05061 4.02482,19.21637 -0.30265,3.60788 -0.0661,6.715901 0.61223,8.045611 0.96017,1.88209 1.3749,4.598466 1.0583,6.931534 -0.20952,1.543953 -0.0755,3.011915 0.58182,6.373492 0.46973,2.402135 0.9062,5.374093 0.96993,6.604357 0.0637,1.230263 0.21717,2.400727 0.34096,2.601027 0.12379,0.200303 0.31822,2.866877 0.43206,5.925714 0.13219,3.551901 0.40213,6.136323 0.74704,7.152242 0.29703,0.874896 0.45783,1.929419 0.35731,2.34339 -0.17523,0.721702 0.79222,2.340176 1.39885,2.340176 0.55958,0 2.25581,1.915827 2.25581,2.547857 0,0.358584 0.25181,1.036274 0.55958,1.505987 0.30776,0.469709 0.45714,1.01975 0.33195,1.222308 -0.12519,0.202561 -0.0138,0.368293 0.2475,0.368293 0.26132,0 1.02475,0.469798 1.69652,1.043996 0.67177,0.574199 1.40008,1.050449 1.61847,1.058334 0.21839,0.0079 1.32443,0.424455 2.45786,0.92571 2.03525,0.900084 3.99535,1.026245 5.50144,0.354094 0.43877,-0.195817 1.01842,0.175976 2.20486,1.414215 2.38134,2.485309 2.14712,4.131854 -0.78182,5.496 -1.4424,0.671791 -2.22295,0.769838 -5.8265,0.731869 -2.28853,-0.0241 -4.67143,-0.212305 -5.29531,-0.418208 -1.39646,-0.460872 -4.55063,-0.50262 -9.41733,-0.12464 -4.51239,0.350461 -4.80358,0.307199 -6.33158,-0.940699 l -1.2163,-0.993338 0.45693,-1.539638 c 0.25132,-0.846801 0.60022,-1.815296 0.77533,-2.152213 0.49159,-0.945776 0.38464,-1.619448 -0.43252,-2.724725 -0.85412,-1.155256 -0.73645,-2.233669 0.38477,-3.526448 0.94527,-1.089904 0.65424,-2.966248 -0.92344,-5.953747 -0.64892,-1.228788 -1.17985,-2.445939 -1.17985,-2.704782 0,-0.25884 -0.33351,-1.237845 -0.74113,-2.17556 -2.310083,-5.314297 -3.742703,-10.701888 -3.736613,-14.052166 0.0119,-6.531942 -0.22031,-10.672685 -0.63469,-11.318643 -0.25944,-0.404421 -0.90212,-1.991921 -1.42819,-3.527778 -1.40091,-4.08995 -3.41454,-8.18377 -5.45127,-11.082751 -0.8229,-1.17127 -4.80531,-9.11003 -5.13208,-10.23055 -0.14145,-0.48507 -0.47393,-1.19508 -0.73883,-1.57781 -0.26491,-0.38271 -0.48165,-1.0574 -0.48165,-1.4993 0,-0.4419 -0.15875,-0.80345 -0.35278,-0.80345 -0.36549,0 -0.50238,3.60473 -0.32822,8.64306 0.0537,1.55222 0.0844,3.13972 0.0684,3.52778 -0.016,0.38805 -0.11688,3.28568 -0.22411,6.439171 -0.10723,3.15348 -0.37567,6.404685 -0.59652,7.224886 -0.22086,0.820202 -0.38482,2.923198 -0.36435,4.673329 0.0304,2.601479 -0.0909,3.391242 -0.66492,4.328584 -0.38618,0.63059 -0.84458,1.146527 -1.01867,1.146527 -0.44417,0 -3.02885,4.05715 -3.93301,6.173612 -0.41445,0.970139 -0.82611,2.716389 -0.91481,3.880556 -0.28568,3.749467 -1.71364,9.027827 -4.0701,15.044868 -0.35311,0.901623 -0.74564,2.806623 -0.87231,4.233334 -0.12666,1.426711 -0.35605,2.755339 -0.50975,2.952507 -0.15369,0.197164 -0.37101,1.784664 -0.48292,3.527778 -0.11191,1.74311 -0.29633,3.970736 -0.40981,4.950277 -0.18928,1.633872 -0.13641,1.81284 0.64009,2.166637 1.12754,0.51374 1.71434,2.58716 1.35903,4.802043 -0.25724,1.603566 -0.22109,1.720318 0.6764,2.184429 1.38056,0.713913 3.53168,3.993843 3.53168,5.384934 0,0.764777 -0.16975,1.143473 -0.51256,1.143473 -1.12959,0 -2.28317,0.809064 -2.20833,1.548807 0.0544,0.537627 -0.15302,0.77457 -0.7531,0.860348 -0.76577,0.10946 -0.80979,0.02981 -0.58437,-1.057194 z m -4.14234,-13.510702 c 0.0493,-0.04051 0.25004,-2.679174 0.44618,-5.863707 0.19613,-3.184528 0.49524,-6.425053 0.66468,-7.201165 0.16945,-0.776111 0.50022,-2.284236 0.73505,-3.351389 0.23484,-1.067152 0.98637,-3.845278 1.67008,-6.173611 0.6837,-2.328334 1.47981,-5.265209 1.76912,-6.526389 0.99427,-4.33432 2.95944,-10.762298 3.88265,-12.700001 0.50844,-1.067153 1.55224,-2.690389 2.31956,-3.607192 1.47664,-1.764309 2.06204,-4.117051 1.26372,-5.078966 -0.24319,-0.293025 -0.29097,-0.852724 -0.12394,-1.451621 0.14953,-0.536099 0.23996,-1.23299 0.20097,-1.548652 -0.039,-0.315662 0.15634,-0.661131 0.43407,-0.767705 0.7054,-0.270686 0.94292,-3.731175 1.08231,-15.768086 0.14712,-12.70429 0.17764,-12.4598 -1.6762,-13.42607 -1.28335,-0.66892 -2.10655,-0.76842 -6.93069,-0.83766 -3.0109,-0.0432 -6.18873,-0.20153 -7.06186,-0.3518 l -1.5875,-0.27322 0.11862,4.88674 c 0.14419,5.94025 0.67324,9.03534 0.72789,4.2583 0.0289,-2.5279 0.14218,-3.13885 0.61562,-3.32052 1.09589,-0.42053 1.44837,0.74011 1.2797,4.21372 -0.18912,3.8948 0.25947,6.69997 2.01678,12.611621 0.82181,2.76458 1.75466,9.491464 1.35085,9.74104 -0.57577,0.355844 -0.99471,-0.285443 -1.01898,-1.559778 -0.0136,-0.716153 -0.16123,-1.619596 -0.32798,-2.007652 -0.39645,-0.92259 -0.41284,1.102851 -0.0386,4.762501 0.20382,1.992873 0.11603,3.451934 -0.35573,5.912206 -0.7086,3.695404 -0.84666,4.022161 -1.66544,3.94183 -1.18952,-0.11671 -1.42252,0.05157 -1.84536,1.33278 -0.23761,0.719974 -0.80554,2.052715 -1.26208,2.961651 -0.45653,0.908936 -0.83006,2.071218 -0.83006,2.582849 0,0.51163 -0.26004,1.520447 -0.57788,2.241821 -1.04969,2.382432 -1.80714,8.178046 -1.2549,9.601864 0.32763,0.844698 0.35246,0.82235 0.58797,-0.529167 0.54335,-3.118111 1.27,-4.548787 1.94638,-3.832179 0.30319,0.321218 -0.70672,6.247981 -1.13816,6.679417 -0.13855,0.138554 -0.49387,0.05111 -0.7896,-0.194327 -0.47452,-0.393817 -0.53706,-0.09922 -0.53229,2.507368 0.003,1.624485 0.15929,3.191736 0.34737,3.482777 0.22799,0.352778 0.34378,0.382175 0.34738,0.0882 0.007,-0.602442 0.94279,-0.559439 1.17825,0.05417 0.30451,0.793524 -0.13627,1.933663 -0.83305,2.154812 -0.57946,0.183911 -0.64517,0.691463 -0.67109,5.183372 -0.0174,3.016271 -0.17954,5.161209 -0.41124,5.440391 -0.58568,0.705703 -0.21828,1.277059 1.10843,1.723757 0.96281,0.324174 4.4473,0.329702 4.83895,0.0077 z m 5.48086,-39.596722 c -0.008,-2.09387 -0.0734,-4.118458 -0.14628,-4.499081 -0.0838,-0.437712 0.087,-0.737499 0.46476,-0.815742 0.81342,-0.16848 1.07604,1.409524 0.92993,5.587637 -0.094,2.688999 -0.22226,3.339673 -0.67534,3.426746 -0.48193,0.09262 -0.56118,-0.41898 -0.57307,-3.69956 z m 1.74346,-14.21335 c -1.3613,-1.26824 -2.49714,-4.862641 -1.42353,-4.504771 0.23228,0.0774 0.76832,0.75881 1.19121,1.514199 0.42289,0.755382 0.92317,1.424852 1.11175,1.48771 0.66226,0.220758 2.21362,-0.603214 2.21362,-1.175723 0,-1.080886 1.22173,-4.024826 1.6703,-4.024826 0.62299,0 0.55766,1.95206 -0.12987,3.880554 -0.31128,0.873125 -0.58678,1.984375 -0.61222,2.469444 -0.0413,0.786913 -0.21782,0.893163 -1.63836,0.986053 -1.2233,0.08 -1.77527,-0.06655 -2.3829,-0.63264 z m -3.80209,-9.804911 c -0.87129,-0.600041 -2.65367,-3.825931 -2.55703,-4.627881 0.24311,-2.01723 1.65683,-0.72791 2.98099,2.71867 0.56918,1.48149 0.35507,2.445721 -0.42396,1.909211 z m 40.232643,57.570312 c 3.38494,-0.676942 2.99453,-0.679683 5.82083,0.04086 3.67588,0.937137 12.52023,0.181046 12.9496,-1.107041 0.0603,-0.180869 -0.34054,-0.498768 -0.89072,-0.706438 -0.85738,-0.323624 -1.13792,-0.259228 -1.96316,0.45061 -1.27729,1.098681 -1.57287,1.048798 -2.16365,-0.365128 -0.31332,-0.749882 -0.8209,-1.274219 -1.36592,-1.411009 -0.47703,-0.119726 -1.31612,-0.584944 -1.86465,-1.033819 -0.54853,-0.448874 -1.81673,-1.311938 -2.81821,-1.917922 l -1.82088,-1.101785 -2.31472,1.206895 c -2.18434,1.138915 -2.33449,1.169959 -2.66569,0.551113 -0.4613,-0.86196 0.36282,-1.615885 2.59937,-2.377955 l 1.67983,-0.572375 -0.24412,-1.63116 c -0.37244,-2.488639 -0.74987,-2.730073 -2.13637,-1.366577 -2.14094,2.105442 -4.6532,3.288588 -6.2056,2.922542 -1.11271,-0.262368 -1.65649,0.15518 -1.92036,1.474576 l -0.21977,1.09885 1.996,0.249386 c 3.19688,0.399422 4.09267,1.92828 1.06184,1.812272 -1.08737,-0.04162 -1.70291,0.107601 -1.9308,0.468069 -0.38251,0.605028 -0.46371,3.291833 -0.11017,3.64537 0.36377,0.363774 1.46042,0.283996 4.52732,-0.329336 z m 0.0882,-10.941904 c 1.62576,-0.943963 1.73723,-1.323041 1.1443,-3.89121 -0.3641,-1.577044 -0.39133,-1.798366 -1.23025,-10.002365 -0.65402,-6.395834 -1.04566,-9.445446 -1.83759,-14.309052 -0.51917,-3.188459 -0.65253,-3.547142 -1.31157,-3.527778 -1.00039,0.02939 -1.18868,-1.871053 -0.31717,-3.201141 0.95141,-1.452034 0.83692,-6.214222 -0.1753,-7.291682 -0.98681,-1.05041 -1.4139,-3.24157 -1.49182,-7.653681 -0.10213,-5.78283 -0.87911,-11.68886 -2.08846,-15.875 -0.36435,-1.26118 -0.75662,-2.84868 -0.87173,-3.52778 -0.38595,-2.2772 -0.50563,-2.29365 -3.971173,-0.54587 -1.74946,0.88231 -3.40232,1.60479 -3.67303,1.60552 -0.2707,7.1e-4 -0.96843,0.29042 -1.55052,0.64377 -1.15776,0.70281 -3.88093,1.47158 -5.2127,1.47158 -1.0946,0 -3.54107,2.39261 -3.22762,3.15657 0.12357,0.30118 0.46093,1.22228 0.74969,2.0469 0.28875,0.82462 0.67821,1.49931 0.86545,1.49931 0.18724,0 0.24163,-0.15987 0.12086,-0.35527 -0.12076,-0.1954 0.0391,-0.45452 0.35521,-0.57583 0.70031,-0.26874 2.99772,1.83375 2.99772,2.74337 0,1.18964 -0.79081,1.09223 -1.97945,-0.24383 -1.39936,-1.57292 -1.5241,-1.05412 -0.35186,1.46339 0.77917,1.67334 0.91144,1.78615 1.92066,1.63802 0.92801,-0.1362 1.1163,-0.0298 1.30945,0.73976 0.12408,0.49436 1.12354,1.81086 2.22104,2.92556 1.96236,1.99313 3.00876,3.51566 4.81825,7.010661 1.52748,2.95029 2.59396,3.95569 4.497333,4.239752 l 1.67569,0.250084 v -1.124256 c 0,-0.88011 0.13407,-1.09885 0.61737,-1.00726 0.75251,0.14261 1.05745,2.543306 0.42053,3.310746 -0.58463,0.704437 -2.9846,0.635215 -3.91139,-0.112815 -3.533833,-2.852211 -5.593173,-5.446161 -5.593173,-7.045161 0,-0.55334 -0.29004,-0.93188 -0.88827,-1.15933 -0.48855,-0.185741 -1.04025,-0.737441 -1.22599,-1.225991 -0.18575,-0.48855 -0.5004,-0.88827 -0.69923,-0.88827 -0.54298,0 -0.43472,0.91119 0.16765,1.41111 0.29105,0.24155 0.53151,0.697551 0.53437,1.013341 0.003,0.31579 0.2013,0.9093 0.44097,1.31891 1.53431,2.62219 2.35085,4.46881 2.84134,6.42574 0.30763,1.227381 0.84473,2.715023 1.19355,3.305873 0.58926,0.998114 3.626033,3.011132 5.809413,3.850944 0.93755,0.36062 1.50779,1.185309 1.18299,1.710852 -0.29478,0.476963 -4.17217,-1.015654 -5.202423,-2.002691 l -0.98466,-0.94337 0.25328,1.744232 c 0.1393,0.959326 0.23028,2.141104 0.20216,2.626173 -0.16135,2.783452 -0.0192,7.915766 0.23753,8.577069 0.16475,0.424349 0.56956,1.803418 0.89959,3.064598 0.864073,3.302022 1.578933,5.232471 2.148533,5.802073 0.27364,0.273643 0.49753,0.716894 0.49753,0.985005 0,0.444567 0.85191,2.724267 2.20962,5.912923 0.28916,0.679097 0.64012,2.028472 0.77991,2.998611 0.1398,0.970139 0.33627,1.897208 0.43661,2.060156 0.29196,0.474122 2.61762,-0.09704 4.24678,-1.04297 z m -1.46007,-1.987325 c -0.0633,-0.242534 -0.40306,-1.358237 -0.75514,-2.47934 -0.49159,-1.565317 -0.54361,-2.134894 -0.22418,-2.454324 0.69365,-0.693657 1.48736,0.473488 1.77788,2.614404 0.14408,1.061713 0.19972,2.117105 0.12366,2.345313 -0.18274,0.548199 -0.77683,0.531417 -0.92222,-0.02604 z m -4.94855,-14.111112 c -0.2685,-0.63059 -0.91957,-2.309202 -1.44682,-3.730247 -0.52724,-1.421046 -1.49562,-3.381686 -2.151943,-4.356979 -1.33283,-1.980576 -1.47027,-2.513351 -0.6051,-2.345584 0.808793,0.156831 2.634763,2.855344 3.657843,5.405727 0.467,1.164167 1.04031,2.434167 1.27403,2.822222 0.23372,0.388056 0.53373,1.300868 0.66669,2.028473 0.19842,1.085818 0.13885,1.322916 -0.33239,1.322916 -0.31578,0 -0.79381,-0.515937 -1.06231,-1.146528 z m -0.54633,-18.938614 c -0.5317,-0.993479 -0.4487,-2.139859 0.15492,-2.139859 0.60102,0 1.57537,1.728407 1.34236,2.38125 -0.23756,0.665628 -1.08498,0.529008 -1.49728,-0.241391 z m -37.054083,8.225448 c 0,-0.291042 -0.15875,-0.431056 -0.35278,-0.31114 -0.19403,0.119917 -0.35278,0.456153 -0.35278,0.747194 0,0.291042 0.15875,0.431056 0.35278,0.31114 0.19403,-0.119916 0.35278,-0.456153 0.35278,-0.747194 z m 0.4122,-18.560885 c -0.26178,-0.26178 -0.30769,-0.12405 -0.15424,0.46275 0.12474,0.47702 0.28465,0.63694 0.37272,0.37272 0.0848,-0.25451 -0.0135,-0.63047 -0.21848,-0.83547 z m 25.02677,-4.416231 c -0.18624,-0.33955 -0.66808,-0.89362 -1.07074,-1.23127 -0.40267,-0.33765 -0.73212,-0.85358 -0.73212,-1.14652 0,-0.29295 -0.16891,-0.53262 -0.37535,-0.53262 -0.39175,0 0.99498,2.80588 1.61007,3.25779 0.62806,0.46142 0.91541,0.28573 0.56814,-0.34738 z m -27.16978,-5.13511 c -0.27929,-0.2793 -0.38586,-0.18776 -0.38586,0.33145 0,0.93266 0.49335,1.42771 0.65045,0.6527 0.0667,-0.32906 -0.0524,-0.77193 -0.26459,-0.98415 z m 20.14334,-11.09267 c 0.29163,-0.33955 0.62932,-0.89666 0.75044,-1.23804 0.18759,-0.52872 0.0649,-0.50583 -0.82832,0.15454 -0.5767,0.42637 -1.04854,0.98349 -1.04854,1.23804 0,0.64537 0.49812,0.57703 1.12642,-0.15454 z m -2.76273,-1.67569 c -0.11169,-0.29104 -0.34483,-0.52917 -0.5181,-0.52917 -0.17327,0 -0.31503,0.23813 -0.31503,0.52917 0,0.29104 0.23314,0.52917 0.51809,0.52917 0.31559,0 0.43873,-0.20683 0.31504,-0.52917 z m 6.38019,-0.20652 c -0.11359,-0.18379 -0.35689,-0.24122 -0.54068,-0.12764 -0.18378,0.11359 -0.24122,0.35689 -0.12763,0.54068 0.11358,0.18379 0.35689,0.24122 0.54067,0.12763 0.18379,-0.11358 0.24123,-0.35688 0.12764,-0.54067 z m -8.62443,-0.32265 c 0,-0.19403 -0.16812,-0.35278 -0.3736,-0.35278 -0.20548,0 -0.27549,0.15875 -0.15557,0.35278 0.11991,0.19403 0.28803,0.35278 0.3736,0.35278 0.0856,0 0.15557,-0.15875 0.15557,-0.35278 z m -2.11667,-0.70555 c 0,-0.19403 -0.15875,-0.35278 -0.35278,-0.35278 -0.19403,0 -0.35278,0.15875 -0.35278,0.35278 0,0.19402 0.15875,0.35277 0.35278,0.35277 0.19403,0 0.35278,-0.15875 0.35278,-0.35277 z m 16.58055,-0.39442 c 0,-0.19403 -0.15875,-0.25467 -0.35277,-0.13475 -0.19403,0.11992 -0.35278,0.37678 -0.35278,0.5708 0,0.19403 0.15875,0.25467 0.35278,0.13476 0.19402,-0.11992 0.35277,-0.37678 0.35277,-0.57081 z m -10.73989,-0.93807 c -0.29442,-0.29442 -0.90155,0.32756 -0.89055,0.91234 0.01,0.52375 0.074,0.51359 0.52552,-0.0833 0.28286,-0.37389 0.44713,-0.74697 0.36503,-0.82907 z m -2.49325,-0.29845 c 0.33348,-0.50896 0.43197,-0.81762 0.21886,-0.68591 -0.40725,0.2517 -1.22862,1.61129 -0.97342,1.61129 0.0815,0 0.42107,-0.41642 0.75456,-0.92538 z m 13.86146,-1.16943 c 1.17731,-0.89171 1.44529,-1.43297 0.70947,-1.43297 -0.48641,0 -3.10167,2.45687 -3.10167,2.91382 0,0.29969 0.22651,0.15946 2.3922,-1.48085 z m -14.59302,-0.77593 c -0.3307,-0.53507 -1.5171,0.70854 -1.45554,1.52574 0.0489,0.64879 0.11926,0.62965 0.8626,-0.23454 0.44517,-0.51753 0.71199,-1.09857 0.59294,-1.2912 z m 7.03769,-0.65704 c 0.28921,-0.67909 0.62207,-1.68051 0.73969,-2.22536 0.11761,-0.54485 0.76412,-1.77354 1.43669,-2.73041 1.17418,-1.67051 1.66806,-3.86367 0.87008,-3.86367 -0.19403,0 -0.35278,0.18345 -0.35278,0.40767 0,0.22422 -0.39687,0.928 -0.88194,1.56396 -0.48507,0.63596 -0.88195,1.28878 -0.88195,1.45071 0,0.16194 -0.41772,0.90916 -0.92826,1.66049 -0.51054,0.75133 -0.75964,1.26184 -0.55354,1.13447 0.51839,-0.32039 0.91258,0.42063 0.50105,0.9419 -0.43213,0.54736 -2.19425,3.74538 -2.19425,3.98229 0,0.57791 1.80533,-1.2892 2.24521,-2.32205 z m -14.94521,1.39029 c 0,-0.18257 -0.15875,-0.33195 -0.35278,-0.33195 -0.19402,0 -0.35277,0.24749 -0.35277,0.54998 0,0.3025 0.15875,0.45188 0.35277,0.33196 0.19403,-0.11992 0.35278,-0.36741 0.35278,-0.54999 z m 25.88507,0.0922 c 0.0957,-0.15478 0.0281,-0.51197 -0.15017,-0.79375 -0.27239,-0.43059 -0.32496,-0.41852 -0.3295,0.0756 -0.003,0.32337 -0.20384,0.66803 -0.44637,0.76589 -0.27152,0.10956 -0.21173,0.18864 0.15557,0.20579 0.3281,0.0153 0.67481,-0.0988 0.77047,-0.25358 z m -8.14656,-0.95769 c 0.57272,-0.78711 0.57559,-0.84376 0.0322,-0.63526 -0.50835,0.19507 -0.56327,0.0626 -0.37152,-0.89613 0.12376,-0.61878 0.62518,-1.55661 1.11427,-2.08408 1.24708,-1.34492 1.11443,-1.77484 -0.15573,-0.50469 -1.18881,1.18882 -2.30604,3.68614 -2.00271,4.47662 0.28446,0.74129 0.65397,0.64608 1.38344,-0.35646 z m -19.5024,-2.11783 c 0,-0.28798 -0.1458,-0.5236 -0.324,-0.5236 -0.4141,0 -1.79597,2.22041 -1.78232,2.86386 0.0139,0.65459 2.10632,-1.67024 2.10632,-2.34026 z m 6.28959,1.20593 c 0.65275,-1.04522 0.36304,-1.12365 -0.39703,-0.10748 -0.34861,0.46606 -0.50585,0.84739 -0.34944,0.84739 0.15641,0 0.49232,-0.33296 0.74647,-0.73991 z m 16.4035,-2.59801 0.74471,-1.04486 -0.9294,0.69208 c -0.51117,0.38065 -1.20739,1.16834 -1.54716,1.75042 l -0.61776,1.05834 0.80245,-0.70556 c 0.44134,-0.38805 1.13756,-1.17574 1.54716,-1.75042 z m -25.90244,0.71653 c -0.0928,-0.0928 -0.37891,0.18122 -0.63579,0.60896 -0.44623,0.74306 -0.43871,0.75058 0.16875,0.16875 0.34968,-0.33493 0.55985,-0.6849 0.46704,-0.77771 z m -1.92812,-0.81996 c 0.81437,-0.89973 0.90875,-1.14476 0.44097,-1.14476 -0.32734,0 -0.59516,0.21869 -0.59516,0.48597 0,0.26728 -0.23813,0.6836 -0.52917,0.92514 -0.29104,0.24154 -0.52917,0.60494 -0.52917,0.80755 0,0.20261 0.0397,0.30144 0.0882,0.21962 0.0485,-0.0818 0.55446,-0.66389 1.12434,-1.29352 z m 12.66343,-1.49528 c -0.22458,-0.22182 -1.88088,1.8069 -1.87027,2.2908 0.004,0.19402 0.4675,-0.20183 1.02944,-0.87969 0.56193,-0.67786 0.94031,-1.31286 0.84083,-1.41111 z m -2.39617,1.73816 c 0.37968,-0.61434 -0.0527,-0.74445 -0.5366,-0.16145 -0.27825,0.33528 -0.30502,0.5377 -0.0711,0.5377 0.20633,0 0.47979,-0.16931 0.60769,-0.37625 z m -6.63713,-1.38764 c 0.15361,0 0.50173,-0.35719 0.7736,-0.79375 0.46959,-0.75404 0.46084,-0.76728 -0.1749,-0.26458 -1.1019,0.8713 -1.86151,1.91551 -1.6465,2.26341 0.11104,0.17966 0.32938,-0.018 0.4852,-0.43921 0.15583,-0.42123 0.409,-0.76587 0.5626,-0.76587 z m 29.26586,0.64406 c 0.44906,-0.42188 0.81648,-0.89813 0.81648,-1.05833 0,-0.59203 -1.03573,-0.26643 -1.56749,0.49277 -1.02128,1.45807 -0.56488,1.80177 0.75101,0.56556 z m -1.30018,-1.52601 c 0.6582,-0.67909 1.02569,-1.23472 0.81663,-1.23472 -0.20907,0 -0.80391,0.55563 -1.32188,1.23472 -0.51798,0.6791 -0.88546,1.23473 -0.81663,1.23473 0.0688,0 0.66367,-0.55563 1.32188,-1.23473 z m -22.69468,0.24213 c -0.44665,-0.49354 -0.48334,-0.7355 -0.16051,-1.05833 0.32284,-0.32284 0.28141,-0.41852 -0.1812,-0.41852 -0.79635,0 -0.78345,1.26904 0.0176,1.73563 0.89848,0.52332 0.97591,0.46149 0.32407,-0.25878 z m 7.52098,-0.0578 c 0.29949,-0.5596 0.27245,-0.65889 -0.1367,-0.50189 -0.59345,0.22773 -1.05195,1.19951 -0.56594,1.19951 0.18111,0 0.4973,-0.31393 0.70264,-0.69762 z m 14.77341,-1.61344 c 0.11151,-0.57541 0.052,-0.60133 -0.44097,-0.19215 -0.67425,0.55957 -0.7582,1.21361 -0.12888,1.00407 0.24253,-0.0807 0.49897,-0.44612 0.56985,-0.81192 z m 3.2622,-0.61259 c -0.28811,-0.2881 -0.39247,-0.24862 -0.39247,0.14846 0,0.29751 0.11575,0.65668 0.25724,0.79816 0.14147,0.14148 0.31808,0.0747 0.39246,-0.14846 0.0744,-0.22313 -0.0414,-0.5823 -0.25723,-0.79816 z m -33.41898,0.25949 c 0.12048,-0.31394 0.0613,-0.45555 -0.13864,-0.33195 -0.19181,0.11854 -0.34874,0.36491 -0.34874,0.54749 0,0.50744 0.25286,0.39562 0.48738,-0.21554 z m 5.07646,-0.70905 c -0.11826,-0.11825 -0.40516,0.15579 -0.63758,0.60897 -0.40397,0.7877 -0.39451,0.79716 0.21501,0.215 0.35066,-0.33493 0.54082,-0.70571 0.42257,-0.82397 z m 15.9238,-2.21977 c 1.18166,-1.91197 2.14847,-3.59551 2.14847,-3.7412 0,-0.14569 0.47088,-0.9626 1.0464,-1.81536 0.57552,-0.85275 0.90383,-1.55046 0.72958,-1.55046 -0.33911,0 -1.77598,1.87233 -1.77598,2.31421 0,0.14576 -0.39687,0.78535 -0.88194,1.42131 -0.48507,0.63596 -0.88195,1.32904 -0.88195,1.54017 0,0.36841 -1.70438,3.17932 -2.14874,3.54375 -0.47018,0.38561 -1.03098,1.76389 -0.7177,1.76389 0.18336,0 1.3002,-1.56434 2.48186,-3.47631 z m -8.15264,2.7002 c 0.23284,-0.23283 0.42334,-0.65964 0.42334,-0.94846 0,-0.3876 -0.1848,-0.32678 -0.70556,0.23219 -0.38806,0.41653 -0.70556,0.84334 -0.70556,0.94847 0,0.33497 0.54987,0.20572 0.98778,-0.2322 z m -10.16,-0.87019 c 0,-1.03421 -0.0628,-1.02044 -0.67018,0.147 -0.34224,0.65779 -0.32021,0.79375 0.1286,0.79375 0.35153,0 0.54158,-0.33013 0.54158,-0.94075 z m 27.86769,-1.79328 c 0.001,-0.24254 -0.0619,-0.44097 -0.13979,-0.44097 -0.19363,0 -1.62545,2.4499 -1.60966,2.75419 0.0222,0.42815 1.74763,-1.85327 1.74945,-2.31322 z m 0.63918,1.48997 c -0.10862,-0.10862 -0.30588,0.0872 -0.43835,0.43509 -0.19145,0.50278 -0.15093,0.5433 0.19748,0.19749 0.2411,-0.23931 0.34949,-0.52396 0.24087,-0.63258 z m -28.15409,-2.34549 c 0,-0.16334 -0.3175,-0.0987 -0.70556,0.14364 -0.38805,0.24234 -0.70555,0.62113 -0.70555,0.84174 0,0.22061 -0.23813,0.59873 -0.52917,0.84028 -0.29104,0.24154 -0.52256,0.61817 -0.51448,0.83694 0.0165,0.44674 2.45476,-2.19797 2.45476,-2.6626 z m 15.86551,-0.0264 c 0.0201,-0.56083 -0.6767,-0.2241 -1.37602,0.66494 -1.18157,1.50213 -0.88073,2.26933 0.32718,0.83437 0.57164,-0.6791 1.04362,-1.35379 1.04884,-1.49931 z m 10.18004,-1.14774 c -0.10846,-0.10845 -0.47597,0.24432 -0.81668,0.78395 l -0.61948,0.98115 0.81668,-0.78395 c 0.44917,-0.43117 0.72794,-0.87269 0.61948,-0.98115 z m -1.73307,-0.92093 c 0.79216,-1.18629 1.4403,-2.4149 1.4403,-2.73027 0,-0.31537 -0.71438,0.49149 -1.5875,1.79301 -1.42123,2.11856 -1.87535,3.09412 -1.4403,3.09412 0.081,0 0.79533,-0.97059 1.5875,-2.15687 z m -1.81878,-0.41737 c 0.52826,-1.19321 0.53554,-1.30633 0.0841,-1.30633 -0.19403,0 -0.35783,0.27782 -0.364,0.61736 -0.006,0.33955 -0.2443,0.92552 -0.52917,1.30215 -0.28487,0.37664 -0.51794,0.82454 -0.51794,0.99534 0,0.49818 0.85102,-0.53337 1.32703,-1.60853 z m -13.32148,0.78952 c 0,-0.18258 -0.15875,-0.33196 -0.35278,-0.33196 -0.19402,0 -0.35277,0.2475 -0.35277,0.54999 0,0.30249 0.15875,0.45187 0.35277,0.33196 0.19403,-0.11992 0.35278,-0.36741 0.35278,-0.54999 z m -5.34231,-1.42159 c -0.22272,-0.13765 -0.2987,-0.52714 -0.16885,-0.86553 0.12986,-0.3384 0.33261,-0.51876 0.45057,-0.4008 0.34293,0.34293 1.53281,-0.44042 1.53281,-1.00912 0,-0.28492 0.30843,-1.09349 0.6854,-1.79683 0.58068,-1.08343 0.61148,-1.35272 0.20159,-1.76261 -0.2661,-0.2661 -0.67609,-0.48381 -0.91109,-0.48381 -0.60037,0 -1.36698,1.10025 -1.35191,1.94028 0.0117,0.65425 0.0405,0.64784 0.39547,-0.0882 0.45459,-0.94258 0.91655,-1.01821 1.23,-0.20137 0.16013,0.41728 -0.24366,1.01878 -1.36602,2.03492 -1.76052,1.5939 -2.41121,2.59511 -2.41121,3.71007 v 0.73931 l 1.05909,-0.78302 c 0.69011,-0.51022 0.91801,-0.87021 0.65415,-1.03329 z m 8.16453,0.34088 c 0,-0.17027 -0.23812,-0.30958 -0.52916,-0.30958 -0.30416,0 -0.52917,0.31838 -0.52917,0.74875 0,0.62556 0.0871,0.6765 0.52917,0.30958 0.29104,-0.24154 0.52916,-0.57848 0.52916,-0.74875 z m -12.53094,-0.96367 c -0.23146,-0.23146 -1.22782,0.93081 -1.21954,1.42264 0.004,0.2564 0.31095,0.0717 0.68142,-0.4105 0.37047,-0.48217 0.61263,-0.93763 0.53812,-1.01214 z m 13.70565,0.80128 c -0.25426,-0.66257 -0.35249,-0.63139 -0.56447,0.17919 -0.12124,0.46366 -0.0294,0.62231 0.28936,0.49997 0.25683,-0.0986 0.38063,-0.40417 0.27511,-0.67916 z m 7.0396,-3.0452 c 0.80236,-1.26986 0.78014,-1.33532 -0.45319,-1.33532 -0.75286,0 -1.07342,0.17819 -1.11057,0.61736 -0.0287,0.33955 -0.0724,0.85548 -0.097,1.14652 -0.08,0.94607 -0.5959,2.11667 -0.93292,2.11667 -0.18095,0 -0.329,0.34033 -0.329,0.75629 0,0.61209 0.22092,0.46075 1.15875,-0.79375 0.63731,-0.85252 1.43106,-1.98102 1.76388,-2.50777 z m -8.91385,0.99908 c -0.43006,-0.43015 -1.41712,0.002 -1.41712,0.61994 0,0.41387 0.15882,0.43211 0.86424,0.0993 0.49959,-0.23572 0.73287,-0.53918 0.55288,-0.71921 z m 1.53351,0.0574 c -0.13158,-0.21288 -0.33566,-0.16257 -0.51988,0.12817 -0.48217,0.76095 -0.36239,1.13428 0.2112,0.65825 0.2889,-0.23977 0.42781,-0.59366 0.30868,-0.78642 z m -13.59438,-0.30949 c 0.25414,-0.40695 0.37006,-0.83193 0.2576,-0.94439 -0.21028,-0.21028 -1.22424,0.94661 -1.2443,1.41971 -0.022,0.51925 0.53236,0.25218 0.9867,-0.47532 z m -2.05625,-0.14204 c 0.25313,-0.30501 0.28742,-0.52916 0.0809,-0.52916 -0.19703,0 -0.44961,0.23812 -0.56129,0.52916 -0.11169,0.29104 -0.14811,0.52917 -0.0809,0.52917 0.0672,0 0.31974,-0.23813 0.56129,-0.52917 z m 4.23333,-1.32848 c 0,-0.2026 -0.3175,-0.081 -0.70555,0.27015 -0.38806,0.35119 -0.70028,0.89173 -0.69382,1.2012 0.009,0.42759 0.17831,0.36273 0.70555,-0.27014 0.3816,-0.45806 0.69382,-0.9986 0.69382,-1.20121 z m 8.44709,-0.43541 c -0.002,-0.19402 -0.31611,0.022 -0.69771,0.48006 -0.3816,0.45806 -0.69029,1.01368 -0.68598,1.23472 0.004,0.22104 0.31829,0.005 0.69771,-0.48005 0.37943,-0.48507 0.68812,-1.0407 0.68598,-1.23473 z m -14.88528,0.006 c 0,-0.48861 -0.1204,-0.88838 -0.26756,-0.88838 -0.31374,0 -0.68326,1.66562 -0.42648,1.9224 0.34893,0.34893 0.69404,-0.16522 0.69404,-1.03402 z m 22.31319,0.16995 c 0.20861,-0.38979 0.23258,-0.70555 0.0536,-0.70555 -0.17823,0 -0.40707,0.3175 -0.50855,0.70555 -0.10148,0.38806 -0.12558,0.70556 -0.0536,0.70556 0.072,0 0.30087,-0.3175 0.50855,-0.70556 z m -18.34444,-0.74875 c 0,-0.39081 -0.38941,-0.3873 -1.01534,0.009 -0.26739,0.16936 -0.37232,0.49214 -0.23318,0.71728 0.1917,0.31017 0.3736,0.30926 0.75076,-0.004 0.27376,-0.22724 0.49776,-0.55245 0.49776,-0.72272 z m 9.65257,0.57236 c 0.11168,-0.29104 0.0493,-0.52916 -0.13865,-0.52916 -0.18793,0 -0.3417,0.23812 -0.3417,0.52916 0,0.29105 0.0624,0.52917 0.13864,0.52917 0.0763,0 0.23003,-0.23812 0.34171,-0.52917 z m 5.6835,-1.67029 c 0.2481,-0.17737 0.24812,-0.26089 6e-5,-0.26458 -0.19936,-0.003 -0.714,0.24081 -1.14364,0.54174 -0.63248,0.44302 -0.69778,0.63893 -0.34308,1.02937 0.36513,0.40191 0.49521,0.35486 0.7811,-0.28256 0.18866,-0.42063 0.50616,-0.88142 0.70556,-1.02397 z m -10.72056,0.0534 c 0.40422,-0.40423 0.64211,-0.8278 0.52863,-0.94128 -0.32414,-0.32413 -1.96914,0.68391 -1.96914,1.20668 0,0.6853 0.60042,0.57468 1.44051,-0.2654 z m 19.93854,-1.23706 c 0.27124,-0.64918 0.49258,-1.30449 0.49185,-1.45624 -0.002,-0.33832 -1.18742,1.59825 -1.51637,2.47643 -0.43281,1.15544 0.50614,0.22045 1.02452,-1.02019 z m -23.49572,0.008 c 1.82601,-0.74033 3.78783,-1.8482 4.6375,-2.61885 0.32282,-0.2928 1.00222,-0.82006 1.50976,-1.17167 0.50755,-0.35162 0.83846,-0.77579 0.73537,-0.94259 -0.16537,-0.26758 2.71618,-2.47505 3.23084,-2.47505 0.11018,0 0.71273,-0.43657 1.33899,-0.97014 0.62626,-0.53358 1.44096,-1.16412 1.81046,-1.4012 0.55102,-0.35355 0.56081,-0.39434 0.0544,-0.22684 -0.41657,0.1378 -0.61736,0.0198 -0.61736,-0.36269 0,-0.3118 0.13405,-0.56691 0.2979,-0.56691 0.16385,0 0.75916,-0.39668 1.32292,-0.88152 1.1466,-0.98608 1.43325,-1.06877 1.63252,-0.47095 0.0796,0.23875 0.53763,-0.0204 1.0914,-0.61736 0.8313,-0.89623 1.21515,-1.03263 2.97906,-1.05861 2.76971,-0.0408 2.90675,-0.0727 2.90675,-0.67573 0,-0.31847 0.32622,-0.52916 0.8193,-0.52916 0.45061,0 1.71761,-0.48655 2.81554,-1.08122 2.81055,-1.52225 3.12626,-2.28991 0.49728,-1.20912 -0.55213,0.22698 -0.6123,0.0951 -0.4847,-1.06278 0.11764,-1.06757 0.0185,-1.35519 -0.51562,-1.49485 -0.4804,-0.12563 -0.61856,-0.40851 -0.50511,-1.03418 0.10176,-0.56116 -0.0828,-1.06586 -0.5297,-1.4485 -0.37723,-0.323 -0.68588,-0.87508 -0.68588,-1.22683 0,-0.53827 0.11612,-0.57743 0.73312,-0.24722 0.91563,0.49003 2.19145,0.13607 1.37366,-0.3811 -0.87998,-0.55651 -2.24719,-0.37795 -4.15569,0.54274 -2.0424,0.98528 -2.75656,1.09065 -2.98884,0.44097 -0.0867,-0.24253 -0.43514,0.19403 -0.77429,0.97014 -1.835,4.19919 -2.65932,5.25169 -3.47461,4.43641 -0.23044,-0.23045 -0.0315,-0.92431 0.58497,-2.04004 0.5138,-0.92995 1.27428,-2.44488 1.68997,-3.36651 0.76433,-1.69464 0.94668,-1.7974 3.06523,-1.72729 0.64283,0.0213 1.56085,-0.2182 2.04005,-0.53218 0.64803,-0.42461 1.35766,-0.52067 2.76968,-0.37494 2.38364,0.24601 3.37009,0.76358 3.37009,1.76822 0,0.43157 0.30349,0.9742 0.67443,1.20586 0.60259,0.37633 0.75291,0.25425 1.41111,-1.14602 0.405173,-0.86197 0.736683,-1.73557 0.736683,-1.94135 0,-0.60972 1.0497,-2.45577 1.39639,-2.45577 0.78778,0 0.73882,1.54453 -0.10413,3.2854 -0.48733,1.00643 -0.97313,2.23717 -1.07955,2.73496 -0.10643,0.4978 -0.52983,1.29155 -0.940913,1.76389 -0.62393,0.71691 -0.71084,1.13639 -0.52604,2.53888 0.21803,1.65473 0.20121,1.69199 -1.11428,2.46886 -0.73461,0.43382 -1.48158,0.74039 -1.65995,0.68126 -0.17836,-0.0591 -0.12922,0.12754 0.1092,0.41482 0.4791,0.57729 0.24623,2.45917 -0.5363,4.33409 -0.39646,0.94989 -0.38837,1.14157 0.0554,1.31184 0.28581,0.10968 0.51965,0.51253 0.51965,0.89522 0,0.38269 0.14551,0.78574 0.32335,0.89565 0.74569,0.46086 9.881493,0.43428 13.063653,-0.038 1.83306,-0.27206 3.40349,-0.56531 3.48986,-0.65167 0.0864,-0.0864 -0.0394,-0.39365 -0.27938,-0.68286 -0.69113,-0.83275 -0.30992,-1.2681 1.74363,-1.99129 1.05409,-0.37121 1.93268,-0.67493 1.95243,-0.67493 0.0197,0 0.23855,0.51594 0.48625,1.14653 0.44234,1.12611 0.49521,1.14861 2.96887,1.26359 l 2.51851,0.11707 -0.66465,-0.73443 c -0.36555,-0.40393 -0.87028,-0.73443 -1.1216,-0.73443 -0.25133,0 -0.60032,-0.25617 -0.77554,-0.56926 -0.26008,-0.46474 -0.45896,-0.49413 -1.08316,-0.16008 -0.9747,0.52165 -1.19172,0.37124 -1.97703,-1.37028 -0.64993,-1.44129 -1.01952,-1.72142 -1.4188,-1.07538 -0.11991,0.19403 0.0427,0.35278 0.36136,0.35278 0.31866,0 0.51283,0.19844 0.43149,0.44097 -0.23858,0.71132 -6.92589,0.43304 -9.715,-0.40427 -0.95293,-0.28607 -1.38082,-0.21888 -2.38713,0.37486 -0.98956,0.58385 -1.32704,0.63963 -1.74938,0.28912 -0.82549,-0.6851 -0.6209,-1.27894 0.71144,-2.06505 0.82837,-0.48874 1.23472,-0.98926 1.23472,-1.52082 0,-0.73848 -0.0659,-0.71528 -0.97014,0.34141 -1.10327,1.28932 -2.63143,1.66293 -2.83343,0.69273 -0.0841,-0.40381 0.18465,-0.73533 0.77929,-0.96141 0.49919,-0.18979 0.90762,-0.57418 0.90762,-0.85419 0,-0.28001 0.635,-1.17002 1.41111,-1.97779 l 1.41111,-1.46869 v -3.77283 c 0,-3.65129 0.50496,-9.19805 0.93593,-10.28071 0.40965,-1.02909 0.0895,-4.08292 -0.63788,-6.08541 -0.77488,-2.13315 -0.96071,-2.28155 -2.02482,-1.61701 -0.52806,0.32978 -1.09078,0.24993 -2.83469,-0.40225 l -2.175833,-0.8137 -0.97219,0.93141 c -0.5347,0.51227 -1.24131,0.93141 -1.57024,0.93141 -0.32893,0 -0.59806,0.17709 -0.59806,0.39353 0,0.61784 -2.93843,3.15679 -3.52778,3.04818 -1.04966,-0.19346 -0.77603,-1.49919 0.53967,-2.5752 0.70136,-0.57359 1.85857,-1.54619 2.57155,-2.16133 l 1.29635,-1.11843 -0.82874,-1.12093 c -1.18348,-1.60074 -0.5284,-2.06767 1.29021,-0.91964 0.78229,0.49384 1.87209,1.00248 2.42179,1.13032 0.5497,0.12784 1.349313,0.45053 1.776913,0.71709 1.38982,0.8664 3.16683,-0.39557 2.6635,-1.89151 -0.0816,-0.24253 -0.34857,-0.44097 -0.59326,-0.44097 -0.2447,0 -0.8951,-0.38685 -1.44535,-0.85966 l -1.00044,-0.85965 0.64637,-1.4334 c 0.62186,-1.37903 1.32241,-1.81122 1.76778,-1.09059 0.11653,0.18855 -0.0334,0.71716 -0.33319,1.17469 -0.64496,0.98433 -0.42236,1.30472 0.9065,1.30472 1.20341,0 1.64121,-0.57292 0.6727,-0.88032 -1.48581,-0.47158 -0.59299,-2.29468 1.12376,-2.29468 1.05076,0 1.34229,0.59166 0.45862,0.93076 -0.87722,0.33662 -0.597,0.71554 0.52916,0.71554 0.86892,0 1.05834,-0.14511 1.05834,-0.81074 0,-0.4459 -0.31256,-0.97801 -0.69457,-1.18246 -0.83,-0.4442 -0.95491,-2.89742 -0.13144,-2.58143 0.32121,0.12326 0.47323,-0.11384 0.47323,-0.73809 0,-0.50583 -0.13734,-0.91969 -0.3052,-0.91969 -0.71202,0 -2.12749,1.4993 -2.22976,2.36181 -0.14373,1.21226 -0.99282,1.52707 -0.99282,0.3681 0,-0.9592 -1.06506,-2.10847 -1.80793,-1.95088 -0.28328,0.0601 -0.48513,-0.18844 -0.48513,-0.59733 0,-0.55965 0.43879,-0.81867 2.1853,-1.29001 1.20191,-0.32437 2.33163,-0.6802 2.51049,-0.79074 0.17886,-0.11054 0.61254,0.11653 0.96373,0.50459 0.90473,0.99972 1.16279,0.35284 0.97189,-2.43621 -0.23043,-3.36652 -0.21134,-3.33733 -1.75982,-2.69033 -0.72489,0.30288 -1.58723,0.79435 -1.91631,1.09216 -0.53949,0.48824 -0.63135,0.48246 -0.93423,-0.0588 -0.2039,-0.36434 -0.42455,-0.4568 -0.56147,-0.23527 -0.31769,0.51405 -1.63596,0.10165 -1.63596,-0.51177 0,-0.27935 0.51593,-0.99624 1.14652,-1.59308 1.24096,-1.17454 0.76708,-1.03673 -1.04725,0.30454 -0.78112,0.57746 -1.399213,0.77321 -1.980663,0.62727 -1.16725,-0.29296 -1.60715,0.83111 -0.62213,1.58974 1.511213,1.1639 -0.20241,5.7437 -2.0826,5.56594 -0.88581,-0.0838 -0.96177,0.0982 -0.51756,1.23953 0.18483,0.47491 0.0593,0.61737 -0.54417,0.61737 -0.63178,0 -0.7454,-0.14932 -0.58381,-0.76722 0.12936,-0.49469 -0.0125,-0.92304 -0.39928,-1.20588 -0.32994,-0.24126 -0.47246,-0.56611 -0.31669,-0.72187 0.15577,-0.15577 0.4309,-0.0497 0.6114,0.23574 0.18051,0.28542 0.33063,0.35085 0.3336,0.1454 0.0104,-0.71773 -0.8667,-1.55979 -1.32375,-1.27089 -0.32942,0.20822 -0.37475,0.78618 -0.17211,2.19427 0.21744,1.51092 0.42209,1.9381 0.97638,2.03804 1.04699,0.18878 1.402,0.66089 0.92718,1.23302 -0.22796,0.27467 -0.31491,0.75884 -0.19323,1.07594 0.34124,0.88927 -0.17558,3.04067 -0.73045,3.04067 -0.65434,0 -0.99559,-1.18437 -0.71254,-2.47307 0.16761,-0.76315 0.0308,-1.32551 -0.50576,-2.07905 -0.40454,-0.56812 -0.83345,-1.52256 -0.95313,-2.12097 -0.22669,-1.13346 -0.96921,-1.4608 -1.30842,-0.57682 -0.13111,0.34167 -0.0266,0.44614 0.31503,0.31503 0.88929,-0.34125 0.56296,1.37288 -0.4971,2.61111 -0.88946,1.03898 -1.04237,1.09799 -1.66136,0.64112 -0.5269,-0.38891 -0.58673,-0.59957 -0.26343,-0.92759 0.32288,-0.3276 0.29893,-0.54377 -0.10499,-0.94769 -0.71138,-0.71138 -0.91536,-0.40588 -1.11478,1.66962 -0.0936,0.9744 -0.30013,1.77164 -0.45888,1.77164 -0.15876,0 -0.49575,0.42192 -0.74887,0.9376 -0.48148,0.98091 -0.73354,1.15347 -2.75328,1.8849 -4.11431,1.48997 -6.20433,2.11639 -7.06123,2.11639 -1.03358,0 -2.6904,0.60919 -3.53795,1.30085 -0.28232,0.23039 -1.24544,1.06383 -2.14027,1.85208 -0.89482,0.78825 -1.84732,1.44478 -2.11666,1.45897 -1.16753,0.0615 -2.66156,1.34547 -3.48833,2.99795 -2.42422,4.84532 -2.81721,5.99423 -2.46749,7.21365 0.1853,0.64608 0.36456,2.02101 0.39836,3.05541 0.0352,1.07613 0.26452,2.04924 0.53613,2.27465 0.26107,0.21667 0.47467,0.60879 0.47467,0.87139 0,0.26259 0.3169,0.99722 0.70423,1.6325 0.86644,1.42109 0.88563,1.8926 0.0895,2.19951 -0.39793,0.15341 -0.74275,0.0241 -0.97014,-0.36376 -0.59385,-1.01299 -1.93622,-2.38985 -2.1356,-2.19046 -0.28303,0.28303 -0.17961,8.60178 0.13814,11.11121 0.15274,1.20621 0.23493,3.38817 0.18266,4.84881 l -0.095,2.6557 1.55293,0.70744 c 1.72413,0.78543 2.49996,0.88278 2.82636,0.35466 0.39187,-0.63406 1.5875,-0.39935 1.5875,0.31163 0,1.04482 -3.43271,1.55279 -4.96208,0.73429 -1.10374,-0.5907 -0.81218,0.20516 0.56523,1.54287 1.3812,1.34141 1.86808,1.34459 5.1024,0.0333 z m 4.93889,-5.7805 c 0,-0.18493 0.55562,-0.59989 1.23472,-0.92214 0.6791,-0.32225 1.23472,-0.72658 1.23472,-0.8985 0,-0.41707 0.962,-0.40108 1.22244,0.0203 0.11316,0.1831 -0.48673,0.73873 -1.33309,1.23473 -1.61806,0.94825 -2.35879,1.12586 -2.35879,0.56559 z m -8.69691,-2.67553 c -0.32314,-0.84208 0.7837,-1.78271 2.86984,-2.43888 1.93772,-0.60949 3.29413,-1.60492 2.18692,-1.60492 -0.30335,0 -0.64966,0.15875 -0.76957,0.35278 -0.37912,0.61342 -1.044,0.37818 -1.45864,-0.51608 -0.47069,-1.01515 -0.16049,-1.22978 1.45864,-1.00927 0.92522,0.12601 1.16926,-0.0385 1.94027,-1.30802 0.48507,-0.79868 0.93306,-1.7976 0.99554,-2.21981 0.22455,-1.51762 0.0978,-5.72686 -0.19641,-6.52218 l -0.30033,-0.81187 -0.9224,0.72555 c -1.10191,0.86677 -1.64182,0.91681 -1.92515,0.17845 -0.48791,-1.27146 2.55265,-3.01944 3.26036,-1.87434 0.16414,0.26559 0.47013,0.11685 0.90717,-0.44097 0.58503,-0.7467 0.70878,-0.77952 1.09605,-0.29071 0.24011,0.30307 0.71438,0.65527 1.05392,0.78268 0.89768,0.33683 0.75578,1.26418 -0.26458,1.72909 -0.48507,0.22101 -0.8851,0.49542 -0.88896,0.6098 -0.18631,5.52054 -0.4204,6.95531 -1.41979,8.70206 -1.63108,2.85082 -1.43305,2.91864 1.99745,0.6841 4.26293,-2.77678 4.03517,-2.40379 2.14446,-3.51182 -1.57214,-0.92133 -2.04849,-1.67848 -1.33386,-2.12015 0.1776,-0.10976 0.81941,0.21822 1.42625,0.72884 0.60683,0.51062 1.4963,0.9284 1.97658,0.9284 0.48028,0 0.9488,0.12226 1.04115,0.27169 0.0924,0.14943 0.81375,0.10775 1.60312,-0.0926 1.46139,-0.37094 2.42114,-0.0194 1.96442,0.71961 -0.34926,0.56512 -3.45297,0.9021 -3.75831,0.40806 -0.14864,-0.24051 -0.45855,-0.30671 -0.70957,-0.15157 -0.3369,0.20822 -0.28195,0.39729 0.22515,0.77477 0.64506,0.48018 0.63019,0.53225 -0.38753,1.35698 -0.58209,0.47171 -1.89177,1.20448 -2.91042,1.6284 -1.01865,0.42391 -1.85208,0.97664 -1.85208,1.22828 0,0.25164 -0.43657,0.55091 -0.97014,0.66506 -0.53358,0.11413 -1.3348,0.35528 -1.78049,0.53588 -0.44569,0.1806 -1.17594,0.32836 -1.62276,0.32836 -0.44683,0 -1.46986,0.47625 -2.27341,1.05834 -1.65096,1.19595 -2.1046,1.29337 -2.40289,0.51602 z m 26.68858,-8.10074 c 0,-0.29398 0.31358,-0.52917 0.70555,-0.52917 0.39198,0 0.70556,0.23519 0.70556,0.52917 0,0.29398 -0.31358,0.52916 -0.70556,0.52916 -0.39197,0 -0.70555,-0.23518 -0.70555,-0.52916 z m -1.76389,-1.55266 c 0,-0.17486 0.57896,-0.65953 1.28658,-1.07703 1.60365,-0.94618 2.36895,-0.44534 0.98406,0.64401 -0.97033,0.76326 -2.27064,1.01124 -2.27064,0.43302 z m -11.02431,-0.65294 c -0.33955,-0.0766 -0.61736,-0.2863 -0.61736,-0.4661 0,-0.17981 -0.22876,-0.32692 -0.50835,-0.32692 -0.87861,0 -1.01703,-0.74808 -0.2756,-1.4895 0.80428,-0.80429 1.14948,-0.68444 2.1744,0.75494 0.7814,1.09736 0.42676,1.79811 -0.77309,1.52758 z m 11.02431,-1.96813 c 0,-0.55275 1.65377,-1.52204 2.00226,-1.17354 0.27587,0.27586 -1.08441,1.6431 -1.63474,1.6431 -0.20213,0 -0.36752,-0.2113 -0.36752,-0.46956 z m -14.46389,-6.70325 c 0,-0.45273 0.11313,-0.93628 0.25141,-1.07455 0.55132,-0.55132 1.51192,-3.64649 1.51219,-4.87245 3.6e-4,-1.6027 0.47788,-1.96487 1.21088,-0.91837 0.85279,1.21754 0.70306,3.36863 -0.32864,4.72127 -0.48507,0.63595 -0.88195,1.37325 -0.88195,1.63843 0,0.61023 -0.70586,1.32882 -1.30528,1.32882 -0.25223,0 -0.45861,-0.37042 -0.45861,-0.82315 z m 13.92756,0.0294 c -0.33322,-1.3426 0.6812,-6.42246 1.30658,-6.5429 0.72306,-0.13925 1.06947,1.60884 0.62555,3.15671 -0.18561,0.64717 -0.33747,1.6619 -0.33747,2.25497 0,1.73008 -1.22956,2.6023 -1.59466,1.13122 z m 12.618973,-1.2274 c -0.81478,-0.28511 -0.42539,-1.32254 0.86341,-2.30037 2.08971,-1.58548 2.80274,-1.16253 1.57232,0.93266 -0.61792,1.05219 -1.66199,1.63846 -2.43573,1.36771 z m -13.360103,-6.25329 c -0.12073,-0.31461 -0.1241,-1.16868 -0.008,-1.89793 l 0.21202,-1.32591 -1.19631,0.13966 c -0.97451,0.11377 -1.27702,-0.014 -1.6317,-0.68905 -0.23947,-0.45579 -0.65035,-0.95566 -0.91307,-1.11082 -0.26272,-0.15517 -0.47767,-0.53002 -0.47767,-0.83302 0,-0.44501 0.25428,-0.50375 1.32292,-0.30562 2.30384,0.42713 4.97408,2.39836 4.31865,3.18811 -0.16353,0.19704 -0.34884,0.97897 -0.41181,1.73762 -0.11938,1.43837 -0.83628,2.08533 -1.21555,1.09696 z m 12.600033,-2.83271 c -1.24796,-2.21126 -1.27049,-2.2984 -0.5942,-2.2984 0.81622,0 2.32441,2.07765 2.32441,3.20207 0,1.52761 -0.50775,1.26242 -1.73021,-0.90367 z m -18.566823,-2.31831 c -0.27427,-0.44378 0.49186,-1.09861 1.07064,-0.91509 0.19403,0.0615 0.35278,0.33458 0.35278,0.60679 0,0.62421 -1.08318,0.85882 -1.42342,0.3083 z m -3.60367,-0.21373 c -0.24253,-0.0979 -0.44097,-0.42267 -0.44097,-0.7218 0,-0.42098 0.24909,-0.49405 1.10243,-0.32338 0.60634,0.12127 1.32071,0.22049 1.5875,0.22049 0.26679,0 0.48507,0.23812 0.48507,0.52917 0,0.52423 -1.70932,0.709 -2.73403,0.29552 z m 11.76037,-1.44205 c 0.26042,-1.14662 1.36511,-2.20486 2.30163,-2.20486 0.96249,0 0.82911,0.42986 -0.58523,1.88616 -1.49615,1.54053 -2.01582,1.63703 -1.7164,0.3187 z m -13.13676,-0.27673 c -0.39391,-1.02652 0.68808,-1.61755 3.08784,-1.6867 1.80022,-0.0519 2.2573,0.0421 2.2573,0.46412 0,0.37451 -0.51552,0.58463 -1.76388,0.71895 -0.97014,0.10438 -2.12344,0.38904 -2.56288,0.63257 -0.67612,0.37471 -0.83272,0.35488 -1.01838,-0.12894 z m 11.16598,-2.40466 c 0,-1.55629 0.62496,-3.29762 1.27273,-3.54619 0.84962,-0.32603 0.98847,0.79794 0.34913,2.82617 -0.69384,2.20113 -1.62186,2.61313 -1.62186,0.72002 z m -2.646,44.22097 c 0.24362,0 0.63912,-0.23638 0.87888,-0.52528 0.23978,-0.2889 0.57672,-0.43829 0.74876,-0.33196 0.17204,0.10633 0.3128,0.0145 0.3128,-0.20404 0,-0.43857 -0.89053,-0.24071 -2.7178,0.60385 -1.27446,0.58906 -2.5214,1.82652 -1.42734,1.4165 0.37393,-0.14014 0.62466,-0.0618 0.63587,0.19853 0.0102,0.23645 0.26766,0.0727 0.57219,-0.36385 0.30453,-0.43656 0.75302,-0.79375 0.99664,-0.79375 z m 3.83191,0.52917 c 0.11168,-0.29104 0.0493,-0.52917 -0.13865,-0.52917 -0.18794,0 -0.34171,0.23813 -0.34171,0.52917 0,0.29104 0.0624,0.52917 0.13865,0.52917 0.0763,0 0.23002,-0.23813 0.34171,-0.52917 z m -12.74718,-2.54901 c -1.19086,-0.61783 -1.49151,-0.56623 -1.49151,0.25595 0,0.51741 0.23519,0.70556 0.88194,0.70556 0.48507,0 0.89311,0.19844 0.90674,0.44097 0.0136,0.24254 0.14734,0.12735 0.29712,-0.25596 0.2096,-0.53643 0.0727,-0.80046 -0.59429,-1.14652 z m 8.05905,-1.98457 c 0.37255,-0.61098 0.67795,-1.38868 0.67868,-1.72823 7e-4,-0.39281 0.27251,-0.61736 0.74693,-0.61736 0.6831,0 0.72577,0.13229 0.50898,1.57794 l -0.23662,1.57792 1.1667,-0.47377 c 0.6417,-0.26057 1.35584,-0.40489 1.58699,-0.32071 0.23115,0.0842 0.68584,-0.37299 1.01041,-1.01596 0.32458,-0.64297 0.9425,-1.5659 1.37316,-2.05097 1.11028,-1.25056 2.31143,-3.4501 2.31143,-4.23268 0,-0.36552 0.15875,-0.76268 0.35278,-0.8826 0.19403,-0.11992 0.35278,-0.60688 0.35278,-1.08214 0,-0.7118 -0.10882,-0.80674 -0.61736,-0.53858 -2.0023,1.05584 -4.55316,1.83434 -5.73166,1.74925 -1.52932,-0.11042 -2.19269,0.32748 -3.40478,2.24754 -0.58259,0.92288 -1.0921,1.3281 -1.66996,1.3281 -1.20513,0 -6.04337,4.21197 -5.77649,5.02878 0.24931,0.76306 2.45179,1.30798 4.41205,1.09159 1.75992,-0.19428 1.85472,-0.16292 1.90494,0.62995 0.0444,0.70101 0.0769,0.6736 0.20327,-0.1714 0.0827,-0.5532 0.45521,-1.5057 0.82777,-2.11667 z m 5.10954,1.26081 c -0.29442,-0.29442 -0.90154,0.32757 -0.89055,0.91234 0.01,0.52375 0.074,0.51359 0.52552,-0.0833 0.28287,-0.37389 0.44713,-0.74698 0.36503,-0.82908 z m 2.55788,-0.88071 c 0.40021,-0.45917 0.44094,-0.7301 0.15303,-1.01801 -0.64965,-0.64965 -1.45744,0.45207 -1.22422,1.66968 0.11684,0.60999 0.26486,0.81586 0.36179,0.5032 0.0902,-0.29104 0.40945,-0.81073 0.7094,-1.15487 z m 23.175083,-4.1368 c 0.68024,-0.29231 0.67782,-0.30408 -0.0674,-0.32798 -0.42512,-0.0137 -0.87105,0.13395 -0.99096,0.32798 -0.25789,0.41726 0.0873,0.41726 1.05833,0 z m 8.64306,-2.13609 c 0,-0.34267 -1.38852,-0.82632 -1.64267,-0.57217 -0.0981,0.0981 0.004,0.51973 0.22758,0.93694 0.32531,0.60784 0.5062,0.67535 0.91052,0.33979 0.27751,-0.23031 0.50457,-0.54736 0.50457,-0.70456 z m 0.69857,-2.45002 c 0.002,-0.35827 -0.39443,-0.54955 -1.22932,-0.59228 -1.48419,-0.076 -1.56323,0.29298 -0.26531,1.23845 0.99451,0.72445 1.48627,0.51184 1.49463,-0.64617 z m -6.0899,-1.35858 c -0.58888,-2.30108 -1.13587,-2.91683 -1.45644,-1.63956 -0.29012,1.15592 0.43772,3.28119 1.18125,3.44924 0.78784,0.17806 0.78637,0.18772 0.27519,-1.80968 z m 6.44966,-0.40531 c 0,-0.53757 -0.23518,-0.70555 -0.98778,-0.70555 -0.54327,0 -1.17827,-0.1905 -1.41111,-0.42334 -0.32926,-0.32926 -0.42333,-0.30421 -0.42333,0.11273 0,0.29483 0.51594,0.78219 1.14653,1.08303 1.564,0.74613 1.67569,0.74167 1.67569,-0.0669 z m -0.21186,-2.96385 c -0.19176,-0.4997 -1.55715,-1.02917 -1.86365,-0.72268 -0.22282,0.22283 1.08161,1.19173 1.62347,1.20587 0.23644,0.006 0.34452,-0.21127 0.24018,-0.48319 z m -3.31592,-0.56393 c 0,-0.19402 -0.15875,-0.35277 -0.35277,-0.35277 -0.19403,0 -0.35278,0.15875 -0.35278,0.35277 0,0.19403 0.15875,0.35278 0.35278,0.35278 0.19402,0 0.35277,-0.15875 0.35277,-0.35278 z m -2.46944,-0.54998 c 0,-0.3025 -0.16134,-0.45028 -0.35854,-0.32841 -0.19719,0.12188 -0.2672,0.36937 -0.15556,0.54999 0.30241,0.48932 0.5141,0.39808 0.5141,-0.22158 z m -22.577793,-0.84031 c 0,-0.47638 -0.64309,-0.80662 -1.06408,-0.54643 -0.19719,0.12187 -0.2672,0.36937 -0.15557,0.54999 0.26482,0.42849 1.21965,0.4257 1.21965,-0.004 z m -0.17638,-2.13748 c 0.43749,-0.70789 -0.1845,-1.01881 -1.27652,-0.63813 -0.7965,0.27766 -0.95839,0.45802 -0.60956,0.67909 0.64639,0.40965 1.62066,0.38849 1.88608,-0.041 z m -8.48908,-34.27796 c -0.10047,-0.32322 -0.0163,-0.69053 0.18715,-0.81624 0.42871,-0.26495 -0.39925,-1.24192 -1.0525,-1.24192 -0.39269,0 -0.1875,2.53682 0.26699,3.30086 0.28503,0.47916 0.8007,-0.5918 0.59836,-1.2427 z m 1.5293,-2.96192 c -0.11825,-0.11825 -0.40516,0.15578 -0.63757,0.60896 -0.40398,0.78771 -0.39451,0.79717 0.215,0.21501 0.35066,-0.33493 0.54082,-0.70572 0.42257,-0.82397 z m 1.89566,0.33954 c 2.01309,-2.222 3.31925,-3.31683 3.75676,-3.14895 0.33677,0.12923 0.40687,-0.0228 0.24528,-0.53197 -0.19231,-0.60588 0.10877,-0.86794 2.0054,-1.74548 1.45037,-0.67106 1.953793,-1.03822 1.43793,-1.04875 -0.43657,-0.009 -0.79375,-0.18657 -0.79375,-0.39483 0,-0.20825 -0.27782,-0.32472 -0.61737,-0.25881 -0.3402,0.066 -0.61736,0.43399 -0.61736,0.81962 0,0.53846 -0.37439,0.79221 -1.62405,1.1007 -0.89323,0.22051 -2.00448,0.6139 -2.46944,0.87419 l -0.8454,0.47327 0.79375,0.12049 c 0.43657,0.0663 0.79375,0.18881 0.79375,0.27233 0,0.0835 -0.62298,0.77484 -1.3844,1.53626 -1.49414,1.49414 -2.36915,2.84893 -1.84003,2.84893 0.18048,0 0.70201,-0.41265 1.15893,-0.917 z m 3.73385,-0.002 c -0.11723,-0.11722 -0.4215,-0.12976 -0.67616,-0.0279 -0.28142,0.11261 -0.19783,0.19621 0.21314,0.21314 0.37188,0.0153 0.58025,-0.0681 0.46302,-0.18529 z m -8.24355,-1.02159 c 0.11168,-0.29104 0.0493,-0.52916 -0.13864,-0.52916 -0.18794,0 -0.34171,0.23812 -0.34171,0.52916 0,0.29104 0.0624,0.52917 0.13864,0.52917 0.0763,0 0.23003,-0.23813 0.34171,-0.52917 z m 4.10576,-1.03751 c 0,-0.0856 -0.15875,-0.25368 -0.35278,-0.3736 -0.19403,-0.11992 -0.35278,-0.0499 -0.35278,0.15557 0,0.20548 0.15875,0.3736 0.35278,0.3736 0.19403,0 0.35278,-0.07 0.35278,-0.15557 z m 0.70556,-2.72522 c 0,-0.49727 -0.16496,-0.65918 -0.52917,-0.51942 -0.30887,0.11853 -0.52917,0.005 -0.52917,-0.27184 0,-0.26119 0.23813,-0.67252 0.52917,-0.91406 0.55861,-0.4636 0.71099,-1.0664 0.26458,-1.0466 -0.70861,0.0314 -1.96,1.53139 -2.07068,2.48198 -0.074,0.63559 0.0155,0.98317 0.22062,0.85642 0.18984,-0.11733 0.62085,-0.0591 0.95779,0.12952 0.7783,0.43556 1.15686,0.20127 1.15686,-0.716 z m -2.96662,-0.5562 c -0.24465,-0.24465 -0.91394,0.25243 -0.91394,0.67878 0,0.23393 0.20242,0.20716 0.53769,-0.0711 0.29573,-0.24543 0.46505,-0.51889 0.37625,-0.60769 z m 17.188943,-1.09841 c 0.60394,-0.23812 0.5983,-0.29056 -0.0992,-0.92177 -0.69931,-0.63286 -0.77256,-0.63627 -1.34594,-0.0627 -0.53127,0.53141 -0.54084,0.64798 -0.0772,0.94115 0.60612,0.38328 0.65652,0.38471 1.52233,0.0434 z m -9.795393,-2.10004 c -0.46114,-0.10173 -3.3686,1.51005 -3.3686,1.86742 0,0.0891 0.86916,-0.27007 1.93146,-0.79818 1.0623,-0.5281 1.70902,-1.00926 1.43714,-1.06924 z m 5.627233,1.69655 c 0.11992,-0.19403 -0.0295,-0.35278 -0.33195,-0.35278 -0.3025,0 -0.54999,0.15875 -0.54999,0.35278 0,0.19403 0.14938,0.35278 0.33195,0.35278 0.18258,0 0.43008,-0.15875 0.54999,-0.35278 z m -8.209013,-1.76389 c 0.41654,-0.38806 0.60833,-0.70051 0.42623,-0.69434 -0.41901,0.0142 -1.56583,0.87419 -1.56583,1.1742 0,0.39694 0.36215,0.24445 1.1396,-0.47986 z m 8.696193,0.38619 c 0.34227,-0.21678 0.0466,-0.38299 -0.99391,-0.55879 -1.55712,-0.26307 -2.01063,-0.12295 -1.62444,0.50191 0.27945,0.45215 1.93741,0.48817 2.61835,0.0569 z m -0.22259,-1.67816 c -0.24254,-0.0979 -0.63941,-0.0979 -0.88195,0 -0.24253,0.0979 -0.0441,0.17793 0.44097,0.17793 0.48507,0 0.68351,-0.0801 0.44098,-0.17793 z M 59.714587,-30.66049 c -0.11489,-0.299409 -0.11974,-0.633536 -0.0108,-0.742505 0.10897,-0.10897 1.67639,-0.221185 3.48317,-0.249368 2.69815,-0.04209 3.28503,0.04268 3.28503,0.474458 0,0.641226 -1.37221,0.964297 -4.33259,1.02006 -1.69892,0.032 -2.26468,-0.08528 -2.42484,-0.502645 z"
       id="path10249"
       inkscape:connector-curvature="0" />
  </g>
</svg>
