<?xml version="1.0" encoding="UTF-8" standalone="no"?>
<svg
   xmlns:dc="http://purl.org/dc/elements/1.1/"
   xmlns:cc="http://creativecommons.org/ns#"
   xmlns:rdf="http://www.w3.org/1999/02/22-rdf-syntax-ns#"
   xmlns:svg="http://www.w3.org/2000/svg"
   xmlns="http://www.w3.org/2000/svg"
   id="svg8"
   version="1.1"
   viewBox="0 0 147.23704 193.12834"
   height="193.12836mm"
   width="147.23705mm">
  <defs
     id="defs2" />
  <metadata
     id="metadata5">
    <rdf:RDF>
      <cc:Work
         rdf:about="">
        <dc:format>image/svg+xml</dc:format>
        <dc:type
           rdf:resource="http://purl.org/dc/dcmitype/StillImage" />
        <dc:title></dc:title>
      </cc:Work>
    </rdf:RDF>
  </metadata>
  <g
     transform="translate(32.720845,84.096254)"
     id="layer1">
    <path
       id="path8008"
       d="m -29.18734,108.46196 c -1.250684,-0.74992 -2.080956,-2.28482 -2.033644,-3.75955 0.01868,-0.58208 0.117621,-3.11375 0.219881,-5.625932 0.158387,-3.89102 0.09056,-4.80548 -0.457914,-6.17361 -1.445038,-3.60454 -1.537918,-4.2895 -0.837342,-6.175114 0.891628,-2.39984 2.170788,-3.118733 5.512071,-3.097813 2.822201,0.01767 3.794039,-0.3571 5.417639,-2.089175 2.633798,-2.809766 9.845157,-11.685994 11.8447299,-14.579294 0.726537,-1.051267 2.277706,-2.685521 3.447041,-3.631674 2.218455,-1.795032 6.89378399,-3.967103 8.528524,-3.962192 0.522126,0.0014 1.040275,-0.144315 1.151442,-0.324185 0.111168,-0.179875 0.795225,-0.515754 1.520127,-0.746404 0.724902,-0.23065 1.603647,-0.758169 1.952763,-1.172267 1.450026,-1.719901 5.5825421,-8.226665 5.7432931,-9.042971 0.254631,-1.293055 1.268888,-4.35403 1.578123,-4.762709 0.146815,-0.194028 1.047736,-2.257778 2.002042,-4.586111 1.800899,-4.393865 4.808485,-9.412112 6.819078,-11.377839 1.087763,-1.063491 1.131055,-1.194632 0.675439,-2.045959 -0.386034,-0.721314 -0.397975,-1.032694 -0.05769,-1.50403 0.236022,-0.326919 0.722937,-1.231642 1.082036,-2.010501 0.3591,-0.77886 0.912725,-1.631735 1.230274,-1.895281 0.317553,-0.263543 0.577367,-0.739469 0.577367,-1.057614 0,-0.71053 1.576557,-5.734297 2.115647,-6.741591 0.215653,-0.402953 1.5843,-1.29081 3.041442,-1.973022 1.947915,-0.9119839 2.834241,-1.5537539 3.347699,-2.4239969 0.384094,-0.650988 1.225148,-1.433593 1.869017,-1.739131 1.827004,-0.866969 2.05922,-1.375791 2.235249,-4.897734 0.141711,-2.8353143 0.02018,-3.8004923 -0.941585,-7.4775804 -1.117318,-4.2718387 -1.179079,-5.7495367 -0.354319,-8.4779457 0.175955,-0.582083 0.390821,-3.677708 0.477481,-6.879167 0.08666,-3.201458 0.262893,-6.483713 0.391629,-7.293902 0.227803,-1.43364 0.194024,-1.499736 -1.262038,-2.469445 -2.320805,-1.545608 -2.935915,-1.86751 -3.579262,-1.873119 -0.965567,-0.0084 -1.104205,-0.686841 -0.219872,-1.07593 0.720284,-0.316911 0.681295,-0.338346 -0.331128,-0.182023 -1.027183,0.158602 -1.237358,0.03493 -2.003859,-1.179305 -1.106555,-1.752896 -1.412424,-3.461928 -0.927912,-5.184687 0.562808,-2.001163 2.180262,-4.178035 3.212395,-4.323447 0.476804,-0.06717 0.99387,-0.344988 1.149032,-0.617368 0.427334,-0.75015 2.351056,-1.649303 4.127607,-1.929253 1.269153,-0.199994 2.02965,-0.07377 3.792361,0.629454 1.229152,0.490358 2.204861,1.097178 2.204861,1.371261 0,0.766294 0.897982,0.581029 2.104499,-0.434188 1.534079,-1.290842 1.631213,-0.899079 0.172004,0.693734 -0.669992,0.731337 -1.21817,1.558996 -1.21817,1.839239 0,0.6099 0.174117,0.629976 1.111741,0.128175 0.391918,-0.209748 0.790384,-0.303552 0.885486,-0.208453 0.0951,0.0951 -0.275685,0.391985 -0.823965,0.65974 -0.874974,0.427302 -0.983393,0.653542 -0.886647,1.850147 0.06062,0.749825 0.414044,2.162905 0.785378,3.140177 0.718358,1.890565 0.647732,2.552213 -0.155211,1.454118 -0.420864,-0.575564 -0.881253,-2.241842 -1.487107,-5.38227 -0.08575,-0.444497 -0.28859,-0.726179 -0.450748,-0.625962 -0.26931,0.166444 -0.757308,2.448493 -0.797027,3.727196 -0.06056,1.949605 -1.587211,5.075449 -3.556833,7.282664 -0.665434,0.745708 -0.664538,0.776516 0.06415,2.204861 0.406457,0.796724 0.899887,1.448586 1.096511,1.448586 0.196625,0 0.835932,0.489434 1.42069,1.087629 1.300525,1.33042 1.811743,1.044324 2.428208,-1.358915 0.626741,-2.443303 1.84476,-5.775258 2.03986,-5.580154 0.09282,0.09282 -0.08722,0.920016 -0.400085,1.838219 -0.312865,0.918207 -0.568844,2.087616 -0.568844,2.598692 0,1.166481 -1.218297,3.734498 -1.894854,3.994118 -0.279566,0.107276 -0.78655,-0.112413 -1.126635,-0.488202 -0.676356,-0.747367 -3.124316,-1.539674 -3.871359,-1.253007 -0.352125,0.135125 -0.460509,1.107814 -0.435222,3.905935 0.01852,2.049304 -0.07134,3.831018 -0.199683,3.959366 -0.128347,0.128344 -0.233358,0.472694 -0.233358,0.765221 0,0.395076 0.226465,0.319112 0.880554,-0.295374 1.091036,-1.024971 1.6285,-0.646465 0.626279,0.441057 -1.230224,1.334936 -1.998916,4.059326 -1.968355,6.976213 0.02882,2.7492393 0.566512,4.8119381 2.000243,7.6731848 0.458922,0.91585 1.033201,2.2788743 1.276177,3.02893629 0.242976,0.750065 0.740897,1.662878 1.106491,2.02847201 0.365598,0.365598 0.667152,1.101284 0.670123,1.634861 0.0081,1.450781 0.352644,1.757997 2.287655,2.039694 0.970138,0.141231 2.192566,0.474295 2.716508,0.740142 0.523943,0.265846 1.097221,0.483358 1.273959,0.483358 0.449887,0 1.830366,-3.732205 1.830366,-4.948509 0,-0.62062101 0.398547,-1.44152101 1.041772,-2.14576001 0.57297,-0.62732799 0.98226,-1.23687529 0.90953,-1.35455429 -0.20137,-0.325833 0.92903,-1.618689 2.01745,-2.307368 1.15755,-0.732427 1.26992,-0.281965 0.21274,0.852787 -2.7849,2.98924229 -3.729019,4.9736563 -4.321855,9.0839973 -0.187639,1.300949 -0.103607,1.559341 0.717038,2.204861 0.511277,0.402167 1.142597,0.731213 1.402947,0.731213 0.47742,0 1.90093,-2.559311 1.90093,-3.417651 0,-0.254596 0.15875,-0.462905 0.35278,-0.462905 0.47216,0 0.42334,0.600135 -0.18656,2.293056 -0.5958,1.653787 -0.66037,2.228222 -0.1963,1.74625 0.48099,-0.499547 3.55962,-6.594666 3.54671,-7.02183 -0.0117,-0.38846201 -1.29605,1.001173 -1.97595,2.137992 -0.21977,0.367478 -0.4906,0.582521 -0.60185,0.477869 -0.11123,-0.104651 0.58452,-1.347294 1.54613,-2.761421 0.96161,-1.41413101 1.74838,-2.362733 1.74838,-2.10800601 0,0.254727 0.29884,-0.09442 0.66408,-0.77589599 0.54006,-1.0076433 0.71247,-2.3837443 0.92314,-7.3684664 0.23519,-5.5647277 0.20651,-6.1092647 -0.31131,-5.9105587 -0.69742,0.267627 -0.70774,0.118857 -0.0764,-1.102057 0.98359,-1.902044 0.17015,-8.126293 -1.41911,-10.858761 -0.46132,-0.793158 -0.84506,-1.745658 -0.85275,-2.116667 -0.0261,-1.255441 -3.2692,-6.495394 -4.02018,-6.495394 -0.10954,0 -0.19916,1.013619 -0.19916,2.252483 0,2.020421 -0.0919,2.312726 -0.89243,2.837226 -0.89047,0.583455 -0.89192,0.582573 -0.66001,-0.4004 0.12783,-0.541828 0.37068,-1.135955 0.53965,-1.320281 0.16898,-0.184327 0.30723,-1.268864 0.30723,-2.410086 0,-1.71521 0.20391,-2.422861 1.17613,-4.081706 1.32449,-2.259891 1.81276,-3.78815 1.30964,-4.099095 -0.18648,-0.115249 -0.60268,0.311584 -0.92489,0.948517 -0.824,1.628856 -2.23395,3.45112 -2.67026,3.45112 -0.202349,0 0.19555,-0.784289 0.88421,-1.742864 2.10363,-2.928094 3.35837,-5.782511 3.75889,-8.551094 0.20548,-1.420339 0.52344,-3.614307 0.7066,-4.875487 0.18316,-1.261181 0.40676,-4.080396 0.4969,-6.264921 0.0901,-2.184526 0.26584,-4.136838 0.39046,-4.338471 0.56503,-0.914244 -6.78263,-9.152165 -8.163106,-9.152165 -0.682085,0 -4.868623,-2.313932 -6.658631,-3.680277 -0.892803,-0.681493 -2.233387,-1.403363 -2.979071,-1.604155 -0.745684,-0.200792 -1.536591,-0.58293 -1.757574,-0.849196 -0.531802,-0.640782 -2.268316,-1.00511 -4.455753,-0.934835 -1.464028,0.04703 -1.948424,-0.102031 -2.752203,-0.846951 -1.123449,-1.041176 -1.291894,-1.093391 -1.291894,-0.400469 0,0.27696 0.396875,0.815744 0.881945,1.1973 1.022025,0.803926 1.111296,1.121361 0.315355,1.121361 -0.311623,0 -0.887677,-0.408197 -1.280118,-0.907105 -0.85998,-1.093287 -1.648157,-0.653838 -0.919621,0.512735 0.256632,0.410931 0.587167,0.747148 0.734522,0.747148 0.147355,0 0.267917,0.15875 0.267917,0.352777 0,0.659221 -1.362396,0.356466 -1.5875,-0.352777 -0.123165,-0.388056 -0.371986,-0.705556 -0.55294,-0.705556 -0.55764,0 -0.365411,0.644152 0.406964,1.363731 0.596749,0.555954 0.663484,0.821106 0.352778,1.401661 -0.695152,1.298904 -0.412817,1.373916 2.703615,0.718316 3.677095,-0.773547 5.244966,-0.827303 5.626915,-0.192926 0.155162,0.257709 0.798051,0.768186 1.428641,1.134396 0.63059,0.366209 1.146528,0.779659 1.146528,0.918778 0,0.139118 0.321772,0.355069 0.715049,0.47989 0.393276,0.124821 1.394124,0.810207 2.224112,1.523079 0.829984,0.712872 2.056024,1.738905 2.724534,2.280074 0.772549,0.625389 0.915215,0.839943 0.391506,0.588779 -0.453178,-0.21734 -0.918799,-0.300329 -1.034708,-0.18442 -0.354559,0.354561 1.135172,2.069085 2.414316,2.778621 0.664535,0.368616 2.021301,1.526543 3.015037,2.573172 0.993733,1.046628 1.968935,1.902961 2.167115,1.902961 0.89718,0 0.63215,2.701189 -0.363433,3.704167 -0.341732,0.344272 -0.175616,-0.827982 0.288853,-2.038371 0.26389,-0.687677 -0.904298,-1.117228 -1.447428,-0.532231 -0.925121,0.996428 -1.637566,4.109388 -1.827809,7.986446 -0.15706,3.200728 -0.09778,4.067246 0.295258,4.316124 0.717098,0.454078 0.946414,0.395749 1.16043,-0.295163 0.105178,-0.339548 0.116819,0.15886 0.02586,1.107571 -0.09095,0.948715 -0.165365,2.179027 -0.165365,2.734028 0,0.555004 -0.169446,1.009096 -0.376551,1.009096 -0.219901,0 -0.280409,-0.302909 -0.145454,-0.728123 0.181543,-0.571983 0.0937,-0.704373 -0.409628,-0.617361 -0.895322,0.154774 -1.225045,-2.57767 -0.965736,-8.003127 0.153906,-3.220097 0.393506,-4.714233 1.001063,-6.242546 l 0.798732,-2.009211 -1.050947,-0.9894 c -0.578019,-0.544169 -2.358097,-2.4997 -3.955722,-4.345624 -3.320595,-3.836664 -5.069618,-5.66487 -7.03822,-7.356868 -1.31269,-1.128244 -1.481501,-1.176906 -3.351181,-0.96603 -1.082869,0.122135 -2.81753,0.407636 -3.854799,0.634446 -1.445162,0.316002 -2.041811,0.315042 -2.552852,-0.0041 -0.366794,-0.22907 -0.877419,-0.416492 -1.134717,-0.416492 -0.59768,0 -6.310306,3.890502 -8.203276,5.586721 -0.793299,0.710846 -1.947115,1.562875 -2.564035,1.8934 -0.776263,0.415894 -1.121671,0.858657 -1.121671,1.437811 0,0.997614 -0.613728,1.579255 -4.678299,4.433701 -1.7460671,1.226218 -3.4665641,2.17059 -3.9544741,2.17059 -0.942343,0 -2.220023,-1.170816 -3.589828,-3.289575 -1.224932,-1.89468 -0.993796,-2.663939 1.181249,-3.931385 1.009272,-0.588125 2.755522,-1.701803 3.880555,-2.474839 1.2719341,-0.873975 2.4967671,-1.428116 3.2387091,-1.465265 0.656254,-0.03286 1.608754,-0.394813 2.116666,-0.804343 0.507912,-0.40953 1.320352,-0.922079 1.805422,-1.138997 5.496391,-2.457929 8.126833,-4.143315 11.068925,-7.092124 1.306707,-1.309688 2.605134,-2.38125 2.885398,-2.38125 0.280261,0 0.509566,-0.145992 0.509566,-0.324426 0,-0.178435 0.799321,-0.589918 1.776268,-0.914408 1.638064,-0.544078 1.843921,-0.545651 2.645834,-0.02022 0.478261,0.313368 0.869565,0.883602 0.869565,1.267184 0,0.512355 0.238683,0.697423 0.899464,0.697423 1.042211,0 2.981092,0.919298 2.981092,1.41345 0,0.185348 0.436563,0.437682 0.970139,0.560742 0.931975,0.214943 2.163385,0.918828 5.203473,2.974354 0.776111,0.524759 2.125486,1.315231 2.998611,1.756603 3.588424,1.813978 9.172223,6.27774 9.172223,7.332394 0,0.234491 0.11906,0.431335 0.26458,0.437433 0.14552,0.0061 0.53971,0.389585 0.87598,0.852195 0.57426,0.790038 0.57951,1.308575 0.0864,8.54002 -0.33282,4.881024 -0.76834,8.604128 -1.1899,10.172109 -0.36572,1.360262 -0.77236,3.425702 -0.90364,4.589868 -0.23475,2.08159 -0.86393,4.41602 -1.28361,4.762501 -0.11751,0.09701 -0.40882,0.54678 -0.64736,0.999486 -0.43551,0.826513 -0.21544,1.3093 1.23027,2.698912 0.6321,0.607586 2.15718,3.142072 2.44744,4.067341 0.15136,0.482526 0.57087,1.255914 0.93224,1.718642 0.36136,0.462728 0.65702,1.147851 0.65702,1.522497 0,0.374647 0.15873,0.977763 0.35273,1.340259 1.00008,1.86865 1.43559,5.961525 1.4071,13.223601 -0.016,4.0776912 -0.017,7.8779868 -0.002,8.4450978 0.0304,1.168495 -3.5051,9.2313763 -5.56216,12.6847753 -0.45678,0.76685 -0.49702,1.055123 -0.16415,1.175928 0.24253,0.08802 0.44097,0.5304539 0.44097,0.9831849 0,0.45273 0.17558,0.881676 0.39018,0.953209 0.25542,0.08514 0.13662,0.674049 -0.34397,1.705091 -0.40379,0.866267 -0.80836,2.606908 -0.89906,3.868089 -0.15485,2.153175 -0.10132,2.363625 0.87742,3.449944 1.35989,1.50935 2.32087,1.841723 5.32494,1.841723 2.88452,0 4.22705,0.529568 5.93617,2.341569 0.99727,1.057289 1.20219,1.54577 1.21842,2.904335 l 0.0194,1.633263 -1.41111,0.114243 c -0.77612,0.06284 -1.681,0.35808 -2.01086,0.656096 -0.39852,0.360045 -1.07912,0.496136 -2.02847,0.405599 -0.7858,-0.07494 -1.42873,-0.04414 -1.42873,0.06845 0,0.112586 0.56842,0.751781 1.26315,1.420432 1.26192,1.21455 4.18057,4.941281 6.4778,8.271288 1.6038,2.324845 3.90072,6.981578 3.90072,7.908259 0,0.404138 0.15875,0.734797 0.35277,0.734797 0.19403,0 0.35278,0.321504 0.35278,0.714453 0,0.392952 0.9525,1.738323 2.11667,2.989714 1.16417,1.251391 2.11667,2.438012 2.11667,2.636936 0,0.685733 -1.28573,0.359544 -2.05072,-0.520269 -0.42176,-0.48507 -0.90965,-0.881945 -1.08421,-0.881945 -0.50639,0 -0.74411,0.977741 -0.51555,2.120526 0.27197,1.359856 -0.65552,1.457163 -1.50671,0.15808 -0.47034,-0.717832 -0.50861,-1.069206 -0.19209,-1.763889 0.2174,-0.477121 0.63679,-0.867495 0.93199,-0.867495 0.73218,0 0.67537,-0.567164 -0.11284,-1.126525 -0.85763,-0.60863 -1.4671,-1.797724 -1.4671,-2.862383 0,-1.030188 -1.31523,-4.124981 -1.75303,-4.124981 -0.16991,0 -0.49229,-0.555625 -0.71641,-1.234722 -0.22412,-0.679097 -0.51425,-1.236543 -0.64472,-1.238769 -0.13047,-0.0021 -0.54591,-0.676913 -0.9232,-1.499305 -0.37729,-0.822393 -0.97732,-1.828014 -1.3334,-2.23471 -0.35608,-0.406697 -1.07927,-1.386516 -1.60708,-2.177369 -1.54747,-2.318675 -4.87,-6.525762 -6.01269,-7.613432 -1.21401,-1.155562 -1.93266,-1.116757 -5.5303,0.298623 -3.876086,1.524921 -7.742523,2.711813 -9.411473,2.889077 -2.089841,0.221964 -2.375245,0.873721 -1.090316,2.489871 0.537235,0.675714 1.135539,1.485755 1.329567,1.800083 2.792656,4.524196 7.562012,9.590028 12.311642,13.076976 5.12059,3.759281 10.7953,8.804406 10.7953,9.597591 0,0.366332 3.93752,2.77942 4.53527,2.77942 1.02244,0 5.37857,3.242776 6.75893,5.031451 0.78425,1.016243 1.7475,2.228049 2.14054,2.692901 0.47013,0.556024 0.59549,0.964308 0.36643,1.19337 -0.58481,0.58481 -1.40577,0.0045 -2.49462,-1.763279 -1.76296,-2.862284 -2.15677,-3.29825 -3.48969,-3.863312 -0.70976,-0.300884 -1.80735,-0.793111 -2.43911,-1.09384 -0.63174,-0.300726 -1.23601,-0.459402 -1.3428,-0.352605 -0.40922,0.409215 1.60955,5.937613 2.57101,7.040725 0.2853,0.327321 0.4212,0.752916 0.30201,0.945762 -0.11918,0.192846 -0.0554,0.450345 0.14183,0.572216 0.1972,0.121871 0.35854,0.626269 0.35854,1.120881 0,1.063233 2.72271,4.6196 5.19287,6.782862 5.5817,4.888195 10.5948,11.084989 10.83584,13.394369 0.0743,0.71162 0.31652,0.9567 1.03003,1.04207 0.51311,0.0614 0.93292,0.25425 0.93292,0.42856 0,0.44279 -1.14369,0.98461 -1.67569,0.79386 -0.59636,-0.21384 -0.59636,2.51219 0,2.98931 0.96243,0.76998 2.0182,0.81447 3.50843,0.14784 1.97374,-0.88293 6.633934,-1.36822 6.633934,-0.69083 0,0.25944 0.67469,0.9143 1.49931,1.455252 1.26726,0.83132 1.7177,0.94539 2.91041,0.73703 0.77611,-0.13558 2.01235,-0.34426 2.74719,-0.46374 1.76489,-0.28696 1.61193,-0.813792 -0.40451,-1.393252 -1.14393,-0.32873 -2.08401,-0.95301 -3.12056,-2.0723 -0.92405,-0.99781 -1.67924,-1.52672 -2.00268,-1.4026 -0.28558,0.10959 -0.72276,-0.046 -0.97151,-0.3457 -0.24874,-0.29972 -0.77629,-0.68678 -1.17232,-0.86013 -0.39603,-0.17335 -0.96953,-0.49532 -1.27445,-0.71548 -0.43897,-0.31695 -0.860764,-0.19755 -2.025864,0.57348 -1.82134,1.2053 -3.90048,1.35339 -5.00226,0.35629 -0.66737,-0.60396 -2.11887,-3.26985 -2.11887,-3.89161 0,-0.60138 -2.60435,-4.047884 -3.05878,-4.047884 -0.6778,0 -0.459,-1.19687 0.24061,-1.31618 0.30103,-0.0513 1.03775,0.69966 1.7264,1.75984 0.66071,1.01716 1.69126,2.563774 2.29012,3.436894 0.59885,0.87313 1.04725,1.62885 0.99642,1.67939 -0.18641,0.18538 1.00806,2.20117 1.30432,2.20117 0.35642,0 0.86113,-0.99922 0.89094,-1.76389 0.0328,-0.8421 1.06619,-0.61249 1.19075,0.26458 0.13907,0.97919 0.47154,1.00186 1.29812,0.0885 0.62183,-0.68712 0.60508,-0.7375 -0.65087,-1.95727 -0.70903,-0.68859 -1.28914,-1.41002 -1.28914,-1.60318 0,-0.19316 -0.40575,-0.78083 -0.90166,-1.305934 -0.85187,-0.90204 -5.80112,-8.031349 -5.80112,-8.35643 0,-0.08359 -0.45226,-0.919021 -1.00502,-1.856511 -0.55277,-0.937486 -1.11256,-2.277741 -1.244,-2.978347 -0.13143,-0.700603 -0.53047,-1.647116 -0.88676,-2.10336 -0.35629,-0.456248 -0.98248,-1.46454 -1.39153,-2.240651 -0.83429,-1.582935 -2.68331,-3.704167 -3.22883,-3.704167 -0.19676,0 -0.35775,-0.13692 -0.35775,-0.304271 0,-0.167347 -0.47625,-0.903548 -1.05833,-1.636007 -0.59448,-0.748054 -1.05834,-1.75545 -1.05834,-2.298481 0,-0.531707 -0.25321,-1.572764 -0.56269,-2.313457 -0.99165,-2.373344 -0.98585,-4.031117 0.0141,-4.031117 0.88045,0 1.3184,1.041728 1.39238,3.312001 0.0672,2.061337 0.21072,2.46144 1.49205,4.158689 5.80648,7.691276 6.33088,8.522314 7.37769,11.691741 0.75097,2.273705 3.9843,7.551148 6.55029,10.691388 1.14435,1.40045 2.08063,2.692894 2.08063,2.872104 0,0.17921 0.3175,0.61317 0.70555,0.96435 0.38806,0.35119 0.70556,0.85204 0.70556,1.11302 0,0.26096 0.28642,0.47448 0.636494,0.47448 0.35007,0 1.38746,0.47625 2.30531,1.05834 0.91785,0.58208 1.82618,1.05833 2.0185,1.05833 0.46152,0 3.85915,2.54304 3.85915,2.88846 0,0.53472 2.11458,1.34487 3.51025,1.34487 2.37681,0 3.51064,1.7074 2.29058,3.449292 -0.42343,0.60453 -0.89822,0.78405 -2.07359,0.78405 -0.83842,0 -2.0681,0.22717 -2.73261,0.50481 -0.77755,0.32489 -1.39018,0.38968 -1.71877,0.18179 -0.28082,-0.17766 -0.90746,-0.32643 -1.39253,-0.3306 -0.48507,-0.004 -1.3582,-0.25615 -1.94028,-0.55996 -1.97752,-1.03215 -4.258854,-1.25206 -6.506424,-0.62718 -2.69109,0.74819 -5.75893,0.41592 -6.92486,-0.75002 -0.72227,-0.722272 -0.7904,-1.043612 -0.61043,-2.879122 0.11143,-1.13636 0.34928,-2.25251 0.52857,-2.48034 0.58196,-0.73952 -2.67979,-6.6148 -4.12861,-7.436734 -0.25491,-0.14461 -1.94719,-1.69168 -3.76064,-3.43793 -1.81344,-1.746245 -3.85165,-3.665494 -4.52933,-4.264994 -2.41335,-2.134898 -3.48974,-3.511716 -3.69853,-4.730835 -0.1163,-0.679097 -0.5195,-1.830578 -0.89599,-2.558849 -0.37649,-0.728267 -1.08851,-2.792017 -1.58225,-4.586111 -1.10651,-4.02064 -1.39331,-4.621393 -3.15722,-6.613374 C 65.657926,57.829192 58.086766,50.949775 56.824806,50.517876 55.621416,50.106022 46.14727,40.147994 45.261819,38.364321 44.06586,35.955145 42.59975,34.276755 41.888452,34.502512 c -0.350425,0.11122 -0.740837,0.03443 -0.867587,-0.170663 -0.395319,-0.639643 -0.892298,-0.02783 -2.243229,2.761481 -2.522111,5.207504 -4.316536,7.844314 -7.508311,11.033051 -1.727486,1.725838 -4.231227,4.375253 -5.563874,5.887583 -1.332646,1.51233 -2.944707,3.217164 -3.582353,3.788516 -2.071927,1.856521 -3.836236,3.82549 -5.007317,5.588166 -0.994985,1.49763 -1.501645,1.872629 -3.813087,2.822222 -2.681852,1.101767 -3.7339521,1.693506 -5.1677251,2.906512 -3.95513,3.346129 -9.12125701,7.003044 -12.804141,9.063588 -4.185332,2.341661 -11.6411619,8.379386 -11.6414939,9.427266 -9.5e-5,0.30069 -0.936798,1.558854 -2.081562,2.795934 -1.594559,1.72314 -2.082466,2.50292 -2.085991,3.33386 -0.0025,0.59654 -0.255554,1.56087 -0.562271,2.14296 -0.306718,0.58208 -0.558648,1.28035 -0.559843,1.55171 -0.0012,0.27137 -0.729951,1.82851 -1.619456,3.460332 -0.889506,1.63182 -1.53224,3.18856 -1.428299,3.45943 0.103941,0.27087 0.829178,0.81909 1.611638,1.21827 1.516465,0.77364 2.218619,2.18997 1.461436,2.94789 -0.240167,0.2404 -1.706782,0.44899 -3.48431,0.49555 -2.430153,0.0636 -3.290031,-0.0518 -4.127905,-0.55419 z m 6.172682,-1.13135 c 0.0029,-0.60462 -0.835048,-0.96523 -1.409401,-0.60654 -0.459038,0.28668 -0.960118,0.2449 -1.9832,-0.16534 -1.121896,-0.44987 -1.347192,-0.69876 -1.248302,-1.37902 0.06637,-0.45654 0.580887,-1.28409 1.143379,-1.839 0.562492,-0.5549 0.930135,-1.15871 0.816985,-1.34179 -0.113149,-0.18308 0.364518,-1.06481 1.061482,-1.95939 0.696965,-0.894592 1.267209,-1.833202 1.267209,-2.085822 0,-0.42429 0.72903,-2.30364 1.446955,-3.73008 0.347079,-0.68961 0.202975,-0.81456 -1.314458,-1.1397 -1.904147,-0.408 -4.180778,-3.68216 -4.186181,-6.020414 -0.003,-1.27619 -0.09602,-1.42178 -0.9734,-1.52273 -0.544641,-0.0627 -0.970139,0.0608 -0.970139,0.28142 0,0.21618 -0.41572,0.77833 -0.923822,1.24923 -0.900512,0.83456 -0.910319,0.88991 -0.388677,2.193624 1.182791,2.95609 1.565491,10.25598 0.781567,14.908192 -0.175074,1.03898 -0.04371,1.40693 0.828603,2.32104 0.974566,1.02125 1.186824,1.08464 3.543565,1.05833 1.378798,-0.0154 2.507323,-0.1153 2.507835,-0.22201 z m 1.149201,-16.517902 c 0.918341,-0.0668 4.28951,-3.617254 3.750742,-3.950224 -0.297279,-0.18373 -0.107027,-0.46789 0.612403,-0.91469 0.574011,-0.35649 2.831966,-2.07692 5.017678,-3.823167 3.7222759,-2.973871 5.8682489,-4.444404 12.40146189,-8.498127 1.45520901,-0.902925 4.03576101,-2.748415 5.73456201,-4.101085 1.698798,-1.35267 3.881611,-2.8419 4.8506951,-3.309401 1.565952,-0.755442 2.311188,-1.553887 1.450333,-1.553887 -0.480618,0 -0.729488,-1.380109 -0.29706,-1.647363 0.210869,-0.130327 0.612203,0.107639 0.891854,0.528814 0.354185,0.533431 0.868676,0.765771 1.695721,0.765771 1.000506,0 1.326695,-0.220871 2.073639,-1.404102 0.4875,-0.772255 0.886368,-1.529425 0.886368,-1.682605 0,-0.153176 1.665574,-1.93034 3.701274,-3.949252 2.035705,-2.018912 3.640321,-3.731708 3.565818,-3.806212 -0.0745,-0.0745 -1.224142,0.3709 -2.554749,0.989782 -2.575963,1.198115 -5.770676,1.641115 -5.770676,0.800202 0,-0.700175 1.144538,-1.140954 2.652039,-1.021341 0.757149,0.06008 1.621116,-0.0042 1.919936,-0.142822 4.269599,-1.980769 7.865259,-4.691994 11.22061,-8.460641 1.638832,-1.8407 3.119458,-3.669824 3.290273,-4.064727 0.170815,-0.394903 0.852428,-1.670505 1.514694,-2.834672 0.662267,-1.164167 1.632592,-2.897876 2.156277,-3.852686 l 0.952158,-1.736016 -0.828686,-0.62968 C 38.047906,31.77448 27.658149,26.562125 27.156922,26.562125 c -0.188426,0 -0.54508,0.243988 -0.792568,0.542191 -0.247491,0.298207 -0.761778,0.496644 -1.142859,0.440973 -0.410732,-0.06 -0.914742,0.230568 -1.237707,0.713556 -0.53055,0.793426 -0.520224,0.808599 0.394109,0.579117 0.516414,-0.129611 0.938933,-0.136631 0.938933,-0.01559 0,0.191996 -1.289964,2.294777 -3.158134,5.148093 -1.3809,2.109096 -3.508333,7.088682 -4.06938,9.525001 -0.67116,2.914484 -1.46091,4.938889 -1.926735,4.938889 -0.165936,0 -0.07099,-0.754063 0.210979,-1.675695 0.281975,-0.921632 0.75778,-2.866319 1.057345,-4.321528 0.564244,-2.740935 2.22346,-6.38321 4.67177,-10.255367 1.361016,-2.152533 1.667506,-3.427299 0.449759,-1.870678 -2.680652,3.42663 -6.332774,10.873331 -8.333595,16.992252 -0.780754,2.387705 -1.990852,4.560958 -4.2637541,7.657405 -0.99696,1.358194 -2.002127,2.826632 -2.233704,3.263194 -0.241858,0.455948 -0.753562,0.794675 -1.20238,0.795924 -0.429736,0.0011 -1.257589,0.256589 -1.839673,0.567541 -0.582083,0.310953 -1.455208,0.695766 -1.940277,0.855148 -5.323738,1.749213 -9.666344,4.657404 -11.04182,7.394582 -2.0437619,4.067059 -3.3633349,6.004081 -5.6392999,8.278019 -1.352655,1.351453 -2.856984,3.058016 -3.342951,3.792362 -0.919078,1.388819 -1.623927,1.787916 -1.267741,0.717814 0.303935,-0.913126 -1.563739,1.317978 -2.14102,2.557639 -0.271062,0.582077 -1.058361,1.657757 -1.749554,2.390377 -0.990804,1.05021 -1.435245,1.28725 -2.100463,1.12029 -0.578985,-0.14532 -0.909266,-0.041 -1.052543,0.33234 -0.114838,0.29927 -0.07827,0.62479 0.08126,0.72338 0.159532,0.0986 0.211643,0.589484 0.1158,1.090854 -0.136277,0.71289 -0.01063,0.95436 0.576478,1.1079 0.412905,0.10797 0.750736,0.39425 0.750736,0.63617 0,0.24561 0.350525,0.40311 0.79375,0.35665 0.436563,-0.0458 1.072347,-0.10345 1.412855,-0.12822 z m -0.08994,-3.243564 c 0,-1.09233 3.424083,-4.195899 3.997065,-3.62291 0.202645,0.20264 -3.417249,3.99923 -3.813108,3.99923 -0.101176,0 -0.183957,-0.16934 -0.183957,-0.37632 z M 4.1501619,64.06795 c 0,-0.992015 1.440173,-3.639157 1.979881,-3.639157 0.436929,0 0.437998,0.108119 0.0078,0.79375 -0.273889,0.436563 -0.686735,1.389063 -0.917434,2.116667 -0.429849,1.355704 -1.070292,1.791769 -1.070292,0.72874 z m 7.5982731,-5.527605 c 0.614486,-3.275471 3.196004,-8.248756 3.910743,-7.534021 0.09525,0.09525 -0.403917,1.075337 -1.109261,2.177965 -0.768329,1.201096 -1.458941,2.870052 -1.722716,4.163191 -0.242154,1.187126 -0.636997,2.223985 -0.877426,2.304126 -0.32089,0.106966 -0.374434,-0.18857 -0.20134,-1.111261 z M -24.39748,85.476014 c 0.51952,0 1.130479,-0.22399 1.357686,-0.49776 0.503831,-0.60708 0.01172,-0.99061 -0.696334,-0.5427 -0.281777,0.17826 -0.829823,0.32897 -1.217878,0.33491 -1.000164,0.0153 -1.724164,0.5518 -1.416491,1.04963 0.188236,0.30457 0.368749,0.31561 0.644919,0.0394 0.210934,-0.21094 0.808578,-0.38352 1.328098,-0.38352 z m 10.952905,-11.068842 c 1.125946,-0.992082 2.277892,-2.68949 1.82522,-2.68949 -0.289731,0 -1.389472,1.121019 -2.882708,2.938481 -0.707589,0.861229 -0.01836,0.698948 1.057488,-0.248991 z M 42.075316,32.204079 c 0.12076,-0.1954 -0.06831,-0.457179 -0.420154,-0.581737 -0.351847,-0.124556 -0.957221,-0.49565 -1.345276,-0.82465 -1.279804,-1.085053 -5.11574,-3.235876 -5.526751,-3.098871 -0.366438,0.122146 6.258835,4.828456 6.828847,4.85092 0.134069,0.0053 0.342572,-0.150265 0.463334,-0.345662 z m 1.593036,-1.593536 c 0.245434,-0.29573 0.383935,-0.586493 0.307777,-0.646144 -0.801793,-0.628008 -1.954675,-1.284055 -2.245434,-1.277761 -0.199362,0.0043 0.0344,0.318283 0.519469,0.697709 0.588687,0.460478 0.705989,0.691893 0.352777,0.69596 -0.291041,0.0032 -1.005416,-0.384287 -1.5875,-0.861412 -0.582083,-0.477129 -0.859895,-0.873217 -0.617361,-0.880195 0.812853,-0.02339 0.44697,-0.535326 -0.954553,-1.335603 -1.918014,-1.095198 -2.186048,-0.977995 -0.721141,0.315334 0.965277,0.852216 1.025722,0.96562 0.276994,0.519677 -1.117618,-0.66566 -1.471479,-0.723349 -1.139208,-0.185727 0.248694,0.402396 4.755812,3.454118 5.140548,3.480612 0.121761,0.0084 0.422197,-0.226716 0.667632,-0.52245 z m 21.865144,-1.599794 c 0,-0.182577 -0.23812,-0.331957 -0.52916,-0.331957 -0.54554,0 -0.70087,0.416264 -0.30358,0.813558 0.28185,0.281845 0.83274,-0.03676 0.83274,-0.481601 z m -19.755554,0.02554 c 0,-0.191424 -0.515938,-0.583198 -1.146528,-0.870606 -0.630591,-0.287412 -2.167492,-1.162668 -3.415337,-1.945012 -1.247846,-0.782349 -2.425242,-1.42245 -2.616437,-1.42245 -0.51133,0 -0.124502,0.320601 3.059437,2.535636 2.737002,1.904122 4.118865,2.47528 4.118865,1.702446 z M 63.769606,28.85518 c 0,-0.291042 -0.15875,-0.529167 -0.35277,-0.529167 -0.19403,0 -0.35278,0.238125 -0.35278,0.529167 0,0.291041 0.15875,0.529166 0.35278,0.529166 0.19402,0 0.35277,-0.238125 0.35277,-0.529166 z M 33.796821,27.958899 c -1.173208,-1.002809 -2.786557,-1.468162 -2.286847,-0.659616 0.204424,0.330768 2.825563,1.662655 3.331856,1.69303 0.09701,0.0058 -0.373239,-0.459215 -1.045009,-1.033414 z m 28.498605,0.25357 c 0.0683,-0.352259 -0.24686,-0.748351 -0.79375,-0.997532 -0.49889,-0.227309 -0.90707,-0.630672 -0.90707,-0.896359 0,-0.355773 0.36418,-0.27348 1.38194,0.312265 1.35659,0.780757 1.40611,0.783812 2.70027,0.166673 1.09699,-0.52312 1.48878,-0.55807 2.33354,-0.208156 0.55837,0.231281 1.12154,0.314183 1.25149,0.184227 0.30457,-0.304563 -1.21058,-1.679212 -2.46376,-2.235295 -0.53358,-0.236767 -0.97014,-0.610662 -0.97014,-0.83088 0,-0.27571 -0.50354,-0.324887 -1.61696,-0.157921 -2.64471,0.3966 -4.12385,-0.03916 -6.00958,-1.770451 -1.03127,-0.946802 -1.82344,-1.430277 -2.02054,-1.233173 -0.35324,0.353243 -0.0505,0.801335 2.84371,4.209524 1.01184,1.191504 1.76484,2.363266 1.67335,2.603913 -0.17386,0.457267 1.51911,1.665104 2.13141,1.520642 0.19402,-0.04578 0.40376,-0.346142 0.46609,-0.667477 z m 4.09531,0.153518 c 0.23045,-0.372868 -0.7807,-1.292436 -1.08573,-0.987404 -0.29394,0.293935 0.13125,1.300209 0.54938,1.300209 0.18866,0 0.43002,-0.140762 0.53635,-0.312805 z M 47.894608,27.288502 c 0,-0.416229 -0.68804,-0.861484 -0.940742,-0.608785 -0.252698,0.252701 0.192557,0.940742 0.608786,0.940742 0.182576,0 0.331956,-0.149381 0.331956,-0.331957 z m -2.998611,-0.373599 c -0.119916,-0.194028 -0.486473,-0.350347 -0.814571,-0.347377 -0.514092,0.0047 -0.523406,0.05267 -0.06737,0.347377 0.690869,0.446475 1.15788,0.446475 0.881944,0 z m -1.5875,-0.844201 c 0,-0.07626 -0.246369,-0.233186 -0.54749,-0.348738 -0.313944,-0.12047 -0.455549,-0.06133 -0.331957,0.138645 0.207173,0.335213 0.879447,0.495811 0.879447,0.210093 z m 3.175,-0.01055 c 0,-0.219071 -3.982071,-2.673029 -4.337558,-2.673029 -0.324012,0 1.123812,1.237527 2.573669,2.199841 0.83196,0.552196 1.763889,0.802199 1.763889,0.473185 z m -5.595331,-1.626427 c -0.458061,-0.381603 -1.079831,-0.693822 -1.381714,-0.693822 -0.678748,0 -0.525759,0.161823 0.812916,0.859857 1.397731,0.728825 1.579327,0.675816 0.568798,-0.166039 z m -12.972225,-0.06386 c -0.09422,-0.152453 -0.400064,-0.277184 -0.679655,-0.277184 -0.27959,0 -0.508345,0.124731 -0.508345,0.277181 0,0.152453 0.305844,0.277184 0.679654,0.277184 0.373811,0 0.602566,-0.124731 0.508346,-0.277184 z m 20.331445,-0.453573 c -0.241543,-0.291042 -0.618169,-0.524119 -0.836944,-0.517949 -0.218779,0.0062 -0.08962,0.244299 0.287009,0.529167 0.879712,0.665381 1.107603,0.660732 0.549935,-0.01122 z m -1.636314,-0.352778 c 0.111683,-0.291042 0.117327,-0.529167 0.01256,-0.529167 -0.104785,0 -0.428643,0.238125 -0.719684,0.529167 -0.458946,0.45895 -0.460612,0.529167 -0.01256,0.529167 0.284141,0 0.607998,-0.238125 0.719684,-0.529167 z M 35.900163,22.681569 c 0,-0.194027 -0.15875,-0.352777 -0.352777,-0.352777 -0.194028,0 -0.352778,0.15875 -0.352778,0.352777 0,0.194028 0.15875,0.352778 0.352778,0.352778 0.194027,0 0.352777,-0.15875 0.352777,-0.352778 z m 11.798449,-0.384503 c -0.258865,-0.418853 -3.735917,-2.429908 -4.209016,-2.43441 -0.191439,-0.0018 0.471663,0.548732 1.473563,1.223451 1.001899,0.674716 1.923563,1.39168 2.04814,1.593254 0.12458,0.201574 0.376876,0.273562 0.560662,0.159974 0.183787,-0.113584 0.240778,-0.357607 0.126651,-0.542269 z m -3.684559,-0.321052 c -0.291042,-0.188087 -0.687917,-0.341972 -0.881945,-0.341972 -0.194028,0 -0.114653,0.153885 0.176389,0.341972 0.291042,0.188087 0.687917,0.341972 0.881945,0.341972 0.194027,0 0.114652,-0.153885 -0.176389,-0.341972 z m 6.702778,0.01242 c 0,-0.420734 -1.398013,-1.201435 -1.667987,-0.931464 -0.291369,0.291366 0.619849,1.271824 1.182014,1.271824 0.267286,0 0.485973,-0.153166 0.485973,-0.340367 z M 38.924527,21.43928 c -0.373891,-0.282868 -0.766169,-0.427937 -0.871728,-0.322375 -0.221435,0.221435 0.674547,0.85114 1.198753,0.842493 0.194028,-0.0032 0.04687,-0.237254 -0.327025,-0.520118 z m 2.267303,-1.227155 c 0,-0.194028 -0.247495,-0.352778 -0.549987,-0.352778 -0.302493,0 -0.451873,0.15875 -0.331957,0.352778 0.119916,0.194028 0.367411,0.352778 0.549987,0.352778 0.182577,0 0.331957,-0.15875 0.331957,-0.352778 z M 30.608496,19.859347 c 0,-0.194028 -0.168119,-0.352778 -0.373598,-0.352778 -0.205479,0 -0.275484,0.15875 -0.155568,0.352778 0.119916,0.194028 0.288036,0.352778 0.373598,0.352778 0.08556,0 0.155568,-0.15875 0.155568,-0.352778 z m 21.254863,-0.257556 c 0.339548,-0.09763 0.617361,-0.306119 0.617361,-0.463307 0,-0.501251 -2.215724,-1.411911 -2.903891,-1.193493 -0.900285,0.28574 -0.585526,1.019832 0.465579,1.085843 1.523107,0.09565 1.567579,0.141083 0.674423,0.688993 -0.592219,0.363298 -0.650163,0.461931 -0.176389,0.300253 0.388055,-0.13243 0.983368,-0.320661 1.322917,-0.418289 z m -1.91823,-1.041763 c 0.25466,-0.101907 0.558931,-0.08938 0.676159,0.02783 0.117224,0.117224 -0.09114,0.200603 -0.463021,0.185286 -0.410968,-0.01693 -0.494559,-0.100521 -0.213138,-0.213134 z m -15.808855,0.807018 c 0,-0.07674 -0.635,-0.453694 -1.411111,-0.837685 -1.604334,-0.793761 -1.904742,-0.550595 -0.440972,0.356944 0.900769,0.558482 1.852083,0.805413 1.852083,0.480741 z m -5.100362,-1.866922 c -0.169725,-0.676232 -0.334134,-0.814059 -0.624597,-0.523596 -0.290463,0.290463 -0.273149,0.65212 0.06578,1.373943 0.532066,1.133154 0.911666,0.555522 0.558814,-0.850347 z m 14.272585,0.948112 c 0,-0.194028 -0.247495,-0.352778 -0.549988,-0.352778 -0.302492,0 -0.451873,0.15875 -0.331956,0.352778 0.119916,0.194028 0.367411,0.352778 0.549987,0.352778 0.182577,0 0.331957,-0.15875 0.331957,-0.352778 z m -8.819445,-0.315034 c 0,-0.173271 -0.251107,-0.411396 -0.55802,-0.529167 -0.862993,-0.331163 -0.977018,-0.259362 -0.500313,0.315034 0.48671,0.586451 1.058333,0.702106 1.058333,0.214133 z m 18.692854,0.05045 c -0.005,-0.326994 -2.321675,-1.852084 -2.812907,-1.852084 -0.715268,0 -0.33122,0.656992 0.788804,1.349411 1.202814,0.743599 2.031473,0.949392 2.024103,0.502673 z M 44.719608,17.56629 c 0,-0.29398 -0.31358,-0.529166 -0.705555,-0.529166 -0.702818,0 -0.917618,0.375899 -0.47037,0.823147 0.429659,0.429658 1.175925,0.243092 1.175925,-0.293981 z m -4.586111,-0.138645 c 0,-0.17327 -0.251107,-0.411395 -0.55802,-0.529166 -0.78848,-0.302571 -0.853091,-0.278709 -0.853091,0.315034 0,0.29398 0.31358,0.529166 0.705555,0.529166 0.388056,0 0.705556,-0.141767 0.705556,-0.315034 z m 7.073967,-0.941871 c 0.399899,-0.481852 0.343493,-0.522717 -0.447484,-0.324192 -0.515394,0.129353 -1.006542,0.06296 -1.14076,-0.154206 -0.129632,-0.209751 -0.475792,-0.381363 -0.769243,-0.381363 -0.445805,0 -0.455849,0.07769 -0.06107,0.472471 0.438048,0.438048 1.214904,0.844783 1.739594,0.910788 0.121761,0.01531 0.427298,-0.220257 0.678966,-0.523498 z m 6.684362,0.043 c 0,-0.37235 -0.67701,-0.528782 -0.87838,-0.202964 -0.12187,0.197193 0.0259,0.358532 0.3284,0.358532 0.30249,0 0.54998,-0.07001 0.54998,-0.155568 z M 41.544608,15.273236 c -0.485069,-0.379427 -1.120069,-0.692563 -1.411111,-0.695854 -0.291042,-0.0032 -0.05292,0.299074 0.529167,0.671925 1.38841,0.889339 2.009866,0.906201 0.881944,0.02392 z m 10.936112,0.549987 c 0,-0.08556 -0.15875,-0.253682 -0.352778,-0.373598 -0.194028,-0.119917 -0.352778,-0.04991 -0.352778,0.155568 0,0.205479 0.15875,0.373598 0.352778,0.373598 0.194028,0 0.352778,-0.07 0.352778,-0.155568 z m -4.233334,-0.52524 c 0,-0.180414 -0.725978,-0.690598 -1.613284,-1.133743 -1.828582,-0.913236 -2.06289,-1.170446 -1.767491,-1.94025 0.182121,-0.474602 0.373401,-0.449322 1.462539,0.193284 1.464271,0.863942 1.566887,0.883553 1.561091,0.298323 -0.0025,-0.242535 -0.558027,-0.79962 -1.234722,-1.237964 -0.676695,-0.438348 -1.230355,-0.939423 -1.230355,-1.113501 0,-0.5796069 -1.343163,0.02505 -1.514955,0.681993 -0.125137,0.478529 -0.01902,0.595232 0.408354,0.44909 0.407321,-0.139284 0.371056,-0.03704 -0.123108,0.347066 -0.478413,0.371867 -0.890528,0.442846 -1.299722,0.223852 -0.329551,-0.176371 -0.725064,-0.320675 -0.878914,-0.320675 -0.395764,0 3.419856,2.486914 4.378484,2.853775 0.436562,0.167068 0.79375,0.466442 0.79375,0.665272 0,0.198829 0.238125,0.361509 0.529166,0.361509 0.291042,0 0.529167,-0.147613 0.529167,-0.328031 z m -6.008307,-0.642108 c -0.0211,-0.503693 -1.775192,-1.546666 -2.380089,-1.415193 -0.463808,0.10081 -0.315482,0.314699 0.627285,0.904582 1.297682,0.81195 1.771209,0.949893 1.752804,0.510611 z m 12.005527,-0.09693 c 0,-0.198829 -0.40721,-0.516329 -0.90491,-0.705556 -1.293662,-0.491849 -1.402635,-0.434135 -0.682587,0.361509 0.678437,0.749667 1.587497,0.94668 1.587497,0.344047 z m -14.978547,-0.67335 c -0.127896,-0.206936 -0.491632,-0.376248 -0.80831,-0.376248 -0.481527,0 -0.463775,0.08189 0.108462,0.500323 0.738914,0.540308 1.073767,0.480942 0.699848,-0.124075 z m 9.156164,0.326799 c -0.284709,-0.460675 -2.309044,-1.508654 -2.515465,-1.302233 -0.175997,0.175997 1.998677,1.642184 2.449644,1.651575 0.156972,0.0032 0.186591,-0.153935 0.06582,-0.349342 z m 5.822383,-1.408603 c 0,-0.194028 -0.15875,-0.352778 -0.35278,-0.352778 -0.19402,0 -0.35277,0.15875 -0.35277,0.352778 0,0.194028 0.15875,0.352778 0.35277,0.352778 0.19403,0 0.35278,-0.15875 0.35278,-0.352778 z M 33.93704,11.355716 c -0.307841,-0.498097 -0.859099,-0.368296 -0.859099,0.202283 0,0.314706 0.206939,0.438683 0.527142,0.31581 0.289927,-0.111255 0.439307,-0.344399 0.331957,-0.518093 z m 21.895066,0.389742 c -0.11991,-0.194028 -0.37677,-0.352778 -0.5708,-0.352778 -0.19403,0 -0.25467,0.15875 -0.13475,0.352778 0.11991,0.194028 0.37677,0.352778 0.5708,0.352778 0.19403,0 0.25467,-0.15875 0.13475,-0.352778 z M 43.403761,10.20849 c -0.100901,-0.166236 -0.319934,-0.08686 -0.486738,0.176389 -0.471681,0.74441 -0.367312,1.08482 0.178058,0.580739 0.270675,-0.250187 0.409582,-0.590892 0.30868,-0.757128 z m 3.936895,0.87152 c 0.106281,-0.171969 -0.131548,-0.397606 -0.528511,-0.501414 -0.591943,-0.154795 -0.646906,-0.09856 -0.305615,0.31267 0.487165,0.587002 0.575617,0.607015 0.834126,0.188744 z m 7.25673,0.01869 c 0,-0.459345 -0.41937,-0.764837 -0.76051,-0.553999 -0.36485,0.225492 -0.0503,0.847979 0.42855,0.847979 0.18258,0 0.33196,-0.132292 0.33196,-0.29398 z m -19.05,-0.764353 c 0,-0.194028 -0.15875,-0.3527779 -0.352778,-0.3527779 -0.194028,0 -0.352778,0.1587499 -0.352778,0.3527779 0,0.194028 0.15875,0.352778 0.352778,0.352778 0.194028,0 0.352778,-0.15875 0.352778,-0.352778 z M 38.01683,9.8260011 c 0,-0.37235 -0.677019,-0.528782 -0.878388,-0.202964 -0.121871,0.197193 0.02589,0.358532 0.3284,0.358532 0.302493,0 0.549988,-0.07001 0.549988,-0.155568 z m 12.523612,-0.19721 c -0.119916,-0.194028 -0.367411,-0.352778 -0.549988,-0.352778 -0.182576,0 -0.331957,0.15875 -0.331957,0.352778 0,0.194028 0.247495,0.352778 0.549988,0.352778 0.302493,0 0.451873,-0.15875 0.331957,-0.352778 z M 39.957108,8.9232361 c 0.119916,-0.194028 -0.02946,-0.352778 -0.331957,-0.352778 -0.302493,0 -0.549987,0.15875 -0.549987,0.352778 0,0.194027 0.14938,0.352777 0.331956,0.352777 0.182577,0 0.430072,-0.15875 0.549988,-0.352777 z m 12.347223,0 c -0.119916,-0.194028 -0.376777,-0.352778 -0.570805,-0.352778 -0.194028,0 -0.254667,0.15875 -0.134751,0.352778 0.119916,0.194027 0.376778,0.352777 0.570805,0.352777 0.194028,0 0.254667,-0.15875 0.134751,-0.352777 z M 38.044752,7.2190371 c -0.988444,-0.145271 -1.412144,0.226427 -0.735093,0.644867 0.316808,0.195799 0.698891,0.155501 1.018138,-0.107375 0.430918,-0.354838 0.386552,-0.439085 -0.283045,-0.537492 z m 5.060436,0.0285 c 0.146882,-0.145521 0.567143,-0.264583 0.933908,-0.264583 0.366766,0 0.670504,-0.15875 0.674974,-0.352778 0.01037,-0.450557 -1.67191,-0.509796 -2.804732,-0.09877 -0.705153,0.255855 -0.771994,0.377645 -0.352778,0.642786 0.631166,0.399192 1.192876,0.425795 1.548628,0.07334 z m 4.965809,-0.79375 c -0.119916,-0.194028 -0.376777,-0.352778 -0.570805,-0.352778 -0.194028,0 -0.254667,0.15875 -0.13475,0.352778 0.119916,0.194028 0.376777,0.352778 0.570805,0.352778 0.194028,0 0.254667,-0.15875 0.13475,-0.352778 z m -4.821654,-1.883555 c 0.06766,-0.356859 -0.190613,-0.991859 -0.573927,-1.411111 -0.383314,-0.419252 -0.808729,-1.159154 -0.945367,-1.644223 -0.417671,-1.48276401 -1.04885,-2.822222 -1.329891,-2.822222 -0.146664,0 -0.266661,1.17764199 -0.266661,2.616979 0,1.439341 -0.09103,2.854206 -0.202293,3.144147 -0.231994,0.604569 0.547934,0.903622 2.139682,0.820427 0.718089,-0.03753 1.094764,-0.262552 1.178457,-0.703997 z M 40.827834,-28.383016 c -0.01383,-0.326277 -0.886382,-1.499305 -1.115243,-1.499305 -0.131001,0 -0.102031,1.253408 0.03873,1.675694 0.07445,0.223358 1.086432,0.05754 1.076513,-0.176389 z m -0.215949,-4.409722 c 1.20971,-1.652179 0.750587,-1.720148 -0.801621,-0.118678 -0.678783,0.700324 -1.060129,1.377481 -0.911331,1.618241 0.278691,0.450931 0.295748,0.436001 1.712952,-1.499563 z m -1.167772,-0.647577 c 0.216573,-0.404671 0.326986,-0.802555 0.245357,-0.884181 -0.176086,-0.176085 -1.67264,1.073623 -1.67264,1.39675 0,0.539076 1.070134,0.15477 1.427283,-0.512569 z m -1.935272,-1.751249 c 0.279396,-0.231877 0.507989,-0.560906 0.507989,-0.731174 0,-0.604912 -0.947695,-0.296436 -1.766305,0.574933 -0.813573,0.866009 -0.816706,0.895032 -0.149688,1.387298 0.607061,0.448014 0.693184,0.43131 0.790643,-0.153342 0.06016,-0.360867 0.337968,-0.845841 0.617361,-1.077715 z m 5.052388,-0.859038 c 0.505389,-1.037735 0.876187,-7.237276 0.432862,-7.237276 -0.496662,0 -1.096705,0.862239 -1.096705,1.575922 0,0.401088 -0.744192,1.579976 -1.653762,2.619753 -1.491862,1.705423 -1.595473,1.93312 -1.058334,2.325885 0.327487,0.239466 0.595429,0.706399 0.595429,1.037632 0,0.441703 0.18808,0.542548 0.705556,0.378309 0.426529,-0.135375 0.705555,-0.06339 0.705555,0.182015 0,0.711596 0.864391,0.154708 1.369399,-0.88224 z m -1.722177,-1.042843 c 0,-0.302493 0.15875,-0.549988 0.352778,-0.549988 0.194028,0 0.352778,0.14938 0.352778,0.331957 0,0.182577 -0.15875,0.430071 -0.352778,0.549988 -0.194028,0.119916 -0.352778,-0.02946 -0.352778,-0.331957 z m -0.24239,-1.539431 c 0.521371,-0.544191 0.947946,-1.198629 0.947946,-1.454305 0,-0.381028 0.102919,-0.379451 0.570675,0.0087 0.513355,0.42605 0.452691,0.57211 -0.604037,1.454305 -1.524346,1.272582 -2.136567,1.266723 -0.914584,-0.0087 z m -0.2176,-1.920974 c 0.588899,-0.824618 1.194333,-1.894935 1.34541,-2.378484 0.245995,-0.78734 0.214097,-0.82889 -0.305365,-0.397775 -0.319031,0.264771 -0.580055,0.628326 -0.580055,0.807904 0,0.179578 -0.384044,0.676077 -0.853436,1.103334 -0.889737,0.809872 -1.543272,2.364327 -0.994029,2.364327 0.174212,0 0.798576,-0.674688 1.387475,-1.499306 z m -4.126121,-2.314215 c 0,-0.433917 -0.126996,-0.414235 -0.705555,0.109354 -0.388056,0.351187 -0.705556,0.876646 -0.705556,1.167688 0,0.433916 0.126996,0.414235 0.705556,-0.109354 0.388055,-0.351187 0.705555,-0.876646 0.705555,-1.167688 z m 2.307562,-1.148838 c 0.379684,-0.614342 -0.05275,-0.744446 -0.536596,-0.161446 -0.278254,0.335277 -0.305019,0.537694 -0.07109,0.537694 0.206333,0 0.479792,-0.169313 0.607688,-0.376248 z m 1.572994,-1.56403 c 0.244979,-0.295183 0.283182,-0.529167 0.08639,-0.529167 -0.194028,0 -0.550404,0.238125 -0.791948,0.529167 -0.244979,0.295183 -0.283181,0.529166 -0.08639,0.529166 0.194027,0 0.550403,-0.238125 0.791948,-0.529166 z m 2.822222,0 0.881945,-0.504166 -0.926945,-0.01249 c -0.509817,-0.0069 -1.124567,0.225612 -1.366111,0.516654 -0.584306,0.704042 0.179515,0.704042 1.411111,0 z m -32.06331,-17.837864 c 1.716994,-0.982561 3.21431,-1.936145 3.327368,-2.119075 0.193393,-0.312919 -0.853884,-2.05489 -1.855922,-3.087011 -0.24892,-0.256393 -0.452582,-0.613581 -0.452582,-0.79375 0,-0.180168 -0.161586,-0.327579 -0.359082,-0.327579 -0.658918,0 -6.3230051,4.049858 -6.3334301,4.52844 -0.01009,0.463302 2.070142,3.585449 2.388923,3.585449 0.0896,0 1.567727,-0.803913 3.2847251,-1.786474 z m 39.831498,-0.498056 c -0.245434,-0.295731 -0.61016,-0.537692 -0.810503,-0.537692 -0.200342,0 -0.07604,0.318473 0.276218,0.707718 0.729566,0.806164 1.215983,0.651371 0.534285,-0.170026 z m -33.802452,-4.960875 c 1.22197,-0.880529 3.03336,-2.269591 4.025315,-3.086806 0.991955,-0.817215 2.777892,-2.074297 3.96875,-2.793517 2.117249,-1.278713 2.82025,-2.396495 1.507219,-2.396495 -0.361891,0 -1.036578,0.28888 -1.499306,0.641956 -0.462728,0.353075 -1.937893,1.247952 -3.278142,1.988617 -1.340249,0.740664 -2.989587,1.721784 -3.665202,2.180267 -0.675612,0.458483 -1.447762,0.833605 -1.715887,0.833605 -0.584553,0 -3.294595,1.745827 -3.294595,2.122401 0,0.145615 0.331734,0.351504 0.737185,0.457532 0.558148,0.145959 0.680893,0.370146 0.505393,0.92309 -0.347147,1.093762 0.248973,0.902193 2.70927,-0.87065 z m 11.911934,-8.188623 c -0.02028,-0.478183 -0.940114,-1.499306 -1.350589,-1.499306 -0.555099,0 -0.504832,0.240241 0.21528,1.028936 0.647216,0.708857 1.154331,0.918959 1.135309,0.47037 z M 90.694516,84.288734 c -0.35363,-0.45897 -1.19859,-1.75311 -1.87768,-2.875854 -0.6791,-1.122743 -1.83658,-2.677431 -2.57217,-3.454858 -0.76304,-0.806436 -1.20503,-1.545922 -1.02913,-1.721824 0.63469,-0.634686 1.56131,0.241871 3.62767,3.431653 1.16938,1.80515 2.35621,3.47302 2.63739,3.706379 0.56533,0.469184 0.70002,1.749004 0.18406,1.749004 -0.17994,0 -0.6165,-0.37552 -0.97014,-0.8345 z M 77.170776,61.306067 c -0.61009,-0.649408 -0.72821,-0.991338 -0.44153,-1.278019 0.28668,-0.286685 0.63466,-0.148145 1.3006,0.517804 0.50007,0.500062 0.90921,1.075171 0.90921,1.278019 0,0.658403 -0.91501,0.390461 -1.76828,-0.517804 z m -9.6274,-4.669635 c -0.0816,-0.145521 -0.2561,-0.714336 -0.38768,-1.264035 -0.35262,-1.473094 -1.84852,-3.709391 -3.78979,-5.66553 -1.87519,-1.889562 -2.06825,-2.330852 -1.01968,-2.330852 0.77624,0 3.18727,1.96511 3.18727,2.597788 0,0.224417 0.39688,0.836045 0.88195,1.359169 0.48507,0.523127 0.88194,1.116816 0.88194,1.319314 0,0.202495 0.12935,0.368173 0.28744,0.368173 0.15809,0 0.55624,0.563683 0.88477,1.252626 0.44682,0.936978 0.5046,1.425907 0.22932,1.940278 -0.37726,0.70491 -0.89175,0.893279 -1.15554,0.423069 z m -9.15193,-9.172223 c -1.28731,-1.917792 -3.92685,-6.452221 -4.4248,-7.60132 -0.51951,-1.198856 -0.54975,-2.011875 -0.0748,-2.011875 0.19403,0 0.35278,0.242652 0.35278,0.539228 0,0.868416 1.92396,4.379116 3.8558,7.035797 1.7047,2.344304 2.15359,3.361087 1.48385,3.361087 -0.16764,0 -0.7044,-0.595313 -1.19281,-1.322917 z m -2.34657,-7.761111 c -3.345991,-4.279667 -3.564156,-4.585395 -3.564156,-4.994685 0,-0.963415 1.084806,-0.233069 1.809686,1.218379 0.44047,0.881951 1.78815,2.584749 2.99485,3.783993 1.20669,1.19924 2.11808,2.303265 2.02529,2.45339 -0.43631,0.705964 -1.29626,0.05789 -3.26567,-2.461077 z m -1.2711,-36.7770849 c -0.11992,-0.194028 -0.0499,-0.352778 0.15557,-0.352778 0.20548,0 0.3736,0.15875 0.3736,0.352778 0,0.194028 -0.07,0.352778 -0.15557,0.352778 -0.0856,0 -0.25368,-0.15875 -0.3736,-0.352778 z m -7.584723,-0.942361 c 0,-0.32427 -0.220843,-0.840207 -0.49076,-1.14652801 -0.269917,-0.30632 -0.607466,-1.26771 -0.750108,-2.13642199 -0.230921,-1.4063353 -0.199037,-1.5294223 0.290851,-1.1228533 0.30261,0.251146 0.707747,1.1206593 0.900303,1.93225629 0.192557,0.811597 0.459783,1.83281801 0.593831,2.26938001 0.151924,0.494768 0.09535,0.79375 -0.150195,0.79375 -0.216658,0 -0.393922,-0.265313 -0.393922,-0.589583 z m -4.177634,-2.23263901 c 0,-0.485069 0.08007,-0.683507 0.177938,-0.440972 0.09786,0.242534 0.09786,0.639409 0,0.881944 -0.09786,0.242535 -0.177938,0.0441 -0.177938,-0.440972 z m -0.0557,-2.84304329 c 0,-0.205479 0.15875,-0.275484 0.352778,-0.155568 0.194028,0.119916 0.352778,0.288036 0.352778,0.373599 0,0.08556 -0.15875,0.155567 -0.352778,0.155567 -0.194028,0 -0.352778,-0.168119 -0.352778,-0.373598 z m 15.915497,-1.593311 c -0.46281,-0.482624 -0.73621,-0.98275 -0.60757,-1.111391 0.31588,-0.315873 1.74256,1.143381 1.57886,1.614904 -0.0714,0.205694 -0.5085,-0.02088 -0.97129,-0.503513 z m -15.62248,0.02663 c -0.216859,-0.990861 0.718679,-5.0259621 1.543322,-6.6565578 0.5253,-1.038687 0.78848,-1.26668 1.1012,-0.95396 0.312716,0.312716 0.233175,0.723229 -0.332818,1.717668 -0.40906,0.7187069 -0.942531,2.1798631 -1.185496,3.247016 -0.242961,1.0671528 -0.561008,2.2577778 -0.706769,2.6458338 l -0.265021,0.705555 z m 12.15948,-2.5576374 c -0.12394,-0.3395486 -0.60174,-1.0738591 -1.06176,-1.6317984 -0.46002,-0.5579392 -0.77322,-1.0776126 -0.69601,-1.154832 0.24261,-0.242598 1.29972,0.2877501 1.29972,0.6520637 0,0.1911703 0.3175,0.7512227 0.70555,1.2445542 0.38806,0.4933315 0.70556,1.0343092 0.70556,1.2021715 0,0.5541186 -0.72332,0.3172072 -0.95306,-0.312159 z m 2.36417,-0.5965402 c 0,-0.3024928 0.15875,-0.5499876 0.35278,-0.5499876 0.19403,0 0.35278,0.1493802 0.35278,0.3319568 0,0.1825767 -0.15875,0.4300714 -0.35278,0.5499877 -0.19403,0.1199162 -0.35278,-0.029457 -0.35278,-0.3319569 z m 1.02007,-2.9312382 c 0.71933,-1.308664 1.42696,-2.052457 1.42642,-1.499305 -7.1e-4,0.542614 -1.1497,2.116667 -1.54531,2.116667 -0.12125,0 -0.0678,-0.277813 0.11889,-0.617362 z m -1.83029,-1.686778 c -0.40091,-0.550842 -0.48002,-0.870861 -0.21528,-0.870861 0.42342,0 1.3464,1.012272 1.36706,1.499306 0.0223,0.526143 -0.53129,0.224081 -1.15178,-0.628445 z m -5.804363,0.306613 c -0.582817,-0.235172 -0.568703,-1.177474 0.01764,-1.177474 0.508335,0 1.305278,0.689251 1.305278,1.128889 0,0.307404 -0.624646,0.330345 -1.322917,0.04858 z m -9.542639,-2.65914 c -0.232834,-0.232834 -0.423334,-0.654311 -0.423334,-0.936622 0,-0.407455 0.145475,-0.381631 0.705556,0.125233 0.724743,0.655884 0.923202,1.234722 0.423333,1.234722 -0.155222,0 -0.472722,-0.1905 -0.705555,-0.423333 z m 8.436317,-0.239589 c -0.580566,-0.446409 -0.712576,-0.727058 -0.42546,-0.904508 0.459965,-0.284272 2.149143,0.676807 2.149143,1.222784 0,0.53927 -0.800714,0.391417 -1.723683,-0.318276 z m 3.311185,-1.212533 c -1.364465,-0.50189 -1.343969,-0.484604 -1.080306,-0.911221 0.247713,-0.400809 2.667806,0.586281 2.667806,1.088125 0,0.349483 -0.22443,0.324475 -1.5875,-0.176904 z m -6.410436,-0.447879 c -0.242228,-0.631233 0.510268,-4.379014 0.879485,-4.380238 0.131604,-3.52e-4 0.186567,1.110813 0.122139,2.469445 -0.111083,2.342416 -0.529611,3.140841 -1.001624,1.910793 z m 11.237806,-0.446166 c -0.44939,-0.456071 -0.7228,-0.923501 -0.60756,-1.038733 0.27717,-0.277177 1.72167,1.178606 1.55448,1.566623 -0.0714,0.165732 -0.49753,-0.07182 -0.94692,-0.52789 z m -14.366878,-0.42897 c -0.127893,-0.206936 -0.159985,-0.448801 -0.07131,-0.537471 0.246052,-0.246056 1.320539,0.241077 1.320539,0.598685 0,0.441603 -0.967779,0.394179 -1.249229,-0.06121 z m 15.516518,-2.240743 c -0.37633,-0.275177 -0.56101,-0.623545 -0.41041,-0.774149 0.15061,-0.150608 0.6222,0.07454 1.04798,0.500323 0.86297,0.862965 0.42523,1.050964 -0.63757,0.273826 z m -16.736735,-0.518929 c 0,-0.172529 0.312219,-0.688467 0.693819,-1.146527 0.740495,-0.888859 0.971261,-0.37905 0.352104,0.77786 -0.373073,0.697089 -1.045923,0.934258 -1.045923,0.368667 z m 14.728475,-1.651885 c -0.14552,-0.147772 -0.26458,-0.670842 -0.26458,-1.162382 0,-0.642306 0.10763,-0.786066 0.38264,-0.511058 0.21046,0.210456 0.32952,0.733527 0.26458,1.162381 -0.0649,0.428855 -0.23712,0.65883 -0.38264,0.511059 z m -16.845141,-0.449185 c 0,-0.163957 0.301741,-0.571172 0.670532,-0.904928 0.502856,-0.455076 0.736878,-0.499473 0.935841,-0.177546 0.155194,0.251111 -0.0047,0.626689 -0.38518,0.904924 -0.742248,0.542745 -1.221193,0.61238 -1.221193,0.17755 z m 7.055556,-0.602347 c -0.291042,-0.06217 -1.287812,-0.212926 -2.215046,-0.334998 -1.475045,-0.194193 -1.794898,-0.394652 -2.557639,-1.602909 -1.195882,-1.894399 -1.096497,-1.96119 0.451157,-0.303209 1.231896,1.319713 1.484637,1.429988 3.673344,1.602747 2.890848,0.228173 3.511783,-0.07947 4.525882,-2.242347 0.948863,-2.023745 2.124737,-3.739544 2.384667,-3.479617 0.1035,0.103495 0.021,0.390448 -0.18343,0.637671 -0.20438,0.247226 -0.64848,1.163874 -0.986881,2.036999 -1.083119,2.794627 -2.947211,4.143868 -5.092054,3.685663 z m 8.131585,-4.710924 c -0.45913,-0.857899 -0.46557,-1.091406 -0.0301,-1.091406 0.51485,0 1.13608,1.329094 0.73662,1.575971 -0.18481,0.114223 -0.50274,-0.103829 -0.70651,-0.484565 z m -8.131585,-2.399806 c 0,-0.160436 0.367605,-0.844494 0.816902,-1.520127 0.449298,-0.675629 1.022001,-1.739092 1.272678,-2.363247 0.250673,-0.62416 0.699717,-1.337289 0.997871,-1.584735 0.470962,-0.390863 0.5068,-0.334528 0.273099,0.429274 -0.147951,0.483549 -0.469854,1.117304 -0.715341,1.408346 -0.245484,0.291041 -0.780066,1.193084 -1.187955,2.004536 -0.708815,1.410116 -1.457254,2.245198 -1.457254,1.625953 z m -2.381251,-5.628016 c -0.242534,-0.09786 -0.440972,-0.323458 -0.440972,-0.501315 0,-0.511609 0.928049,-0.376265 1.411111,0.205786 0.354278,0.426879 0.345582,0.523783 -0.045,0.501315 -0.266291,-0.01531 -0.682604,-0.107922 -0.925139,-0.205786 z m 4.526499,-7.474067 c -0.461528,-0.862372 -0.497586,-1.817296 -0.06862,-1.817296 0.29222,0 0.788346,2.151878 0.555974,2.411466 -0.0583,0.06512 -0.277604,-0.202251 -0.487352,-0.59417 z m 0.876181,-7.400752 c 0.139597,-0.324587 0.393964,-1.67253 0.565262,-2.995433 0.310131,-2.395087 1.265866,-5.290796 1.323422,-4.009725 0.01584,0.352305 -0.150644,0.975803 -0.369934,1.385551 -0.21929,0.409749 -0.417727,1.93207 -0.440972,3.382932 -0.03632,2.26689 -0.132941,2.651221 -0.686925,2.732381 -0.482488,0.07069 -0.580814,-0.05402 -0.390853,-0.495706 z m 5.703736,-10.379739 c 0.26253,-2.056982 0.44706,-2.117653 0.44706,-0.14699 0,0.905463 -0.14365,1.646296 -0.31921,1.646296 -0.17557,0 -0.2331,-0.674687 -0.12785,-1.499306 z m -1.24628,-3.157361 c -0.23283,-0.232833 -0.42333,-0.550333 -0.42333,-0.705555 0,-0.534311 0.95014,-0.28094 1.5875,0.423333 0.61783,0.682696 0.61617,0.705556 -0.0512,0.705556 -0.37932,0 -0.88017,-0.1905 -1.11301,-0.423334 z"
       style="fill:#000000;stroke-width:0.35277778" />
  </g>
</svg>
