<?xml version="1.0" encoding="UTF-8" standalone="no"?>
<svg
   xmlns:dc="http://purl.org/dc/elements/1.1/"
   xmlns:cc="http://creativecommons.org/ns#"
   xmlns:rdf="http://www.w3.org/1999/02/22-rdf-syntax-ns#"
   xmlns:svg="http://www.w3.org/2000/svg"
   xmlns="http://www.w3.org/2000/svg"
   id="svg8"
   version="1.1"
   viewBox="0 0 144.98627 178.1157"
   height="178.11572mm"
   width="144.98627mm">
  <defs
     id="defs2" />
  <metadata
     id="metadata5">
    <rdf:RDF>
      <cc:Work
         rdf:about="">
        <dc:format>image/svg+xml</dc:format>
        <dc:type
           rdf:resource="http://purl.org/dc/dcmitype/StillImage" />
        <dc:title></dc:title>
      </cc:Work>
    </rdf:RDF>
  </metadata>
  <g
     transform="translate(22.961658,-21.582747)"
     id="layer1">
    <path
       id="path2597"
       d="m -14.111507,199.33357 c -0.58442,-0.28304 -1.156945,-0.89059 -1.272277,-1.35011 -0.115332,-0.45952 -0.351234,-0.83549 -0.524228,-0.83549 -0.172994,0 -0.314534,-0.17173 -0.314534,-0.38162 0,-0.20988 -0.527048,-1.28144 -1.171218,-2.38125 -1.47241,-2.51386 -2.077519,-4.86461 -2.037362,-7.91479 0.02127,-1.61536 -0.180758,-2.87023 -0.624743,-3.88055 -1.481479,-3.37122 -1.866288,-4.42849 -2.469455,-6.78485 -0.41929,-1.63802 -0.53721,-2.82118 -0.350237,-3.51414 0.393413,-1.45808 3.351953,-4.07058 4.609748,-4.07058 1.216657,0 1.295931,0.61406 0.117459,0.90983 -1.539425,0.38638 -1.809782,1.09523 -0.802061,2.10295 1.351602,1.35161 2.727869,5.42171 2.727869,8.06726 0,1.22113 0.145625,2.68048 0.323612,3.24301 0.585128,1.84931 0.770358,3.02673 0.444475,2.82532 -0.576068,-0.35603 -1.146922,-3.16193 -1.263871,-6.21226 -0.09722,-2.53576 -0.294302,-3.36617 -1.276799,-5.37986 -1.010434,-2.07095 -1.286809,-2.38125 -2.120874,-2.38125 -0.527472,0 -1.156867,0.23836 -1.398654,0.5297 -0.748507,0.9019 -0.237962,3.98609 1.177171,7.11127 1.32884,2.93462 2.348777,7.49684 2.111825,9.4463 -0.167831,1.38078 1.410219,5.75873 2.734919,7.58743 0.559996,0.77304 1.497554,1.65344 2.083463,1.95642 1.05987,0.54809 1.065471,0.54591 1.101031,-0.42831 0.119354,-3.26982 -0.411078,-5.83086 -1.818401,-8.77964 -1.105146,-2.31562 -1.254525,-2.95928 -0.686786,-2.95928 0.194028,0 0.352778,0.22875 0.352778,0.50834 0,1.30864 0.725757,0.72431 1.278567,-1.02941 0.337795,-1.07161 0.732849,-1.94838 0.877899,-1.94838 0.14505,0 0.101295,0.51594 -0.09723,1.14653 -0.748398,2.37717 -0.95293,3.99067 -0.637249,5.02708 0.177296,0.58209 0.580173,1.89941 0.895283,2.92739 0.31511,1.02797 0.477999,2.24727 0.361976,2.70954 -0.116024,0.46227 -0.03247,1.28808 0.185666,1.83512 l 0.396618,0.99462 0.43252,-1.01209 c 0.278491,-0.65167 0.33789,-1.53108 0.166796,-2.46944 -0.146149,-0.80155 -0.235897,-3.67986 -0.199442,-6.39625 0.03646,-2.71639 -0.121454,-5.97076 -0.35091,-7.23194 -0.478885,-2.63214 -0.36269,-3.0908 0.352252,-1.39045 l 0.498573,1.18576 0.232564,-2.4553 c 0.1279092,-1.35041 0.4570722,-3.09029 0.7314732,-3.8664 0.2744,-0.77611 0.6801,-2.28424 0.901554,-3.35139 0.812408,-3.91485 4.053273,-9.64677 8.01249098,-14.17119 2.51889602,-2.87848 4.06765702,-5.61574 5.48046702,-9.68608 0.682014,-1.9649 1.762502,-4.58427 2.401086,-5.82083 0.95269,-1.8448 1.184211,-2.10062 1.290069,-1.42544 0.07096,0.45256 -0.110821,1.08785 -0.403951,1.41175 -0.581279,0.64231 -0.767257,1.07863 -2.58111,6.05568 -1.31424,3.60615 -1.272158,3.63969 0.905687,0.72174 0.789838,-1.05824 2.999814,-3.51887 4.9110548,-5.46805 1.91124,-1.94918 3.647845,-3.86015 3.859124,-4.24659 0.211279,-0.38644 0.503661,-0.58309 0.649736,-0.43702 0.146074,0.14607 -0.08014,0.88074 -0.502709,1.63259 -0.422564,0.75185 -0.768297,1.46445 -0.768297,1.58355 0,0.47898 0.748598,0.17177 1.326371,-0.54431 0.337647,-0.41847 1.147272,-1.36982 1.799163,-2.1141 1.202831,-1.37329 1.292429,-2.4167 0.207528,-2.4167 -0.313298,0 -0.499381,-0.19844 -0.413515,-0.44097 0.08587,-0.24254 0.600981,-0.40758 1.1447,-0.36676 0.777953,0.0584 1.559246,-0.44024 3.667062,-2.3404 1.473168,-1.32804 3.297597,-3.34581 4.054288,-4.48394 0.756691,-1.13813 1.837478,-2.74401 2.401746,-3.56862 0.564268,-0.82462 0.931425,-1.49931 0.815905,-1.49931 -0.115521,0 -0.979174,0.38975 -1.919231,0.86612 -1.548113,0.78448 -2.466891,1.49686 -4.881933,3.7852 -1.157052,1.09635 -0.970527,0.46753 0.352777,-1.18931 0.630591,-0.78953 2.8275,-2.60007 4.882022,-4.02343 2.221575,-1.53909 4.091206,-3.12927 4.613187,-3.92367 1.713491,-2.60773 2.654017,-4.1694 3.035317,-5.03991 0.351931,-0.80347 0.38843,-0.81605 0.410182,-0.14136 0.03337,1.03532 -2.250782,5.27638 -3.932604,7.30177 -0.772905,0.9308 -2.246154,3.17715 -3.273891,4.99191 -3.079062,5.43694 -4.320808,6.89227 -8.295852,9.72275 -0.579882,0.41292 -1.054333,0.95468 -1.054333,1.20393 0,0.24925 -0.756511,1.46876 -1.681134,2.71001 -1.407231,1.88912 -1.957864,2.34467 -3.37959,2.796 -1.29739,0.41185 -2.365799,1.20324 -4.524534,3.35139 -3.1819668,3.16636 -6.0985808,6.60769 -8.3196278,9.81638 -0.825395,1.19243 -2.33352002,3.11415 -3.351389,4.27049 -3.152886,3.5818 -4.761396,6.60423 -6.390908,12.00868 -1.436817,4.76535 -2.08541,11.25468 -2.1365342,21.37655 -0.01837,3.63591 -0.158911,5.30905 -0.478325,5.69426 -0.645134,0.77802 -2.368918,0.9396 -3.610253,0.3384 z m 1.867352,-21.95792 c -0.103889,-0.39727 -0.724027,-1.83895 -1.378085,-3.20374 -0.654057,-1.36479 -1.189195,-2.65825 -1.189195,-2.87436 0,-0.2161 -0.436562,-0.85906 -0.970139,-1.42879 -0.533576,-0.56973 -0.737117,-0.96376 -0.452313,-0.87563 0.845386,0.2616 2.632191,3.08906 3.830506,6.06144 1.276025,3.16513 1.246669,3.0434 0.733919,3.0434 -0.212192,0 -0.470804,-0.32504 -0.574693,-0.72232 z m 0.490128,-3.7462 c -0.456876,-0.45688 -0.22725,-1.13197 0.382176,-1.12359 0.339548,0.005 1.014236,-0.10808 1.4993052,-0.25057 l 0.881945,-0.25908 -0.855244,0.93421 c -0.8491762,0.92758 -1.4569722,1.15024 -1.9081822,0.69903 z m 76.141205,-0.25187 c -2.33221,-0.65266 -5.92691,-3.47777 -8.45451,-6.64449 -0.575398,-0.72089 -2.043204,-2.04277 -3.261791,-2.93752 -2.218489,-1.62893 -4.687866,-4.28828 -4.687866,-5.04852 0,-0.22255 -0.146138,-0.40464 -0.324746,-0.40464 -0.178611,0 -0.432449,-0.49035 -0.564081,-1.08967 -0.202276,-0.92095 -0.06831,-1.25689 0.865233,-2.1696 0.607512,-0.59396 1.364478,-1.51991 1.682147,-2.05768 0.317666,-0.53777 0.970375,-1.18798 1.45046,-1.44491 0.771603,-0.41295 0.918171,-0.38938 1.263184,0.20319 0.9364,1.60825 2.682671,3.25921 5.129481,4.84949 3.076533,1.99957 3.683868,2.13587 3.293237,0.73904 -0.149218,-0.53357 -0.245964,-2.18832 -0.214993,-3.6772 0.04378,-2.10471 0.274468,-3.20368 1.036718,-4.93889 1.535085,-3.4945 3.963551,-7.05732 6.855803,-10.0582 4.557783,-4.72896 5.549113,-6.17804 8.686842,-12.69805 2.943843,-6.11712 6.201001,-11.34798 7.088632,-11.38405 0.242535,-0.01 0.440973,0.14872 0.440973,0.35238 0,0.59941 -1.048904,2.45193 -1.38829,2.45193 -0.554683,0 -3.63951,5.02237 -4.98106,8.10961 -2.242101,5.15963 -3.805044,7.87192 -5.717791,9.92249 -5.795236,6.21282 -7.876635,8.86618 -9.522559,12.13937 -2.593326,5.15725 -2.50776,9.06517 0.325695,14.87457 0.869647,1.78304 1.819822,3.43994 2.111499,3.68201 0.689084,0.57189 2.035453,3.24396 2.62086,5.20149 0.421188,1.40839 0.4035,1.5842 -0.204082,2.02847 -0.762081,0.55725 -1.536033,0.55711 -3.528995,-7e-4 z m 1.378271,-1.71781 c -0.137975,-0.24253 -0.480395,-0.70878 -0.760935,-1.0361 -0.280536,-0.32732 -0.405768,-0.76389 -0.278295,-0.97014 0.127469,-0.20625 -3.53e-4,-0.37501 -0.284219,-0.37501 -0.653295,0 -3.086679,-2.13025 -2.857313,-2.50137 0.19655,-0.31802 -2.060484,-1.86797 -4.527519,-3.10914 -0.940971,-0.4734 -2.499363,-1.77168 -3.527778,-2.93896 -3.10528,-3.52455 -4.206607,-4.5413 -4.796081,-4.42778 -0.311192,0.0599 -0.612704,0.35248 -0.670023,0.65011 -0.130832,0.67937 1.519763,2.83877 2.918336,3.81793 1.335938,0.9353 3.632433,3.12655 6.35,6.05896 1.164167,1.25621 2.711658,2.73689 3.438868,3.2904 2.009764,1.52973 5.622625,2.64441 4.994959,1.5411 z m 0.742647,-2.35608 c -0.156852,-0.92841 -0.563535,-1.68625 -1.15424,-2.1509 -1.027864,-0.80852 -1.444904,-1.45199 -2.737802,-4.22427 -1.620319,-3.47434 -1.744561,-3.65069 -2.76369,-3.92299 -1.20904,-0.32303 -5.76924,-3.75516 -7.288555,-5.48557 -1.258407,-1.43324 -1.867549,-1.35719 -2.673953,0.33385 l -0.561555,1.1776 3.658418,3.73456 c 2.012132,2.05402 4.209754,3.99387 4.883606,4.31078 2.80634,1.31982 4.863736,3.08745 7.312042,6.2822 0.703023,0.91735 1.343403,1.60274 1.423067,1.52307 0.07967,-0.0797 0.03587,-0.78991 -0.09734,-1.57833 z m -80.257713,-1.26409 c 0.24346,-0.29335 0.699461,-1.03796 1.013335,-1.65468 0.603296,-1.18541 1.452625,-1.7244 1.452625,-0.92186 0,0.79279 -1.750158,3.10991 -2.348969,3.10991 -0.459422,0 -0.480373,-0.0955 -0.116991,-0.53337 z m -2.825707,-0.3248 c 0,-0.27797 0.321847,-0.60755 0.715216,-0.7324 0.393368,-0.12485 1.4755,-1.30961 2.404736,-2.63279 1.647865,-2.34647 2.5449,-4.41804 5.1981942,-12.00442 1.530436,-4.37587 3.145801,-7.71506 3.865918,-7.99139 0.283765,-0.10889 0.515937,-0.39145 0.515937,-0.62791 0,-0.44187 1.44772,-1.96404 1.86797,-1.96404 1.22816698,0 8.332617,-5.91936 9.103218,-7.58472 0.179563,-0.38805 0.663501,-1.26118 1.075414,-1.94028 0.411914,-0.67909 1.212304,-2.66347 1.778646,-4.40972 1.3821298,-4.26164 5.1997078,-11.94845 7.9455398,-15.99859 l 2.236311,-3.29859 -0.357268,-1.99307 c -0.914771,-5.10316 -0.611946,-8.803254 0.992364,-12.125294 0.588331,-1.21825 1.443333,-3.00876 1.900001,-3.9789 1.212652,-2.57613 3.885092,-6.0365 5.902572,-7.64284 1.741741,-1.38679 2.260974,-2.39785 2.65382,-5.16752 0.07395,-0.52139 0.311002,-1.8211 0.526775,-2.88825 0.215773,-1.06716 0.452049,-2.6943 0.525057,-3.615877 0.256307,-3.235403 3.348087,-11.179669 4.674902,-12.01207 0.247325,-0.155162 0.45321,-0.472662 0.457524,-0.705555 0.0043,-0.232893 0.318283,-0.820318 0.69771,-1.305387 0.379427,-0.48507 0.693385,-0.96132 0.697682,-1.058334 0.0043,-0.09701 -2.25738,-0.154153 -5.025955,-0.126971 -3.738845,0.0367 -5.383438,0.195516 -6.393053,0.617361 -1.604257,0.670299 -1.625897,0.673047 -1.625897,0.206435 0,-0.198829 0.436563,-0.52348 0.970139,-0.721441 0.533577,-0.197962 1.148338,-0.593574 1.366139,-0.879133 0.327128,-0.428904 0.703598,-0.453235 2.164641,-0.139898 1.610907,0.345479 2.063257,0.279298 5.072056,-0.742061 7.37452,-2.503329 9.124439,-2.900941 12.403244,-2.818229 2.399051,0.06052 3.305954,-0.05497 3.999357,-0.509308 0.493215,-0.323166 0.984976,-0.49935 1.092803,-0.391524 0.32791,0.327911 -0.585396,1.188763 -1.50646,1.419934 -1.064987,0.267293 -1.096807,0.596893 -0.116724,1.208966 0.633155,0.395415 0.923255,0.383466 1.852084,-0.07628 0.605733,-0.299819 1.855396,-0.641093 2.777028,-0.758384 0.921632,-0.117292 1.675694,-0.356161 1.675694,-0.530822 0,-0.17466 0.674688,-0.497201 1.499306,-0.716756 2.008967,-0.534892 2.603916,-1.138633 3.124785,-3.170946 0.241537,-0.942428 0.548542,-1.645901 0.682237,-1.563274 0.133693,0.08263 -0.02822,1.141343 -0.359815,2.352702 -0.548044,2.002099 -0.728261,2.258783 -1.980953,2.821517 -0.757933,0.34048 -1.735247,0.623213 -2.17181,0.628304 -0.436562,0.0051 -0.79375,0.158133 -0.79375,0.340102 0,0.18197 -0.285612,0.309341 -0.634689,0.283045 -0.662439,-0.0499 -4.656978,1.456891 -4.656978,1.756671 0,0.09458 0.787834,1.114813 1.750738,2.267193 1.130402,1.352836 1.827353,2.55863 1.966965,3.403043 0.118925,0.719293 0.349578,1.704682 0.512562,2.189752 0.162983,0.485069 0.386295,1.437569 0.496249,2.116666 0.180886,1.117198 0.152569,1.172863 -0.297508,0.584825 -0.273587,-0.357445 -0.60324,-1.276188 -0.732561,-2.041652 -0.153063,-0.905962 -0.623732,-1.755998 -1.34843,-2.435275 -1.089035,-1.020787 -1.095057,-1.043559 -0.276348,-1.045153 0.709415,-0.0014 0.76902,-0.08348 0.391167,-0.538766 -0.263289,-0.317243 -0.7213,-0.449686 -1.118803,-0.323522 -0.379621,0.120488 -1.085201,-0.05646 -1.618506,-0.405896 -0.520015,-0.34073 -1.425056,-0.734518 -2.0112,-0.87509 l -1.065714,-0.255584 0.981471,-0.03611 c 0.539806,-0.01986 1.551382,0.202015 2.247942,0.493056 0.696563,0.291042 1.407185,0.529167 1.57916,0.529167 0.557347,0 -0.512201,-1.349505 -1.384571,-1.746984 -0.599864,-0.273314 -0.779632,-0.564007 -0.615474,-0.995242 0.168317,-0.442175 0.125384,-0.503559 -0.156619,-0.223922 -0.26198,0.259782 -1.007636,0.288152 -2.28962,0.08712 -1.045612,-0.163968 -2.983629,-0.178576 -4.306701,-0.03246 -2.252101,0.248709 -2.441998,0.338544 -2.976269,1.40799 -0.313874,0.628279 -0.735186,1.342654 -0.936248,1.5875 -0.201062,0.244841 -0.602029,1.23892 -0.891039,2.209059 -0.28901,0.970139 -0.6904,1.727778 -0.891977,1.683646 -0.505891,-0.110758 -1.929988,2.271338 -1.639182,2.741873 0.12966,0.20979 -0.02984,0.674928 -0.354486,1.033636 -0.441102,0.487415 -0.605814,1.406144 -0.651919,3.636303 -0.03855,1.864654 -0.197037,2.93243 -0.422479,2.84637 -0.502733,-0.19192 -1.579489,1.7365 -1.579489,2.82879 0,0.50746 0.479873,1.44997 1.094878,2.15042 0.774008,0.88155 0.936053,1.247 0.55294,1.247 -0.298065,0 -0.642708,-0.3175 -0.765873,-0.70555 -0.303114,-0.95503 -1.111201,-0.89296 -1.361564,0.10457 -0.288844,1.15085 0.273304,2.92549 0.872391,2.75404 0.269046,-0.077 1.390012,-0.21427 2.491042,-0.30505 1.517802,-0.12516 1.95652,-0.28324 1.81434,-0.65376 -0.103142,-0.26878 -0.576789,-0.48869 -1.052552,-0.48869 -0.486847,0 -0.769701,-0.15423 -0.646991,-0.35278 0.42732,-0.69142 1.573626,-0.34457 2.076757,0.62838 0.447284,0.86495 0.960187,1.09475 4.330587,1.94029 2.102768,0.52753 4.239596,0.95913 4.748506,0.95912 0.508914,-1e-5 1.648305,0.31981 2.531985,0.7107 1.297354,0.57389 1.688398,0.96442 2.031097,2.02847 0.233422,0.72477 0.565206,1.49608 0.737298,1.71402 0.172089,0.21794 0.219287,0.64017 0.104888,0.9383 -0.114399,0.29812 0.07386,1.0723 0.418366,1.72041 0.344498,0.6481 0.583495,1.39273 0.531097,1.65474 -0.0524,0.26201 0.06764,0.37569 0.266753,0.25263 0.199111,-0.12306 0.646292,-0.0686 0.993732,0.12098 0.347444,0.18959 2.060463,0.77843 3.806713,1.30851 1.74625,0.5301 3.413125,1.07696 3.704166,1.21526 4.466827,2.12258 7.26077,4.20983 12.415252,9.274974 1.686656,1.65742 4.09986,3.66603 5.362681,4.46358 2.417223,1.52661 2.503668,1.65627 2.879528,4.31895 0.163209,1.1562 0.112049,1.67569 -0.165026,1.67569 -0.483528,0 -1.089657,-1.48168 -1.089657,-2.66366 0,-0.60119 -0.391456,-1.104 -1.322916,-1.69922 -1.447197,-0.9248 -1.852084,-0.89193 -1.852084,0.15037 0,0.3766 -0.15875,0.68473 -0.352777,0.68473 -0.194028,0 -0.352778,-0.48123 -0.352778,-1.0694 0,-0.6307 -0.219647,-1.15369 -0.535415,-1.27487 -0.294477,-0.113 -0.492915,-0.3988 -0.440972,-0.63511 0.05194,-0.2363 -0.619933,-1.06817 -1.493058,-1.84859 -0.873125,-0.78041 -3.032054,-2.83639 -4.797622,-4.56883 -2.720411,-2.669374 -3.769837,-3.426694 -6.879167,-4.964304 -2.017974,-0.99793 -4.304044,-2.00692 -5.080155,-2.2422 -0.776112,-0.23528 -1.728612,-0.55219 -2.116667,-0.70424 -2.043042,-0.8005 -2.417999,-0.68724 -3.834201,1.15817 -0.750616,0.97811 -2.39311,3.78154 -3.649983,6.229844 -1.256877,2.44831 -2.451806,4.55452 -2.655401,4.68047 -0.203595,0.12594 -0.269484,0.49136 -0.146417,0.81207 0.123063,0.3207 0.08026,0.49441 -0.09511,0.38602 -0.175377,-0.10839 -0.791789,0.20087 -1.369801,0.68723 -0.578016,0.48637 -1.220872,0.88431 -1.42857,0.88431 -0.207702,0 -0.552987,0.32765 -0.767306,0.7281 -0.829571,1.55007 1.305839,2.49282 5.825652,2.57193 3.133147,0.0548 3.614579,0.39311 1.096839,0.77066 -1.872625,0.28082 -5.310166,-0.41204 -6.658359,-1.34205 -0.540467,-0.37282 -1.215154,-0.58864 -1.499306,-0.4796 -0.862972,0.33116 -1.61756,-0.14802 -1.38533,-0.87971 0.11587,-0.36508 0.0774,-0.66378 -0.0855,-0.66378 -0.162896,0 -0.893812,-0.49262 -1.624263,-1.09472 -1.060422,-0.87409 -1.245669,-1.19405 -0.919128,-1.5875 0.275393,-0.33183 0.285362,-0.49278 0.03052,-0.49278 -0.208143,0 -0.505393,0.22574 -0.660556,0.50164 -0.243885,0.43366 -0.374904,0.43366 -0.9669,0 -0.664221,-0.48657 -0.660336,-0.50164 0.129342,-0.50164 0.640444,0 0.774768,-0.15052 0.629621,-0.70555 -0.136857,-0.52334 -0.01083,-0.70556 0.488022,-0.70556 0.369891,0 0.674959,0.19844 0.677929,0.44097 0.0032,0.2731 0.104073,0.30668 0.264584,0.0882 0.14255,-0.19403 0.648624,-0.40791 1.124609,-0.47529 0.762191,-0.1079 0.808842,-0.0543 0.391076,0.44905 -0.400124,0.48212 -0.396353,0.54163 0.02409,0.38028 0.274151,-0.1052 0.697079,-0.50931 0.939832,-0.89802 0.36327,-0.58169 0.350577,-0.7416 -0.07171,-0.90364 -0.282194,-0.10829 -0.501467,-0.46188 -0.487271,-0.78575 0.01418,-0.32387 -0.01545,-0.7476 -0.06585,-0.94163 -0.183515,-0.70629 3.53e-4,-1.27109 0.344667,-1.05833 0.194028,0.11991 0.352778,0.60187 0.352778,1.07101 0,0.51343 0.340395,1.07603 0.855063,1.41326 0.7698,0.50439 0.958613,0.50671 1.893528,0.0233 0.926119,-0.47892 1.110304,-0.47943 1.702572,-0.005 0.645153,0.51712 0.643971,0.5269 -0.04144,0.34262 -0.576622,-0.15502 -0.718552,-0.004 -0.776672,0.827 -0.05225,0.74703 0.111499,1.06445 0.617361,1.19674 0.504984,0.13205 0.688478,7e-4 0.688478,-0.49249 0,-0.36989 0.212644,-0.67253 0.472539,-0.67253 0.700116,0 1.338866,-1.57526 0.840736,-2.07339 -0.292876,-0.29289 -0.22999,-0.39605 0.241424,-0.39605 0.4217,0 0.568734,-0.17911 0.434403,-0.52917 -0.138119,-0.35993 0.01905,-0.52917 0.491423,-0.52917 0.381967,0 0.694976,-0.19843 0.695572,-0.44097 7.06e-4,-0.242534 0.556225,-1.543124 1.234722,-2.890194 0.678502,-1.34707 1.233636,-2.54315 1.233636,-2.65797 0,-0.44796 -2.083978,-1.4096 -2.614002,-1.20621 -0.369387,0.14175 -0.560998,0.0217 -0.560998,-0.35163 0,-0.90199 -0.969518,-0.65847 -1.78846,0.44921 -0.509944,0.68973 -0.966593,0.9598 -1.421673,0.8408 -0.607667,-0.15891 -0.847595,0.19599 -0.712198,1.05349 0.06826,0.4323 -0.389506,0.30289 -1.053183,-0.29773 -0.815781,-0.73827 -0.50327,-1.53631 0.50038,-1.2778 0.685225,0.1765 0.717119,0.13292 0.286801,-0.39177 -0.285983,-0.34869 -0.330606,-0.59034 -0.109015,-0.59034 0.206332,0 0.473265,0.15875 0.593181,0.35278 0.119917,0.19403 0.550764,0.35278 0.957439,0.35278 0.725975,0 0.727375,-0.0133 0.07695,-0.73201 -0.657158,-0.72615 -0.654738,-0.73007 0.302684,-0.48977 0.579758,0.14551 1.168438,0.0735 1.474272,-0.18031 0.280024,-0.2324 0.714523,-0.29903 0.96556,-0.14806 0.304052,0.18284 0.284071,0.0623 -0.05985,-0.36109 -0.285676,-0.35169 -0.571923,-0.46861 -0.64087,-0.26178 -0.08246,0.2474 -0.413833,0.26382 -0.979967,0.0486 -0.470458,-0.17887 -1.094878,-0.23331 -1.387606,-0.12098 -0.322393,0.12372 -0.532229,0.004 -0.532229,-0.30306 0,-0.27901 -0.396875,-0.7197 -0.881944,-0.9793 -0.906237,-0.485 -1.101838,-0.88079 -0.591242,-1.19636 0.159886,-0.0988 0.671548,0.17767 1.137028,0.61441 0.694372,0.6515 0.99005,0.72752 1.646823,0.42343 1.051687,-0.48695 1.015097,-0.70288 -0.274736,-1.62132 -0.611985,-0.43577 -1.001194,-0.97683 -0.897351,-1.24745 0.221443,-0.57707 -0.350834,-1.01326 -0.664188,-0.50624 -0.121871,0.19719 -0.548231,0.35853 -0.947466,0.35853 -0.551621,0 -0.68169,-0.16898 -0.541814,-0.70388 0.150167,-0.57424 0.04404,-0.67213 -0.576213,-0.53154 -0.965758,0.21891 -2.63597,-1.08695 -2.089355,-1.63357 0.259983,-0.25998 0.58741,-0.25576 1.091615,0.0141 1.806726,0.96693 2.455107,0.0162 0.835296,-1.2248 -1.166809,-0.89394 -4.706786,-1.76803 -5.595098,-1.38153 -0.355953,0.15487 -0.799874,0.24517 -0.986486,0.20067 -0.186616,-0.0445 -0.550073,0.20733 -0.807682,0.55963 -0.283672,0.38795 -0.567227,0.50163 -0.719035,0.28828 -0.433842,-0.60974 -3.177727,-0.58135 -4.389769,0.0454 l -1.138686,0.58884 1.933346,1.76207 c 1.416011,1.29056 1.629456,1.58865 0.797673,1.11399 -1.49884,-0.85532 -1.857019,-0.42561 -0.580725,0.69671 1.241524,1.09173 1.774232,1.13491 2.080906,0.16866 0.178918,-0.56371 -0.08745,-1.07342 -1.106156,-2.11666 -0.738001,-0.75578 -1.181993,-1.37415 -0.986649,-1.37415 0.19534,0 0.893702,0.55563 1.551908,1.23473 0.658206,0.67909 1.324349,1.23472 1.480316,1.23472 0.638178,0 0.20684,-0.81201 -1.039344,-1.95658 -0.727604,-0.66828 -1.154179,-1.21581 -0.947945,-1.21674 0.206233,-10e-4 0.831246,0.47457 1.388917,1.05665 0.557672,0.58208 1.142997,1.05833 1.300724,1.05833 0.157727,0 0.584433,0.29766 0.948235,0.66146 0.363802,0.3638 0.800364,0.72319 0.970139,0.79864 0.553498,0.24599 2.749518,2.77334 2.406357,2.76943 -0.183582,-0.002 -1.015915,-0.6561 -1.849632,-1.45337 -0.833712,-0.79726 -1.627462,-1.32944 -1.763889,-1.18262 -0.136422,0.14682 -0.04961,0.33782 0.192928,0.42444 0.242534,0.0866 0.440972,0.38238 0.440972,0.65725 0,0.27488 0.119062,0.50331 0.264583,0.50762 0.145521,0.004 0.661459,0.34065 1.146528,0.74742 l 0.881944,0.73957 -0.915454,-0.54333 c -0.832736,-0.49424 -0.961073,-0.49005 -1.420337,0.0463 -0.277689,0.32432 -0.526863,0.73067 -0.553723,0.903 -0.02685,0.17233 -0.26083,0.45305 -0.519938,0.62381 -0.377148,0.24856 -0.346499,0.38388 0.153677,0.67849 0.34363,0.2024 0.528401,0.52395 0.410601,0.71456 -0.117796,0.1906 -0.02159,0.57859 0.213773,0.86219 0.363224,0.43766 0.252025,0.49639 -0.73521,0.38831 -0.814927,-0.0892 -1.192509,-0.32729 -1.261188,-0.79522 -0.121842,-0.83017 -1.489777,-1.9798 -1.988777,-1.6714 -0.228568,0.14126 -0.113651,0.42771 0.301328,0.75112 0.575882,0.4488 0.583442,0.49267 0.05344,0.31 -0.712752,-0.24565 -0.763168,0.0412 -0.246204,1.40093 0.362172,0.95257 0.354478,0.96112 -0.317606,0.35289 -0.805081,-0.72858 -1.220449,-1.98874 -0.655524,-1.98874 0.279149,0 0.2762,-0.1141 -0.01034,-0.40065 -0.299021,-0.29902 -0.541888,-0.25942 -0.957417,0.15611 -0.507164,0.50716 -0.501329,0.58903 0.06551,0.91909 0.589576,0.34329 0.589834,0.36289 0.0049,0.37306 -0.760402,0.0132 -0.795133,0.48235 -0.07967,1.07614 0.29573,0.24543 0.455453,0.52848 0.35494,0.62899 -0.100513,0.10051 -0.501227,-0.10546 -0.890471,-0.45772 -0.561072,-0.50777 -0.707715,-0.53412 -0.707715,-0.1272 0,0.28232 0.198438,0.7132 0.440973,0.95753 0.353571,0.35618 0.318611,0.39765 -0.176389,0.2092 -0.383523,-0.14601 -0.617361,-0.0684 -0.617361,0.20479 0,0.2419 0.277812,0.66872 0.617361,0.94849 0.572308,0.47154 0.573133,0.49481 0.01129,0.31888 -0.333337,-0.10438 -0.67811,-0.0732 -0.76616,0.0693 -0.269624,0.43626 0.917847,1.62204 3.074766,3.07039 2.164408,1.453374 2.559272,1.844144 2.2132,2.190214 -0.116519,0.11652 -0.807102,-0.25588 -1.534632,-0.82756 -1.476044,-1.159844 -3.139193,-2.253454 -3.427025,-2.253454 -0.6099,0 -0.02282,1.00425 0.908773,1.55456 0.859649,0.507804 0.993476,0.722694 0.617362,0.991284 -0.360116,0.25717 -0.317807,0.29019 0.169174,0.13205 0.996865,-0.32373 4.977434,2.72115 4.014897,3.07113 -0.905619,0.32929 0.565224,2.16205 2.137075,2.66292 0.893173,0.28462 1.48892,0.69007 1.48892,1.01334 0,0.4239 -0.106211,0.45074 -0.497759,0.12578 -0.363114,-0.30135 -0.563527,-0.30669 -0.740883,-0.0197 -0.402618,0.65146 0.03122,0.91505 1.658846,1.0079 0.755121,0.0431 0.75716,0.0558 0.08819,0.54861 -0.376632,0.27748 -0.737704,0.35686 -0.802379,0.17639 -0.238266,-0.66484 -0.804266,-0.30407 -0.588669,0.37521 0.173983,0.54817 0.09692,0.65487 -0.349278,0.48365 -0.314879,-0.12084 -0.488993,-0.43734 -0.38692,-0.70334 0.121835,-0.3175 -0.07566,-0.48364 -0.574894,-0.48364 -0.722468,0 -0.709799,-0.0529 0.253464,-1.05834 0.963263,-1.00543 0.975931,-1.05833 0.253464,-1.05833 -0.499611,0 -0.696758,0.16608 -0.574711,0.48413 0.199292,0.51934 -1.372245,0.99954 -2.214033,0.67651 -0.753124,-0.289 -0.527988,-0.87593 0.242224,-0.63147 0.388056,0.12316 0.705556,0.0717 0.705556,-0.11437 0,-0.64503 -1.882698,-0.85927 -2.318117,-0.2638 -0.223026,0.30501 -0.586437,0.55455 -0.807579,0.55455 -0.733563,0 -0.416369,-0.67527 0.568057,-1.20933 0.901961,-0.48932 0.915229,-0.5273 0.1888,-0.54043 -0.438824,-0.008 -0.952208,0.30515 -1.171131,0.71421 -0.31176,0.58253 -0.490799,0.6445 -0.894355,0.30958 -0.277509,-0.23032 -0.504564,-0.63744 -0.504564,-0.90473 0,-0.26728 -0.247495,-0.48597 -0.549988,-0.48597 -0.302493,0 -0.462153,0.14212 -0.354802,0.31581 0.10735,0.1737 -0.06858,0.41703 -0.390949,0.54074 -0.446733,0.17142 -0.488202,0.32284 -0.174364,0.63668 0.581724,0.58173 0.511419,1.08994 -0.117397,0.84864 -0.676293,-0.25952 -0.686149,0.26368 -0.01545,0.82031 0.590938,0.49043 1.250174,0.20718 1.250174,-0.53717 0,-0.31261 0.354115,-0.50834 0.919688,-0.50834 0.65162,0 0.863385,0.14672 0.726525,0.50337 -0.106239,0.27686 0.02219,0.68209 0.285365,0.90052 0.371885,0.30864 0.529749,0.23576 0.708361,-0.32699 0.245632,-0.77391 0.947504,-1.02244 0.799645,-0.28315 -0.04851,0.24253 0.122043,0.39735 0.378999,0.34403 0.590247,-0.12246 0.166907,0.63069 -0.710184,1.26347 -0.777487,0.56092 -0.814493,0.98368 -0.109788,1.2541 0.83728,0.32129 1.502798,-0.0997 1.775549,-1.12324 0.138444,-0.51954 0.321779,-0.75509 0.407405,-0.52346 0.08563,0.23164 0.358122,0.34348 0.60554,0.24853 0.24742,-0.0949 0.661761,0.0827 0.92076,0.39478 0.415325,0.50044 0.369951,0.54236 -0.384454,0.3552 -0.624007,-0.15481 -0.972671,-0.0221 -1.289103,0.49063 -0.272877,0.44216 -0.305586,0.78204 -0.08819,0.9164 0.190056,0.11745 0.345553,0.0285 0.345553,-0.19778 0,-0.23113 0.245858,-0.317 0.561192,-0.19599 0.312028,0.11973 1.040349,-0.12584 1.640392,-0.55311 0.713602,-0.50813 1.67398,-0.78939 2.834936,-0.83023 l 1.75574,-0.0618 -0.838493,0.63358 c -1.314531,0.99329 -0.524902,1.32497 4.109685,1.72628 2.323225,0.20118 5.489882,0.52243 7.037017,0.71391 1.547132,0.19148 3.792531,0.34815 4.989774,0.34815 1.915252,0 2.308454,-0.12298 3.272448,-1.02348 0.602604,-0.56292 1.095643,-1.21643 1.095643,-1.45226 0,-0.28059 0.274316,-0.34582 0.79375,-0.18874 1.753323,0.53022 3.77837,0.60715 5.038129,0.19139 1.237978,-0.40857 1.372041,-0.38226 1.948839,0.38242 0.520514,0.69006 0.706907,0.74856 1.167399,0.36638 0.616588,-0.51172 2.163441,-0.28098 4.00571,0.59754 0.985069,0.46975 1.270671,0.47682 2.118078,0.0524 0.538716,-0.2698 1.098656,-0.54859 1.244307,-0.61953 0.145652,-0.0709 0.168914,0.12094 0.05169,0.42643 -0.117224,0.30548 -0.82043,0.73737 -1.562678,0.95975 -1.091865,0.32713 -1.606928,0.30183 -2.697523,-0.13252 -0.741387,-0.29527 -2.021702,-0.54518 -2.845145,-0.55536 -0.82344,-0.0102 -1.696565,-0.14528 -1.940278,-0.30022 -0.637325,-0.4052 -6.703314,-0.11758 -7.268285,0.34463 -0.765259,0.62607 0.430541,0.89851 4.065948,0.92634 2.489457,0.0191 3.370033,0.15684 3.80916,0.59596 0.314142,0.31414 0.475598,0.66673 0.358797,0.78354 -0.116805,0.1168 -0.325621,0.0291 -0.464041,-0.19484 -0.274465,-0.4441 -8.001974,-0.61632 -10.416755,-0.23217 -0.747,0.11884 -2.49325,0.0411 -3.880556,-0.17275 -1.387309,-0.21384 -4.109879,-0.47325 -6.050157,-0.57646 -1.940277,-0.1032 -4.559652,-0.33826 -5.820833,-0.52236 -1.261181,-0.18409 -3.007431,-0.42073 -3.880556,-0.52585 -0.873125,-0.10513 -2.103437,-0.28761 -2.734028,-0.40552 -0.734321,-0.13731 -1.146527,-0.0734 -1.146527,0.17766 0,0.46937 -1.834085,0.52692 -2.310695,0.0725 -1.137172,-1.08422 -6.550558,-3.38368 -8.801806,-3.73877 -0.776111,-0.12242 -1.827882,-0.29952 -2.337269,-0.39356 -0.825154,-0.15234 -1.112068,0.10993 -2.63096,2.40502 -1.496321,2.26099 -3.103626,5.18417 -5.974796,10.86629 -0.441191,0.87312 -1.073799,2.54 -1.405795,3.70417 -0.331999,1.16416 -0.811872,2.71197 -1.066387,3.43958 -0.254515,0.7276 -0.331488,1.32292 -0.171048,1.32292 0.535308,0 3.406916,-3.45538 4.978276,-5.99032 3.916666,-6.31842 3.842498,-6.21459 3.844019,-5.38134 0.0021,1.19741 -3.457981,6.50933 -6.864932,10.5388 -1.171194,1.38519 -2.526316,3.08734 -3.0113858,3.78256 -0.759509,1.08855 -5.542912,5.51105 -11.072346,10.23694 -1.53885,1.31522 -2.704849,3.61372 -2.738009,5.39736 -0.02093,1.12592 0.394897,3.3161 0.758639,3.99576 0.434723,0.81229 0.458119,1.51652 0.04184,1.25925 -0.815413,-0.50396 -1.529409,-2.89519 -1.522385,-5.09861 l 0.0075,-2.33624 -0.895458,1.94028 c -0.492501,1.06715 -1.337558,3.28965 -1.877905,4.93889 -2.3749942,7.24891 -4.6704962,11.64777 -7.2195512,13.83479 -0.866845,0.74373 -1.587824,0.7999 -1.587824,0.12371 z m 26.811112,-35.83072 c 0,-0.19403 -0.07001,-0.35278 -0.155568,-0.35278 -0.08556,0 -0.2536828,0.15875 -0.3735988,0.35278 -0.119916,0.19402 -0.04991,0.35277 0.155568,0.35277 0.2054788,0 0.3735988,-0.15875 0.3735988,-0.35277 z m 29.633334,-20.46111 c 0,-0.19403 -0.15875,-0.35278 -0.352778,-0.35278 -0.194028,0 -0.352778,0.15875 -0.352778,0.35278 0,0.19402 0.15875,0.35277 0.352778,0.35277 0.194028,0 0.352778,-0.15875 0.352778,-0.35277 z m -8.914988,-1.27148 c -0.117228,-0.11722 -0.421498,-0.12975 -0.676158,-0.0278 -0.281422,0.11261 -0.197831,0.19621 0.213138,0.21313 0.371884,0.0153 0.580245,-0.0681 0.46302,-0.18528 z m 12.079772,-1.18419 c 0.285421,-0.18051 0.412044,-0.4351 0.281382,-0.56576 -0.130662,-0.13067 -0.494591,0.0194 -0.808732,0.33359 -0.620716,0.62072 -0.306074,0.75925 0.52735,0.23217 z m -15.939499,-0.80753 c 0.492308,-0.59566 0.414852,-3.1625 -0.08298,-2.75013 -0.225365,0.18668 -0.718347,0.0221 -1.253413,-0.41842 -0.598656,-0.49288 -0.735622,-0.77735 -0.426416,-0.8856 0.308807,-0.10812 0.143686,-0.4485 -0.512639,-1.05676 -0.577635,-0.53533 -1.022273,-0.73497 -1.10229,-0.49491 -0.07377,0.22129 -0.517765,0.40235 -0.986663,0.40235 -1.152214,0 -1.072564,0.42346 0.223665,1.18917 0.885042,0.5228 1.000065,0.72748 0.647541,1.15225 -0.350181,0.42194 -0.293331,0.5519 0.310487,0.70981 0.45072,0.11786 0.665124,0.38622 0.549437,0.6877 -0.104344,0.27192 -0.03249,0.4944 0.159657,0.4944 0.192158,0 0.43658,-0.33347 0.543165,-0.74105 0.114272,-0.43697 0.35772,-0.63973 0.593291,-0.49414 0.280363,0.17327 0.222077,0.44296 -0.195428,0.9043 -0.327212,0.36156 -0.501287,0.90143 -0.386832,1.1997 0.250638,0.65315 1.412653,0.71449 1.919422,0.10133 z m -3.291181,-4.52139 c -0.127892,-0.20693 -0.147824,-0.46095 -0.04429,-0.56449 0.252702,-0.2527 0.940742,0.19256 0.940742,0.60879 0,0.45083 -0.609039,0.42074 -0.896451,-0.0443 z m -1.749382,3.90403 c -0.119916,-0.19403 -0.446786,-0.35278 -0.726377,-0.35278 -0.27959,0 -0.508345,0.15875 -0.508345,0.35278 0,0.19403 0.326869,0.35278 0.726376,0.35278 0.399507,0 0.628262,-0.15875 0.508346,-0.35278 z m 19.931945,-0.35803 c -0.747321,-0.58901 -0.801173,-0.74853 -0.352778,-1.04508 0.291042,-0.19249 0.648229,-0.35241 0.79375,-0.35538 0.145521,-0.003 0.264583,-0.16415 0.264583,-0.35818 0,-0.68732 -1.474632,-0.36246 -1.665361,0.36689 -0.177867,0.68016 -0.224452,0.68684 -0.848918,0.12171 -0.363396,-0.32887 -0.660721,-0.50696 -0.660721,-0.39574 0,0.11122 -0.104673,0.47498 -0.232604,0.80837 -0.159787,0.4164 -0.08386,0.55658 0.242535,0.44778 0.261327,-0.0871 0.762871,0.12935 1.114548,0.48103 0.351674,0.35167 0.996598,0.63588 1.43316,0.63156 l 0.79375,-0.008 -0.881944,-0.69512 z m 3.175,-0.17114 c 0.371386,-0.44749 0.296375,-0.52916 -0.485973,-0.52916 -0.894341,0 -1.176486,0.33661 -0.689952,0.82314 0.365072,0.36508 0.698045,0.28183 1.175925,-0.29398 z m -1.929328,-0.51145 c -0.12985,-0.2101 -0.400823,-0.28019 -0.602156,-0.15576 -0.237021,0.14649 -0.200939,0.32829 0.102355,0.51574 0.566123,0.34988 0.823813,0.16429 0.499801,-0.35998 z m -21.850513,-0.58898 c -0.174854,-0.45567 -0.03972,-0.53695 0.667812,-0.40169 0.487867,0.0933 0.88204,0.0725 0.875944,-0.0461 -0.02381,-0.46348 -1.83056,-1.51322 -2.109276,-1.22553 -0.381081,0.39336 -0.02205,2.24459 0.435342,2.24459 0.192165,0 0.250747,-0.25707 0.130178,-0.57127 z m 6.72338,-0.91161 c -0.231513,-0.90236 -2.611663,-2.95603 -2.988017,-2.57816 -0.132133,0.13267 0.116943,0.53081 0.553505,0.88476 0.436563,0.35394 0.79375,0.82349 0.79375,1.04343 0,0.21994 0.277813,0.35324 0.617361,0.29623 0.417686,-0.0701 0.655105,0.16286 0.73406,0.72038 0.06419,0.45322 0.202315,0.73843 0.306952,0.63379 0.104638,-0.10464 0.09671,-0.55483 -0.0176,-1.00043 z m 17.762016,0.81506 c 0,-0.17327 -0.230039,-0.40331 -0.511199,-0.5112 -0.341673,-0.13111 -0.446148,-0.0266 -0.315035,0.31504 0.214122,0.558 0.826234,0.70333 0.826234,0.19616 z m -13.764429,-2.59538 c 0.0035,-0.14552 -0.242726,-0.26458 -0.546845,-0.26458 -0.391816,0 -0.487891,-0.20495 -0.329709,-0.70334 0.168384,-0.53052 0.09281,-0.65329 -0.307577,-0.49964 -0.315119,0.12092 -0.717349,-0.095 -0.989873,-0.53139 -0.252487,-0.40429 -0.582651,-0.73508 -0.733704,-0.73508 -0.433564,0 0.145398,1.90907 0.673986,2.22239 0.261761,0.15517 0.475929,0.76714 0.475929,1.35995 v 1.07783 l 0.875848,-0.83078 c 0.481718,-0.45693 0.878593,-0.94984 0.881945,-1.09536 z m 12.106024,0.56 c -0.811046,-0.33688 -1.099195,-0.31001 -1.613125,0.15042 -0.873736,0.78277 -0.164264,1.11718 1.364371,0.6431 l 1.236179,-0.38338 z m -10.346845,-0.29541 c 0,-0.19403 -0.153885,-0.11466 -0.341972,0.17638 -0.188087,0.29105 -0.341972,0.68792 -0.341972,0.88195 0,0.19403 0.153885,0.11465 0.341972,-0.17639 0.188087,-0.29104 0.341972,-0.68792 0.341972,-0.88194 z m -5.280861,-0.87407 c 0,-0.36914 -4.339273,-3.194534 -4.562846,-2.970964 -0.09857,0.0986 0.03496,0.31159 0.296732,0.473384 0.261772,0.16178 0.373648,0.45968 0.24861,0.66199 -0.125035,0.20232 -0.066,0.46756 0.131194,0.58943 0.197193,0.12187 0.36358,0.0138 0.36975,-0.2402 0.0074,-0.30673 0.168589,-0.25449 0.479866,0.15556 0.257754,0.33955 0.643993,0.61737 0.858312,0.61737 0.214316,0 0.556426,0.31158 0.76024,0.69241 0.344766,0.6442 1.418142,0.66011 1.418142,0.021 z m -7.553537,-1.32901 c -0.385375,-0.38538 -0.649633,0.22749 -0.37295,0.86494 0.262354,0.60444 0.281372,0.60389 0.427546,-0.0124 0.08414,-0.35473 0.05957,-0.73838 -0.0546,-0.85255 z m 2.438259,-0.09 c -0.362102,-0.40012 -0.462132,-0.70556 -0.231066,-0.70556 0.224102,0 0.407455,-0.16812 0.407455,-0.37359 0,-0.205484 -0.173842,-0.266164 -0.386317,-0.134854 -0.212471,0.131324 -0.862993,-0.11366 -1.445602,-0.5444 -0.716693,-0.52988 -1.175106,-0.66735 -1.41739,-0.42507 -0.436722,0.43672 -0.06586,1.125144 0.606121,1.125144 0.269593,0 0.918404,0.39687 1.441803,0.88194 1.131574,1.04871 1.940398,1.1879 1.024996,0.17639 z m 4.7625,-0.70556 c 0,-0.19402 -0.07,-0.35277 -0.155568,-0.35277 -0.08556,0 -0.253682,0.15875 -0.373599,0.35277 -0.119916,0.19403 -0.04991,0.35278 0.155568,0.35278 0.205479,0 0.373599,-0.15875 0.373599,-0.35278 z m -2.116667,-1.003654 c 0,-0.16396 -0.32125,-0.58883 -0.713891,-0.94417 -0.503139,-0.45533 -0.824354,-0.5356 -1.088062,-0.27189 -0.263709,0.26371 -0.133929,0.54244 0.43961,0.94416 0.901862,0.6317 1.362343,0.72359 1.362343,0.2719 z m 1.763889,-0.40746 c 0,-0.19402 -0.16812,-0.35277 -0.373599,-0.35277 -0.205478,0 -0.275484,0.15875 -0.155567,0.35277 0.119916,0.19403 0.288036,0.35278 0.373598,0.35278 0.08556,0 0.155568,-0.15875 0.155568,-0.35278 z m -5.291667,-0.69314 c 0,-0.41479 -1.396202,-1.20325 -1.661294,-0.93815 -0.104369,0.10436 -0.09575,0.43472 0.01916,0.73413 0.225746,0.58829 1.642153,0.76426 1.642153,0.20402 z m 1.00172,-0.86001 c -0.283951,-0.21292 -0.620518,-0.66494 -0.747928,-1.00449 -0.232879,-0.62064 -0.990173,-0.82172 -1.431738,-0.38015 -0.318442,0.31844 1.973323,2.21329 2.377917,1.96608 0.174914,-0.10688 0.0857,-0.36853 -0.198251,-0.58144 z m 3.142396,-1.35726 c 0.07696,-0.94466 -1.209209,-1.68589 -2.230786,-1.28562 -0.594452,0.23291 -0.602047,0.26896 -0.06125,0.29068 0.339548,0.0136 0.617361,0.18355 0.617361,0.37758 0,0.19402 0.238125,0.35277 0.529167,0.35277 0.291041,0 0.529166,0.23813 0.529166,0.52917 0,0.84495 0.545003,0.61099 0.616338,-0.26458 z m -2.666485,-0.27833 c -0.8734,-0.81369 -0.97506,-1.27026 -0.331103,-1.48699 0.346283,-0.11655 0.339764,-0.27104 -0.03037,-0.7195 -0.259239,-0.31409 -0.375712,-0.72582 -0.258829,-0.91494 0.360267,-0.58292 -0.397761,-0.76996 -0.860552,-0.21233 -0.346224,0.41717 -0.34556,0.63419 0.0032,1.05445 0.359681,0.43339 0.335576,0.52916 -0.133195,0.52916 -0.888513,0 -0.675584,0.92248 0.397778,1.72329 1.304636,0.97337 2.251509,0.99433 1.213047,0.0268 z m 3.814036,-1.75015 c 0,-0.19402 -0.16812,-0.35277 -0.373599,-0.35277 -0.205478,0 -0.275484,0.15875 -0.155567,0.35277 0.119916,0.19403 0.288036,0.35278 0.373598,0.35278 0.08556,0 0.155568,-0.15875 0.155568,-0.35278 z m 25.752779,-0.83875 c 0,-0.78159 -1.014208,-1.46315 -1.481667,-0.99569 -0.289391,0.28939 -0.274013,0.53732 0.05815,0.93755 0.560603,0.67548 1.423519,0.71073 1.423519,0.0581 z m -25.111065,-0.91 c 0.107142,-0.32143 -0.143408,-0.37845 -0.916623,-0.20863 -0.940065,0.20648 -1.066659,0.13887 -1.086305,-0.58015 -0.04194,-1.53505 -0.16788,-2.0173 -0.476924,-1.8263 -0.17019,0.10518 -0.547335,-0.006 -0.838101,-0.24751 -0.375712,-0.31181 -0.637942,-0.32947 -0.906378,-0.061 -0.268436,0.26844 -0.03447,0.69355 0.808701,1.46935 0.694834,0.63932 0.916143,0.99626 0.534123,0.86146 -0.588419,-0.20763 -0.605949,-0.15596 -0.179031,0.52765 0.367848,0.58902 0.744982,0.72993 1.693178,0.63266 0.670952,-0.0688 1.286263,-0.3242 1.36736,-0.56749 z m 26.169398,0.002 c 0,-0.48478 -2.475964,-2.8215 -3.615972,-3.41262 -0.533577,-0.27667 -0.970139,-0.66579 -0.970139,-0.86471 0,-0.19892 0.559946,0.0654 1.244325,0.58742 1.748864,1.33392 2.03788,0.70825 0.334909,-0.72503 -1.458337,-1.2274 -2.034085,-1.18495 -2.390031,0.17618 -0.132108,0.50519 -0.0042,0.694 0.470225,0.694 0.853391,0 1.270053,0.69986 0.650353,1.09237 -0.398127,0.25217 -0.387107,0.30891 0.06086,0.31334 0.77525,0.008 2.445547,0.82699 2.448828,1.20123 0.0032,0.34234 1.076241,1.24434 1.502058,1.26239 0.14552,0.006 0.264583,-0.13989 0.264584,-0.32457 z m -30.426918,-0.45796 c -0.08075,-0.24253 -0.44612,-0.49897 -0.811918,-0.56985 -0.575416,-0.11151 -0.601328,-0.052 -0.192155,0.44097 0.559576,0.67425 1.213609,0.7582 1.004073,0.12888 z m 27.251918,-0.0882 c 0,-0.29104 -0.238125,-0.52917 -0.529167,-0.52917 -0.291042,0 -0.529167,-0.18521 -0.529167,-0.41157 0,-0.22637 -0.104859,-0.30672 -0.233023,-0.17855 -0.128161,0.12816 0.05519,0.55149 0.407454,0.94074 0.766834,0.84734 0.883903,0.87098 0.883903,0.17855 z m -22.039062,-0.54462 c 0.125169,-0.20253 0.03573,-0.5994 -0.198762,-0.88194 -0.346957,-0.41806 -0.305689,-0.51372 0.221611,-0.51372 0.617164,0 0.61861,-0.0294 0.03045,-0.61736 -0.540078,-0.53994 -0.659483,-0.551 -0.952137,-0.0882 -0.5279,0.83482 -0.420052,2.46944 0.162924,2.46944 0.27959,0 0.610757,-0.1657 0.735926,-0.36823 z m 4.824448,-0.63845 c -0.365908,-0.23211 -0.349003,-0.38051 0.08431,-0.74013 0.298087,-0.24739 0.45429,-0.59168 0.347116,-0.7651 -0.107178,-0.17341 0.07559,-0.41908 0.406156,-0.54593 0.557107,-0.21378 0.553816,-0.26515 -0.04507,-0.70306 -0.827712,-0.60524 -1.21679,-0.59917 -1.21679,0.019 0,0.27028 -0.238125,0.5828 -0.529167,0.69448 -0.291042,0.11169 -0.529167,0.0399 -0.529167,-0.15946 0,-0.19939 -0.159967,-0.26366 -0.355483,-0.14283 -0.220222,0.13611 -0.152224,0.42296 0.178699,0.75389 0.293801,0.2938 0.697477,0.8393 0.897061,1.21223 0.199584,0.37292 0.555731,0.67561 0.79144,0.67264 0.313397,-0.004 0.305576,-0.0834 -0.02911,-0.29572 z m -2.540942,-0.75721 c 0,-0.19403 -0.15875,-0.35278 -0.352778,-0.35278 -0.194028,0 -0.352778,0.15875 -0.352778,0.35278 0,0.19403 0.15875,0.35278 0.352778,0.35278 0.194028,0 0.352778,-0.15875 0.352778,-0.35278 z m -4.233334,-0.58958 c 0,-0.13024 -0.257379,-0.52121 -0.571951,-0.86881 -0.583318,-0.64456 -0.416162,-1.93288 0.201274,-1.55128 0.186926,0.11552 0.2566,0.42703 0.15483,0.69223 -0.101765,0.2652 0.01154,0.60366 0.25175,0.75213 0.304754,0.18835 0.368688,0.0925 0.211508,-0.3171 -0.155614,-0.40552 -0.0378,-0.5905 0.381021,-0.59825 0.567877,-0.0105 0.567178,-0.0409 -0.01108,-0.47987 -0.835811,-0.63447 -0.778943,-1.2728 0.113394,-1.2728 1.070381,0 1.965547,-0.98039 1.38969,-1.52199 -0.34351,-0.32307 -0.481555,-0.31791 -0.606439,0.0227 -0.08893,0.24253 -0.352968,0.44097 -0.586754,0.44097 -0.47819,0 -3.043918,2.939 -3.043918,3.48676 0,0.19458 0.352823,0.60091 0.784052,0.90296 0.83337,0.58371 1.332614,0.70073 1.332614,0.31236 z m 2.72983,-0.71234 c -0.328002,-0.328 -0.714608,-0.47811 -0.85913,-0.33359 -0.144523,0.14452 -0.02925,0.41045 0.256184,0.59096 0.858862,0.54316 1.24055,0.38024 0.602946,-0.25737 z m 1.621868,-0.69792 c 0.313771,-0.31377 -0.804898,-1.52794 -1.407763,-1.52794 -0.701813,0 -0.576609,1.33269 0.142871,1.52071 0.978373,0.25568 1.016222,0.2559 1.264892,0.007 z m 16.185787,-1.53674 c -0.304581,-0.48771 -0.317066,-0.69675 -0.04162,-0.69675 0.216433,0 0.304088,-0.23304 0.194786,-0.51787 -0.249093,-0.64913 0.322266,-1.02773 1.100385,-0.72914 0.444066,0.17041 0.48067,0.29456 0.147549,0.50044 -0.243671,0.1506 -0.341298,0.53893 -0.216955,0.86297 0.294616,0.76775 0.772771,0.75347 0.923188,-0.0276 0.06532,-0.3392 0.354775,-0.63252 0.643227,-0.65182 1.883837,-0.12606 1.916317,-0.17732 0.524457,-0.82774 -1.343099,-0.62762 -2.576887,-0.84611 -4.310458,-0.76331 -0.578615,0.0276 -0.723942,0.19043 -0.55741,0.62441 0.151469,0.39472 0.09005,0.50348 -0.187459,0.33196 -0.227002,-0.14029 -0.412729,-0.12514 -0.412729,0.0337 0,0.1588 0.303223,0.4781 0.673831,0.70955 0.370607,0.23145 0.78354,0.92033 0.917631,1.53084 0.180442,0.82153 0.346837,1.00699 0.640253,0.71357 0.293416,-0.29341 0.283365,-0.57753 -0.03867,-1.0932 z m -12.776373,0.71436 c 0,-0.19403 -0.15875,-0.35278 -0.352778,-0.35278 -0.194028,0 -0.352778,0.15875 -0.352778,0.35278 0,0.19403 0.15875,0.35278 0.352778,0.35278 0.194028,0 0.352778,-0.15875 0.352778,-0.35278 z m 15.875,-1.2139 c 0,-0.0856 -0.15875,-0.25369 -0.352778,-0.3736 -0.194028,-0.11992 -0.352778,-0.0499 -0.352778,0.15557 0,0.20548 0.15875,0.3736 0.352778,0.3736 0.194028,0 0.352778,-0.07 0.352778,-0.15557 z m -5.291667,-2.27614 c 0,-0.17327 -0.251107,-0.41139 -0.55802,-0.52916 -0.862993,-0.33117 -0.977018,-0.25936 -0.500313,0.31503 0.48671,0.58645 1.058333,0.70211 1.058333,0.21413 z m -12.533612,-4.88843 c 0.362419,-2.96815 1.1173,-6.01479 1.717142,-6.93027 0.2886,-0.440456 0.618515,-1.581489 0.733143,-2.535626 0.114631,-0.95414 0.375472,-2.369799 0.579652,-3.14591 0.204181,-0.776111 0.502991,-1.921178 0.664027,-2.544589 0.161036,-0.623415 0.627119,-1.65529 1.035738,-2.293056 0.408619,-0.637769 0.976408,-1.656352 1.261756,-2.263518 0.285347,-0.607165 0.935676,-1.599353 1.445175,-2.204861 0.844529,-1.003663 0.866143,-1.10092 0.244673,-1.10092 -0.602792,0 -3.614361,3.093758 -3.614361,3.713 0,0.129265 -0.28691,0.65641 -0.637578,1.17143 -1.356078,1.991657 -3.375251,8.252415 -3.772144,11.69612 -0.122992,1.06715 -0.433977,2.73403 -0.691077,3.70417 -0.257101,0.97014 -0.565853,2.43857 -0.686111,3.26319 -0.205281,1.40765 -0.166963,1.49931 0.626816,1.49931 0.765358,0 0.86893,-0.1922 1.093149,-2.02847 z m 8.982431,-24.105514 c 1.05428,-0.178393 3.386473,-0.324348 5.182652,-0.324348 1.796178,0 3.35238,-0.140123 3.458224,-0.311382 0.105847,-0.171263 -0.626315,-0.663607 -1.627022,-1.094098 -2.165385,-0.931528 -4.808202,-0.992728 -7.033405,-0.162874 -3.371811,1.257462 -5.379547,1.921132 -5.81182,1.921132 -0.249474,0 -0.555251,0.164494 -0.679506,0.365545 -0.243152,0.393428 3.026674,0.19557 6.510877,-0.393975 z M 55.981464,154.021 c -0.519229,-0.37967 -0.405998,-0.44097 0.814518,-0.44097 0.898881,0 1.417585,0.16135 1.417585,0.44097 0,0.24254 -0.366533,0.44098 -0.814518,0.44098 -0.447986,0 -1.0859,-0.19844 -1.417585,-0.44098 z m -3.76512,-4.11365 c 0,-0.60911 0.671199,-1.83717 1.504266,-2.75229 0.390797,-0.42929 0.886897,-1.09315 1.102445,-1.47526 0.215543,-0.38211 1.049948,-1.85839 1.854228,-3.28062 1.682126,-2.97456 3.199007,-6.53413 3.654044,-8.57471 1.200298,-5.38263 2.646493,-8.60123 5.332434,-11.86766 0.740396,-0.90041 1.945111,-2.64666 2.677142,-3.88055 1.086189,-1.83086 1.352339,-2.09747 1.447183,-1.4497 0.06392,0.43656 0.243748,0.79375 0.399616,0.79375 0.409109,0 3.548087,-1.41487 3.548087,-1.59927 0,-0.0853 -0.555625,-0.38731 -1.234722,-0.67105 -1.193832,-0.49882 -1.694399,-1.27886 -0.79375,-1.23693 0.813368,0.0379 4.32241,1.91559 4.246852,2.27253 -0.04107,0.19402 -0.755446,0.45645 -1.5875,0.58318 -2.699784,0.41118 -4.610665,1.49697 -6.502143,3.6946 -3.269184,3.79834 -4.65341,6.15696 -5.234446,8.9191 -0.772968,3.67456 -0.732772,3.88063 0.522376,2.67812 0.783981,-0.7511 1.058333,-0.86744 1.058333,-0.44877 0,0.31086 -0.680649,1.174 -1.512552,1.91809 -0.980634,0.87712 -1.864438,2.1593 -2.513168,3.64595 -1.521711,3.48723 -3.362618,6.98119 -5.031331,9.54924 -1.603146,2.46715 -2.937394,3.91261 -2.937394,3.18225 z m 13.960328,-15.6419 c 0.738335,-0.82462 1.471182,-1.55223 1.628549,-1.6169 0.157367,-0.0647 0.286124,-0.31135 0.286124,-0.54816 0,-0.23681 0.562458,-0.97572 1.249909,-1.64203 0.687451,-0.6663 1.906768,-2.20333 2.709591,-3.41563 0.802827,-1.21229 1.533955,-2.12989 1.624729,-2.03912 0.319863,0.31987 -4.992755,7.95422 -6.505635,9.34874 -2.026917,1.86835 -2.691843,1.81017 -0.993267,-0.0869 z M 16.2748,134.44184 c 1.480168,-1.89996 4.692643,-5.37987 4.966413,-5.37987 0.431772,0 -1.252467,2.26835 -3.208711,4.32153 -1.528647,1.6044 -2.761347,2.34662 -1.757702,1.05834 z m 57.460989,-10.27712 c 0,-0.19402 0.15875,-0.45088 0.352778,-0.5708 0.194028,-0.11992 0.352778,-0.0593 0.352778,0.13475 0,0.19403 -0.15875,0.45089 -0.352778,0.5708 -0.194028,0.11992 -0.352778,0.0593 -0.352778,-0.13475 z m 0.705556,-1.36635 c 0,-0.19403 0.238125,-0.55041 0.529167,-0.79195 0.295183,-0.24498 0.529166,-0.28318 0.529166,-0.0864 0,0.19403 -0.238125,0.5504 -0.529166,0.79194 -0.295184,0.24498 -0.529167,0.28319 -0.529167,0.0864 z m 3.715695,-9.23996 c -0.2124,-0.34367 0.859064,-1.07699 1.573601,-1.07699 0.531869,0 0.123201,0.61607 -0.701425,1.05739 -0.416983,0.22316 -0.741852,0.23046 -0.872176,0.0196 z m -9.974488,-3.57626 c -1.016988,-0.13483 -2.11667,-0.34784 -2.443738,-0.47335 -0.327067,-0.12551 -2.669984,-0.63045 -5.206485,-1.12209 -4.826106,-0.93543 -7.610429,-1.78139 -7.610429,-2.31228 0,-0.17265 0.465787,-0.073 1.035078,0.22135 0.569295,0.29439 2.196483,0.62843 3.615973,0.7423 1.419493,0.11386 2.731706,0.35332 2.916032,0.53213 0.184327,0.1788 1.071909,0.3251 1.972406,0.3251 0.900497,0 2.416559,0.2364 3.369028,0.52535 0.952468,0.28894 2.148886,0.52706 2.658706,0.52916 0.801275,0.003 2.075028,0.89619 1.680965,1.17835 -0.07615,0.0545 -0.970548,-0.0112 -1.987536,-0.14602 z M 40.2219,109.70071 c 0,-0.19402 0.15875,-0.45088 0.352777,-0.5708 0.194028,-0.11992 0.352778,-0.0593 0.352778,0.13475 0,0.19403 -0.15875,0.45089 -0.352778,0.57081 -0.194027,0.11991 -0.352777,0.0593 -0.352777,-0.13476 z m -3.973841,-5.1914 c -0.115983,-0.11599 -0.12253,-0.44111 -0.01453,-0.72251 0.107978,-0.28139 -0.101396,-0.73707 -0.465279,-1.01262 -0.510364,-0.38647 -0.540643,-0.501 -0.132443,-0.501 0.956751,0 1.74293,0.86346 1.529454,1.67979 -0.199944,0.76459 -0.516763,0.95676 -0.917184,0.55634 z m 1.857174,-2.19143 c 0,-0.18943 0.251389,-0.44089 0.558645,-0.5588 0.343574,-0.13184 0.504853,-0.053 0.418923,0.20479 -0.175782,0.52735 -0.977568,0.8177 -0.977568,0.35401 z m 5.11332,-0.42208 c -0.812401,-0.89769 -0.593284,-1.11584 0.725248,-0.72205 0.572329,0.17094 0.822723,0.32444 0.556432,0.34112 -0.390172,0.0244 -0.398907,0.13305 -0.045,0.55948 0.70273,0.84674 -0.460841,0.67875 -1.23668,-0.17855 z m -7.033384,-0.90862 c -0.572237,-0.41843 -0.589989,-0.50033 -0.108461,-0.50033 0.316678,0 0.680413,0.16932 0.808309,0.37625 0.37392,0.60502 0.03907,0.66439 -0.699848,0.12408 z m 3.67725,0.0208 c -0.372808,-0.44921 -0.350986,-0.50084 0.133195,-0.31504 0.318484,0.12222 0.579063,0.36397 0.579063,0.53724 0,0.45366 -0.204212,0.38995 -0.712258,-0.2222 z m -4.314825,-1.730534 c -0.339549,-0.25072 -0.617361,-0.7266 -0.617361,-1.05751 0,-0.33091 -0.164335,-0.90873 -0.365189,-1.28402 -0.251735,-0.47037 -0.251735,-0.68237 0,-0.68237 0.200854,0 0.365189,0.14978 0.365189,0.33283 0,0.18306 0.47625,0.61416 1.058333,0.95801 0.582084,0.34385 1.058334,0.82907 1.058334,1.07828 0,0.24921 0.238125,0.4531 0.529166,0.4531 0.291042,0 0.528853,0.11907 0.528465,0.26459 -0.0011,0.45975 -1.912775,0.41272 -2.556937,-0.0629 z m 3.047118,-0.93826 c -0.754281,-0.59914 -1.816816,-1.43258 -2.361187,-1.85208 -1.928047,-1.48578 -2.250656,-1.82717 -2.247361,-2.37821 0.0025,-0.39021 0.303481,-0.53929 1.005078,-0.49755 0.550965,0.0328 1.105211,0.16305 1.231664,0.2895 0.12645,0.12645 0.420511,0.0717 0.653468,-0.12161 0.294255,-0.24421 0.726419,-0.1133 1.415605,0.42882 l 0.992047,0.78034 -0.216881,-0.82935 c -0.344322,-1.31669 0.487539,-0.27784 1.021694,1.27591 0.560723,1.63104 0.372724,1.87229 -0.684816,0.87878 -0.448303,-0.42117 -0.995415,-0.76575 -1.215803,-0.76575 -0.220387,0 -0.527656,-0.21733 -0.682819,-0.48296 -0.277745,-0.47548 -1.869613,-1.14994 -1.869613,-0.79214 0,1.07055 3.224449,4.06981 4.417008,4.10854 0.19002,0.006 0.653648,0.24429 1.03028,0.52916 0.659695,0.49897 0.651775,0.51795 -0.216076,0.51795 -0.495473,0 -1.518003,-0.49021 -2.272288,-1.08936 z m 3.726413,0.29561 -0.856036,-0.79375 1.170647,-0.11266 c 0.831176,-0.08 1.115744,-0.25574 0.981315,-0.60606 -0.276257,-0.71992 0.199242,-0.87036 1.147261,-0.363 0.818536,0.43807 0.809795,0.45172 -0.667889,1.04298 -1.403608,0.56161 -1.455777,0.63052 -0.833822,1.10145 0.364906,0.27629 0.494961,0.5074 0.289013,0.51357 -0.205948,0.006 -0.759668,-0.34597 -1.230489,-0.78253 z m -10.477698,-0.5027 c -0.824618,-0.4802 -1.499305,-1.02892 -1.499305,-1.21938 0,-0.41856 1.941378,0.68297 2.724178,1.54568 0.698331,0.76963 0.622325,0.74938 -1.224873,-0.3263 z m 21.10787,0.4465 c 0.08085,-0.0794 1.176376,-0.4905 2.434509,-0.91354 2.60924,-0.87733 5.649983,-1.26157 5.649983,-0.71395 0,0.19842 -0.620857,0.36076 -1.379682,0.36076 -0.758822,0 -2.386009,0.31545 -3.615972,0.70101 -2.087718,0.65443 -3.4293,0.90014 -3.088838,0.56572 z m -20.288921,-1.46831 c -0.695861,-0.69586 -0.703686,-0.8919 -0.02519,-0.63155 0.709443,0.27225 0.676564,-0.53594 -0.05468,-1.34395 -0.321123,-0.35483 -0.438686,-0.64514 -0.261257,-0.64514 0.477347,0 1.316574,1.46956 1.359863,2.38125 0.04434,0.9337 -0.254264,1.00386 -1.018741,0.23939 z m 13.391427,0.0252 c 0.566763,-1.81414 0.530811,-1.78315 1.008366,-0.86938 0.540664,1.03451 0.41051,1.39855 -0.500016,1.39855 -0.437103,0 -0.615612,-0.18582 -0.50835,-0.52917 z m -5.126348,0.0378 c 0,-0.34254 0.993899,-0.47127 1.443101,-0.1869 0.361834,0.22906 0.233084,0.31621 -0.472962,0.32014 -0.533576,0.003 -0.970139,-0.057 -0.970139,-0.13324 z m 7.663494,-0.0941 c -0.141598,-0.22503 -0.159886,-0.66339 -0.04064,-0.97414 0.159032,-0.41444 0.06533,-0.50688 -0.351635,-0.34687 -0.312646,0.11997 -0.568445,0.0618 -0.568445,-0.1292 0,-0.44471 0.68671,-0.99333 1.5875,-1.26826 0.608313,-0.18567 0.705556,-0.0519 0.705556,0.97024 0,0.75596 -0.148615,1.12856 -0.410119,1.02821 -0.225562,-0.0866 -0.467412,0.13209 -0.537442,0.48589 -0.08463,0.4276 -0.213643,0.50609 -0.384779,0.23413 z m -18.070438,-1.53114 c -0.119917,-0.19403 -0.04991,-0.35278 0.155568,-0.35278 0.205478,0 0.373598,0.15875 0.373598,0.35278 0,0.19402 -0.07001,0.35277 -0.155568,0.35277 -0.08556,0 -0.253682,-0.15875 -0.373598,-0.35277 z m 10.604101,-1.24595 c -0.376632,-0.28487 -0.515133,-0.51794 -0.307777,-0.51794 0.207352,0 0.574632,0.23812 0.816176,0.52916 0.549345,0.66193 0.376534,0.65811 -0.508399,-0.0112 z m -3.898826,-2.98335 c -0.123592,-0.19997 0.01803,-0.25911 0.331957,-0.13864 0.611159,0.23452 0.722979,0.48738 0.215533,0.48738 -0.182576,0 -0.428949,-0.15693 -0.54749,-0.34874 z m 4.407225,-2.66524 c -1.067153,-0.82551 -1.940952,-1.78176 -1.941774,-2.12499 -7.05e-4,-0.34324 -0.221357,-0.69735 -0.490079,-0.78692 -0.315859,-0.10529 -0.393816,-0.01 -0.220514,0.27088 0.208372,0.33715 0.101466,0.34457 -0.48006,0.0333 -0.411473,-0.22019 -0.748129,-0.55353 -0.748129,-0.74073 0,-0.44925 0.154284,-0.43277 1.598831,0.1708 0.672864,0.28114 1.223391,0.36051 1.223391,0.17639 0,-0.63479 0.620903,-0.33065 2.117168,1.03707 0.888552,0.81221 1.397621,1.53876 1.247899,1.78102 -0.322266,0.52143 -1.2484,-0.17028 -1.2484,-0.93241 0,-0.28345 -0.198437,-0.44455 -0.440972,-0.35798 -0.242535,0.0866 -0.917222,-0.0703 -1.499306,-0.34867 l -1.058333,-0.50605 1.23166,1.11621 c 0.677411,0.61391 1.629622,1.4061 2.116021,1.76042 0.4864,0.35432 0.805276,0.71359 0.708618,0.79839 -0.09666,0.0848 -1.048868,-0.52126 -2.116021,-1.34676 z m 0,-2.27769 c 0,-0.19402 -0.16812,-0.35277 -0.373599,-0.35277 -0.205479,0 -0.275484,0.15875 -0.155568,0.35277 0.119916,0.19403 0.288036,0.35278 0.373599,0.35278 0.08556,0 0.155568,-0.15875 0.155568,-0.35278 z m -5.954864,-2.60074 c -0.63668,-0.67772 -0.688221,-0.87445 -0.271029,-1.03455 0.546174,-0.20958 1.639782,0.76293 1.639782,1.45821 0,0.64691 -0.511842,0.48848 -1.368753,-0.42366 z m 3.185248,0.24972 c -0.564752,-0.6134 -0.406316,-0.90783 0.265193,-0.49282 0.260562,0.16104 0.414715,0.45427 0.342558,0.65162 -0.07593,0.20766 -0.331953,0.14076 -0.607751,-0.1588 z m 1.005727,-0.60984 c 0,-0.27029 -0.238125,-0.5828 -0.529167,-0.69449 -0.291041,-0.11168 -0.529166,-0.35462 -0.529166,-0.53987 0,-0.18525 0.468323,-0.10318 1.040719,0.18237 0.664707,0.3316 0.969715,0.7042 0.8442,1.03129 -0.250496,0.65278 -0.826586,0.6672 -0.826586,0.0207 z m 13.052778,0.19244 c 0,-0.16444 0.711839,-1.07726 1.581866,-2.02848 0.870024,-0.95122 1.686338,-2.04469 1.814029,-2.42993 0.287528,-0.86746 2.260343,-3.3565 2.660368,-3.3565 0.780327,0 0.409558,0.61348 -3.669132,6.07095 -1.349485,1.80568 -2.387131,2.56374 -2.387131,1.74396 z m -4.586111,-7.1376 c -0.873125,-0.98161 -1.808403,-2.21026 -2.078391,-2.73033 -0.269991,-0.52008 -0.706554,-1.07254 -0.970138,-1.2277 -0.632524,-0.37234 -0.613054,-0.952606 0.03196,-0.952606 0.527608,0 1.817134,1.581416 2.638249,3.235426 0.257305,0.51832 1.003314,1.36933 1.657794,1.89114 1.230352,0.98096 1.51517,1.57893 0.748993,1.57251 -0.242534,-0.002 -1.155347,-0.80683 -2.028472,-1.78844 z m 5.137958,1.33595 c 0.132478,-0.34792 0.329738,-0.54371 0.438354,-0.4351 0.108617,0.10862 2.26e-4,0.39328 -0.240869,0.63258 -0.348411,0.34582 -0.388931,0.3053 -0.197485,-0.19748 z m 1.162607,-1.55264 c 0.449753,-0.85751 1.107768,-1.38551 1.107768,-0.88889 0,0.1754 -0.3406,0.62133 -0.756888,0.99095 -0.751632,0.66737 -0.75407,0.66667 -0.35088,-0.10206 z m 4.529843,-2.3127 c 0.09896,-0.82462 1.011587,-3.245556 2.028049,-5.379861 1.016462,-2.134306 1.964634,-4.356806 2.10705,-4.938889 0.565051,-2.309499 3.266095,-5.097689 4.526122,-4.672157 0.242174,0.08178 -0.07092,0.414058 -0.695756,0.738385 -0.624836,0.324326 -1.305091,0.905506 -1.511674,1.291509 -0.318932,0.595933 -0.176844,0.874818 0.941758,1.848432 0.724549,0.630636 1.642925,1.521364 2.040841,1.979397 0.852145,0.980899 3.945985,3.02217 6.191536,4.085096 0.873125,0.41329 2.294428,1.204743 3.158447,1.758788 0.982338,0.629914 1.621212,0.856574 1.705095,0.604926 0.224032,-0.672099 1.13368,-0.449418 1.13368,0.277518 0,0.809846 1.579132,2.142266 2.538928,2.142266 0.373941,0 1.424093,-0.22701 2.333674,-0.50447 C 94.94255,70.341 97.12943,69.598272 98.9594,68.655834 c 1.16417,-0.59955 2.59509,-1.503155 3.17982,-2.008015 0.58474,-0.504857 1.77536,-1.143039 2.64583,-1.418181 0.87048,-0.275142 2.29706,-0.96938 3.17018,-1.542747 1.24037,-0.814532 2.08892,-1.074307 3.88056,-1.187989 2.69328,-0.170893 4.34387,-0.887198 4.9106,-2.131039 0.52111,-1.143716 0.30093,-1.348197 -0.73485,-0.682442 -1.01836,0.654562 -4.17575,1.161154 -4.17575,0.669989 0,-0.191259 0.62984,-0.448458 1.39964,-0.571557 0.76979,-0.123094 1.77543,-0.395037 2.23474,-0.604315 0.95576,-0.435469 2.15785,-2.265303 1.83323,-2.79055 -0.11967,-0.193629 -0.0495,-0.352055 0.15601,-0.352055 0.20548,0 0.37406,-0.198437 0.37462,-0.440972 7e-4,-0.242535 0.47635,-0.758472 1.05732,-1.146528 0.58096,-0.388055 1.05676,-0.898352 1.05731,-1.13399 10e-4,-0.645957 -2.96991,0.730515 -4.33107,2.006293 -0.62478,0.58559 -1.3344,1.065446 -1.57694,1.066342 -0.80442,0.0028 -0.45724,-0.534713 0.77305,-1.197268 1.14137,-0.614669 1.8342,-1.514909 1.45655,-1.892568 -0.51184,-0.511842 -2.23896,0.577663 -4.62458,2.917278 -2.24825,2.204897 -2.88773,2.643636 -3.8532,2.643636 -0.63668,0 -3.31202,0.858509 -5.94521,1.907797 -5.544562,2.20943 -6.787535,2.542449 -7.446933,1.995199 -0.87544,-0.726553 -2.344001,-0.456629 -10.874954,1.998821 -0.339549,0.09773 -0.617361,0.31793 -0.617361,0.489327 0,0.835756 -0.65411,0.167312 -0.848085,-0.866669 -0.268736,-1.432479 -0.896472,-2.020626 -4.972749,-4.659126 -4.827076,-3.124475 -5.994619,-4.189243 -7.056928,-6.435739 -0.523885,-1.107884 -1.407213,-2.68902 -1.962944,-3.513638 -0.555734,-0.824618 -0.937626,-1.499306 -0.848652,-1.499306 0.537718,0 2.162235,1.888642 3.18614,3.704167 0.656555,1.164167 1.55556,2.520802 1.997785,3.014747 1.544115,1.72471 5.840783,4.784372 8.945795,6.37031 0.403377,0.206032 0.929591,0.91712 1.169363,1.58019 0.417096,1.153464 1.180896,1.571382 1.608222,0.879951 0.110691,-0.179101 0.71537,-0.434064 1.343738,-0.566589 0.628364,-0.132524 2.459048,-0.617834 4.068184,-1.07847 2.259835,-0.646903 3.393377,-0.788635 4.98057,-0.622737 1.864635,0.194892 2.392306,0.0764 5.699789,-1.27986 4.09426,-1.678891 6.50961,-2.467244 7.57643,-2.472892 0.77372,-0.0041 4.3939,-3.132882 4.3939,-3.797487 0,-0.89736 1.57907,-1.497996 3.93823,-1.497996 1.30357,0 2.46824,-0.15875 2.58816,-0.352778 0.11991,-0.194028 0.56585,-0.348947 0.99096,-0.344265 0.63756,0.007 0.90828,0.417868 1.54581,2.345968 l 0.77288,2.337453 -0.86702,1.710979 c -0.65754,1.297591 -1.06272,1.710976 -1.67702,1.710976 -0.45074,0 -1.26956,0.488675 -1.84614,1.101782 -1.34243,1.42748 -2.89655,2.072999 -4.99356,2.074125 -1.2781,7.05e-4 -2.15734,0.282236 -3.6273,1.161531 -1.06715,0.638345 -2.81341,1.52919 -3.88056,1.979662 -1.06715,0.450469 -2.57528,1.334548 -3.35139,1.964616 -1.79059,1.45366 -3.91474,2.419713 -7.440253,3.383785 -1.534665,0.419656 -4.457175,1.230406 -6.494466,1.801656 -2.037292,0.57126 -4.021674,1.11951 -4.409733,1.21834 -0.420106,0.107 -1.205117,-0.17509 -1.940278,-0.69722 -1.579252,-1.12162 -5.062389,-3.230075 -8.589155,-5.199291 -1.522585,-0.850156 -3.958847,-2.630975 -5.413922,-3.957373 -1.455074,-1.326402 -2.74478,-2.312448 -2.866012,-2.191216 -0.121232,0.121232 -0.565934,1.12455 -0.988223,2.229595 -0.97676,2.555991 -2.505258,6.28529 -3.136924,7.653615 -0.268711,0.58208 -0.579205,1.4949 -0.689991,2.02847 -0.321536,1.54863 -0.844459,1.12059 -0.646466,-0.52916 z M 118.96778,58.441623 c -0.53887,-0.538875 -0.9365,-0.141249 -0.63762,0.637618 0.17647,0.459874 0.32947,0.505442 0.64331,0.191604 0.31384,-0.313842 0.31248,-0.511052 -0.006,-0.829222 z m 0.9819,-0.746714 c 0,-0.252236 -0.19844,-0.668542 -0.44097,-0.925128 -0.36353,-0.384577 -0.30533,-0.396801 0.33136,-0.0696 1.05637,0.54288 1.26086,0.02956 0.40873,-1.025969 -0.51805,-0.641703 -0.75503,-0.745007 -0.8971,-0.391051 -0.10619,0.264566 -0.49134,0.73641 -0.85588,1.048541 -0.78996,0.676377 -0.89296,1.632846 -0.14494,1.345801 0.28483,-0.109298 0.6117,-0.04691 0.72638,0.138645 0.30386,0.49167 0.87242,0.412658 0.87242,-0.121239 z M 52.657317,72.576816 c -1.182138,-0.75706 -1.390488,-1.017736 -0.813421,-1.017736 0.337287,0 2.461881,1.737186 2.136337,1.746786 -0.09701,0.003 -0.692326,-0.32521 -1.322916,-0.72905 z m 4.856095,-1.437891 c 0.003,-0.253986 0.15929,-0.699919 0.347377,-0.99096 0.278021,-0.430206 0.342985,-0.384616 0.347377,0.243762 0.0028,0.425112 -0.153349,0.871044 -0.347377,0.990963 -0.194028,0.11991 -0.350347,0.0102 -0.347377,-0.243765 z M 41.633011,70.85352 c 0,-0.194027 0.228755,-0.352777 0.508346,-0.352777 0.27959,0 0.60646,0.15875 0.726376,0.352777 0.119916,0.194028 -0.108839,0.352778 -0.508346,0.352778 -0.399506,0 -0.726376,-0.15875 -0.726376,-0.352778 z m 14.160225,-0.717292 c -0.458061,-0.3816 -1.123379,-0.693819 -1.478488,-0.693819 -0.35511,0 -0.743765,-0.15875 -0.863681,-0.352778 -0.603744,-0.976877 2.431902,0.126806 3.332085,1.21146 0.64184,0.773371 0.01,0.66814 -0.989916,-0.164863 z M 40.219931,69.706993 c -0.0039,-1.57564 -0.730656,-3.504682 -1.245873,-3.306975 -0.752168,0.288633 -0.902417,-0.28044 -0.30081,-1.139352 0.635793,-0.907722 1.195874,-0.694478 1.195874,0.455313 0,0.449925 0.238125,1.387954 0.529167,2.084518 0.60839,1.456079 0.689663,2.700246 0.176388,2.700246 -0.194027,0 -0.353663,-0.357188 -0.354746,-0.79375 z m 18.699191,-1.478485 c 0,-0.302493 0.15875,-0.549988 0.352778,-0.549988 0.194028,0 0.352778,0.149381 0.352778,0.331957 0,0.182577 -0.15875,0.430072 -0.352778,0.549988 -0.194028,0.119916 -0.352778,-0.02946 -0.352778,-0.331957 z m 18.873612,-1.27229 c -2.858788,-0.592014 -4.821806,-1.362078 -7.55129,-2.962264 -1.537681,-0.901481 -2.990628,-1.873829 -3.228767,-2.160771 -0.860668,-1.03704 0.01132,-0.901785 1.848411,0.286706 4.794416,3.101725 7.807212,4.234614 11.312896,4.253932 1.985617,0.01094 2.583212,0.310783 1.470452,0.737789 -0.707722,0.271579 -2.051728,0.217357 -3.851702,-0.155392 z M 57.688905,65.921923 c -0.263705,-0.426684 0.420183,-1.771181 0.900924,-1.771181 0.580951,0 0.791665,1.030376 0.325564,1.591991 -0.504451,0.607829 -0.923716,0.669082 -1.226488,0.17919 z m 2.288551,-0.197735 c 0,-0.104743 0.345842,-0.858806 0.768533,-1.675695 0.422695,-0.816888 0.968777,-2.437751 1.213513,-3.601917 0.877599,-4.174533 1.222661,-5.316125 2.106895,-6.97042 0.493522,-0.923311 0.908586,-2.193311 0.922369,-2.822222 0.03997,-1.823837 1.259745,-4.038806 2.697301,-4.897993 0.707972,-0.423133 1.604722,-1.048441 1.992778,-1.389573 0.388055,-0.341131 1.181805,-0.672638 1.763889,-0.736682 l 1.058333,-0.116444 -1.146528,-0.527089 c -0.63059,-0.289899 -1.146528,-0.635748 -1.146528,-0.768552 0,-0.132804 -0.246979,-0.488442 -0.548844,-0.790306 -0.301865,-0.301864 -0.583608,-1.09224 -0.626096,-1.756391 -0.04409,-0.689236 -0.386091,-1.486568 -0.796784,-1.857604 -1.378814,-1.245675 -1.859721,-4.34613 -0.919297,-5.926802 0.358296,-0.602227 0.382983,-1.955201 0.03567,-1.955201 -0.185772,0 -0.09149,-0.47625 0.209515,-1.058333 0.301008,-0.582083 0.808521,-1.058333 1.127809,-1.058333 0.319289,0 0.910523,-0.276677 1.313858,-0.614838 l 0.733333,-0.614837 -0.720309,0.879421 c -0.866955,1.05846 -2.027862,3.540509 -1.774482,3.793889 0.09971,0.09971 1.076268,-0.713698 2.170133,-1.807564 1.160798,-1.160797 1.763212,-1.988849 1.446904,-1.988849 -0.298069,0 -0.948563,0.515937 -1.445542,1.146528 -1.100797,1.396735 -1.197335,1.043625 -0.151052,-0.552497 0.45515,-0.694336 1.388233,-1.419647 2.324491,-1.806887 0.97777,-0.40441 1.405968,-0.744668 1.142242,-0.90766 -0.302532,-0.186974 -0.311425,-0.328998 -0.03143,-0.50204 0.214743,-0.132718 0.588783,-0.118724 0.831201,0.0311 0.242418,0.149823 0.861674,0.228254 1.376126,0.174291 1.289971,-0.13531 1.620083,0.576833 0.402403,0.868098 -1.314319,0.314382 -1.563497,0.47759 -1.323079,0.866596 0.115923,0.187569 0.637614,0.101927 1.222958,-0.200766 0.561431,-0.290328 1.2668,-0.527871 1.567476,-0.527871 1.061297,0 0.526708,0.541911 -1.118045,1.133361 -1.236662,0.444701 -1.730244,0.492631 -1.919506,0.186397 -0.387181,-0.626471 -2.030635,0.08791 -2.905562,1.263006 -0.686065,0.921434 -0.696366,1.020263 -0.138882,1.332247 0.345444,0.193319 0.514181,0.56624 0.395799,0.874739 -0.161445,0.420713 -0.02117,0.491276 0.644504,0.324204 0.746442,-0.187345 0.845792,-0.09778 0.809565,0.729805 -0.03133,0.716023 -0.323515,1.062021 -1.212402,1.43577 -1.53858,0.646925 -1.815631,0.323286 -0.408799,-0.477542 0.607138,-0.345607 1.104889,-0.747438 1.106117,-0.892959 0.0032,-0.397044 -0.244524,-0.333013 -1.817687,0.469555 -1.031255,0.526107 -1.547093,0.626073 -1.82039,0.352777 -0.585005,-0.585003 -0.933154,-0.460566 -1.282549,0.45841 -0.430459,1.1322 0.31549,3.624355 1.0423,3.482238 0.417174,-0.08157 0.548848,0.360997 0.622163,2.091162 0.09927,2.342854 0.966067,3.817386 2.244023,3.817386 0.344593,0 0.753483,0.213135 0.908646,0.473634 0.734659,1.233406 3.210994,1.974405 3.301545,0.987928 0.265532,-2.892695 0.257161,-2.930389 -0.60282,-2.714547 -1.206299,0.302761 -1.037953,0.0581 0.935591,-1.359756 1.769178,-1.271026 2.326616,-1.541465 1.962309,-0.952003 -0.186012,0.300977 0.551812,0.742521 1.240759,0.742521 0.408114,0 0.277297,-3.514938 -0.140427,-3.773105 -0.626424,-0.38715 -2.00478,0.709677 -2.045692,1.627857 -0.03344,0.750907 -0.08695,0.694075 -0.305149,-0.324196 -0.145517,-0.679097 -0.372611,-1.487101 -0.504652,-1.795564 -0.383381,-0.895632 0.669759,-1.496561 2.251057,-1.284465 1.577591,0.2116 2.189837,-0.25214 1.755511,-1.329693 -0.156411,-0.388056 -0.295543,-1.477286 -0.309178,-2.420511 l -0.0248,-1.714956 -1.234722,0.231635 c -0.771373,0.144711 -1.234722,0.09325 -1.234722,-0.137128 0,-0.202819 0.229274,-0.368763 0.509495,-0.368763 0.280222,0 0.936128,-0.366976 1.457572,-0.815502 l 0.948077,-0.815503 -1.369378,-1.07049 c -0.753156,-0.58877 -2.688869,-1.491793 -4.301578,-2.00672 -3.253081,-1.038684 -3.594188,-1.094057 -3.594188,-0.583451 0,0.194027 0.3175,0.352777 0.705555,0.352777 0.909204,0 0.906678,0.573094 -0.0047,1.060835 -0.484731,0.259421 -0.904758,0.266768 -1.322916,0.02314 -0.342932,-0.1998 -0.418536,-0.361687 -0.171715,-0.367692 0.242535,-0.0059 0.440972,-0.164495 0.440972,-0.352433 0,-0.380637 -0.967186,-0.109811 -1.730848,0.484664 -0.399168,0.310734 -0.295754,0.428738 0.529167,0.603834 l 1.025292,0.217625 -1.159058,0.26995 c -0.63748,0.148473 -1.31009,0.55216 -1.494688,0.897083 -0.215441,0.402555 -0.588525,0.561 -1.041834,0.442456 -0.388415,-0.101572 -0.617647,-0.327968 -0.509407,-0.503101 0.108235,-0.175134 0.312469,-0.246936 0.453845,-0.159559 0.433126,0.267687 1.211163,-0.396232 0.953297,-0.813471 -0.379783,-0.614498 -1.21025,-0.460865 -1.693746,0.313336 -0.242344,0.388056 -0.681754,0.705556 -0.976464,0.705556 -0.294711,0 -0.73412,0.3175 -0.976465,0.705555 -0.480395,0.769238 -0.122368,0.957723 0.54725,0.288102 0.489388,-0.489386 0.605561,-0.39995 0.955266,0.735402 0.205878,0.668396 0.149765,0.80446 -0.265966,0.644929 -0.289786,-0.111202 -0.704388,-0.02469 -0.921332,0.192258 -0.290738,0.29074 -0.527671,0.21393 -0.901182,-0.292152 -0.406156,-0.550311 -0.595481,-0.599065 -0.953822,-0.245622 -0.360095,0.355174 -0.330398,0.440972 0.152639,0.440972 0.633579,0 0.81352,0.531781 0.289529,0.855627 -0.44347,0.274091 -0.744266,1.613819 -0.362317,1.613819 0.175863,0 0.319751,-0.228756 0.319751,-0.508347 0,-0.279591 0.185726,-0.623133 0.412728,-0.763427 0.268941,-0.166216 0.341613,-0.06976 0.208594,0.276881 -0.157822,0.411284 -7.05e-4,0.493042 0.693318,0.360403 l 0.897446,-0.171558 -0.82017,1.109339 c -0.451093,0.610137 -0.909126,0.989935 -1.017849,0.843997 -0.108722,-0.145939 -0.391618,-0.303532 -0.628653,-0.350205 -0.314149,-0.06186 -0.342865,0.146884 -0.105925,0.770079 0.282173,0.74217 0.233077,0.837229 -0.372198,0.720664 -0.398036,-0.07666 -0.604478,0.01583 -0.481066,0.215513 0.1189,0.192384 0.05612,0.542658 -0.13952,0.778386 -0.195636,0.235727 -0.607219,1.513111 -0.914629,2.838629 -0.307407,1.325518 -0.774845,2.718303 -1.038747,3.095078 -0.434739,0.620675 -0.319017,0.841431 1.231561,2.349389 2.454176,2.386719 2.192059,3.186873 -0.287905,0.878875 -2.26905,-2.111709 -3.971372,-2.747947 -6.540882,-2.444632 -0.919575,0.108549 -2.348325,0.593055 -3.175,1.076679 -0.826678,0.483624 -2.553917,1.046669 -3.83831,1.25121 -2.495109,0.397349 -4.967358,1.170627 -6.12563,1.915994 -0.391231,0.251765 -1.028831,0.544881 -1.416886,0.651369 -0.388056,0.106489 -1.975556,0.542658 -3.527778,0.969264 -1.834399,0.504157 -4.612654,0.882749 -7.9375,1.081638 -6.422408,0.384186 -12.786794,1.197579 -14.690408,1.877491 -1.327513,0.474147 -2.35029,0.93122 -8.0989208,3.619362 -0.989478,0.462693 -2.062594,0.841262 -2.384703,0.841262 -0.322109,0 -0.857504,0.3175 -1.189767,0.705556 -0.440568,0.514544 -1.040673,0.705555 -2.21667302244,0.705555 -1.47489397756,0 -1.75271197756,-0.148498 -3.25429797756,-1.739469 -1.370019,-1.451593 -1.919123,-1.781073 -3.317818,-1.990821 -1.004632,-0.150654 -2.036734,-0.585974 -2.576329,-1.086644 -0.495132,-0.459415 -1.1780522,-0.923621 -1.5176012,-1.031568 -0.339548,-0.10795 -0.617361,-0.516301 -0.617361,-0.90745 0,-0.416726 -0.182578,-0.646772 -0.440972,-0.555618 -0.242535,0.08556 -0.418924,0.416285 -0.391975,0.734952 0.07129,0.842988 -0.489229,0.7098 -0.772791,-0.183627 -0.376348,-1.185768 -0.883066,0.0176 -0.639479,1.518641 0.140596,0.866394 0.544456,1.455995 1.397858,2.040756 0.660075,0.452293 1.200137,0.960635 1.200137,1.129651 0,0.522323 -0.97093,0.33836 -1.187078,-0.224914 -0.112327,-0.292721 -0.586939,-0.706592 -1.054693,-0.919716 -0.628747,-0.286477 -0.899502,-0.753117 -1.038573,-1.78997 -0.103461,-0.771363 -0.270272,-1.484637 -0.370691,-1.585055 -0.448615,-0.448617 -0.935076,0.397968 -0.935076,1.627304 0,1.141084 0.18669,1.471958 1.232311,2.184044 0.677772,0.46157 1.233397,0.954207 1.234723,1.094747 0.0013,0.140539 0.483851,0.504486 1.072278,0.808774 0.588427,0.304289 0.982614,0.694429 0.87597,0.866984 -0.287294,0.464851 -1.587824,-0.322288 -3.368785,-2.03894 -1.291935,-1.24528 -1.599004,-1.405427 -1.705281,-0.889363 -0.164213,0.797391 1.818387,2.538638 4.769848,4.18919 2.3265842,1.301098 9.4644132,3.33422 11.70569918,3.33422 1.37095602,0 5.94240502,-1.166591 7.69627502,-1.964017 0.611406,-0.277985 1.333718,-0.505428 1.605139,-0.505428 0.27142,0 0.6443018,-0.135802 0.8286288,-0.301784 0.300319,-0.270432 3.681624,-1.455003 4.568472,-1.600468 0.194028,-0.03182 0.511528,-0.150516 0.705556,-0.263754 0.667522,-0.38958 2.470806,-0.764805 3.281874,-0.682883 0.97379,0.09835 1.833404,-0.539612 1.833404,-1.360671 0,-0.730997 2.010699,-2.845996 2.705646,-2.845996 0.35535,0 0.225838,0.366339 -0.436509,1.234723 -0.517973,0.679097 -1.085607,1.234722 -1.261407,1.234722 -0.175799,0 -0.463426,0.378192 -0.639169,0.84043 -0.313274,0.823972 -2.820282,1.981792 -4.29114,1.981792 -0.342043,0 -0.703834,0.132585 -0.803984,0.29463 -0.185198,0.299656 5.243886,0.218545 7.615686,-0.113782 1.196929,-0.167707 2.090963,0.239579 1.426855,0.650018 -0.154901,0.09573 -2.181553,0.273664 -4.50367,0.395393 -2.322118,0.121733 -5.095156,0.365196 -6.162309,0.541031 -4.8829098,0.804559 -5.9217698,1.025761 -7.0666998,1.504685 -4.205176,1.759028 -7.02257202,2.052433 -11.208104,1.167219 -1.299483,-0.274832 -3.359708,-0.694422 -4.578277,-0.932424 -1.21857,-0.238001 -2.3298202,-0.608912 -2.4694452,-0.824248 -0.139625,-0.215332 -0.968238,-0.863935 -1.841363,-1.441337 -3.916356,-2.589907 -4.381386,-3.126846 -4.850689,-5.600791 -0.499934,-2.635423 -0.317995,-3.521986 0.659133,-3.211855 0.54728,0.173697 0.663778,0.02834 0.663778,-0.828238 0,-1.237456 0.75758,-1.973858 1.717271,-1.669263 0.381038,0.120936 0.795967,0.05295 0.922065,-0.15108 0.375107,-0.606937 2.326873,-0.267168 2.863111,0.498419 0.272126,0.388515 0.494776,1.226694 0.494776,1.86262 0,0.635924 0.119062,1.131023 0.2645832,1.100218 0.55343,-0.117147 1.499306,0.505365 1.499306,0.986744 0,0.335923 0.380034,0.495671 1.146527,0.481941 2.367787,-0.04241 3.220452,0.365432 4.321528,2.067045 0.633331,0.978753 1.367627,1.679585 1.82853,1.745199 1.15713698,0.164729 4.764182,-1.063629 9.107581,-3.101531 5.4032608,-2.535185 7.3295018,-3.11924 11.7085818,-3.550172 2.097504,-0.20641 4.694749,-0.490637 5.771656,-0.631617 1.076911,-0.140979 2.505661,-0.142953 3.175,-0.0044 0.669343,0.138568 1.367798,0.103756 1.552124,-0.07736 0.184326,-0.181116 0.918866,-0.329301 1.632306,-0.329301 1.445684,0 6.786958,-1.560656 10.068934,-2.942021 1.176617,-0.495231 3.236024,-1.085689 4.576463,-1.312129 1.340436,-0.22644 3.389658,-0.851958 4.553825,-1.390041 2.834538,-1.310135 4.284345,-1.521521 6.291795,-0.917367 l 1.663813,0.500734 0.689244,-1.351032 c 1.027634,-2.014326 1.055126,-6.057184 0.05446,-8.008118 -0.92867,-1.810566 -0.931506,-1.903725 -0.08567,-2.811622 0.371873,-0.39916 1.083229,-1.52911 1.58079,-2.510998 0.497561,-0.981889 1.076216,-1.891283 1.285903,-2.020876 0.209684,-0.129593 0.536102,-0.642928 0.725371,-1.140745 0.243226,-0.639728 0.454191,-0.795059 0.719494,-0.529756 0.265307,0.265304 0.722186,0.140009 1.558184,-0.427315 0.995179,-0.675346 1.422453,-0.758861 2.693392,-0.526454 0.893378,0.163366 1.777912,0.133153 2.164881,-0.07395 0.434241,-0.232399 0.969832,-0.230592 1.592438,0.0054 0.515973,0.19555 2.049382,0.768586 3.407576,1.273415 3.26963,1.215292 5.397246,2.339349 5.686383,3.004218 0.480124,1.104022 0.771158,8.282942 0.356916,8.803912 -0.219371,0.275889 -0.398854,1.704639 -0.398854,3.175 0,2.481004 -0.05357,2.674227 -0.744407,2.685101 -1.092909,0.0172 -2.95976,1.921588 -2.95976,3.019267 0,0.973023 -0.956613,2.085171 -1.791667,2.082975 -0.275762,-7.41e-4 -1.021164,-0.318225 -1.656443,-0.705556 -0.635279,-0.38733 -1.391747,-0.704236 -1.681039,-0.704236 -1.479402,0 -6.15974,3.501848 -6.15974,4.608745 0,0.784154 -1.505578,6.519132 -1.811609,6.900693 -0.175098,0.21832 -0.686283,1.80582 -1.135962,3.527778 -0.936244,3.585154 -2.13268,6.482228 -2.677037,6.482228 -0.204939,0 -0.372614,-0.0857 -0.372614,-0.190443 z M 78.164509,40.83667 c 0.130365,-0.210933 0.0869,-0.533638 -0.09658,-0.71712 -0.442849,-0.442846 -1.50992,-0.01231 -1.50992,0.609213 0,0.579062 1.262881,0.663889 1.606497,0.107907 z m -16.06652,-9.582456 c 0.833137,-1.366446 0.9017,-2.08308 0.172522,-1.803268 -0.762342,0.292539 -0.651129,-0.226297 0.255341,-1.191187 0.574982,-0.612043 0.669209,-0.906325 0.352802,-1.101874 -0.339442,-0.209786 -0.337467,-0.390502 0.0092,-0.845601 0.768082,-1.008197 3.161288,-2.732089 3.752649,-2.703136 0.365171,0.01788 0.410962,0.09156 0.127882,0.205787 -0.242535,0.09786 -0.440972,0.323457 -0.440972,0.501316 0,0.575453 1.191041,0.312712 3.127347,-0.689888 l 1.892621,-0.979982 -2.625288,0.02649 c -2.436615,0.02458 -2.742018,0.115223 -4.24948,1.261207 -0.893304,0.679097 -1.709935,1.472847 -1.814731,1.763889 -0.104796,0.291042 -0.326814,0.767292 -0.493371,1.058333 -0.747627,1.306408 -1.834321,3.512358 -1.834321,3.723608 0,0.127839 0.238125,0.141057 0.529167,0.02938 0.58759,-0.22548 0.732268,0.313188 0.176389,0.656741 -0.460777,0.284775 -0.456787,1.234722 0.0052,1.234722 0.196878,0 0.672535,-0.515938 1.057014,-1.146528 z m 9.168356,0.07238 c 0,-0.16121 -0.300059,-0.270507 -0.666796,-0.242882 -0.3712,0.02796 -0.59284,0.242953 -0.499971,0.484967 0.176834,0.460819 1.166767,0.255423 1.166767,-0.242085 z m -4.72972,25.680402 c 0.163548,-0.63059 0.302454,-2.218221 0.30868,-3.52807 0.01175,-2.469914 0.517282,-3.039029 0.9257,-1.042102 0.247533,1.21031 -0.716132,5.713663 -1.223063,5.71555 -0.174075,7.06e-4 -0.17901,-0.498817 -0.01132,-1.145378 z m -7.529308,-1.556554 c -0.242535,-0.09786 -0.440972,-0.450458 -0.440972,-0.783537 0,-0.333082 -0.198438,-0.819468 -0.440973,-1.080858 -0.358609,-0.38649 -0.333692,-0.437762 0.1334,-0.274511 0.315905,0.110405 0.752468,0.02265 0.970139,-0.195022 0.292505,-0.292506 0.395767,-0.154768 0.395767,0.527879 0,0.508007 0.09636,1.174757 0.214132,1.481666 0.215555,0.561728 -0.01774,0.652741 -0.831493,0.324383 z M 7.7663432,53.778645 c 0,-0.462287 3.0912688,-1.808423 6.5841528,-2.867162 4.295677,-1.302079 5.057514,-1.433411 5.057514,-0.871852 0,0.194028 -0.436562,0.354662 -0.970139,0.356965 -1.813789,0.0078 -4.807666,0.986409 -8.7312498,2.853909 -1.384,0.658739 -1.940278,0.810154 -1.940278,0.52814 z M -10.899126,52.836062 c -0.467605,-0.389333 -1.102605,-0.850413 -1.411111,-1.024629 -0.380021,-0.214595 -0.445591,-0.433476 -0.203315,-0.678685 0.243582,-0.246531 0.830651,0.01238 1.841192,0.812067 0.8159732,0.645703 1.3826562,1.274938 1.2592942,1.398301 -0.339445,0.339443 -0.559593,0.264326 -1.4860602,-0.507054 z M 41.126457,51.84011 c -0.134733,-0.218002 0.154199,-0.565422 0.66305,-0.797271 0.496012,-0.225996 0.901837,-0.52422 0.901837,-0.662714 0,-0.5008 2.398702,-2.857028 2.591294,-2.545409 0.108677,0.175843 -0.728278,1.235923 -1.859901,2.355735 -1.252904,1.239834 -2.150872,1.884934 -2.29628,1.649659 z M 26.110788,50.843058 c 0,-0.443883 1.008366,-1.323764 1.245412,-1.086722 0.09351,0.09352 -0.148449,0.458241 -0.537694,0.810504 -0.389244,0.352263 -0.707718,0.47656 -0.707718,0.276218 z m 28.692363,-2.045533 c 0.549621,-0.316184 1.232553,-0.48538 1.517629,-0.375983 0.285076,0.109393 0.436344,0.06626 0.336155,-0.09586 -0.100193,-0.162116 0.288434,-0.745621 0.863621,-1.296683 0.719473,-0.689299 1.045789,-0.836815 1.045789,-0.472763 0,0.940653 -1.928182,2.441177 -3.384515,2.633857 l -1.377986,0.182312 z m -8.766627,-1.570072 c 0.221026,-0.357624 3.219193,-1.773933 3.755221,-1.773933 0.169362,0 0.307933,0.152631 0.307933,0.33918 0,0.186549 -0.628298,0.508363 -1.396217,0.715143 -0.76792,0.206778 -1.491661,0.530397 -1.608318,0.719153 -0.11666,0.188755 -0.450229,0.343191 -0.74127,0.343191 -0.291042,0 -0.43385,-0.15423 -0.317349,-0.342734 z m 20.420377,-2.865607 c 0.256945,-1.288474 2.339999,-3.74131 2.339999,-2.755397 0,0.301995 -0.396875,0.921927 -0.881944,1.377626 -0.48507,0.455699 -0.881945,1.109003 -0.881945,1.451786 0,0.342783 -0.183529,0.73667 -0.407846,0.875304 -0.294259,0.181862 -0.341122,-0.08253 -0.168264,-0.949319 z m -3.510577,-3.268345 c -0.122505,-0.319246 -0.12737,-0.960417 -0.0108,-1.424823 0.143404,-0.571372 0.04165,-0.909718 -0.314734,-1.046473 -0.773543,-0.296837 -0.641467,-1.318604 0.198854,-1.538352 0.455517,-0.119121 0.652014,-0.381244 0.52802,-0.704365 -0.278469,-0.725683 0.170169,-1.354187 0.539767,-0.756164 0.234136,0.378841 0.383167,0.386509 0.732014,0.03766 0.326909,-0.326911 0.336388,-0.539657 0.03737,-0.838678 -0.299021,-0.299022 -0.272175,-0.529135 0.105833,-0.907144 0.27855,-0.278568 0.506469,-0.795664 0.506469,-1.149102 0,-0.353437 0.238125,-0.73399 0.529167,-0.845674 0.70823,-0.271773 0.663392,0.09328 -0.166003,1.35153 -0.425125,0.644951 -0.612913,1.35677 -0.488597,1.852083 0.284222,1.132435 -0.142491,2.568406 -0.763231,2.568406 -0.323843,0 -0.539563,0.368792 -0.567468,0.970139 -0.121285,2.613367 -0.446557,3.525741 -0.866666,2.430953 z M 73.5594,29.225742 c 0.119917,-0.194028 0.486474,-0.350347 0.814571,-0.347376 0.514093,0.0047 0.523406,0.05267 0.06737,0.347376 -0.69087,0.446474 -1.15788,0.446474 -0.881945,0 z m -1.234722,-0.135816 c 0,-0.0747 0.436563,-0.416774 0.970139,-0.760166 l 0.970139,-0.62435 -0.672038,0.760166 c -0.594695,0.672684 -1.26824,1.004267 -1.26824,0.62435 z M 78.3219,27.323207 c 0,-0.07625 0.24637,-0.233186 0.54749,-0.348737 0.313944,-0.120472 0.455549,-0.06133 0.331957,0.138646 -0.207172,0.335211 -0.879447,0.495811 -0.879447,0.210091 z m -6.526389,-1.625243 c 0.119917,-0.194028 0.376778,-0.352778 0.570806,-0.352778 0.194027,0 0.254666,0.15875 0.13475,0.352778 -0.119916,0.194028 -0.376777,0.352778 -0.570805,0.352778 -0.194028,0 -0.254667,-0.15875 -0.134751,-0.352778 z"
       style="fill:#000000;stroke-width:0.35277778" />
  </g>
</svg>
