<?xml version="1.0" encoding="UTF-8" standalone="no"?>
<svg
   xmlns:dc="http://purl.org/dc/elements/1.1/"
   xmlns:cc="http://creativecommons.org/ns#"
   xmlns:rdf="http://www.w3.org/1999/02/22-rdf-syntax-ns#"
   xmlns:svg="http://www.w3.org/2000/svg"
   xmlns="http://www.w3.org/2000/svg"
   id="svg8"
   version="1.1"
   viewBox="0 0 194.02317 98.616314"
   height="98.616318mm"
   width="194.02318mm">
  <defs
     id="defs2" />
  <metadata
     id="metadata5">
    <rdf:RDF>
      <cc:Work
         rdf:about="">
        <dc:format>image/svg+xml</dc:format>
        <dc:type
           rdf:resource="http://purl.org/dc/dcmitype/StillImage" />
        <dc:title></dc:title>
      </cc:Work>
    </rdf:RDF>
  </metadata>
  <g
     transform="translate(33.976934,-65.528257)"
     id="layer1">
    <path
       id="path1050"
       d="m 100.99311,163.9701 c -0.10685,-0.17288 -0.89276,-0.41006 -1.746475,-0.52708 -1.910641,-0.26188 -3.466116,-0.94 -3.299912,-1.43861 0.279669,-0.83901 5.538407,-0.0149 5.538407,0.86789 0,0.39968 2.59104,-0.0458 2.88516,-0.49609 0.16278,-0.2492 0.5394,-0.22964 1.17768,0.0612 1.55768,0.70973 8.90038,-0.34848 9.53421,-1.37404 0.11249,-0.18201 0.59807,-0.23216 1.07907,-0.11144 0.54748,0.13741 1.1001,0.0222 1.47768,-0.30809 0.33173,-0.29018 1.23815,-0.72536 2.01426,-0.96707 0.77611,-0.2417 1.72861,-0.60688 2.11667,-0.8115 0.38805,-0.20462 1.07196,-0.56399 1.51979,-0.79859 0.44783,-0.23459 1.2799,-0.84144 1.84903,-1.34854 0.56914,-0.5071 1.18358,-0.922 1.36542,-0.922 0.18185,0 0.58373,-0.2531 0.89307,-0.56244 0.33,-0.33 1.29405,-0.60185 2.33274,-0.6578 1.90988,-0.10289 4.21078,-1.12453 4.21078,-1.86967 0,-0.25301 0.24587,-0.55436 0.54638,-0.66968 0.5672,-0.21765 2.62862,-2.156 2.62862,-2.47168 0,-0.32851 2.28565,-3.46538 2.73403,-3.75223 0.24253,-0.15516 0.44097,-0.525 0.44097,-0.82187 0,-0.52087 2.62221,-6.24901 4.48137,-9.78941 0.78976,-1.50395 0.87965,-2.01596 0.71229,-4.05694 -0.18542,-2.26115 -0.1754,-2.29863 0.3136,-1.17312 0.4911,1.13032 1.19552,1.26032 1.19552,0.22062 0,-0.28345 0.42641,-1.18689 0.94759,-2.00765 0.52118,-0.82076 0.91983,-1.84949 0.88589,-2.28605 -0.0432,-0.55621 0.13133,-0.79375 0.58329,-0.79375 0.35473,0 0.80808,-0.35719 1.00744,-0.79375 0.19936,-0.43656 0.91598,-1.45565 1.5925,-2.26464 1.04495,-1.24956 1.2669,-1.83346 1.4751,-3.88055 0.25172,-2.47509 0.29325,-2.55108 2.78054,-5.08758 1.40781,-1.43567 2.81759,-4.24745 2.51932,-5.02474 -0.10935,-0.28495 -0.50533,-0.59826 -0.87996,-0.69623 -0.69722,-0.18232 -0.98942,-1.65528 -0.32838,-1.65528 0.19403,0 0.35278,0.15875 0.35278,0.35277 0,0.19403 0.22912,0.35278 0.50916,0.35278 0.76563,0 1.6075,1.42059 1.6075,2.71255 0,0.85785 -0.40928,1.61122 -1.63435,3.00831 -0.89889,1.02513 -1.99557,2.18136 -2.43707,2.56942 -0.44149,0.38805 -0.88152,1.1818 -0.97784,1.76389 -0.3959,2.39255 -1.29052,4.82489 -2.15049,5.84691 -0.50278,0.59751 -0.91414,1.30686 -0.91414,1.57632 0,0.26947 -0.49439,0.9957 -1.09864,1.61384 -0.60426,0.61815 -1.30553,1.61903 -1.55838,2.22419 -0.25285,0.60515 -0.79033,1.39948 -1.19441,1.76516 -0.50606,0.45798 -0.73468,1.09465 -0.73468,2.04599 0,1.01427 -0.42167,2.07575 -1.5875,3.99627 -0.87312,1.43832 -1.5875,2.79177 -1.5875,3.00766 0,0.21589 -0.29667,0.8139 -0.65927,1.32892 -0.3626,0.51502 -0.77825,1.33328 -0.92367,1.81835 -0.14542,0.48507 -0.46351,1.12007 -0.70688,1.41111 -0.24336,0.29104 -1.02458,1.70128 -1.73603,3.13386 -1.55117,3.1234 -5.91109,8.15503 -7.06636,8.15503 -0.41861,0 -0.91193,0.13365 -1.09626,0.29701 -0.18432,0.16335 -1.39524,0.57475 -2.69093,0.91422 -1.29568,0.33947 -2.62997,0.9202 -2.96509,1.2905 -0.33511,0.3703 -0.79964,0.67327 -1.03228,0.67327 -0.23264,0 -0.82024,0.36818 -1.3058,0.81817 -0.48555,0.44999 -1.42154,1.01886 -2.07998,1.26415 -0.65844,0.24529 -1.47282,0.59148 -1.80974,0.76933 -0.33692,0.17784 -0.89254,0.3284 -1.23472,0.33457 -0.34218,0.006 -0.93031,0.2443 -1.30694,0.52916 -0.66343,0.50179 -0.66398,0.51795 -0.0176,0.51795 0.39223,0 0.52904,0.12276 0.33201,0.29789 -0.31403,0.27913 -3.81793,0.74092 -11.27125,1.48548 -1.74625,0.17445 -3.67856,0.40505 -4.29402,0.51245 -0.61546,0.1074 -1.20643,0.0538 -1.31328,-0.11906 z m -22.257835,-0.40762 c -1.01273,-0.17975 -1.775707,-1.41636 -0.873876,-1.41636 0.268523,0 0.338112,-0.31387 0.195537,-0.88194 -0.127645,-0.50859 -0.06916,-0.88195 0.138144,-0.88195 0.197725,0 0.359499,-0.3175 0.359499,-0.70555 0,-0.45242 -0.235187,-0.70556 -0.655514,-0.70556 -0.547875,0 -0.641805,0.24288 -0.572051,1.47919 0.09042,1.60249 -0.698073,2.92849 -1.229797,2.06814 -0.152167,-0.24621 -0.364278,-0.3059 -0.471361,-0.13263 -0.250419,0.40518 -1.560258,0.31556 -2.826882,-0.19341 -0.546206,-0.21949 -1.211527,-0.39907 -1.478484,-0.39907 -0.266962,0 -0.585097,-0.16134 -0.706967,-0.35853 -0.121871,-0.19719 -0.376319,-0.2629 -0.565439,-0.14602 -0.189121,0.11688 -0.535341,0.0551 -0.769373,-0.13732 -0.234037,-0.19241 -1.04134,-0.34895 -1.794009,-0.34787 -0.752669,0.001 -1.4718,-0.1652 -1.598073,-0.36951 -0.215755,-0.3491 -3.061494,-0.99318 -3.656704,-0.82763 -0.150294,0.0418 -1.023419,-0.10589 -1.940278,-0.3282 -2.000828,-0.48515 -3.960068,-1.85496 -3.960068,-2.7687 0,-0.3656 -0.434174,-0.8854 -0.970138,-1.16146 -0.533577,-0.27484 -2.002014,-1.02728 -3.263195,-1.67209 -1.26118,-0.64481 -2.37243,-1.26867 -2.469444,-1.38637 -0.203221,-0.24654 -1.961833,-1.41266 -2.998611,-1.98836 -2.429203,-1.34888 -3.625663,-2.07803 -4.367946,-2.66191 -0.463367,-0.36448 -0.985224,-0.6627 -1.15969,-0.6627 -0.872381,0 -6.143187,-4.03045 -9.068548,-6.93449 -1.819014,-1.80575 -3.439745,-3.20133 -3.601624,-3.10129 -0.161879,0.10005 -0.578595,0.0374 -0.926035,-0.13925 -0.347444,-0.17663 -1.742962,-0.83662 -3.101156,-1.46663 -1.358195,-0.63001 -2.745102,-1.28462 -3.082019,-1.45468 -0.336916,-0.17007 -0.894358,-0.30921 -1.238757,-0.30921 -0.3444,0 -1.405753,-0.51594 -2.358556,-1.14653 -1.48674,-0.98396 -1.873225,-1.49668 -2.725716,-3.61597 -0.54634,-1.3582 -1.392143,-3.23816 -1.879565,-4.1777 -0.487423,-0.93953 -0.889751,-1.89203 -0.894066,-2.11666 -0.0043,-0.22463 -0.318283,-0.80529 -0.69771,-1.29036 -0.379426,-0.48507 -0.693395,-1.15413 -0.697709,-1.48679 -0.01651,-1.27304 -5.2080515,-9.09655 -6.0363102,-9.09655 -0.1768439,0 -0.3215357,-0.17172 -0.3215357,-0.3816 0,-0.47427 -2.0964634,-3.10278 -4.33826743,-5.43923 -0.930839,-0.97014 -2.30301797,-2.39889 -3.04928397,-3.175 -0.74627,-0.77611 -2.037157,-2.28424 -2.868641,-3.35139 -0.831479,-1.06715 -1.721489,-2.06723 -1.977796,-2.22239 -0.256306,-0.15516 -0.466012,-0.51235 -0.466012,-0.79375 0,-0.2814 -0.187822,-0.47195 -0.417383,-0.42344 -0.229561,0.0485 -0.769157,-0.60138 -1.199104,-1.4442 -1.1212937,-2.19805 -2.6753067,-3.82361 -4.2623917,-4.45864 -0.757995,-0.30329 -2.133039,-1.34157 -3.055653,-2.30728 -0.922614,-0.96572 -1.909152,-1.75585 -2.192307,-1.75585 -0.283155,0 -0.514827,-0.12925 -0.514827,-0.28722 0,-0.15796 -0.714375,-0.82247 -1.5875,-1.47667 -0.873125,-0.65421 -1.5875,-1.39809 -1.5875,-1.65307 0,-0.25498 -0.301088,-0.4636 -0.669086,-0.4636 -0.367997,0 -1.28081,-0.73218 -2.028472,-1.62707 -3.664953,-4.38662 -4.69338,-5.42579 -5.384018,-5.44022 -1.385976,-0.029 -2.89994,-2.4348 -2.122038,-3.37212 0.239454,-0.28852 0.179008,-0.59313 -0.191153,-0.96329 -0.5995,-0.5995 -0.745074,-1.46485 -0.188566,-1.12091 0.194028,0.11991 0.352778,-0.11821 0.352778,-0.52917 0,-0.43937 0.155004,-0.6514 0.37625,-0.51466 0.206937,0.1279 0.598764,-0.0612 0.870725,-0.42015 0.397183,-0.52427 0.496682,-0.54644 0.505695,-0.11267 0.0062,0.29701 0.487469,0.71978 1.069552,0.9395 0.727901,0.27475 1.07511,0.65686 1.112067,1.22387 0.02955,0.45341 0.07009,1.04464 0.09008,1.31384 0.01999,0.2692 0.392684,0.62127 0.828211,0.78238 1.051478,0.38897 1.037483,1.374 -0.01952,1.374 -0.446264,0 -0.999244,-0.18785 -1.228843,-0.41745 -0.2296,-0.2296 -0.502702,-0.33221 -0.606893,-0.22801 -0.104192,0.10419 0.488474,0.6294 1.317036,1.16715 1.951133,1.26629 3.446755,2.66827 3.446755,3.23095 0,0.2451 0.213136,0.57259 0.473634,0.72775 0.2605,0.15516 0.765777,0.73511 1.122838,1.28878 0.625789,0.97035 3.046624,2.97456 5.814922,4.81417 0.729948,0.48507 2.24631,1.71933 3.369694,2.74281 1.123384,1.02349 2.451268,1.95762 2.950853,2.07586 1.212158,0.28688 2.1430577,1.13577 2.1430577,1.95423 0,0.36649 0.790459,1.61617 1.756576,2.77708 0.966116,1.1609 1.924202,2.42395 2.129077,2.80677 0.20488,0.38281 0.565355,0.70555 0.801063,0.7172 0.235709,0.0116 1.460437,1.28888 2.721617,2.83831 1.26118097,1.54943 2.57086797,2.97424 2.91041697,3.16624 0.33954903,0.192 0.61736103,0.57094 0.61736103,0.84208 0,0.27114 0.3175,0.59375 0.705556,0.71692 0.388055,0.12316 0.705749,0.41167 0.705986,0.64113 3.52e-4,0.40997 0.259729,0.74542 2.9099861,3.76455 0.7276041,0.82887 1.3279331,1.68481 1.3340644,1.90207 0.015064,0.53361 1.6264184,2.3353 2.0885961,2.3353 0.2033375,0 0.3697005,0.21869 0.3697005,0.48598 0,0.26728 0.2409013,0.68589 0.5353367,0.93025 1.0340765,0.85821 3.6979965,6.04646 3.6979965,7.20223 0,0.95088 0.910519,2.97543 2.47027,5.49265 0.18034,0.29104 0.660767,1.29639 1.067618,2.23411 0.543818,1.25341 0.885479,1.64901 1.29007,1.49376 0.319331,-0.12254 1.331626,0.3074 2.411596,1.02424 2.177079,1.44506 3.381565,1.94792 4.689661,1.95789 1.284605,0.01 5.789221,3.40806 6.062557,4.57359 0.113076,0.48215 0.669777,1.11715 1.237117,1.41111 0.567341,0.29396 1.336859,0.90504 1.710038,1.35796 0.46967,0.57002 0.757456,0.69574 0.935012,0.40845 0.394931,-0.63901 1.833333,0.37274 1.63395,1.14931 -0.08978,0.34971 0.03787,0.61736 0.294439,0.61736 0.249121,0 0.659042,0.24833 0.910936,0.55185 0.283933,0.34211 0.759344,0.47621 1.250918,0.35283 0.713768,-0.17915 2.576583,0.94677 3.353957,2.02719 0.117687,0.16356 0.612278,0.563 1.099086,0.88762 0.486813,0.32463 1.501772,1.00283 2.255471,1.50711 0.753696,0.50429 2.560983,1.52624 4.016191,2.27101 1.455209,0.74476 3.269721,1.87998 4.03225,2.5227 0.762529,0.64272 1.576529,1.16858 1.808886,1.16858 0.23236,0 0.608933,0.22467 0.836828,0.49927 0.479615,0.5779 1.281592,0.40124 4.305751,-0.94845 1.941735,-0.86661 2.025653,-0.96433 3.614854,-4.20964 0.975162,-1.99138 1.688687,-3.98082 1.781019,-4.96583 0.0955,-1.01873 0.437512,-1.94764 0.899799,-2.44385 0.609653,-0.65438 0.70291,-1.05866 0.510999,-2.21529 -0.129114,-0.77815 -0.363263,-1.4639 -0.520334,-1.52389 -0.157074,-0.06 -0.195308,-0.66538 -0.08497,-1.34531 0.153359,-0.94503 0.0121,-1.4912 -0.599655,-2.31865 -0.693142,-0.93752 -0.750581,-1.24434 -0.429073,-2.29191 0.294146,-0.95842 0.270361,-1.24818 -0.114568,-1.39589 -0.267177,-0.10253 -0.691815,-0.0533 -0.943639,0.10943 -0.251826,0.16271 -0.854741,0.29584 -1.339811,0.29584 -0.692527,0 -0.860206,0.15888 -0.780725,0.73975 0.103628,0.75732 -0.819944,1.83412 -1.225384,1.42868 -0.123843,-0.12384 -0.03193,-0.64929 0.204258,-1.16766 0.366166,-0.80364 0.335633,-1.03471 -0.207278,-1.56858 -0.9935,-0.97696 -7.932988,-3.97998 -9.015176,-3.90127 -0.640828,0.0466 -0.970139,-0.10144 -0.970139,-0.43617 0,-0.45467 -1.862271,-1.16146 -2.574582,-0.97714 -0.154842,0.0401 -1.583592,-0.24061 -3.175,-0.62372 -1.591409,-0.38312 -4.710804,-0.94532 -6.931988,-1.24934 -2.221184,-0.30402 -4.479826,-0.77291 -5.019206,-1.04199 -0.539383,-0.26908 -1.267075,-0.41434 -1.617098,-0.32281 -0.404791,0.10586 -0.986405,-0.22639 -1.598097,-0.91291 -0.52893,-0.59364 -1.180077,-1.07934 -1.446992,-1.07934 -0.266915,0 -0.568886,-0.31962 -0.671044,-0.71027 -0.102157,-0.39065 -0.715983,-0.93226 -1.364061,-1.20359 -1.394033,-0.58362 -2.938892,-1.86058 -2.950298,-2.43867 -0.0044,-0.22548 -0.679136,-1.29752 -1.499305,-2.3823 -0.82017,-1.08479 -1.491217,-2.17653 -1.491217,-2.42609 0,-0.24957 -0.533375,-1.58452 -1.18528,-2.96656 -0.651908,-1.38204 -1.196481,-2.85423 -1.210165,-3.27154 -0.02304,-0.7023 -2.143622,-4.07771 -3.069424,-4.8857 -0.222317,-0.19403 -0.628139,-0.86326 -0.90182,-1.48719 C 15.068731,97.6597 14.302745,96.93794 13.220807,96.34907 12.301059,95.84849 11.451894,95.28254 11.333774,95.09141 11.21565,94.90029 10.593939,94.84242 9.9521939,94.96281 9.2570665,95.09322 8.6893271,95.02631 8.5477715,94.79725 8.4170885,94.58579 8.059393,94.41279 7.7528927,94.41279 c -0.3064969,0 -1.6244887,-0.87313 -2.9288669,-1.94028 -1.3043777,-1.06715 -2.5141771,-1.94028 -2.6884381,-1.94028 -0.174266,0 -0.52342,-0.33078 -0.775907,-0.73508 -0.280423,-0.44903 -0.67192903,-0.65339 -1.00608303,-0.52516 -0.391838,0.15036 -0.486615,0.0525 -0.334091,-0.34497 0.147277,-0.3838 0.02342,-0.53566 -0.401694,-0.49254 -1.07180297,0.1087 -1.49656497,-0.007 -1.49656497,-0.40944 0,-0.22008 0.269441,-0.29504 0.617361,-0.17174 0.37287897,0.13213 0.26810097,-0.0602 -0.264583,-0.4856 -0.485069,-0.3874 -1.159757,-0.79706 -1.499306,-0.91036 -0.339548,-0.11329 -0.617361,-0.40872 -0.617361,-0.65651 0,-0.24779 -0.396681,-0.91178 -0.881514,-1.47553 -0.484833,-0.56376 -0.881708,-1.42273 -0.881944,-1.90883 -3.53e-4,-0.88227 -0.241603,-1.02769 -3.345121,-2.01695 -0.67746,-0.21594 -0.68016,-0.19422 -0.08819,0.70923 0.736875,1.12461 0.777083,1.66237 0.124295,1.66237 -0.267502,0 -0.690826,-0.49361 -0.940718,-1.0969 -0.4163867,-1.00525 -0.5635927,-1.08225 -1.7617437,-0.92154 -1.513197,0.20296 -2.485233,-0.20972 -1.891788,-0.80317 0.209846,-0.20984 1.557894,-0.59384 2.995661,-0.85332 2.3847177,-0.43038 2.5135077,-0.49493 1.4675947,-0.73558 -0.63059,-0.14509 -1.146527,-0.42214 -1.146527,-0.61567 0,-0.19519 -0.2356377,-0.15632 -0.5291667,0.0873 -0.571263,0.4741 -0.700073,0.11012 -0.225718,-0.63782 0.18465,-0.29115 0.620661,-0.37911 1.1815067,-0.23834 0.617817,0.15506 0.950647,0.0621 1.091484,-0.30494 0.127179,-0.33142 0.473363,-0.45722 0.929758,-0.33787 0.413731,0.10819 0.727135,0.0204 0.727135,-0.20378 0,-0.53706 0.949142,-0.50012 1.208786,0.047 0.115087,0.24254 0.130444,-0.0842 0.03411,-0.72603 -0.09632,-0.64185 -0.415378,-1.40725 -0.70902,-1.70089 -0.293627,-0.29364 -0.53388,-0.64255 -0.53388,-0.77535 0,-0.13281 -0.487839,-0.4574 -1.084088,-0.72133 -1.144714,-0.5067 -3.0387817,-0.36277 -4.8042277,0.36506 -0.544967,0.22467 -1.189287,0.37608 -1.431822,0.33646 -0.242535,-0.0396 -0.440972,0.077 -0.440972,0.25905 0,0.19639 -0.503494,0.21753 -1.237618,0.052 -0.978074,-0.22059 -1.308743,-0.15731 -1.576773,0.30173 -0.2803,0.48007 -0.341953,0.48904 -0.355284,0.0517 -0.01434,-0.47037 -0.05413,-0.47037 -0.358103,0 -0.227983,0.35278 -0.343775,0.38218 -0.347376,0.0882 -0.003,-0.24253 -0.258708,-0.44097 -0.568305,-0.44097 -0.309596,0 -0.984283,-0.28882 -1.499305,-0.64182 -0.794826,-0.54479 -4.712031,-2.1804 -5.221947,-2.1804 -0.0912,0 -0.08546,0.13003 0.01276,0.28895 0.09822,0.15891 -0.328976,0.21804 -0.949319,0.13139 -1.119789,-0.15641 -2.362619,-1.11206 -2.362619,-1.8167 0,-0.45135 0.941938,-0.48849 1.214254,-0.0479 0.458036,0.74112 3.352921,-0.48157 3.140875,-1.32659 -0.09246,-0.36845 0.245358,-0.80014 0.924592,-1.18152 0.588653,-0.33053 1.070279,-0.44959 1.070279,-0.26459 0,0.46898 1.323328,0.42333 1.481473,-0.0511 0.167206,-0.50161 3.457416,-0.88921 3.457416,-0.40729 0,0.20974 0.61864,0.28559 1.509946,0.18513 1.642327,-0.18511 2.465074,0.11918 6.2511647,2.31198 1.673239,0.9691 2.27607,1.5131 2.230217,2.01258 -0.106235,1.15723 1.499254,1.73984 1.714498,0.62217 0.101053,-0.52472 0.557685,-0.59194 3.565239,-0.52481 2.89137697,0.0645 3.646491,0.20468 4.668103,0.86638 0.67032,0.43417 1.2207284,1.03546 1.2231304,1.3362 0.0025,0.30074 0.198829,0.74127 0.436506,0.97894 0.3409988,0.341 0.3409988,0.57808 0,1.12411 -0.237677,0.38058 -0.432138,1.17036 -0.432138,1.75508 0,0.58472 -0.160627,1.06312 -0.3569484,1.06312 -0.647855,0 0.03013,2.95782 0.8348804,3.64228 0.4162358,0.35402 1.3124148,1.15181 1.991512,1.77286 0.6790972,0.62105 1.6712847,1.40662 2.2048611,1.74571 0.5335763,0.33909 0.9701388,0.84541 0.9701388,1.12515 0,0.27974 0.3571875,0.69279 0.79375,0.91789 0.436562,0.22511 1.115353,0.70118 1.508425,1.05796 0.393072,0.35677 2.886053,1.5996 5.539962,2.76185 2.653905,1.16224 5.110427,2.36547 5.458936,2.67383 0.348505,0.30837 1.532587,1.26562 2.631292,2.12722 1.684238,1.32079 2.279205,2.12289 3.79236,5.11262 0.987094,1.95033 1.794719,3.74176 1.794719,3.98095 0,0.23919 0.635,1.20333 1.411111,2.14253 0.776111,0.9392 1.411111,1.92479 1.411111,2.19019 0,0.55499 3.365761,3.32118 4.041048,3.32118 0.247452,0 0.828509,0.28726 1.291237,0.63836 0.806069,0.6116 3.659258,1.30134 6.995364,1.6911 0.862362,0.10074 1.68614,0.25623 1.830617,0.34552 0.14448,0.0893 2.217035,0.39545 4.605683,0.68035 4.952912,0.59074 6.497376,0.96292 6.371466,1.53536 -0.04851,0.22054 0.07844,0.40098 0.282103,0.40098 0.504736,0 2.579094,-1.08082 2.83634,-1.47784 0.274832,-0.42416 3.496141,-1.38727 3.496141,-1.04529 0,0.48379 -0.837068,1.11202 -1.481667,1.11202 -0.34925,0 -0.635,0.15875 -0.635,0.35278 0,0.19402 0.451961,0.35278 1.004355,0.35278 0.552393,0 1.320761,0.27781 1.707479,0.61736 0.889575,0.78107 1.384332,2.55764 0.712276,2.55764 -0.745952,0 -2.26145,1.78989 -3.076906,3.63401 -0.469928,1.06272 -1.068412,1.81519 -1.606416,2.01974 -1.019334,0.38755 -1.166555,1.86184 -0.308286,3.08719 0.426174,0.60845 0.880495,0.77782 2.028473,0.7562 0.813618,-0.0153 1.280865,-0.10792 1.03833,-0.20578 -0.752506,-0.30365 -0.48497,-0.8247 0.423443,-0.8247 0.475428,0 0.991366,0.21507 1.146528,0.47794 0.380774,0.64508 4.186396,2.02794 4.864639,1.76768 0.297957,-0.11434 0.802132,0.008 1.120394,0.27255 0.636835,0.52875 3.459018,1.22176 6.467913,1.58826 1.067152,0.12999 2.624617,0.52772 3.461028,0.88384 0.836415,0.35612 2.582665,0.82516 3.880556,1.04231 2.780573,0.46522 9.250418,0.44709 9.724763,-0.0273 0.205144,-0.20514 0.682297,-0.0796 1.2596,0.33151 0.990272,0.70514 4.627354,1.9314 6.799874,2.29262 0.72233,0.1201 1.45236,0.46681 1.6223,0.77046 0.32602,0.58257 1.50905,0.74421 6.67756,0.91235 2.17056,0.0706 2.91042,0.21651 2.91042,0.5739 1e-5,0.35154 0.25848,0.40894 0.97015,0.21545 1.61349,-0.43868 3.04561,-0.20746 3.71828,0.60032 1.15948,1.39238 5.22449,3.51256 6.76748,3.52969 1.80803,0.0201 2.15399,0.23542 1.3534,0.84242 -0.97204,0.73699 -2.34103,0.60102 -3.7799,-0.37543 -0.7148,-0.48507 -1.50905,-0.88194 -1.76502,-0.88194 -0.25596,0 -0.89695,-0.43157 -1.42442,-0.95903 -0.83482,-0.83482 -1.26367,-0.96662 -3.3113,-1.01766 -2.24903,-0.0561 -4.24227,-0.23208 -7.9063,-0.69823 -0.92041,-0.1171 -3.05118,-0.75376 -4.73504,-1.41482 -3.2588,-1.27935 -4.18022,-1.4942 -3.13717,-0.73151 0.57098,0.41751 0.59434,0.61888 0.20773,1.79034 -0.26151,0.79237 -0.34205,1.94386 -0.20152,2.88097 0.13428,0.89543 0.0941,1.56105 -0.0941,1.56105 -0.7269,0 -1.03873,-4.76228 -0.33236,-5.07585 0.24253,-0.10766 -0.35278,-0.0835 -1.322918,0.0537 -0.970138,0.13719 -2.398888,0.25174 -3.175,0.25455 -1.603184,0.006 -2.324047,0.63638 -2.223886,1.94538 0.03712,0.48507 -0.119189,1.22342 -0.347348,1.64078 -0.228156,0.41735 -0.515797,1.60798 -0.639202,2.64583 -0.123402,1.03785 -0.353011,2.13319 -0.51024,2.43408 -0.397768,0.76123 -0.372279,6.94087 0.03503,8.48855 0.184474,0.70099 0.7138,1.83212 1.176281,2.51362 1.552663,2.28798 0.783251,3.32232 -2.958673,3.9774 -1.615991,0.28291 -11.162397,0.41803 -12.519303,0.17721 z m 1.824178,-1.12973 c -0.112613,-0.28142 -0.196207,-0.19783 -0.213134,0.21314 -0.01531,0.37188 0.06806,0.58024 0.185286,0.46302 0.117225,-0.11722 0.129755,-0.4215 0.02783,-0.67616 z m 6.814531,-1.80571 c 1.130434,-0.42669 1.412755,-0.95036 0.51236,-0.95036 -0.300305,0 -0.903658,0.3859 -1.340781,0.85757 -0.437123,0.47166 -1.262983,0.98065 -1.835238,1.13108 l -1.040469,0.2735 1.058333,0.20233 c 0.821027,0.15696 1.117653,0.0547 1.322878,-0.45615 0.145503,-0.36217 0.740816,-0.83825 1.322917,-1.05797 z m 1.683081,1.10016 c -0.218041,-0.65413 -0.977487,-0.76262 -0.977487,-0.13964 0,0.30721 0.251354,0.55856 0.558564,0.55856 0.307213,0 0.495727,-0.18852 0.418923,-0.41892 z m -5.835226,-2.05052 c 0.214069,0 0.291747,-0.0975 0.172614,-0.21661 -0.119133,-0.11914 -0.644285,0.1198 -1.167003,0.53097 -0.727032,0.57189 -1.063036,0.65409 -1.429688,0.3498 -0.367101,-0.30467 -0.479295,-0.27575 -0.479295,0.12355 0,0.28673 0.515938,0.67064 1.146528,0.85312 1.087205,0.31462 1.152246,0.28075 1.257074,-0.65452 0.0608,-0.54247 0.285697,-0.98631 0.49977,-0.98631 z m -6.783927,1.21708 c 0,-0.20373 -0.555625,-0.37042 -1.234722,-0.37042 -1.121491,0 -1.483783,0.19779 -1.08773,0.59384 0.317778,0.31778 2.322452,0.12493 2.322452,-0.22342 z m -2.822222,-0.15875 c 0,-0.19403 -0.228755,-0.35278 -0.508346,-0.35278 -0.27959,0 -0.60646,0.15875 -0.726376,0.35278 -0.119917,0.19403 0.108839,0.35278 0.508345,0.35278 0.399507,0 0.726377,-0.15875 0.726377,-0.35278 z m 11.913598,-0.28663 c 0.211652,-0.63495 -0.517525,-0.50153 -0.763595,0.13972 -0.131843,0.34357 -0.053,0.50485 0.204791,0.41892 0.230541,-0.0768 0.482004,-0.32824 0.558804,-0.55864 z m 6.960012,0.28663 c -0.119916,-0.19403 -0.367411,-0.35278 -0.549987,-0.35278 -0.182577,0 -0.331957,0.15875 -0.331957,0.35278 0,0.19403 0.247495,0.35278 0.549987,0.35278 0.302493,0 0.451874,-0.15875 0.331957,-0.35278 z m -22.77899,-1.01195 c 0.365865,-0.68363 0.18471,-1.1049 -0.474945,-1.10447 -0.210196,1.4e-4 -0.40507,0.39701 -0.433049,0.88195 -0.06001,1.03997 0.408996,1.15491 0.907994,0.22252 z m 4.614153,-0.13923 c 0.292809,0.0199 0.689684,0.0677 0.881944,0.1063 0.78564,0.15755 1.231505,-0.0434 1.231505,-0.55503 0,-0.42613 -0.145464,-0.46373 -0.682364,-0.17639 -1.101157,0.58932 -1.637951,0.44546 -0.940946,-0.25217 0.339241,-0.33955 0.999204,-1.25236 1.466578,-2.02848 l 0.849778,-1.41111 -0.214231,1.14653 c -0.138466,0.74105 -0.07387,1.14653 0.182643,1.14653 0.218282,0 0.396875,-0.33236 0.396875,-0.73858 0,-0.42701 0.28067,-0.81198 0.665311,-0.91257 0.365919,-0.0957 0.845467,-0.51739 1.065664,-0.93711 0.356344,-0.67923 0.374516,-0.64678 0.165283,0.2952 -0.318071,1.43202 -0.434297,3.45981 -0.219523,3.83003 0.360472,0.62134 0.705605,-0.61062 0.435201,-1.55347 -0.19577,-0.68261 -0.11968,-1.21089 0.250546,-1.73946 0.292439,-0.41751 0.449005,-0.84181 0.347928,-0.94289 -0.188832,-0.18883 0.77786,-1.46282 2.085417,-2.74834 0.742326,-0.72981 1.383792,-2.44271 1.238246,-3.30648 -0.04294,-0.25487 0.163471,-1.128 0.4587,-1.94028 0.538441,-1.48147 0.558126,-3.0584 0.05256,-4.21091 -0.402993,-0.91868 -0.815757,-0.74972 -1.077274,0.44097 -0.223076,1.01566 -0.881945,1.49883 -0.881945,0.64676 0,-0.59831 -0.469529,-0.0356 -0.570138,0.68334 -0.04697,0.3356 -0.238682,1.20549 -0.426032,1.93309 -0.499904,1.94145 0.116614,1.61633 0.668969,-0.35277 0.415745,-1.48211 0.494887,-1.57381 0.685048,-0.79375 l 0.215001,0.88194 0.259912,-1.01177 c 0.142949,-0.55647 0.338709,-0.93297 0.435018,-0.83666 0.216006,0.21601 -0.445047,3.09201 -1.175195,5.11286 -0.4907,1.35812 -0.586726,1.44183 -1.011706,0.88194 -0.380408,-0.50116 -0.472705,-0.51813 -0.486171,-0.0894 -0.01478,0.47037 -0.05778,0.47037 -0.387106,0 -0.294033,-0.41997 -0.326849,-0.37304 -0.159011,0.22742 0.127455,0.45599 -0.0035,0.97156 -0.329671,1.29771 -0.297628,0.29763 -0.54114,0.65281 -0.54114,0.78929 0,0.62066 -1.532974,2.64372 -1.800539,2.37616 -0.350957,-0.35096 2.036438,-5.39613 2.553473,-5.39613 0.192556,0 0.300358,-0.51594 0.239557,-1.14653 -0.08432,-0.87449 -0.277954,-1.14653 -0.816102,-1.14653 -0.572551,0 -0.684149,-0.19733 -0.591993,-1.04679 0.06246,-0.57574 0.272884,-1.29011 0.467611,-1.5875 0.312547,-0.47733 0.334073,-0.47493 0.183659,0.0205 -0.229686,0.75646 0.340896,1.65929 0.758254,1.19978 0.424465,-0.46732 1.169292,-4.39883 0.912174,-4.81486 -0.111619,-0.1806 -0.01905,-0.54994 0.205694,-0.82075 0.511972,-0.61689 0.328394,-2.47533 -0.244518,-2.47533 -0.234184,0 -0.665698,-0.3175 -0.95892,-0.70555 -0.526172,-0.69635 -0.53328,-0.69505 -0.544354,0.0993 -0.0062,0.44266 0.226117,0.8959 0.516192,1.00721 0.526894,0.20219 0.523811,0.60553 -0.03267,4.27339 -0.174727,1.15167 -0.84753,1.62523 -0.84753,0.59654 0,-0.30249 -0.15875,-0.45187 -0.352778,-0.33196 -0.194028,0.11992 -0.352778,0.66123 -0.352778,1.2029 0,0.54168 -0.176802,1.49205 -0.392896,2.11194 -0.322943,0.92639 -0.291539,1.23906 0.176389,1.75611 0.63929,0.70639 0.750715,1.45543 0.216518,1.45543 -0.194028,0 -0.352778,0.38941 -0.352778,0.86535 0,1.01612 -0.689434,2.66243 -1.114961,2.66243 -0.162881,0 -0.29615,0.23024 -0.29615,0.51164 0,0.2814 -0.277813,0.68749 -0.617361,0.90242 -0.384098,0.24313 -0.468263,0.45496 -0.222755,0.56064 0.286752,0.12343 0.274109,0.52036 -0.04625,1.45223 -0.304726,0.8864 -1.025709,1.70473 -2.334885,2.65017 -1.620061,1.16995 -1.74094,1.33031 -0.835692,1.10861 0.582084,-0.14255 1.297905,-0.2429 1.590718,-0.223 z m 6.346782,-8.02104 c 0,-0.19403 0.16812,-0.35278 0.373599,-0.35278 0.205479,0 0.275484,0.15875 0.155568,0.35278 -0.119916,0.19402 -0.288036,0.35277 -0.373599,0.35277 -0.08556,0 -0.155568,-0.15875 -0.155568,-0.35277 z m 1.360579,7.7998 c 0.27588,-0.1748 0.335256,-0.39189 0.140166,-0.51246 -0.186157,-0.11505 -0.639667,0.0188 -1.007801,0.29746 -0.514731,0.38962 -0.547109,0.50799 -0.140166,0.51246 0.291042,0.003 0.744552,-0.13065 1.007801,-0.29746 z m 3.225532,-0.53483 c 0,-0.32917 -0.247491,-0.43142 -0.735376,-0.30384 -0.559103,0.14621 -0.622525,0.26384 -0.264583,0.49074 0.685557,0.43457 0.999959,0.37581 0.999959,-0.1869 z m 5.997222,0.14336 c 0,-0.19403 -0.15875,-0.35278 -0.352778,-0.35278 -0.194027,0 -0.352777,0.15875 -0.352777,0.35278 0,0.19403 0.15875,0.35278 0.352777,0.35278 0.194028,0 0.352778,-0.15875 0.352778,-0.35278 z m -3.245541,-1.00762 c 0.537711,-1.54248 -0.07278,-2.13088 -0.767013,-0.73926 -0.70236,1.40791 -0.71767,1.74688 -0.0789,1.74688 0.272062,0 0.652723,-0.45343 0.845915,-1.00762 z m -19.685014,0.30206 c 0,-0.19402 -0.238125,-0.35277 -0.529166,-0.35277 -0.291042,0 -0.529167,0.15875 -0.529167,0.35277 0,0.19403 0.238125,0.35278 0.529167,0.35278 0.291041,0 0.529166,-0.15875 0.529166,-0.35278 z m 21.872222,-0.43371 c 0,-0.20649 -0.224159,-0.1722 -0.529167,0.0809 -0.291041,0.24154 -0.529166,0.49412 -0.529166,0.56129 0,0.0672 0.238125,0.0307 0.529166,-0.0809 0.291042,-0.11169 0.529167,-0.36427 0.529167,-0.56129 z m -24.975188,-0.36004 c 0.0682,-0.44698 0.331202,-0.74818 0.602019,-0.68945 0.546724,0.11857 2.153712,-1.26591 2.137442,-1.84148 -0.0059,-0.20872 -0.172537,-0.10167 -0.370308,0.23788 -0.197767,0.33955 -0.637441,0.61736 -0.977049,0.61736 -0.339609,0 -0.807971,0.1905 -1.040804,0.42333 -0.232833,0.23284 -0.423333,0.28761 -0.423333,0.12171 0,-0.16589 -0.306794,-0.024 -0.681765,0.31537 -0.720277,0.65185 -0.62164,1.60903 0.165806,1.60903 0.256787,0 0.521384,-0.35718 0.587992,-0.79375 z m 16.508521,0.44098 c 0,-0.19403 -0.396875,-0.35278 -0.881944,-0.35278 -0.485069,0 -0.881944,0.15875 -0.881944,0.35278 0,0.19402 0.396875,0.35277 0.881944,0.35277 0.485069,0 0.881944,-0.15875 0.881944,-0.35277 z m -19.59817,-1.85209 c 0.04978,-1.14163 -0.154407,-1.19492 -1.232767,-0.32171 -0.917265,0.74275 -0.713359,1.39162 0.418676,1.3323 0.585689,-0.0307 0.781985,-0.27437 0.814091,-1.01059 z m 7.956504,0.92027 c 0,-0.0419 -0.258755,-0.33488 -0.575017,-0.65114 -0.531502,-0.5315 -0.491458,-0.6567 0.529167,-1.65455 0.607303,-0.59375 1.104184,-1.25489 1.104184,-1.46919 0,-0.2143 -0.607699,0.22906 -1.350444,0.98526 -1.471846,1.4985 -1.667708,3.01337 -0.377035,2.91614 0.368028,-0.0277 0.669145,-0.0847 0.669145,-0.12652 z m 4.50039,-1.03539 c -0.347201,-0.3472 -0.972612,0.18581 -0.972612,0.8289 0,0.53851 0.0464,0.53754 0.596364,-0.0124 0.327998,-0.328 0.49731,-0.69542 0.376248,-0.81648 z m 11.244184,0.4679 c -0.116995,-0.43656 -0.214887,-0.99219 -0.217537,-1.23472 -0.0075,-0.69049 -0.64481,-0.51709 -1.078621,0.2935 -0.31931,0.59663 -0.271988,0.82624 0.252169,1.2235 0.940093,0.71249 1.285547,0.61909 1.043989,-0.28228 z m 6.015856,0.022 c -0.112614,-0.28142 -0.196208,-0.19783 -0.213134,0.21314 -0.01531,0.37188 0.06806,0.58024 0.185286,0.46302 0.117224,-0.11723 0.129755,-0.4215 0.02783,-0.67616 z m -9.85665,-0.19103 c 0.229634,-0.6889 -1.312446,-0.76972 -1.677345,-0.0879 -0.301995,0.56428 -0.222515,0.63627 0.605081,0.54804 0.524009,-0.0559 1.006528,-0.26293 1.072264,-0.46014 z m 9.262886,0.0808 c 0,-0.29105 -0.06239,-0.52917 -0.138645,-0.52917 -0.07626,0 -0.230022,0.23812 -0.341708,0.52917 -0.111682,0.29104 -0.04929,0.52916 0.138646,0.52916 0.187938,0 0.341707,-0.23812 0.341707,-0.52916 z m -18.256249,-1.52879 c 0.533576,-0.49293 0.975765,-0.74747 0.982641,-0.56565 0.01813,0.47911 1.018459,-1.34734 1.033329,-1.88668 0.0095,-0.34593 -0.156461,-0.36296 -0.700345,-0.0719 -0.392064,0.20983 -0.857346,0.2922 -1.033957,0.18305 -0.176611,-0.10915 -0.420825,-0.0371 -0.542696,0.16008 -0.12187,0.19719 0.04535,0.35853 0.371599,0.35853 0.487274,0 0.51477,0.0945 0.154012,0.52916 -0.241543,0.29105 -0.584066,0.52917 -0.761164,0.52917 -0.696369,0 -2.008162,1.13847 -1.834187,1.59185 0.236785,0.61705 1.097982,0.31125 2.330768,-0.82762 z m -9.260417,0.64688 c 0,-0.19403 -0.238125,-0.35278 -0.529166,-0.35278 -0.291042,0 -0.529167,0.15875 -0.529167,0.35278 0,0.19403 0.238125,0.35278 0.529167,0.35278 0.291041,0 0.529166,-0.15875 0.529166,-0.35278 z m 11.994444,-0.3736 c 0,-0.18257 -0.15875,-0.33195 -0.352777,-0.33195 -0.194028,0 -0.352778,0.24749 -0.352778,0.54998 0,0.3025 0.15875,0.45188 0.352778,0.33196 0.194027,-0.11992 0.352777,-0.36741 0.352777,-0.54999 z m 13.157958,-2.33059 c -0.09937,-0.25894 -0.374314,-0.47081 -0.610993,-0.47081 -0.27747,0 -0.375151,-0.37592 -0.274994,-1.05833 0.244426,-1.66537 -0.425009,-1.23544 -0.961284,0.61736 -0.266753,0.92163 -0.552076,1.86255 -0.634047,2.09093 -0.09611,0.26776 0.111428,0.34712 0.584383,0.22344 0.612803,-0.16026 0.738117,-0.0255 0.761979,0.81949 0.02794,0.9893 0.04254,0.98126 0.672087,-0.37 0.353946,-0.7597 0.562233,-1.59314 0.462869,-1.85208 z m -22.791793,1.73405 c 0.121991,-0.33955 0.540368,-0.92603 0.929729,-1.3033 0.476496,-0.46169 0.567929,-0.7326 0.279682,-0.82868 -0.545857,-0.18195 -2.609773,1.95245 -2.328326,2.40785 0.330916,0.53543 0.875696,0.40112 1.118915,-0.27587 z m 17.776525,-0.34033 c 0.177461,-0.46676 0.467377,-0.75921 0.64426,-0.64989 0.530673,0.32797 1.497923,-0.21148 1.300702,-0.72542 -0.100901,-0.26294 0.08543,-0.94658 0.414073,-1.51921 0.680763,-1.18615 0.394445,-1.78067 -0.505082,-1.04875 -0.540212,0.43955 -0.574019,0.41699 -0.321282,-0.21431 0.555128,-1.38663 0.631998,-1.94028 0.269399,-1.94028 -0.366607,0 -1.478093,1.92394 -1.478093,2.55852 0,0.73312 -1.273094,2.95206 -2.109957,3.67756 l -0.888654,0.77039 1.175988,-0.03 c 0.902727,-0.023 1.250964,-0.22719 1.498646,-0.87864 z m -18.039979,-1.59995 c 1.308707,-1.39632 1.436599,-2.13424 0.163509,-0.94343 -0.901495,0.84323 -1.742017,2.08996 -1.409012,2.08996 0.09401,0 0.65448,-0.51593 1.245503,-1.14653 z m 24.98539,0.59886 c 0.326739,-0.58385 0.153077,-2.62733 -0.22328,-2.62733 -0.123497,0 -0.245897,0.35719 -0.271999,0.79375 -0.02611,0.43657 -0.163678,1.15094 -0.305728,1.5875 -0.297236,0.9135 0.32118,1.10348 0.801007,0.24608 z m -13.541523,-2.74863 c 0.586828,-2.05202 0.6148,-2.45579 0.188585,-2.72225 -0.326553,-0.20415 -0.522923,-0.16287 -0.565143,0.11881 -0.409417,2.73154 -0.540862,3.12369 -0.989355,2.95159 -0.265021,-0.1017 -0.67165,0.0438 -0.903623,0.32329 -0.338871,0.40831 -0.304598,0.5082 0.174368,0.5082 0.444327,0 0.53649,0.18793 0.361911,0.73798 -0.185455,0.58431 -0.101124,0.71235 0.405003,0.61488 0.453489,-0.0873 0.839442,-0.82321 1.328254,-2.5325 z m -6.777827,1.65413 c 0.354827,-0.32112 0.645139,-0.95612 0.645139,-1.41112 0,-0.45499 0.15875,-0.82726 0.352777,-0.82726 0.194028,0 0.353755,0.19843 0.354951,0.44097 0.0011,0.24253 0.239321,-0.0137 0.529167,-0.56949 0.289846,-0.55576 0.526993,-1.20606 0.526993,-1.44511 0,-0.60605 1.054799,-2.65971 1.366079,-2.65971 0.275015,0 1.103366,-2.07137 1.103366,-2.75907 0,-0.22876 -0.224896,-0.41593 -0.49977,-0.41593 -0.27487,0 -0.570639,-0.19843 -0.657257,-0.44097 -0.08662,-0.24253 -0.28122,-0.32574 -0.432449,-0.18491 -0.151225,0.14083 -0.09923,0.46779 0.115546,0.72658 0.652885,0.78668 -0.982554,4.87601 -2.213522,5.5348 -0.457627,0.24492 -0.92523,0.96518 -1.113342,1.71491 -0.22503,0.89689 -0.499544,1.26374 -0.896627,1.19821 -0.314763,-0.052 -0.671537,0.16417 -0.792829,0.48025 -0.156066,0.4067 -0.06993,0.5169 0.294671,0.37699 0.345677,-0.13265 0.450656,-0.0295 0.319035,0.3135 -0.261451,0.68133 0.202233,0.64758 0.998072,-0.0726 z m 1.850192,-0.348 c 0.185798,-0.48418 0.134176,-0.50601 -0.315034,-0.1332 -0.612154,0.50805 -0.675866,0.71226 -0.222208,0.71226 0.173271,0 0.415029,-0.26058 0.537242,-0.57906 z m 19.608835,-1.02926 c 0,-0.30249 -0.16134,-0.45027 -0.358532,-0.3284 -0.197192,0.12187 -0.267201,0.36937 -0.155568,0.54999 0.302412,0.48931 0.5141,0.39808 0.5141,-0.22159 z m -23.461549,-0.0273 c 0.817795,-0.31382 1.357919,-1.85002 0.860986,-2.44879 -0.453595,-0.54653 -0.153134,-1.20726 0.549,-1.20726 0.266516,0 0.594719,-0.34704 0.729346,-0.7712 0.284403,-0.89608 0.259571,-3.98975 -0.03959,-4.93233 -0.11285,-0.35555 -0.04716,-0.64647 0.14598,-0.64647 0.21022,0 0.320837,-1.14052 0.275607,-2.84163 -0.05224,-1.96494 0.06443,-2.95782 0.378167,-3.2182 0.496514,-0.41207 0.619432,-1.3485 0.177007,-1.3485 -0.152196,0 -0.560201,0.4799 -0.906678,1.06644 -0.627256,1.06186 -1.381354,6.38861 -1.032954,7.29653 0.115566,0.30116 -0.0091,0.39259 -0.354524,0.26004 -0.293018,-0.11245 -0.644091,-0.0243 -0.780158,0.19586 -0.435314,0.70435 0.125504,0.82038 1.046963,0.21662 0.874074,-0.57272 0.892955,-0.56626 0.892955,0.30499 0,0.48954 -0.15875,0.89008 -0.352778,0.89008 -0.194028,0 -0.352778,0.24749 -0.352778,0.54998 0,0.3025 0.15875,0.45188 0.352778,0.33196 0.394483,-0.2438 0.446719,0.31936 0.136807,1.47491 -0.247978,0.92462 -1.2056,1.37203 -1.593454,0.74447 -0.153085,-0.2477 -0.207226,0.30821 -0.120315,1.23535 0.119348,1.27318 0.02949,1.73502 -0.367231,1.88725 -0.28889,0.11086 -0.525251,0.4227 -0.525251,0.69299 0,0.55781 0.06818,0.57849 0.880117,0.26692 z m 4.764327,0.0689 c 0,-0.0856 -0.15875,-0.25368 -0.352778,-0.3736 -0.194027,-0.11991 -0.352777,-0.0499 -0.352777,0.15557 0,0.20548 0.15875,0.3736 0.352777,0.3736 0.194028,0 0.352778,-0.07 0.352778,-0.15557 z m -6.378772,-1.38537 c 0.767284,-1.2415 0.934931,-1.98684 0.446888,-1.98684 -0.235006,0 -0.866821,1.04407 -1.761229,2.91042 -0.06974,0.14552 0.03224,0.26458 0.226611,0.26458 0.194369,0 0.683849,-0.53467 1.08773,-1.18816 z m 8.502141,-0.76019 c 0.372809,-0.44921 0.350986,-0.50083 -0.133194,-0.31503 -0.318485,0.12221 -0.579064,0.36397 -0.579064,0.53724 0,0.45366 0.204213,0.38994 0.712258,-0.22221 z m 12.98351,-0.99006 c 0.07937,-0.40927 -0.05409,-0.52246 -0.440972,-0.37399 -0.652163,0.25025 -0.762462,1.32368 -0.113824,1.10771 0.242535,-0.0808 0.492192,-0.41093 0.554796,-0.73372 z m 3.711596,-0.51658 c -0.111951,-0.42809 -0.343778,-0.77834 -0.515176,-0.77834 -0.482025,0 -0.367901,1.33222 0.129339,1.5098 0.595821,0.2128 0.620519,0.16597 0.385837,-0.73146 z M 71.851801,146.7625 c 0,-0.68908 -0.263652,-0.61157 -0.701308,0.20619 -0.304599,0.56916 -0.274405,0.65965 0.163978,0.49143 0.295533,-0.11341 0.53733,-0.42733 0.53733,-0.69762 z m 3.175,0.0208 c 0,-0.41677 -0.667011,-0.41598 -0.827013,0.001 -0.130334,0.33965 -0.02519,0.44386 0.315813,0.31301 0.281161,-0.10796 0.5112,-0.24925 0.5112,-0.31406 z m 11.796278,-1.1296 c 0.633991,-1.31447 1.296543,-3.2632 1.109461,-3.2632 -0.824014,0 -2.927737,3.86319 -2.394242,4.39668 0.392243,0.39225 0.664922,0.15168 1.284781,-1.13348 z m 2.605282,-0.20563 c 0.07559,-0.38975 -0.122114,-0.58812 -0.586144,-0.58812 -0.635498,0 -0.700832,0.20225 -0.436852,1.35231 0.08305,0.36185 0.92686,-0.26848 1.022996,-0.76419 z m 1.29705,-0.23534 c 0.119917,-0.19403 0.04991,-0.35278 -0.155567,-0.35278 -0.205479,0 -0.373599,0.15875 -0.373599,0.35278 0,0.19402 0.07001,0.35277 0.155568,0.35277 0.08556,0 0.253682,-0.15875 0.373598,-0.35277 z m -14.640277,-1.12889 c 0,-0.56989 -0.10432,-0.67179 -0.392596,-0.38352 -0.215924,0.21593 -0.285933,0.56518 -0.155567,0.77611 0.364909,0.59044 0.548163,0.45919 0.548163,-0.39259 z m 1.629668,-0.9956 c 0.206269,-1.28993 0.839777,-2.34854 0.839777,-1.40329 0,0.21693 0.165396,0.29219 0.367552,0.16726 0.350618,-0.2167 0.140102,-4.35897 -0.241057,-4.74316 -0.415551,-0.41885 -0.848236,1.0174 -0.714294,2.37104 0.103364,1.04462 0.01439,1.4993 -0.293384,1.4993 -0.424762,0 -0.882706,1.48703 -0.882706,2.86632 0,1.23792 0.696302,0.66718 0.924112,-0.75747 z m -9.038001,0.91058 c 0,-0.0856 -0.15875,-0.25368 -0.352778,-0.37359 -0.194027,-0.11992 -0.352777,-0.0499 -0.352777,0.15556 0,0.20548 0.15875,0.3736 0.352777,0.3736 0.194028,0 0.352778,-0.07 0.352778,-0.15557 z m 4.004063,-1.60832 c 0.201288,-1.14633 0.179373,-1.18569 -0.306126,-0.54993 -0.287617,0.37663 -0.522937,1.08307 -0.522937,1.56986 0,1.21016 0.558017,0.52368 0.829063,-1.01993 z m 17.338992,1.41111 c -0.119916,-0.19402 -0.367411,-0.35277 -0.549988,-0.35277 -0.182576,0 -0.331956,0.15875 -0.331956,0.35277 0,0.19403 0.247494,0.35278 0.549987,0.35278 0.302493,0 0.451873,-0.15875 0.331957,-0.35278 z m 3.059059,-1.5407 c 0.125635,-0.71385 -0.913765,-1.60413 -1.356229,-1.16166 -0.149207,0.1492 -0.0605,0.40156 0.197132,0.56078 0.293656,0.18149 0.335107,0.37189 0.111097,0.51034 -0.196525,0.12146 -0.27112,0.55047 -0.165767,0.95335 0.158292,0.6053 0.270253,0.65119 0.644695,0.26423 0.249223,-0.25755 0.505308,-0.76472 0.569072,-1.12704 z m -3.946404,-0.48777 c 0.003,-0.24253 -0.153349,-0.44097 -0.347377,-0.44097 -0.194028,0 -0.350347,0.43656 -0.347377,0.97014 0.0042,0.75598 0.0809,0.85332 0.347377,0.44097 0.188087,-0.29104 0.344406,-0.7276 0.347377,-0.97014 z M 88.079578,141.026 c 0,-0.33952 -0.249908,-0.92547 -0.55535,-1.3021 -0.536,-0.66093 -0.54846,-0.65405 -0.357593,0.19716 0.108765,0.48507 0.199923,1.16913 0.202572,1.52013 0.0028,0.351 0.163566,0.54006 0.357593,0.42015 0.194028,-0.11992 0.352778,-0.49582 0.352778,-0.83534 z m -1.763889,-0.88025 c 0,-1.10365 -1.585482,-4.08803 -2.458423,-4.62754 -0.754698,-0.46643 -0.801335,0.118 -0.08933,1.1194 0.387318,0.54475 0.899019,1.70483 1.137109,2.57795 0.238093,0.87313 0.493017,1.796 0.566501,2.05083 0.243028,0.84278 0.844147,0.0448 0.844147,-1.12064 z m -10.93611,0.8337 c 0,-0.19403 -0.15875,-0.35278 -0.352778,-0.35278 -0.194028,0 -0.352778,0.15875 -0.352778,0.35278 0,0.19403 0.15875,0.35278 0.352778,0.35278 0.194028,0 0.352778,-0.15875 0.352778,-0.35278 z m 8.806941,-0.79375 c -0.0069,-0.63059 -0.239373,-1.5434 -0.516664,-2.02847 -0.498048,-0.87124 -0.504317,-0.8641 -0.516664,0.58851 -0.0069,0.80875 0.08385,1.72156 0.20163,2.02847 0.365697,0.95299 0.844811,0.61397 0.831698,-0.58851 z m 6.71528,0.30233 c 0,-0.56054 -0.953442,-1.02615 -1.460076,-0.71304 -0.436848,0.26999 0.318907,1.20446 0.974104,1.20446 0.267285,0 0.485972,-0.22114 0.485972,-0.49142 z m -13.627907,-0.65511 c 0.116995,-0.43656 0.214888,-1.22094 0.217537,-1.74306 0.0028,-0.52213 0.163565,-1.04744 0.357593,-1.16735 0.514992,-0.31829 0.431073,-0.88195 -0.1313,-0.88195 -0.296933,0 -0.576224,0.57964 -0.722426,1.49931 -0.131088,0.82462 -0.327339,1.85649 -0.436107,2.29305 -0.108772,0.43657 -0.04032,0.79375 0.152111,0.79375 0.192433,0 0.4456,-0.35718 0.562592,-0.79375 z m 16.800156,-0.70555 c -0.0018,-0.50379 -0.329622,-0.9454 -0.897516,-1.20888 -0.832189,-0.3861 -0.877747,-0.36152 -0.651468,0.35142 0.197143,0.62115 1.060626,1.58873 1.463541,1.63999 0.04851,0.006 0.08696,-0.34597 0.08544,-0.78253 z m -20.838248,-3.175 c 0.01697,-0.60765 -0.156764,-0.97014 -0.465,-0.97014 -0.540173,0 -0.909591,2.36088 -0.607208,3.88056 0.159466,0.80143 0.21518,0.75312 0.610292,-0.52917 0.239141,-0.77611 0.447004,-1.84767 0.461916,-2.38125 z m 1.577361,1.24257 c 0.121511,-0.12151 0.460478,0.085 0.753262,0.45888 0.483873,0.61792 0.517842,0.42289 0.373161,-2.14242 -0.187939,-3.33237 -0.125606,-2.99861 -0.560006,-2.99861 -0.194028,0 -0.352778,0.39687 -0.352778,0.88194 0,1.12184 -0.562324,1.14787 -0.840655,0.0389 -0.188225,-0.74994 -1.165003,-1.50224 -1.50676,-1.16048 -0.07137,0.0714 0.268852,0.71716 0.756049,1.43509 1.025539,1.51122 1.112805,2.63395 0.323377,4.16053 -0.46451,0.89827 -0.479866,1.13894 -0.08819,1.38233 0.345518,0.2147 0.534956,0.006 0.697929,-0.77028 0.123028,-0.58572 0.323105,-1.16438 0.444616,-1.28589 z m 0.213639,-0.8016 c 0,-0.19403 0.15875,-0.35278 0.352778,-0.35278 0.194027,0 0.352777,0.15875 0.352777,0.35278 0,0.19403 -0.15875,0.35278 -0.352777,0.35278 -0.194028,0 -0.352778,-0.15875 -0.352778,-0.35278 z m 11.802342,0.96821 c -0.251389,-0.65512 -1.219009,-1.11643 -1.219009,-0.58117 0,0.2007 0.173457,0.68901 0.385459,1.08514 0.443526,0.82874 1.175205,0.38636 0.83355,-0.50397 z m 1.37807,0.18731 c -0.10844,-0.41466 -0.421516,-0.84003 -0.695723,-0.94525 -0.406753,-0.15609 -0.395563,0.008 0.06078,0.89032 0.618391,1.19585 0.94059,1.22372 0.634947,0.0549 z m 3.745075,0.52018 c -0.0078,-0.43804 -1.380412,-2.3984 -1.39542,-1.99292 -0.0043,0.11656 0.166434,0.71187 0.379445,1.32291 0.382538,1.09736 1.031187,1.52512 1.015975,0.67001 z m 6.602536,0.0155 c 0.647202,-0.23404 1.122105,-0.58939 1.055338,-0.78968 -0.149084,-0.44726 -3.586748,-1.55595 -4.916001,-1.58548 -1.105189,-0.0246 -1.318041,0.65908 -0.288995,0.92818 0.390913,0.10222 0.60326,0.38108 0.498358,0.65445 -0.153839,0.4009 0.727001,0.85065 2.323229,1.18622 0.08324,0.0175 0.680872,-0.15966 1.328071,-0.39369 z m -8.711357,-0.26037 c 0,-0.1832 -0.391858,-0.77852 -0.870797,-1.32291 -0.975518,-1.10885 -1.20288,-0.55584 -0.323352,0.78649 0.573652,0.8755 1.194149,1.15424 1.194149,0.53642 z m 13.758333,-0.37245 c -0.29104,-0.18808 -0.68792,-0.34197 -0.88195,-0.34197 -0.19402,0 -0.11465,0.15389 0.17639,0.34197 0.29105,0.18809 0.68792,0.34198 0.88195,0.34198 0.19403,0 0.11465,-0.15389 -0.17639,-0.34198 z m -10.936111,-0.7056 c 0,-0.19403 -0.15875,-0.35278 -0.352778,-0.35278 -0.194027,0 -0.352777,0.15875 -0.352777,0.35278 0,0.19403 0.15875,0.35278 0.352777,0.35278 0.194028,0 0.352778,-0.15875 0.352778,-0.35278 z m -10.144213,-0.88195 c -0.165671,-0.86665 -0.464865,-1.09138 -0.888728,-0.66752 -0.232512,0.23252 0.480011,1.54947 0.838323,1.54947 0.120449,0 0.143133,-0.39688 0.0504,-0.88195 z m -2.555786,-0.69314 c 0,-0.49863 -0.291067,-1.02531 -0.682364,-1.23472 -0.997497,-0.53384 -1.157101,-0.45662 -0.885734,0.42856 0.527319,1.72007 1.568098,2.25513 1.568098,0.80616 z m -10.054167,-1.59991 c 0.119917,-0.19403 0.04991,-0.35278 -0.155568,-0.35278 -0.205479,0 -0.373598,0.15875 -0.373598,0.35278 0,0.19403 0.07001,0.35278 0.155568,0.35278 0.08556,0 0.253682,-0.15875 0.373598,-0.35278 z m 0.417375,-1.83004 c -0.112613,-0.28142 -0.196208,-0.19783 -0.213134,0.21314 -0.01531,0.37189 0.06806,0.58025 0.185286,0.46302 0.117225,-0.11723 0.129755,-0.4215 0.02783,-0.67616 z m -2.004875,-0.26581 c 0,-0.41623 -0.68804,-0.86148 -0.940741,-0.60878 -0.252699,0.2527 0.192556,0.94074 0.608785,0.94074 0.182576,0 0.331956,-0.14938 0.331956,-0.33196 z m -9.110048,-6.43868 c -0.713292,-0.13434 -1.773146,-0.24591 -2.355229,-0.24794 -0.967888,-0.004 -0.892521,0.0824 0.881944,1.00358 l 1.940278,1.00727 0.414951,-0.75933 c 0.383854,-0.70242 0.317751,-0.77763 -0.881944,-1.00358 z m -6.267905,-1.29128 c 0.102249,-0.16544 -0.04208,-0.602 -0.320738,-0.97014 -0.463536,-0.61238 -0.507602,-0.6168 -0.517867,-0.052 -0.0062,0.33955 -0.249344,0.61736 -0.540385,0.61736 -0.291042,0 -0.529167,0.15875 -0.529167,0.35278 0,0.42901 1.647402,0.47388 1.908157,0.052 z m 9.735703,-1.1156 c 0.230199,-0.55575 0.314689,-1.17849 0.187752,-1.38388 -0.126933,-0.20538 0.214962,-0.7606 0.759771,-1.23381 0.911853,-0.79203 0.945462,-0.90626 0.423001,-1.43756 -0.388482,-0.39504 -1.11199,-0.56207 -2.293055,-0.52934 -4.958648,0.13738 -4.945595,0.13507 -5.32789,0.94514 -0.285196,0.60433 -0.252885,0.82443 0.143355,0.97648 0.615463,0.23617 1.871539,-0.378 1.871539,-0.91512 0,-0.2662 0.134927,-0.27195 0.440972,-0.0188 0.242535,0.20062 0.915864,0.41849 1.496289,0.48416 0.593598,0.0672 1.099602,0.35349 1.156536,0.65442 0.124277,0.65689 -3.397147,1.40527 -6.612304,1.40527 -1.267318,0 -2.125937,0.1516 -2.125937,0.37535 0,0.20644 0.436562,0.34125 0.970139,0.29958 1.81036,-0.14139 3.263194,0.0293 3.263194,0.38341 0,0.19403 -0.555625,0.35278 -1.234722,0.35278 -0.679097,0 -1.234722,0.13895 -1.234722,0.30879 0,0.16984 1.731944,0.31662 3.84877,0.32619 l 3.84877,0.0174 0.418542,-1.01045 z m -13.23136,-0.16192 c -0.582083,-0.47809 -1.343896,-0.96671 -1.692917,-1.08581 -0.357265,-0.12192 -0.588525,-0.48843 -0.529188,-0.83868 0.05797,-0.34217 -0.07475,-0.84495 -0.294926,-1.11729 -0.701082,-0.86718 0.04067,-2.08267 1.270942,-2.08267 0.705499,0 1.0697,0.1764 1.0697,0.5181 0,0.3167 0.206693,0.43878 0.531735,0.31404 0.318721,-0.1223 1.096416,0.30611 1.941294,1.06941 1.587122,1.43387 2.647826,1.69697 2.289471,0.5679 -0.184242,-0.5805 -0.06339,-0.70556 0.681782,-0.70556 0.587205,0 0.905718,-0.19445 0.905718,-0.55294 0,-0.41163 -0.202854,-0.48964 -0.79375,-0.30523 -0.436563,0.13624 -0.895064,0.4054 -1.018893,0.59814 -0.123825,0.19273 -0.402068,0.24107 -0.618313,0.10743 -0.622082,-0.38447 0.211892,-1.60635 1.12045,-1.64161 0.640285,-0.0248 0.590278,-0.0909 -0.276994,-0.36575 -1.478199,-0.46849 -3.342421,-0.67565 -7.241924,-0.80474 -2.252007,-0.0746 -3.73446,-0.30422 -4.491835,-0.69588 -0.62176,-0.32152 -1.859664,-0.68453 -2.750905,-0.80669 -0.89124,-0.12216 -2.124286,-0.55692 -2.740106,-0.96614 -0.615823,-0.40922 -1.765613,-1.0522 -2.555098,-1.42886 -1.304608,-0.62241 -2.268742,-1.83017 -2.268742,-2.84201 0,-0.21527 -0.534667,-1.2793 -1.188149,-2.36451 -0.653482,-1.08522 -1.367539,-2.48772 -1.586794,-3.11667 -0.219255,-0.62895 -0.954585,-1.98111 -1.634074,-3.0048 -0.679485,-1.02369 -1.235428,-2.01411 -1.235428,-2.20094 0,-0.51149 -2.836848,-3.24491 -3.367694,-3.24491 -0.254356,0 -0.674662,-0.19844 -0.934018,-0.44097 -0.639519,-0.59805 -2.508645,-1.49919 -5.003295,-2.41217 -1.140188,-0.41729 -2.750711,-1.21604 -3.578941,-1.775 -0.82823,-0.55897 -1.649,-1.01631 -1.823932,-1.01631 -0.406368,0 -1.7260212,-0.98411 -2.8383542,-2.11666 -0.4764087,-0.48507 -1.0471996,-0.88195 -1.268423,-0.88195 -0.2212234,0 -0.6114627,-0.43656 -0.8671983,-0.97014 -0.2557357,-0.53357 -0.6148811,-0.97013 -0.7980998,-0.97013 -0.1832186,0 -0.9913302,-0.63877 -1.7958046,-1.41949 -1.3860144,-1.34508 -1.4969814,-1.38844 -2.1170724,-0.82727 -0.359915,0.32572 -0.654389,0.84106 -0.654389,1.1452 0,0.39551 -0.161622,0.32225 -0.56753803,-0.25728 -0.534956,-0.76376 -0.520023,-0.85434 0.260099,-1.57781 L 1.8164467,81.18362 0.85079167,81.07199 c -0.53111,-0.0614 -0.965655,-0.24262 -0.965655,-0.40273 0,-0.1601 -0.408153,-0.39354 -0.90700597,-0.51874 -1.301736,-0.32672 -0.869586,-1.02386 0.84484697,-1.3629 0.855052,-0.1691 1.61821603,-0.56706 1.82368803,-0.95098 0.324397,-0.60614 0.261443,-0.63384 -0.76893203,-0.33834 -1.200683,0.34436 -1.811242,0.13432 -1.023962,-0.35224 0.366218,-0.22634 0.302235,-0.35061 -0.2748,-0.53376 -1.04117797,-0.33046 -0.96425797,-1.24951 0.104577,-1.24951 0.931676,0 2.07131003,-0.91723 1.87423103,-1.50846 -0.182743,-0.54823 -2.42591203,-1.66654 -3.342834,-1.66654 -0.942111,0 -1.071534,-0.58165 -0.181892,-0.81746 0.339548,-0.09 -0.176389,-0.0772 -1.146528,0.0284 -2.112694,0.22999 -2.466156,0.63412 -1.561035,1.78479 0.3735,0.47483 0.679091,1.2151 0.679091,1.64505 0,0.42995 0.17781,1.2918 0.395135,1.91521 0.346209,0.99314 0.302525,1.21977 -0.352777,1.83028 -0.943032,0.87856 -0.936812,0.99804 0.13403,2.57602 0.48507,0.71479 0.881945,1.39773 0.881945,1.51765 0,0.67493 2.36323297,3.74057 3.22842097,4.18798 0.560493,0.28984 1.76995303,1.25528 2.68769003,2.14543 1.1936419,1.15775 3.0744659,2.29392 6.6075,3.99147 2.7163883,1.30517 5.2064843,2.46724 5.5335453,2.58238 0.32706,0.11515 1.225751,1.21045 1.997096,2.434 0.771341,1.22356 1.786819,2.7009 2.256613,3.28298 0.469794,0.58209 1.091346,1.53459 1.381224,2.11667 0.289874,0.58208 0.792741,1.58714 1.11748,2.23345 0.324735,0.64631 0.59043,1.42983 0.59043,1.74115 0,0.31132 0.351487,0.94018 0.781086,1.39746 0.620895,0.66091 0.701692,0.95856 0.393971,1.4513 -0.286177,0.45824 -0.273777,0.77486 0.04755,1.2143 0.239064,0.32693 0.52403,0.50506 0.633261,0.39583 0.109227,-0.10923 0.623133,0.5258 1.142005,1.4112 1.069989,1.8258 3.799466,4.40777 6.060041,5.73256 0.83898,0.49168 1.525422,1.03681 1.525422,1.21141 0,0.62757 2.979773,1.707 4.380498,1.58684 1.94232,-0.16661 7.900419,0.64347 8.398887,1.14194 0.227976,0.22797 1.374941,0.41371 2.548809,0.41275 l 2.134305,-0.002 -1.058333,-0.86926 z m -14.728472,-3.7416 c -0.953106,-0.55513 -0.732112,-1.06723 0.264584,-0.61311 0.485069,0.22102 0.881944,0.53512 0.881944,0.698 0,0.38768 -0.383995,0.35925 -1.146528,-0.0849 z m 16.644581,2.56448 c 1.326737,0.82857 1.223479,-0.0998 -0.146685,-1.31879 -1.448364,-1.28855 -1.720854,-1.25834 -2.070231,0.2295 -0.265913,1.13241 0.01623,1.45802 0.868232,1.00204 0.450642,-0.24118 0.865791,-0.21432 1.348684,0.0872 z m -3.150831,-2.53622 c 0,-0.19403 -0.16812,-0.35278 -0.373599,-0.35278 -0.205479,0 -0.275484,0.15875 -0.155568,0.35278 0.119916,0.19403 0.288036,0.35278 0.373599,0.35278 0.08556,0 0.155568,-0.15875 0.155568,-0.35278 z m 8.949802,-1.77464 c -0.240721,-0.24072 -0.651887,-0.24827 -1.217083,-0.0224 -0.802023,0.32058 -0.780073,0.34252 0.363531,0.36353 0.835391,0.0153 1.103076,-0.0916 0.853552,-0.34116 z m -72.96324,-45.52303 c 0.148707,-0.24061 0.390709,-0.2228 0.72332,0.0532 0.400015,0.33199 0.657956,0.21599 1.29151,-0.58077 1.400501,-1.76129 1.412049,-2.49851 0.05171,-3.30113 -0.660177,-0.38951 -1.200322,-0.5661 -1.200322,-0.39241 0,0.1737 -0.515938,0.31402 -1.146528,0.31185 -2.00476,-0.007 -3.439583,0.44157 -3.439583,1.07514 0,0.66625 -1.99485,1.57815 -2.315907,1.05867 -0.111259,-0.18003 -0.363903,-0.22743 -0.56143,-0.10536 -0.568403,0.3513 0.137564,0.81608 1.383785,0.91104 0.677914,0.0517 1.140774,0.27963 1.140774,0.56187 0,0.26122 0.15875,0.37684 0.352778,0.25692 0.194028,-0.11992 0.352778,-0.0844 0.352778,0.0789 0,0.43281 3.103119,0.49925 3.367115,0.0721 z m 0.51344,-1.56205 c 0,-0.29104 -0.120563,-0.52917 -0.267918,-0.52917 -0.147355,0 -0.4662,-0.3175 -0.708545,-0.70555 -0.383684,-0.61438 -0.352317,-0.70556 0.24272,-0.70556 0.37584,0 0.932811,0.24947 1.237711,0.55437 0.704185,0.70418 0.720118,1.91508 0.0252,1.91508 -0.291042,0 -0.529167,-0.23813 -0.529168,-0.52917 z m 3.527778,0.82315 c 0,-0.4204 -0.04492,-0.69821 -0.09982,-0.61736 -0.0549,0.0808 -0.312467,0.4248 -0.572362,0.76435 -0.404488,0.52845 -0.390112,0.61736 0.09982,0.61736 0.351853,0 0.572363,-0.29448 0.572362,-0.76435 z m 2.7921007,-0.49905 c 0.234546,-0.23454 -0.07538,-0.42498 -1.1171297,-0.68645 -0.839005,-0.21057 -0.969416,-0.1381 -0.969416,0.53874 0,0.67684 0.130411,0.74931 0.969416,0.53873 0.5331787,-0.13382 1.0358867,-0.30978 1.1171297,-0.39102 z M -31.036068,69.55325 c 0.109299,-0.28483 0.04691,-0.6117 -0.138646,-0.72638 -0.185553,-0.11467 -0.33737,0.11837 -0.33737,0.51787 0,0.85181 0.196184,0.93774 0.476016,0.20851 z m 8.872595,-1.5988 c 0.119916,-0.19403 -0.118209,-0.35278 -0.529167,-0.35278 -0.410957,0 -0.649082,0.15875 -0.529167,0.35278 0.119916,0.19403 0.358041,0.35278 0.529167,0.35278 0.171126,0 0.409251,-0.15875 0.529167,-0.35278 z m 126.015833,92.78056 c -0.10148,-0.38806 -0.0406,-0.70556 0.13524,-0.70556 0.17587,0 0.31975,0.15875 0.31975,0.35278 0,0.19403 0.15875,0.35278 0.35278,0.35278 0.19403,0 0.35278,-0.22402 0.35278,-0.49781 0,-0.69183 1.82875,-2.16046 3.80806,-3.05818 1.96575,-0.89158 6.19106,-1.33722 6.58807,-0.69484 0.19385,0.31365 -0.27319,0.40353 -1.80409,0.34717 -2.49195,-0.0917 -4.52161,0.48232 -5.94621,1.6818 -0.70901,0.59698 -0.83198,0.8146 -0.37255,0.65935 0.67893,-0.22943 0.67894,-0.22419 7e-4,0.52511 -0.69816,0.77146 -2.32628,1.74295 -2.921,1.74295 -0.18103,0 -0.41218,-0.3175 -0.51366,-0.70555 z m 4.86472,-2.0251 c 0.54541,-0.56438 1.94027,-0.90091 1.94027,-0.46812 0,0.20711 -0.22514,0.37655 -0.50031,0.37655 -0.27517,0 -0.79111,0.10274 -1.14653,0.22831 -0.44079,0.15574 -0.53407,0.11227 -0.29343,-0.13674 z m 9.87778,-1.47928 c 0.38805,-0.15655 1.26118,-0.38952 1.94027,-0.51771 l 1.23473,-0.23306 -1.18703,0.54007 c -0.65287,0.29704 -1.526,0.53002 -1.94028,0.51772 -0.73135,-0.0217 -0.73274,-0.0306 -0.0477,-0.30702 z m 5.46805,-1.93646 c 0.98291,-0.59222 1.75594,-0.74672 1.21708,-0.24325 -0.18432,0.17221 -0.73201,0.41696 -1.21708,0.54388 l -0.88194,0.23075 z m -5.99722,-1.96749 c 0,-0.19403 0.14938,-0.35278 0.33196,-0.35278 0.18257,0 0.43007,0.15875 0.54998,0.35278 0.11992,0.19402 -0.0294,0.35277 -0.33195,0.35277 -0.3025,0 -0.54999,-0.15875 -0.54999,-0.35277 z m -19.515195,-2.00589 c -0.10166,-0.93406 -0.185,-2.01578 -0.185201,-2.40384 -2.01e-4,-0.38805 -0.06896,-1.13045 -0.152795,-1.64977 -0.162543,-1.00686 0.24996,-2.01966 0.656858,-1.61277 0.28292,0.28293 0.330817,6.89982 0.05196,7.17867 -0.102291,0.10229 -0.269162,-0.57824 -0.370822,-1.51229 z m 31.509635,0.71536 c -0.29104,-0.0971 -0.73445,-0.24093 -0.98535,-0.31969 -0.35009,-0.1099 -0.3649,-0.31377 -0.0637,-0.87664 0.64181,-1.19924 3.14306,-0.41764 3.16028,0.98755 0.005,0.43791 -1.09732,0.54695 -2.11127,0.20878 z m -34.747059,-6.8142 c -0.283534,-1.67823 0.02607,-3.32707 0.735207,-3.91561 0.793249,-0.65834 0.976111,-0.14062 0.309615,0.87659 -0.44844,0.6844 -0.539263,1.30031 -0.364042,2.46877 0.293557,1.95757 -0.354658,2.50055 -0.68078,0.57025 z m 3.231713,-0.62333 c -0.382817,-0.61537 0.536268,-4.32472 1.071555,-4.32472 0.335576,0 0.351458,0.23061 0.06682,0.97014 -0.205374,0.53357 -0.484244,1.60513 -0.619718,2.38125 -0.152799,0.87535 -0.349716,1.2449 -0.518657,0.97333 z m 30.678996,-0.0176 c -0.29656,-0.47985 0.31687,-0.91206 2.77663,-1.95637 1.81234,-0.76945 2.17298,-0.82551 2.50834,-0.38998 0.21542,0.27978 0.66332,0.50869 0.99533,0.50869 0.5366,0 0.54488,0.0588 0.0745,0.52916 -0.29105,0.29104 -0.78907,0.52917 -1.10673,0.52917 -0.31766,0 -0.84493,0.14308 -1.17172,0.31796 -0.97028,0.51923 -3.83987,0.84401 -4.07636,0.46137 z m -24.91643,-0.80454 c 0,-0.20789 -0.23812,-0.61611 -0.52916,-0.90715 -0.48548,-0.48547 -0.75375,-1.88988 -0.36101,-1.88988 0.148,0 1.59573,2.78061 1.59573,3.06488 0,0.0606 -0.15875,0.11012 -0.35278,0.11012 -0.19403,0 -0.35278,-0.17009 -0.35278,-0.37797 z m 31.23178,-2.07377 c -0.1139,-0.18429 0.11183,-0.50576 0.50161,-0.71437 1.11565,-0.59707 2.48606,-2.87735 2.48606,-4.13665 0,-0.86996 0.12597,-1.09342 0.52917,-0.9387 0.37285,0.14308 0.52916,-0.0293 0.52916,-0.58344 0,-0.6591 -0.0857,-0.71536 -0.52916,-0.34732 -0.4421,0.36691 -0.52917,0.31598 -0.52917,-0.30958 0,-0.45597 0.22416,-0.74875 0.57326,-0.74875 0.45089,0 0.52733,-0.22967 0.35809,-1.07587 -0.13345,-0.66726 -0.0832,-0.99431 0.1323,-0.86113 0.1911,0.11811 0.34746,0.52288 0.34746,0.89948 0,1.17552 0.61507,0.74849 0.86863,-0.60306 0.24846,-1.32442 1.88859,-3.30664 2.72021,-3.28758 0.3107,0.007 0.26974,0.12647 -0.12183,0.35496 -1.13872,0.66444 -2.0559,2.64602 -2.0559,4.44178 0,1.34353 -0.15622,1.82314 -0.70555,2.16621 -0.78275,0.48884 -0.95048,1.70533 -0.26656,1.9333 0.77704,0.25901 -1.36765,3.08746 -2.34109,3.08746 -0.45856,0 -1.03137,0.23813 -1.27291,0.52917 -0.50461,0.60801 -0.9266,0.67494 -1.22378,0.19409 z m 3.58229,-2.19586 c 0.85121,-0.79967 1.04995,-1.34962 0.48773,-1.34962 -0.18081,0 -0.66787,0.47625 -1.08235,1.05833 -0.88132,1.2377 -0.57337,1.38856 0.59462,0.29129 z m -29.5224,-2.19382 c 0,-0.0763 0.23813,-0.23002 0.52917,-0.34171 0.29104,-0.11168 0.52916,-0.0493 0.52916,0.13865 0,0.18794 -0.23812,0.3417 -0.52916,0.3417 -0.29104,0 -0.52917,-0.0624 -0.52917,-0.13864 z m 1.41111,-0.18875 c 0,-0.20799 0.35719,-0.38278 0.79375,-0.38843 0.43656,-0.006 1.90501,-0.31853 3.2632,-0.69529 3.00589,-0.83382 3.38671,-0.8553 3.12618,-0.17639 -0.12183,0.31749 -0.65365,0.52917 -1.32948,0.52917 -0.61953,0 -1.27724,0.14066 -1.46156,0.31257 -0.53149,0.4957 -4.39209,0.86344 -4.39209,0.41837 z M 64.678654,135.4526 c -0.129353,-0.12935 -0.230138,-1.04216 -0.223968,-2.02847 0.01034,-1.65353 0.05159,-1.73992 0.529167,-1.1085 0.885567,1.17082 0.605659,4.04783 -0.305199,3.13697 z m -34.943248,-1.81587 c -0.357871,-0.57905 -6.514383,-3.24061 -7.495924,-3.24061 -0.553388,0 -0.646052,-0.5626 -0.143792,-0.87302 0.566536,-0.35014 8.128335,2.14299 8.128335,2.67992 0,0.17037 0.142875,0.27008 0.3175,0.22157 0.327187,-0.0909 0.388055,0.0613 0.388055,0.97014 0,0.55545 -0.889095,0.73562 -1.194174,0.242 z m 60.819018,-0.39061 c -0.0028,-0.27576 -0.269011,-0.79268 -0.591203,-1.14869 -0.783703,-0.86598 -0.384676,-1.18501 0.643389,-0.5144 0.586705,0.38271 1.451504,0.49732 2.999782,0.39755 1.598359,-0.103 2.287355,-0.005 2.597372,0.36822 0.56375,0.67928 -0.347616,1.04685 -1.686782,0.68032 -1.315804,-0.36014 -3.380581,-0.18603 -3.697975,0.31184 -0.179783,0.28201 -0.260837,0.25295 -0.264583,-0.0948 z m -30.697067,-0.33998 c 0,-0.29787 1.53229,-1.45169 1.927867,-1.45169 0.377543,0 0.175511,0.66845 -0.365566,1.20953 -0.599345,0.59934 -1.562301,0.7486 -1.562301,0.24216 z m 25.117777,-0.81669 c -0.710046,-0.71004 -0.488467,-0.88698 1.110781,-0.88698 1.112717,0 1.646502,0.17996 1.943265,0.65516 0.37489,0.60029 0.281873,0.65516 -1.11078,0.65516 -0.835964,0 -1.710433,-0.1905 -1.943266,-0.42334 z m 29.562776,-3.92202 c -2.50749,-0.79288 -4.11932,-0.85768 -10.23056,-0.41128 -5.583899,0.40788 -9.479772,0.35686 -9.967166,-0.13054 -0.30414,-0.30414 -0.211945,-0.40449 0.371616,-0.40449 0.426861,0 0.776111,-0.13415 0.776111,-0.2981 0,-1.46187 -6.204027,-2.71454 -11.616915,-2.34559 -2.034568,0.13868 -4.420274,0.47102 -5.301565,0.73854 -1.761741,0.53478 -4.897805,0.60614 -7.541422,0.1716 -1.223353,-0.20109 -2.021477,-0.6002 -2.822223,-1.41128 -1.109461,-1.12379 -1.110794,-1.12952 -0.211963,-0.91154 0.85029,0.20621 0.930603,0.10701 1.339462,-1.65449 l 0.43494,-1.87386 -1.280664,-1.17822 c -1.285886,-1.18302 -2.223605,-3.05376 -1.761459,-3.5141 0.136148,-0.13561 0.546249,0.1503 0.911331,0.63537 0.365083,0.48507 1.105482,1.46991 1.645327,2.18853 0.868649,1.1563 1.161687,1.30846 2.547804,1.32292 1.810434,0.0189 4.217888,-0.38915 9.899014,-1.67774 3.120013,-0.70769 5.116082,-0.93229 8.643056,-0.97257 2.674785,-0.0306 5.227644,-0.24916 6.125428,-0.52458 1.34463,-0.41249 1.84543,-0.39336 3.959588,0.15126 1.33115,0.34291 2.57669,0.52681 2.76786,0.40866 0.19118,-0.11815 0.6576,-0.0212 1.03651,0.21541 0.5805,0.36253 0.87421,0.29381 1.86643,-0.43673 1.87162,-1.37802 3.62519,-1.83582 6.06717,-1.58393 4.79273,0.49435 7.47837,0.35692 8.78313,-0.44947 0.67494,-0.41713 1.39653,-0.75842 1.60353,-0.75842 0.207,0 0.82327,-0.18977 1.36947,-0.42171 1.264,-0.53674 1.32768,-0.54729 3.5969,-0.59593 l 1.89824,-0.0407 -0.20982,-1.293 c -0.23703,-1.46068 -1.97239,-3.47415 -3.27635,-3.80142 -0.9784,-0.24556 -1.03091,-0.7758 -0.31161,-3.14673 0.48887,-1.61139 0.47801,-1.76842 -0.18021,-2.60521 -0.82646,-1.05068 -0.88071,-1.61764 -0.20817,-2.17579 0.27075,-0.2247 0.59544,-0.95852 0.72154,-1.6307 0.1261,-0.67218 0.38084,-1.22215 0.56607,-1.22215 0.18524,0 0.33679,-0.21869 0.33679,-0.48598 0,-0.60595 0.99066,-1.46318 1.31551,-1.13833 0.13207,0.13207 0.0665,0.7001 -0.1457,1.2623 -0.30405,0.80552 -0.28438,1.0611 0.0928,1.20585 0.26326,0.10102 0.57249,0.0319 0.68716,-0.15369 0.11468,-0.18556 0.73987,-0.33738 1.38932,-0.33738 1.01386,0 1.36117,-0.25104 2.45645,-1.77559 1.23226,-1.71523 2.68808,-2.66209 3.57167,-2.32302 0.23437,0.0899 0.96106,-0.29401 1.61486,-0.85321 1.29733,-1.1096 2.07068,-1.31854 2.07068,-0.55943 0,0.26729 0.21232,0.66218 0.47181,0.87754 0.60389,0.50119 1.83305,-0.73499 2.2,-2.21257 l 0.25467,-1.02545 -1.90421,0.221 c -1.42683,0.16561 -2.09896,0.4448 -2.68104,1.11365 -0.42726,0.49095 -0.99082,0.89264 -1.25236,0.89264 -0.26155,0 -0.65215,0.17661 -0.868,0.39246 -0.21586,0.21586 -0.60479,0.31295 -0.86431,0.21577 -0.27315,-0.10229 0.12238,-0.4359 0.93927,-0.79223 1.3558,-0.5914 1.37977,-0.62974 0.61155,-0.97783 -1.10717,-0.50167 -2.25989,0.1446 -4.7925,2.6869 -1.48428,1.48997 -2.17185,1.96462 -2.44713,1.68934 -0.46819,-0.46819 0.48189,-1.5471 3.228,-3.6657 1.63755,-1.26336 2.17467,-1.48309 3.71899,-1.52139 0.99276,-0.0246 2.70569,-0.30659 3.80652,-0.62661 2.52789,-0.73487 3.71946,-0.33254 3.8815,1.31058 0.0803,0.81395 0.32051,1.13449 0.96275,1.28458 0.47069,0.10999 0.92603,0.4107 1.01188,0.66824 0.20196,0.60588 -1.23395,0.19976 -2.18379,-0.61764 -0.40647,-0.34979 -0.72051,-0.42935 -0.80045,-0.20277 -0.0724,0.20508 -0.8429,1.12593 -1.71235,2.04633 -1.13697,1.20361 -1.5808,1.96559 -1.5808,2.71394 0,0.57226 -0.16373,1.04047 -0.36385,1.04047 -0.59375,0 -0.74953,-0.86762 -0.34623,-1.92836 0.41597,-1.09411 0.16081,-1.70259 -0.37055,-0.88364 -0.72691,1.12032 -0.77641,2.20628 -0.14899,3.26841 0.61125,1.03477 0.61089,1.06351 -0.0105,0.82507 -0.74218,-0.2848 -1.21595,0.27746 -1.22395,1.45255 -0.003,0.43656 -0.17611,0.79375 -0.38477,0.79375 -0.21492,0 -0.3296,-0.48413 -0.26458,-1.11685 0.14996,-1.45917 -0.55042,-1.66921 -1.1046,-0.33128 -0.2759,0.66607 -0.61486,0.97852 -0.93025,0.8575 -0.37748,-0.14485 -0.4962,0.16123 -0.4962,1.27926 0,0.80832 0.14595,1.37947 0.32434,1.26923 0.17838,-0.11025 0.56392,0.0391 0.85674,0.33195 0.59671,0.59672 0.98048,0.69405 0.84739,0.21491 -0.10225,-0.3681 0.14755,-0.39873 1.13844,-0.1396 0.40868,0.10687 0.71364,0.4807 0.71364,0.8748 0,0.54161 0.16906,0.64281 0.79375,0.47513 0.65469,-0.17572 0.62603,-0.11728 -0.16357,0.33356 -1.0946,0.62499 -0.99997,1.76075 0.11716,1.40619 0.36508,-0.11587 0.66378,-0.0468 0.66378,0.15346 0,0.20028 0.33734,0.54468 0.74965,0.76534 0.57327,0.30681 0.95218,0.29281 1.61044,-0.0595 0.7238,-0.38736 0.91242,-0.37906 1.18522,0.0522 0.50787,0.80284 0.39237,1.39095 -0.28212,1.43659 -0.62627,0.0424 -0.77172,0.0197 -2.02847,-0.31656 -0.6817,-0.18238 -0.68425,-0.1646 -0.0756,0.52566 0.61463,0.69706 0.6082,0.71027 -0.26458,0.54343 -0.58035,-0.11095 -0.89452,-0.40436 -0.89452,-0.83544 0,-0.65115 -0.1596,-0.73207 -1.5875,-0.80485 -0.51517,-0.0263 -0.67676,-0.24429 -0.59886,-0.80802 0.0867,-0.62768 -0.14416,-0.84172 -1.23472,-1.14456 -1.96105,-0.54457 -2.30663,-0.48901 -2.04697,0.32912 0.12316,0.38805 0.0652,0.70555 -0.12884,0.70555 -0.5057,0 -0.83927,-1.27381 -0.57738,-2.20486 0.16053,-0.57069 0.12764,-0.65538 -0.11701,-0.30137 -0.2082,0.30126 -0.5899,0.39659 -0.98337,0.2456 -0.41733,-0.16014 -0.50499,-0.33298 -0.24969,-0.49237 0.4027,-0.25143 0.38121,-1.2337 -0.0722,-3.29787 -0.23101,-1.05182 -0.1995,-1.12004 0.31869,-0.68998 0.49136,0.40779 0.57505,0.39395 0.57505,-0.0951 0,-0.3148 -0.15027,-0.57236 -0.33394,-0.57236 -0.18366,0 0.13384,-0.88925 0.70556,-1.97611 1.43316,-2.72448 1.29205,-3.56397 -0.20427,-1.21524 -0.67413,1.05816 -1.22569,2.27524 -1.22569,2.70463 0,0.42938 -0.18215,0.84142 -0.40479,0.91563 -0.22263,0.0742 -0.44086,0.92087 -0.48495,1.88148 -0.0441,0.9606 -0.19709,2.02609 -0.33998,2.36776 -0.29835,0.7133 0.44895,5.1115 0.91771,5.40121 0.4769,0.29474 0.37116,1.20952 -0.13981,1.20952 -0.24851,0 -0.66561,-0.51593 -0.9269,-1.14652 -0.38488,-0.92885 -0.50662,-1.02062 -0.6412,-0.48337 -0.2071,0.82675 0.98106,2.47804 1.87893,2.61132 0.38176,0.0567 0.87126,-0.22511 1.13748,-0.65477 0.40681,-0.65659 0.37415,-0.85343 -0.25226,-1.52022 -0.46518,-0.49515 -0.80519,-1.49424 -0.96169,-2.8258 -0.23523,-2.00147 -0.22152,-2.04882 0.48398,-1.67124 0.59419,0.318 0.69367,0.63015 0.54767,1.71862 -0.14052,1.04767 -0.0212,1.47232 0.56204,2.00014 0.40724,0.36855 0.74044,0.96857 0.74044,1.33338 0,0.69234 0.97498,2.40632 1.36349,2.39695 0.1232,-0.003 0.44343,-0.14437 0.71161,-0.31422 0.41315,-0.26167 0.41415,-0.47478 0.007,-1.39556 -0.26457,-0.59771 -0.72212,-1.15227 -1.01678,-1.23236 -0.41215,-0.11202 -0.39332,-0.15505 0.0816,-0.18653 0.33955,-0.0225 0.61736,-0.20586 0.61736,-0.40745 0,-0.20158 0.34839,-0.0419 0.77421,0.35477 0.44,0.40992 1.03632,0.63808 1.38142,0.52856 0.33397,-0.106 0.70932,-0.0275 0.83411,0.1744 0.1248,0.20192 -0.0319,0.36713 -0.34828,0.36713 -0.31636,0 -0.84166,0.26893 -1.16735,0.59762 -0.55461,0.55972 -0.55177,0.58232 0.0448,0.35633 0.43171,-0.16354 0.92152,0.0433 1.52009,0.64185 0.48573,0.48573 1.49963,1.07556 2.25312,1.31072 0.75349,0.23516 1.4405,0.66959 1.52669,0.96538 0.0862,0.2958 0.27723,0.83168 0.42455,1.19083 0.257,0.6266 0.22129,0.62895 -0.88246,0.0582 -2.00525,-1.03695 -1.93093,-0.0928 0.15706,1.99524 1.0718,1.07179 1.94872,2.23481 1.94872,2.58449 0,0.43839 -0.31033,0.20862 -0.99952,-0.74006 -0.54973,-0.75672 -1.26794,-1.59691 -1.59602,-1.86709 -1.01591,-0.83663 -1.08289,-0.11707 -0.11902,1.2786 1.26801,1.8361 1.90595,3.4893 2.14651,5.56264 0.17895,1.54239 0.11549,1.43164 -0.50542,-0.88194 -0.53022,-1.97568 -0.97565,-2.87573 -1.75858,-3.55348 -0.57667,-0.49919 -1.0485,-1.06768 -1.0485,-1.2633 0,-0.4624 -1.69271,-1.36922 -1.99381,-1.06812 -0.12704,0.12704 0.48782,0.9078 1.36636,1.73502 2.01456,1.89689 2.5882,3.0565 2.89361,5.84939 0.13404,1.22578 0.33097,2.45609 0.43763,2.73403 0.10665,0.27794 0.038,0.50534 -0.15251,0.50534 -0.35613,0 -0.69052,-1.22926 -1.00722,-3.70265 -0.18606,-1.45309 -0.98341,-2.67564 -1.65997,-2.54515 -0.21157,0.0408 -0.41024,-0.30642 -0.44149,-0.77162 -0.0337,-0.50182 -0.66343,-1.3894 -1.54834,-2.18235 -0.82033,-0.73509 -1.38865,-1.50296 -1.26292,-1.70639 0.12572,-0.20342 -0.29521,-0.68786 -0.93541,-1.07653 -0.64019,-0.38867 -1.24712,-1.0658 -1.34873,-1.50474 -0.10702,-0.46231 -0.7007,-1.04347 -1.41111,-1.38136 -1.14068,-0.54253 -1.42363,-0.54253 -4.0495,0 -1.55272,0.32081 -3.21523,0.8611 -3.69447,1.20065 -0.47923,0.33955 -1.1321,0.61736 -1.45082,0.61736 -0.31872,0 -0.95808,0.2933 -1.42081,0.65176 -0.46273,0.35847 -1.26477,0.75508 -1.78232,0.88135 -0.56525,0.13792 -1.2636,0.75811 -1.74887,1.55311 -0.44432,0.72793 -0.9356,1.37706 -1.09172,1.44252 -0.42935,0.18 -2.39203,3.12506 -2.39203,3.58929 0,0.40376 2.19171,-0.77001 3.11201,-1.66662 0.25639,-0.2498 0.76296,-0.45418 1.12571,-0.45418 0.36274,0 0.76164,-0.16521 0.88643,-0.36713 0.1248,-0.20192 0.5061,-0.27851 0.84733,-0.17021 0.3504,0.11121 1.02843,-0.124 1.55781,-0.54042 0.51556,-0.40554 0.93738,-0.56707 0.93738,-0.35896 0,0.20811 0.27781,0.38845 0.61736,0.40075 0.439,0.0159 0.36256,0.12944 -0.26458,0.39302 -0.52094,0.21893 -0.70144,0.43841 -0.44097,0.5362 0.24253,0.091 0.44097,0.32136 0.44097,0.5118 0,0.20063 -0.94059,0.30401 -2.23659,0.24581 -2.51166,-0.1128 -3.73154,0.43817 -4.61964,2.08649 -0.28649,0.53175 -0.93249,1.34807 -1.43553,1.81404 -1.24142,1.14992 -0.75152,1.4962 2.16378,1.52949 2.25916,0.0258 3.01048,-0.15436 6.3791,-1.52952 0.62318,-0.2544 1.25818,-0.32892 1.41111,-0.1656 0.15293,0.16332 0.0616,0.37382 -0.20298,0.46779 -0.26457,0.094 -0.73641,0.4691 -1.04854,0.83364 -0.31213,0.36455 -0.81004,0.6634 -1.10647,0.66413 -0.29643,7e-4 -1.05874,0.31822 -1.69402,0.70555 -1.35175,0.82416 -2.38432,0.87428 -3.60744,0.17507 -1.19874,-0.68525 -1.99426,-0.70264 -1.43718,-0.0314 0.68823,0.82926 -0.0342,0.85757 -2.44338,0.0958 z m -12.84711,-2.05202 c 0.10551,-0.17071 -0.0564,-0.40562 -0.3597,-0.52203 -0.55026,-0.21115 -0.78872,-1.19933 -0.28694,-1.18908 0.47789,0.01 1.18501,0.58185 1.12338,0.90887 -0.18183,0.96469 0.0268,1.28571 0.55231,0.84962 0.29105,-0.24155 0.52917,-0.63234 0.52917,-0.86843 0,-0.51607 1.87654,-0.46993 2.54009,0.0625 0.25219,0.20233 2.1254,0.44682 4.16269,0.54331 2.03729,0.0965 3.96172,0.28364 4.27649,0.41589 0.4264,0.17915 0.61783,0.002 0.75079,-0.69314 0.17054,-0.89208 0.12546,-0.92366 -1.01329,-0.71003 -1.21999,0.22887 -1.63451,-0.23112 -0.6864,-0.76171 0.98057,-0.54876 4.43352,-5.63852 4.43352,-6.53516 0,-0.35616 0.23813,-0.73894 0.52917,-0.85062 1.30144,-0.49941 0.27748,-0.82925 -2.73403,-0.88068 -1.79475,-0.0307 -4.06869,-0.0722 -5.05318,-0.0923 -1.41052,-0.0288 -2.10767,0.17373 -3.28848,0.95533 -1.26118,0.8348 -1.84366,0.98612 -3.67807,0.95554 -1.19877,-0.02 -2.67728,0.0649 -3.28559,0.18875 -0.608309,0.12379 -1.403728,0.0657 -1.767597,-0.12899 -0.42727,-0.22867 -1.294553,-0.23903 -2.448771,-0.0293 -1.034726,0.18807 -3.40965,0.20285 -5.640733,0.0351 -3.235107,-0.24322 -4.246034,-0.18738 -6.299137,0.34792 -1.345074,0.3507 -2.781762,0.63764 -3.192638,0.63764 -0.410881,0 -0.897866,0.14985 -1.082192,0.33301 -0.470913,0.46792 -4.896086,1.14961 -7.214305,1.11134 l -1.940278,-0.032 -0.01877,1.94477 -0.01877,1.94477 1.397159,0.37622 c 1.690518,0.45521 4.677078,0.24453 7.222454,-0.5095 2.184693,-0.64718 12.474826,-0.89538 13.203262,-0.31847 0.241805,0.19151 1.233392,0.60798 2.203531,0.92549 0.970139,0.31752 2.240139,0.87874 2.822222,1.24716 1.089435,0.68954 3.907293,0.91311 4.262613,0.3382 z m -3.733444,-2.77485 c 0,-0.19402 0.387505,-0.35277 0.861123,-0.35277 0.473618,0 0.959238,0.15875 1.079154,0.35277 0.127207,0.20582 -0.231521,0.35278 -0.861123,0.35278 -0.593535,0 -1.079154,-0.15875 -1.079154,-0.35278 z m 4.586114,-0.26147 c 0,-0.15119 0.4033,-0.70984 0.89622,-1.24144 0.71521,-0.77132 1.20975,-0.96653 2.44862,-0.96653 0.85382,0 1.6637,0.18008 1.79972,0.40017 0.17133,0.27721 -0.0933,0.35019 -0.86112,0.23749 -0.75459,-0.11075 -1.10844,-0.0172 -1.10844,0.29297 0,0.25061 -0.27782,0.59803 -0.61737,0.77204 -0.96563,0.49488 -2.55763,0.8094 -2.55763,0.5053 z m 2.46944,3.0837 c 0,-0.19403 -0.24749,-0.35278 -0.54999,-0.35278 -0.30249,0 -0.45187,0.15875 -0.33195,0.35278 0.11991,0.19402 0.36741,0.35277 0.54998,0.35277 0.18258,0 0.33196,-0.15875 0.33196,-0.35277 z m 34.925,-9.88651 c 0,-0.36684 -1.70813,-1.21493 -2.21915,-1.10181 -0.15338,0.0339 -0.60831,-0.11458 -1.01096,-0.33006 -0.57994,-0.31038 -0.70043,-0.29304 -0.57978,0.0834 0.11273,0.35174 2.64964,1.50681 3.7217,1.69451 0.0485,0.008 0.0882,-0.14724 0.0882,-0.34607 z m 0.35278,-2.29267 c 0,-0.25412 -0.19844,-0.53124 -0.44097,-0.61585 -0.64357,-0.22449 -1.32292,0.10034 -1.32292,0.63254 0,0.25411 0.19844,0.53124 0.44097,0.61584 0.64357,0.22449 1.32292,-0.10033 1.32292,-0.63253 z m -3.52778,-0.8736 c 0,-0.19403 -0.32687,-0.35278 -0.72638,-0.35278 -0.3995,0 -0.62826,0.15875 -0.50834,0.35278 0.11991,0.19403 0.44678,0.35278 0.72638,0.35278 0.27959,0 0.50834,-0.15875 0.50834,-0.35278 z m 1.41111,-1.085 c 0,-0.16719 -0.23812,-0.21259 -0.52916,-0.10091 -0.29105,0.11169 -0.52917,0.33985 -0.52917,0.50702 0,0.16718 0.23812,0.21259 0.52917,0.10091 0.29104,-0.11169 0.52916,-0.33985 0.52916,-0.50702 z m -4.87421,-1.1081 c -0.25314,-0.25314 -0.41745,-0.27397 -0.41745,-0.0529 0,0.47088 0.41719,0.88808 0.65263,0.65263 0.10025,-0.10024 -0.006,-0.37012 -0.23518,-0.59972 z m -4.65079,-3.45135 c 0,-0.19402 -0.15875,-0.35277 -0.35278,-0.35277 -0.19402,0 -0.35277,0.15875 -0.35277,0.35277 0,0.19403 0.15875,0.35278 0.35277,0.35278 0.19403,0 0.35278,-0.15875 0.35278,-0.35278 z m -0.85558,-2.2766 c -0.1291,-0.68815 -0.38628,-1.25117 -0.57151,-1.25117 -0.50352,0 -0.40674,2.38566 0.10418,2.56813 0.65973,0.23562 0.72441,0.0534 0.46733,-1.31696 z m 1.62972,-1.35632 c -0.44682,-0.55325 -0.2737,-3.35862 0.2389,-3.87122 0.44867,-0.44867 0.53711,-1.31743 0.13349,-1.31125 -0.3793,0.006 -1.45928,2.48046 -1.53782,3.52373 -0.071,0.94258 0.26036,1.98429 0.88703,2.78896 0.32451,0.41668 0.40495,0.39989 0.50353,-0.10514 0.0645,-0.33058 -0.0368,-0.79186 -0.22513,-1.02508 z m 7.60656,0.72251 c -0.0796,-0.24254 -0.68816,-0.48346 -1.35231,-0.53539 -1.13968,-0.0891 -1.16906,-0.0643 -0.52277,0.44097 0.82912,0.64823 2.07753,0.71109 1.87508,0.0944 z m 0.43875,-1.12571 c 0,-0.0856 -0.15875,-0.25368 -0.35278,-0.3736 -0.19403,-0.11991 -0.35278,-0.0499 -0.35278,0.15557 0,0.20548 0.15875,0.3736 0.35278,0.3736 0.19403,0 0.35278,-0.07 0.35278,-0.15557 z m -9.54972,-3.22319 c 0.47706,-2.13173 0.2611,-2.84313 -0.53329,-1.75673 -0.53512,0.73182 -0.69879,3.72438 -0.20369,3.72438 0.16316,0 0.4948,-0.88544 0.73698,-1.96765 z m 5.66376,0.82112 c 0.003,-0.14552 -0.15335,-0.26458 -0.34738,-0.26458 -0.19402,0 -0.35034,0.35718 -0.34737,0.79375 0.004,0.64185 0.0708,0.69248 0.34737,0.26458 0.18809,-0.29104 0.34441,-0.64823 0.34738,-0.79375 z m 1.76929,-3.08681 c 0.41448,-0.58208 0.98092,-1.05833 1.25874,-1.05833 0.27783,0 0.50515,-0.14559 0.50515,-0.32353 0,-0.25994 0.83324,-2.23491 1.70121,-4.03225 0.0794,-0.16437 -0.21457,-0.10678 -0.6532,0.12797 -1.11906,0.59891 -2.37083,2.08725 -2.86719,3.40909 -0.23164,0.61685 -0.71084,1.1973 -1.06488,1.28989 -0.75998,0.19873 -0.88181,1.6455 -0.13857,1.6455 0.27782,0 0.84426,-0.47625 1.25874,-1.05834 z m -5.29167,-0.17639 c 0,-0.29104 -0.15875,-0.52916 -0.35277,-0.52916 -0.19403,0 -0.35278,0.23812 -0.35278,0.52916 0,0.29105 0.15875,0.52917 0.35278,0.52917 0.19402,0 0.35277,-0.23812 0.35277,-0.52917 z m -36.688885,30.72941 c 0,-0.33465 1.055998,-0.50331 1.244243,-0.19872 0.114681,0.18555 -0.11836,0.33737 -0.517867,0.33737 -0.399507,0 -0.726376,-0.0624 -0.726376,-0.13865 z m 45.888965,-0.77269 c 0.0169,-0.41097 0.10052,-0.49456 0.21313,-0.21314 0.10191,0.25466 0.0894,0.55893 -0.0278,0.67616 -0.11723,0.11722 -0.20061,-0.0911 -0.18529,-0.46302 z m -10.05992,-1.53588 c -1.61478,-0.5518 -2.62804,-1.46983 -1.5508,-1.40505 1.0456,0.0629 3.9565,1.23528 4.09024,1.64741 0.18042,0.556 -0.35178,0.50522 -2.53944,-0.24236 z m 10.03747,-0.0896 c 0.003,-0.44801 0.15929,-1.05269 0.34737,-1.34374 0.26022,-0.40265 0.34327,-0.26002 0.34738,0.59654 0.003,0.61914 -0.15335,1.22383 -0.34738,1.34374 -0.19672,0.12158 -0.35039,-0.14231 -0.34737,-0.59654 z M 26.195426,124.39445 c -1.666219,-0.81569 -2.392422,-1.45931 -3.592854,-3.18426 -1.291534,-1.85585 -2.609102,-4.73105 -2.609102,-5.69358 0,-0.15946 0.3175,-0.28993 0.705555,-0.28993 0.454406,0 0.705556,0.23518 0.705556,0.66071 0,0.80099 1.257547,3.71726 1.876136,4.35079 0.245187,0.2511 0.718756,0.85141 1.052378,1.33402 0.353532,0.51141 1.598457,1.27478 2.984175,1.82986 2.325017,0.93133 3.080593,1.81105 1.672033,1.94675 -0.388056,0.0374 -1.645299,-0.39207 -2.793877,-0.95436 z m 99.631374,-0.34833 c 0.69501,-0.44915 1.51231,-0.44915 1.23472,0 -0.11991,0.19403 -0.56585,0.35035 -0.99096,0.34738 -0.62838,-0.004 -0.67397,-0.0694 -0.24376,-0.34738 z m 20.46111,-0.39323 c 0,-0.49279 1.83221,-3.88937 2.00489,-3.7167 0.22339,0.2234 -1.38522,4.10993 -1.70107,4.10993 -0.1671,0 -0.30382,-0.17695 -0.30382,-0.39323 z m -6.70278,-0.27069 c 0,-0.19403 0.15875,-0.45089 0.35278,-0.5708 0.19403,-0.11992 0.35278,-0.0593 0.35278,0.13475 0,0.19402 -0.15875,0.45089 -0.35278,0.5708 -0.19403,0.11992 -0.35278,0.0593 -0.35278,-0.13475 z m -13.75833,-2.0969 c 0,-0.55767 2.047,-1.06876 4.75757,-1.18785 2.02355,-0.0889 2.48377,-0.008 2.57212,0.44999 0.0866,0.44917 -0.25713,0.56483 -1.75896,0.59188 -1.02661,0.0185 -2.7,0.13978 -3.71865,0.26953 -1.17686,0.14991 -1.85208,0.10487 -1.85208,-0.12355 z m 9.96597,-1.22762 c -0.63059,-0.19083 -1.14653,-0.49536 -1.14653,-0.67674 0,-0.36439 2.11394,-0.0139 2.58838,0.4292 0.51148,0.47765 -0.24964,0.60832 -1.44185,0.24754 z m 14.02292,-2.31992 c 0,-1.3582 -0.15875,-2.56756 -0.35278,-2.68747 -0.51748,-0.31982 -0.43788,-1.67437 0.0882,-1.50085 0.78369,0.25849 1.31801,1.7328 0.90661,2.50151 -0.20386,0.38091 -0.27695,1.37625 -0.16241,2.21185 0.11628,0.84838 0.0564,1.61315 -0.13569,1.73185 -0.21087,0.13032 -0.34392,-0.7428 -0.34392,-2.25689 z m -1.32927,0.66391 c 0,-0.67909 0.0726,-0.95691 0.16134,-0.61736 0.0887,0.33955 0.0887,0.89518 0,1.23473 -0.0887,0.33954 -0.16134,0.0617 -0.16134,-0.61737 z m -25.43778,0.0882 c 0.22155,-0.33955 1.29446,-1.08435 2.38424,-1.65512 1.66637,-0.87275 2.52838,-1.06908 5.42137,-1.23472 1.89197,-0.10833 3.43978,-0.0987 3.43958,0.0214 -3.5e-4,0.30121 -2.30588,0.65495 -4.29893,0.65963 -2.13369,0.005 -3.21858,0.43555 -4.56289,1.81075 -0.78625,0.80432 -1.1654,0.99216 -1.36167,0.67459 -0.19312,-0.31247 -0.342,-0.32688 -0.51332,-0.0497 -0.13272,0.21474 -0.39203,0.39044 -0.57625,0.39044 -0.18556,0 -0.15528,-0.27536 0.0679,-0.61737 z m 27.47465,-6.40059 c -0.8305,-0.23109 -0.79328,-0.27949 0.6629,-0.86214 1.48955,-0.596 4.9795,-0.74213 4.9795,-0.2085 0,0.34829 -0.9508,0.68026 -1.94831,0.68026 -0.45775,0 -0.93039,0.15875 -1.0503,0.35278 -0.24298,0.39313 -1.31147,0.40834 -2.64379,0.0376 z m -3.44163,-1.13653 c -0.63059,-0.40383 -1.14653,-0.89064 -1.14653,-1.08178 0,-0.19115 0.11907,-0.29048 0.26459,-0.22074 1.86635,0.89441 2.91041,1.52622 2.91041,1.76123 0,0.49406 -0.8359,0.30504 -2.02847,-0.45871 z M 13.507654,109.06547 c -0.313358,-0.47824 -0.567281,-0.99418 -0.564279,-1.14652 0.0032,-0.15235 -0.651732,-0.84238 -1.454968,-1.5334 -1.164184,-1.00154 -1.482048,-1.52883 -1.5669929,-2.59942 -0.068019,-0.85723 -0.434975,-1.68582 -1.014476,-2.29068 -0.9769298,-1.0197 -1.2041928,-2.14378 -0.4334228,-2.14378 0.7063105,0 1.4710833,0.9969 2.5025877,3.26216 0.507764,1.11508 1.376059,2.54383 1.929546,3.175 0.553491,0.63116 1.074417,1.46507 1.157616,1.85312 0.0832,0.38806 0.356993,0.6603 0.608429,0.60499 0.591728,-0.13018 1.44122,0.57837 1.44122,1.2021 0,0.87405 -1.971417,0.5838 -2.60526,-0.38357 z m 120.665136,-1.40555 c -0.13112,-0.34167 -0.0266,-0.44615 0.31503,-0.31503 0.28116,0.10789 0.5112,0.33793 0.5112,0.5112 0,0.50716 -0.61211,0.36183 -0.82623,-0.19617 z m -95.454247,-1.45848 c 0.01693,-0.41096 0.10052,-0.49455 0.213134,-0.21313 0.101907,0.25466 0.08938,0.55893 -0.02783,0.67616 -0.117228,0.11722 -0.200604,-0.0911 -0.185286,-0.46303 z m 116.922627,-0.58796 c 0.14484,-0.43656 0.28242,-1.23207 0.30574,-1.76779 0.0285,-0.65571 0.19593,-0.91512 0.51221,-0.79375 0.25841,0.0992 0.53622,0.18029 0.61737,0.18029 0.37393,0 0.0903,1.68865 -0.40164,2.39095 -0.72405,1.03373 -1.37781,1.02759 -1.03368,-0.01 z m -16.05604,-0.61264 c 0,-0.41449 1.00486,-0.72943 1.21946,-0.3822 0.10105,0.1635 -0.13199,0.37983 -0.51787,0.48073 -0.38587,0.10091 -0.70159,0.0566 -0.70159,-0.0985 z m 14.11111,-3.51168 c 0,-0.81243 0.5572,-1.25182 0.89479,-0.7056 0.15464,0.25022 0.54914,0.0978 1.12653,-0.43521 l 0.88854,-0.82029 -0.25582,0.88195 c -0.47394,1.63383 -2.65404,2.52027 -2.65404,1.07915 z m -17.09109,0.009 c -0.11359,-0.18378 -0.0562,-0.42709 0.12763,-0.54067 0.18379,-0.11359 0.42709,-0.0561 0.54067,0.12763 0.11359,0.18379 0.0562,0.42709 -0.12763,0.54068 -0.18379,0.11359 -0.42709,0.0562 -0.54067,-0.12764 z m 3.76404,-0.22652 c -0.91168,-0.63856 -1.08909,-1.76004 -0.22604,-1.42885 0.30691,0.11777 0.62441,0.21413 0.70556,0.21413 0.0811,0 0.14753,0.23813 0.14753,0.52917 0,0.29104 0.22876,0.52916 0.50835,0.52916 0.27959,0 0.60646,0.15875 0.72638,0.35278 0.342,0.55338 -0.99229,0.41263 -1.86178,-0.19639 z m -5.34232,-0.36217 c 0.0169,-0.41097 0.10052,-0.49456 0.21314,-0.21314 0.1019,0.25466 0.0894,0.55893 -0.0278,0.67616 -0.11722,0.11722 -0.2006,-0.0911 -0.18528,-0.46302 z m 11.26104,-0.76798 c 0,-0.66284 2.79391,-3.75826 3.10836,-3.4438 0.10286,0.10285 -0.18465,0.58263 -0.63892,1.06617 -0.45426,0.48354 -0.69773,0.99885 -0.54105,1.14514 0.15668,0.14629 0.35706,0.0636 0.44529,-0.18377 0.0882,-0.24736 0.70149,-0.67582 1.36281,-0.95214 0.66132,-0.27632 1.2024,-0.66924 1.2024,-0.87317 0,-0.54728 1.52383,-0.45036 2.31382,0.14717 0.73748,0.5578 0.5698,0.64293 -1.09388,0.55542 -1.30856,-0.0688 -2.75576,1.23572 -1.93415,1.7435 0.40741,0.2518 0.41276,0.40038 0.031,0.86041 -0.58499,0.70487 -1.43343,0.72078 -1.43343,0.0269 0,-0.29104 -0.21868,-0.52917 -0.48597,-0.52917 -0.26728,0 -0.6836,0.23813 -0.92514,0.52917 -0.59804,0.72059 -1.41111,0.66769 -1.41111,-0.0918 z m 9.26042,-1.24058 c -0.86286,-0.39452 -1.08622,-1.31344 -0.31926,-1.31344 0.59739,0 1.78818,1.28274 1.40057,1.50872 -0.15816,0.0922 -0.64475,0.004 -1.08131,-0.19528 z m -10.31875,-2.4195 c 0,-0.47093 1.64891,-2.06892 2.13484,-2.06892 0.52486,0 0.40499,0.27988 -0.60566,1.41416 -0.98114,1.10116 -1.52918,1.33582 -1.52918,0.65476 z m 4.30736,-1.16538 c -0.21422,-0.47015 -0.87413,-1.21314 -1.46648,-1.65108 -1.54797,-1.14447 -1.32721,-1.55491 0.33412,-0.62119 0.77611,0.4362 1.41111,0.9448 1.41111,1.13021 0,0.18542 0.25246,0.52173 0.56102,0.74735 0.48429,0.35412 0.49186,0.46763 0.0554,0.82989 -0.40863,0.33913 -0.58039,0.25562 -0.89514,-0.43518 z m -18.5666,-0.15226 c -0.10829,-0.17521 0.0395,-0.51474 0.3284,-0.75451 0.4271,-0.35446 0.52528,-0.33285 0.52528,0.1156 0,0.6586 -0.57537,1.08922 -0.85368,0.63891 z M -3.9954183,88.99911 c 0,-0.26097 -0.3175,-0.76183 -0.705556,-1.11301 -0.400117,-0.3621 -0.705555,-0.46213 -0.705555,-0.23107 0,0.85097 -0.821736,0.33521 -2.832306,-1.77769 -1.610248,-1.6922 -1.9913957,-2.29108 -1.689588,-2.65473 0.320236,-0.38586 0.517319,-0.35793 1.105339,0.15667 0.393587,0.34444 0.599581,0.42782 0.457764,0.18529 -0.605427,-1.0354 1.195633,-0.35382 2.130295,0.80617 0.552687,0.68593 1.61392,1.94888 2.358299,2.80656 1.309715,1.50908 1.443298,2.2963 0.389653,2.2963 -0.27959,0 -0.508345,-0.21352 -0.508345,-0.47449 z m -2.437772,-3.34689 c -0.411489,-0.76887 -1.442784,-1.67784 -1.442784,-1.27164 0,0.28252 1.416689,1.91802 1.661407,1.91802 0.07002,0 -0.02836,-0.29087 -0.218623,-0.64638 z M -18.699071,80.19883 c -0.09481,-0.15341 -0.458007,-0.18828 -0.807094,-0.0775 -0.463491,0.14711 -0.836131,-0.13995 -1.381422,-1.06415 -0.903111,-1.53066 -0.899934,-1.41636 -0.04116,-1.48104 0.403063,-0.0304 0.705555,0.16432 0.705555,0.45409 0,0.46045 1.080269,0.70251 2.38125,0.53357 0.242535,-0.0315 0.440973,0.1289 0.440973,0.35643 0,0.29245 0.516977,0.34511 1.763888,0.17971 1.826197,-0.24226 2.204298,0.044 1.180502,0.89364 -0.619846,0.51443 -3.951779,0.67561 -4.242488,0.20524 z"
       style="fill:#000000;stroke-width:0.35277778" />
  </g>
</svg>
