<?xml version="1.0" encoding="UTF-8" standalone="no"?>
<svg
   xmlns:dc="http://purl.org/dc/elements/1.1/"
   xmlns:cc="http://creativecommons.org/ns#"
   xmlns:rdf="http://www.w3.org/1999/02/22-rdf-syntax-ns#"
   xmlns:svg="http://www.w3.org/2000/svg"
   xmlns="http://www.w3.org/2000/svg"
   id="svg17174"
   version="1.1"
   viewBox="0 0 48.961262 79.709305"
   height="79.709305mm"
   width="48.961262mm">
  <defs
     id="defs17168" />
  <metadata
     id="metadata17171">
    <rdf:RDF>
      <cc:Work
         rdf:about="">
        <dc:format>image/svg+xml</dc:format>
        <dc:type
           rdf:resource="http://purl.org/dc/dcmitype/StillImage" />
        <dc:title></dc:title>
      </cc:Work>
    </rdf:RDF>
  </metadata>
  <g
     transform="translate(-21.097329,-120.19108)"
     id="layer1">
    <path
       id="path17781"
       d="m 27.75586,199.53967 c -0.127472,-0.20625 0.0094,-0.64281 0.304094,-0.97014 0.950212,-1.05531 2.418432,-4.32012 2.581622,-5.74065 0.18847,-1.64046 -0.0196,-1.74519 -0.73168,-0.36823 -0.46791,0.90483 -3.078019,2.51514 -4.076731,2.51514 -0.744824,0 -0.298252,-1.01543 1.349522,-3.0686 2.215589,-2.76067 2.915929,-4.57048 3.144649,-8.12634 0.15624,-2.42912 0.0589,-3.25541 -0.59434,-5.04709 -0.6839,-1.87566 -0.76692,-2.69999 -0.66673,-6.62034 0.0987,-3.86092 0.0188,-4.68737 -0.580062,-5.99818 -0.568083,-1.24354 -0.824949,-1.48101 -1.411111,-1.30453 -1.31213,0.39504 -3.542548,0.63282 -3.278674,0.34953 0.143085,-0.15361 -0.372853,-0.74481 -1.146528,-1.31378 -0.773675,-0.56896 -1.167447,-0.92058 -1.452514,-1.62133 -0.166951,-0.96059 -0.06807,-1.69446 -0.09525,-3.04822 0.04983,-2.27144 0.04502,-2.56895 0.930649,-3.57762 1.449006,-1.65033 2.430723,-4.12115 2.339285,-5.88759 -0.04329,-0.83638 0.05465,-1.73647 0.217652,-2.00022 0.163003,-0.26374 0.404603,-1.71055 0.536889,-3.21512 0.242349,-2.75639 0.398861,-3.18384 3.462564,-9.45655 2.45999,-5.03663 6.67144,-8.377 13.63932,-10.81819 1.54947,-0.54285 3.05759,-1.27382 3.35139,-1.62437 0.83225,-0.99302 6.29577,-2.41104 9.27076,-2.40616 2.71093,0.004 4.67733,0.44122 8.35601,1.85601 4.27161,1.64283 7.94553,6.45651 6.55153,8.58401 -0.59893,0.9141 -1.43549,4.89036 -1.74625,8.30002 -0.2153,2.3624 -1.29979,6.23717 -2.10971,7.53772 -0.54982,0.88291 -2.903,6.73451 -3.21105,7.98487 -0.14986,0.60826 0.01,1.40044 0.46235,2.29305 0.38021,0.75006 1.22151,2.87187 1.86955,4.71513 1.05132,2.99034 1.17755,3.75045 1.17158,7.05556 -0.005,2.61973 -0.23403,4.61601 -0.78323,6.81883 -0.55323,2.21899 -0.77654,4.18024 -0.77654,6.82021 0,3.61314 0.0352,3.77661 1.41111,6.55449 1.61038,3.25125 1.69638,3.86287 0.68529,4.87396 -0.6384,0.6384 -1.1164,0.71814 -3.96875,0.66204 -2.36185,-0.0464 -3.62631,0.0975 -4.65404,0.52986 -1.755,0.7383 -6.20157,1.60991 -8.21341,1.60999 -1.67144,7e-5 -3.53972,-0.65799 -4.22945,-1.48971 -0.37763,-0.45538 -0.25039,-0.7146 0.80603,-1.64215 1.0747,-0.9436 1.15001,-1.10141 0.52555,-1.10141 -1.00116,0 -1.33903,-1.03982 -0.53008,-1.63134 0.68877,-0.50365 2.96192,-1.37248 4.40943,-1.68536 0.48506,-0.10485 1.75394,-0.90961 2.81972,-1.78836 1.06577,-0.87874 2.14464,-1.59772 2.39748,-1.59772 0.25284,0 0.82914,-0.79741 1.28069,-1.77202 1.09277,-2.35863 1.17992,-6.79078 0.24609,-12.51548 -0.9364,-5.74047 -1.14534,-10.05873 -0.49871,-10.30687 0.60873,-0.23359 1.09733,0.2032 0.60011,0.53647 -0.48534,0.3253 -0.0733,5.68857 0.85931,11.18564 0.59198,3.48927 0.66402,4.81556 0.41172,7.58059 -0.38316,4.19906 -0.8028,5.85345 -1.73695,6.84781 -0.40426,0.43031 -0.73502,0.9634 -0.73502,1.18464 0,0.84413 3.21842,0.95256 6.66944,0.2247 0.84914,-0.1791 1.12984,-0.13764 0.95739,0.14139 -0.70335,1.13805 -6.56654,1.55685 -7.68063,0.54861 -0.44067,-0.39881 -0.7772,-0.46992 -1.08611,-0.22951 -0.24617,0.19159 -1.35841,1.07997 -2.47163,1.97418 -1.11322,0.8942 -2.62135,1.78971 -3.35139,1.99001 -0.73004,0.20031 -1.78818,0.67056 -2.35142,1.045 l -1.02408,0.68082 1.55324,0.43991 c 2.36215,0.66901 5.42211,0.41394 8.78519,-0.73233 2.46986,-0.84182 3.37186,-0.98796 5.11528,-0.82877 1.16417,0.1063 2.67229,0.0447 3.35139,-0.13696 1.17071,-0.3131 1.2331,-0.40714 1.20332,-1.81389 -0.0195,-0.92167 -0.31675,-1.86961 -0.7847,-2.50255 -0.41431,-0.56038 -0.89104,-1.8973 -1.0594,-2.97092 -0.38884,-2.4796 -0.24271,-8.27721 0.24721,-9.80767 0.20595,-0.64336 0.62182,-2.76785 0.92415,-4.7211 0.48071,-3.10569 0.48718,-3.81404 0.0516,-5.64445 -0.27398,-1.15119 -0.91202,-2.80746 -1.41785,-3.68058 -0.9726,-1.6788 -1.15667,-2.29952 -0.57542,-1.94028 0.4578,0.28294 0.45289,0.24313 -0.20955,-1.70104 -0.68195,-2.00142 -1.37828,-2.21828 -1.05135,-0.32743 0.16507,0.95465 0.1284,1.17561 -0.13172,0.79375 -1.05344,-1.54647 -0.11494,-5.34567 3.11876,-12.62522 1.32739,-2.98814 2.15574,-6.4441 2.13184,-8.89422 -0.008,-0.77599 -0.0968,-0.71241 -0.74285,0.52916 -0.87143,1.67478 -0.94079,1.76277 -1.19163,1.51193 -0.10624,-0.10624 0.19815,-1.04551 0.67642,-2.08727 2.28089,-4.96815 3.49701,-8.77327 2.80395,-8.77327 -0.1082,0 -1.67522,0.71438 -3.48226,1.5875 -1.80705,0.87313 -3.44836,1.5875 -3.64736,1.5875 -0.199,0 -1.51931,0.97328 -2.93401,2.16284 -1.4147,1.18957 -3.15792,2.5537 -3.87381,3.03141 -1.16122,0.77487 -1.3279,1.07883 -1.54519,2.81791 -0.50887,4.07283 0.5765,12.44895 1.61311,12.44895 0.16705,0 0.66912,0.51594 1.11571,1.14653 l 0.81199,1.14653 -0.96229,-0.62415 -0.9623,-0.62414 0.1475,2.21164 c 0.0811,1.21641 0.15957,2.33071 0.17432,2.47623 0.0147,0.14552 0.36378,0.26458 0.77559,0.26458 0.62436,0 0.67605,0.0876 0.31113,0.52729 -0.24067,0.29001 -0.35436,0.84563 -0.25261,1.23472 0.32428,1.24005 -0.0609,0.76829 -1.17561,-1.44004 -0.86115,-1.70592 -1.05453,-2.47743 -0.94053,-3.75225 0.13685,-1.5301 -0.68898,-3.77353 -1.95773,-5.31835 -0.47595,-0.57952 -0.53197,-4.60545 -0.12067,-8.67251 0.26576,-2.62796 0.2373,-3.10531 -0.17639,-2.95808 -0.27131,0.0965 -0.76967,0.0334 -1.10748,-0.14027 -0.46626,-0.23975 -1.04742,0.0266 -2.41293,1.106 -1.10798,0.87581 -2.16939,1.42183 -2.7639,1.42183 -1.02935,0 -2.26795,1.09036 -2.641,2.32492 -0.12256,0.40557 -1.21236,1.71164 -2.4218,2.90236 -4.29604,4.22958 -4.75177,4.79212 -4.9483,6.10794 -0.11605,0.77703 0.006,1.66173 0.31062,2.24858 0.4522,0.87162 0.43144,1.08161 -0.20955,2.11875 -0.39133,0.63317 -0.62037,1.38873 -0.50898,1.67899 0.11138,0.29027 -0.0455,1.12131 -0.34859,1.84675 -0.85639,2.04962 -0.74809,7.4185 0.19718,9.77462 1.0296,2.56634 1.2609,8.61176 0.53576,14.00294 -0.473,3.51662 -0.47687,4.1158 -0.0307,4.7528 0.55258,0.78891 0.70404,3.93845 0.20426,4.24733 -0.16844,0.10411 -0.41678,1.02232 -0.55185,2.04047 -0.13506,1.01815 -0.41355,2.05359 -0.61886,2.30098 -0.60962,0.73455 -1.25229,0.51535 -1.51098,-0.51537 -0.22795,-0.90822 -0.26387,-0.92383 -0.60903,-0.26458 -0.9781,1.86815 -2.20622,3.3464 -2.78016,3.3464 -0.35021,0 -0.73487,0.15875 -0.85478,0.35278 -0.284297,0.46001 -0.780392,0.44972 -1.072071,-0.0222 z m 2.441396,-2.64192 c 0.12047,-0.31395 0.0613,-0.45555 -0.13864,-0.33196 -0.19181,0.11854 -0.34874,0.36491 -0.34874,0.54749 0,0.50744 0.25286,0.39562 0.48738,-0.21553 z m 1.98206,-2.09835 c 0.92615,-2.06419 1.279,-2.40516 2.34181,-2.26292 0.44562,0.0596 0.8222,-0.93572 0.8122,-2.1468 l -0.0102,-1.23472 -0.73424,1.41111 c -0.88543,1.70168 -0.93809,1.76546 -1.22264,1.48091 -0.1233,-0.12329 0.0403,-0.62777 0.36349,-1.12105 0.64718,-0.98774 1.18581,-5.93137 1.51435,-13.89916 0.21242,-5.15169 -0.0993,-6.9802 -1.31873,-7.73634 -0.65814,-0.40809 -0.84153,-0.35724 -1.57814,0.43758 -0.92126,0.99405 -1.93179,0.89468 -1.93179,-0.18996 0,-0.3673 -0.14196,-0.66781 -0.31546,-0.66781 -0.17351,0 -0.3114,0.35718 -0.30644,0.79375 0.005,0.43656 -0.0926,1.5875 -0.21669,2.55764 l -0.22571,1.76388 0.53316,-1.14652 c 0.29324,-0.63059 0.57239,-1.14666 0.62034,-1.14682 0.048,-1.6e-4 0.0923,1.15078 0.0986,2.55764 0.0224,5.01014 1.41651,14.0232 2.16914,14.0232 0.25591,0 0.46529,0.17727 0.46529,0.39393 0,0.21695 -0.30923,0.31305 -0.68834,0.21392 -0.58774,-0.1537 -0.73993,0.0852 -1.04138,1.63454 -0.19418,0.99801 -0.32099,2.52893 -0.28181,3.40206 0.0392,0.87312 -0.0585,1.94468 -0.21711,2.38125 -0.6251,1.72069 0.19966,0.66407 1.1703,-1.49931 z m 1.21103,-12.25903 c 0.13398,-1.01864 0.41355,-2.01083 0.62127,-2.20486 0.26594,-0.2484 0.31169,-3.5e-4 0.15463,0.83785 -0.12267,0.65484 -0.22304,1.64703 -0.22304,2.20486 0,0.55783 -0.1792,1.01424 -0.39822,1.01424 -0.27615,0 -0.32355,-0.56777 -0.15464,-1.85209 z m 0.55827,-4.89479 c -0.003,-0.89738 -0.10463,-2.12769 -0.22589,-2.73402 -0.13384,-0.6692 -0.0764,-1.10243 0.14628,-1.10243 0.42714,0 0.73032,4.46003 0.34419,5.06319 -0.14255,0.22268 -0.26161,-0.32936 -0.26458,-1.22674 z m -2.55136,-1.03018 c -0.13363,-0.8819 -0.34682,-1.87409 -0.47375,-2.20486 -0.34489,-0.89879 0.38665,-0.72644 0.7943,0.18713 0.32738,0.73368 0.36905,0.69687 0.59906,-0.52917 0.13596,-0.72474 0.41574,-1.31771 0.62174,-1.31771 0.21452,0 0.27023,0.26376 0.13039,0.61736 -0.13428,0.33955 -0.33079,1.1333 -0.43668,1.76389 -0.10589,0.63059 -0.31997,1.14653 -0.47572,1.14653 -0.15575,0 -0.33565,0.43656 -0.39978,0.97014 -0.091,0.75754 -0.16983,0.61876 -0.35956,-0.63331 z m 1.8404,-5.60768 c 0,-0.18257 0.15693,-0.42895 0.34874,-0.54749 0.19997,-0.12359 0.25911,0.018 0.13864,0.33196 -0.23452,0.61116 -0.48738,0.72298 -0.48738,0.21553 z m 1.05833,24.71772 c 0,-0.16977 0.10236,-0.82047 0.22746,-1.44599 0.21215,-1.06074 0.18106,-1.10834 -0.46178,-0.70688 -0.49766,0.3108 -0.64782,0.71276 -0.54021,1.446 0.13256,0.90318 0.77453,1.48907 0.77453,0.70687 z m -5.889082,-3.90098 c 0.952732,-1.61752 0.522302,-1.30573 -0.819589,0.59369 -0.651108,0.92163 -0.876457,1.40853 -0.500775,1.082 0.375682,-0.32653 0.969846,-1.08059 1.320364,-1.67569 z m 2.682742,-2.7344 c 0.274,-0.68328 0.3515,-1.57356 0.19788,-2.27299 l -0.25253,-1.14977 -0.6642,1.74383 c -0.36531,0.95911 -0.60123,1.91058 -0.52426,2.11438 0.077,0.2038 -0.0754,0.75943 -0.33864,1.23472 -0.26322,0.47529 -0.4842,0.99542 -0.49107,1.15582 -0.0233,0.54395 1.61974,-1.69612 2.07282,-2.82599 z m 21.09481,1.34505 c 1.95374,-1.5477 2.76058,-2.44453 2.46508,-2.74003 -0.11446,-0.11446 -0.73239,0.10796 -1.37319,0.49427 -0.64079,0.3863 -2.03821,0.9844 -3.10536,1.32911 -3.81012,1.23074 -4.31776,2.16283 -1.21188,2.22517 1.26972,0.0255 1.82651,-0.2004 3.22535,-1.30852 z m 4.78852,-4.32878 c 0.34561,-0.60713 0.54404,-1.18821 0.44097,-1.29128 -0.10307,-0.10307 -0.1874,-0.008 -0.1874,0.21145 0,0.21937 -0.59248,0.80145 -1.31661,1.29352 -1.22647,0.8334 -1.25666,0.89451 -0.44098,0.89243 0.61062,-10e-4 1.06583,-0.33633 1.50402,-1.10612 z m -27.02946,-9.56318 c -0.0979,-0.24253 -0.17794,-0.0441 -0.17794,0.44098 0,0.48506 0.0801,0.6835 0.17794,0.44097 0.0979,-0.24254 0.0979,-0.63941 0,-0.88195 z m 2.16248,-7.6866 c 0.24705,-0.39559 0.56385,-0.64838 0.70401,-0.56175 0.14016,0.0866 0.27904,-0.58191 0.30864,-1.48562 0.0296,-0.90371 0.16689,-3.10354 0.3051,-4.88852 0.21291,-2.74969 0.15053,-3.4904 -0.40837,-4.84937 -0.65787,-1.59959 -1.18883,-2.08081 -1.18883,-1.07744 0,0.29104 -0.17727,0.52916 -0.39393,0.52916 -0.24714,0 -0.30109,-0.29576 -0.14479,-0.79375 0.13702,-0.43656 0.44935,-1.76276 0.69406,-2.94712 0.53962,-2.61164 0.43694,-2.43491 3.5656,-6.1369 2.65691,-3.14379 3.53827,-4.48604 3.39927,-5.17687 -0.0459,-0.22791 0.10412,-0.53025 0.33327,-0.67187 0.26148,-0.1616 0.3229,-0.10582 0.16493,0.14979 -0.34942,0.56536 0.0383,0.50887 1.19433,-0.17404 1.76619,-1.04332 2.71047,-4.02688 1.54435,-4.87957 -0.81169,-0.59351 -0.38415,-2.85612 0.58771,-3.11027 0.80978,-0.21176 0.95191,0.28392 0.1677,0.58485 -0.59117,0.22685 -0.73645,1.98909 -0.16398,1.98909 0.20085,0 0.75648,-0.25638 1.23472,-0.56974 1.01286,-0.66365 1.13792,-0.32145 0.25217,0.68997 -0.59118,0.67507 -0.58906,0.6946 0.0499,0.46068 0.56055,-0.20522 0.59745,-0.16017 0.23075,0.28168 -0.24008,0.28928 -0.6094,0.49135 -0.8207,0.44905 -0.21131,-0.0423 -0.42401,0.35075 -0.47268,0.87345 -0.0636,0.68275 0.0479,0.89805 0.39575,0.76456 0.26633,-0.1022 0.40568,-0.39055 0.30965,-0.64078 -0.12392,-0.32293 0.0888,-0.40462 0.73305,-0.28146 1.10262,0.21078 1.55582,0.79481 0.61676,0.79481 -0.37118,0 -1.1031,0.39688 -1.6265,0.88195 -0.5234,0.48507 -1.03417,0.88194 -1.13504,0.88194 -0.10088,0 -0.40935,0.22593 -0.68548,0.50206 -0.27614,0.27614 -0.87076,0.79209 -1.3214,1.14655 -0.45063,0.35447 -1.42697,1.5176 -2.16966,2.58475 -0.74268,1.06714 -2.02015,2.66446 -2.83882,3.54961 -1.54909,1.67486 -2.46583,3.09479 -2.18159,3.37903 0.091,0.091 1.73105,-1.36926 3.64455,-3.24501 1.91351,-1.87575 3.20129,-3.31816 2.86174,-3.20535 -0.67372,0.22383 -0.7748,-0.0364 -0.30322,-0.78064 0.18706,-0.29523 0.58362,-0.38976 1.03459,-0.24663 0.58308,0.18506 0.85035,-0.004 1.31904,-0.93239 0.86835,-1.72034 2.29475,-3.10476 3.1989,-3.10476 0.43768,0 1.38465,-0.34744 2.10438,-0.77209 l 1.30861,-0.7721 -1.5268,-0.37443 c -0.83975,-0.20594 -1.59996,-0.59817 -1.68936,-0.87162 -0.12046,-0.36844 0.01,-0.42403 0.50295,-0.21469 1.05553,0.44806 2.54667,0.63365 3.16984,0.39452 0.48073,-0.18447 0.37691,-0.45997 -0.64638,-1.7151 -0.67051,-0.82243 -1.3988,-1.83509 -1.61843,-2.25036 -0.49858,-0.94274 -0.70607,-7.1225 -0.26959,-8.02937 0.30298,-0.62949 0.20809,-0.65532 -1.55048,-0.42203 -2.07822,0.27568 -3.41819,0.88933 -7.58575,3.47393 -4.12027,2.55527 -5.55869,4.11362 -8.16522,8.846 -3.53685,6.42144 -3.80176,7.50027 -2.646942,10.77948 0.601763,1.70877 0.679012,1.79193 0.888665,0.9566 0.126287,-0.50317 0.385338,-0.91485 0.575669,-0.91485 0.420929,0 0.451026,-0.19409 -0.312671,2.01626 -0.450053,1.30258 -0.745521,1.73005 -1.011773,1.4638 -0.564637,-0.56464 -0.911672,0.88855 -0.641863,2.68776 0.288383,1.92308 1.1837,2.7813 3.106115,2.97741 0.39258,0.0401 0.32041,1.38017 -0.1185,2.20028 -0.973945,1.81984 -0.694752,5.87251 0.51891,7.53229 0.46965,0.64228 0.49034,0.61814 0.31177,-0.36368 -0.1052,-0.57839 -0.0608,-0.92959 0.0987,-0.78045 0.3853,0.36029 1.20555,2.74284 1.21225,3.52119 0.007,0.82507 0.43919,0.78061 0.99032,-0.10188 z m -2.37106,-5.10159 c 0.002,-0.38806 0.47341,-1.25518 1.04761,-1.92695 0.5742,-0.67177 1.044,-1.42583 1.044,-1.6757 0,-0.24986 0.13673,-0.4543 0.30385,-0.4543 0.54763,0 -0.0118,1.72639 -0.85385,2.63498 -0.45318,0.48899 -0.98625,1.16772 -1.18459,1.5083 -0.33174,0.56963 -0.36034,0.56272 -0.35702,-0.0863 z m 0.71503,-14.83736 c -0.40705,-0.6899 -0.74009,-1.48341 -0.74009,-1.76336 0,-0.90258 0.73104,-0.54118 1.1112,0.54933 0.20291,0.58208 0.51215,1.05833 0.6872,1.05833 0.41348,0 0.4135,0.95784 3e-5,1.21338 -0.17504,0.10818 -0.65129,-0.36778 -1.05834,-1.05768 z m 1.5901,-3.77167 c 0.21412,-2.62245 0.60599,-4.49791 0.93983,-4.49791 0.31797,0 0.23376,1.36618 -0.2718,4.40972 -0.0645,0.38805 -0.13043,0.82462 -0.1466,0.97014 -0.0162,0.14552 -0.16117,0.26458 -0.32222,0.26458 -0.16105,0 -0.25069,-0.51594 -0.19921,-1.14653 z m -2.68297,-0.0176 c 0,-0.25223 0.1846,-0.64321 0.41023,-0.86883 0.31178,-0.31178 0.18479,-0.49593 -0.52917,-0.76738 -1.187063,-0.45132 -1.224122,-1.0624 -0.0569,-0.93795 1.21165,0.12918 1.31482,0.30376 1.04125,1.762 -0.22515,1.20016 -0.86543,1.80103 -0.86543,0.81216 z m -0.34009,-4.39208 c 0.021,-0.43779 1.70605,-2.3676 1.89892,-2.17474 0.25927,0.25927 -1.12925,2.43932 -1.55364,2.43932 -0.19688,0 -0.35226,-0.11906 -0.34528,-0.26458 z m 3.2715,-1.7043 c -0.417,-0.89862 -0.28791,-1.91167 0.24359,-1.91167 0.37366,0 0.70556,0.9263 0.70556,1.96913 0,1.10837 -0.41995,1.08294 -0.94915,-0.0575 z m -0.63607,-3.94014 c 0.13978,-0.33955 0.33403,-0.89518 0.43166,-1.23473 0.18475,-0.64252 0.80078,-0.86373 0.80078,-0.28755 0,0.73502 -0.71382,2.13964 -1.08734,2.13964 -0.24188,0 -0.29908,-0.24335 -0.1451,-0.61736 z m 14.28522,0.0882 c -0.35968,-0.43339 -0.33558,-0.52917 0.13319,-0.52917 0.3148,0 0.57236,0.23813 0.57236,0.52917 0,0.29104 -0.0599,0.52917 -0.13319,0.52917 -0.0733,0 -0.33082,-0.23813 -0.57236,-0.52917 z m -4.91022,-2.82227 c 0,-0.19403 0.4698,-0.90241 1.044,-1.57418 0.5742,-0.67176 1.044,-1.06264 1.044,-0.86861 0,0.19402 -0.4698,0.9024 -1.044,1.57417 -0.5742,0.67177 -1.044,1.06265 -1.044,0.86862 z m 2.28577,-4.05695 c 0.28916,-1.08843 0.86056,-1.76565 0.86056,-1.01992 0,0.29276 -0.24635,0.84045 -0.54743,1.21708 -0.52611,0.65811 -0.53831,0.65043 -0.31313,-0.19716 z m -15.719997,34.53209 c 0,-0.20429 -0.198437,-0.29955 -0.440972,-0.21169 -0.242535,0.0879 -0.758472,-0.0957 -1.146528,-0.40781 -0.388055,-0.31216 -0.58787,-0.42512 -0.444033,-0.25101 0.143838,0.17411 0.106002,0.50395 -0.08408,0.73299 -0.253513,0.30546 -0.0177,0.42875 0.885005,0.46268 0.676834,0.0254 1.230607,-0.12088 1.230608,-0.32516 z m -2.024423,-3.88929 c -0.214437,-0.21444 -0.295938,-0.63471 -0.181114,-0.93393 0.137067,-0.3572 0.06702,-0.45645 -0.203956,-0.28898 -0.227001,0.1403 -0.412729,0.45209 -0.412729,0.69288 0,0.52281 0.760435,1.34717 1.011297,1.09631 0.09701,-0.097 9.52e-4,-0.35184 -0.213498,-0.56628 z m 2.729979,-0.29953 c 0,-0.65396 -0.28708,-1.02116 -1.724522,-2.20579 -0.976968,-0.80514 -0.940059,-0.54277 0.211935,1.50658 0.952937,1.69523 1.512587,1.95394 1.512587,0.69921 z m 5.677161,-2.56202 c 0.018,-0.24253 0.007,-1.09368 -0.0236,-1.89144 -0.0369,-0.95056 0.14864,-1.65546 0.53845,-2.04527 0.93635,-0.93635 0.25733,-1.13026 -0.7253,-0.20712 -0.88703,0.83332 -1.1087,2.11006 -0.65821,3.79105 0.22714,0.84757 0.8143,1.08602 0.8687,0.35278 z m 1.37839,-0.63818 c 0,-0.18258 -0.15875,-0.33196 -0.35277,-0.33196 -0.19403,0 -0.35278,0.2475 -0.35278,0.54999 0,0.30249 0.15875,0.45187 0.35278,0.33196 0.19402,-0.11992 0.35277,-0.36741 0.35277,-0.54999 z m 17.95637,-6.31148 c -0.19163,-0.85287 -0.47961,-2.67419 -0.63995,-4.04738 l -0.29155,-2.49671 -0.0458,2.92175 c -0.0298,1.9051 0.13997,3.36628 0.48803,4.1993 0.69415,1.66135 0.92973,1.38353 0.48923,-0.57696 z M 25.82932,148.86774 c 0,-1.07567 -0.120669,-1.53739 -0.343546,-1.31451 -0.305254,0.30525 -0.113844,2.97256 0.213316,2.97256 0.07163,0 0.13023,-0.74612 0.13023,-1.65805 z m 27.052096,-7.93309 c -0.11261,-0.28142 -0.19621,-0.19783 -0.21313,0.21313 -0.0153,0.37189 0.0681,0.58025 0.18528,0.46303 0.11723,-0.11723 0.12976,-0.4215 0.0279,-0.67616 z m 0.22869,-1.96233 c 0.1254,-0.65879 0.0719,-1.14653 -0.12572,-1.14653 -0.18917,0 -0.34395,0.58209 -0.34395,1.29352 0,1.51194 0.16364,1.46072 0.46967,-0.14699 z m -3.7128,-4.50725 c -0.10862,-0.10862 -0.30588,0.0872 -0.43836,0.43509 -0.19145,0.50278 -0.15092,0.5433 0.19748,0.19749 0.2411,-0.23931 0.34949,-0.52396 0.24088,-0.63258 z m 1.3396,-0.77707 c -0.35861,-0.3586 -0.65449,0.18129 -0.36027,0.65736 0.22227,0.35963 0.30536,0.35991 0.42485,0.001 0.0817,-0.24511 0.0526,-0.54156 -0.0646,-0.65879 z m 6.84912,0.0728 c 0.37281,-0.4492 0.35098,-0.50083 -0.1332,-0.31503 -0.31848,0.12221 -0.57906,0.36397 -0.57906,0.53724 0,0.45366 0.20421,0.38995 0.71226,-0.22221 z m -1.77059,-0.13891 c 0,-0.17786 -0.19844,-0.39517 -0.44098,-0.48291 -0.25431,-0.092 -0.0303,-0.35242 0.52917,-0.6152 0.53358,-0.25061 0.97014,-0.60836 0.97014,-0.795 0,-0.18664 -0.24196,-0.13854 -0.53769,0.1069 -0.29573,0.24543 -0.63969,0.34424 -0.76435,0.21958 -0.12467,-0.12466 -0.0811,-0.23019 0.0967,-0.2345 0.17786,-0.004 0.72026,-0.33097 1.20533,-0.7259 l 0.88194,-0.71806 -1.19066,0.23446 c -0.9443,0.18594 -1.13432,0.13541 -0.91838,-0.24424 0.20029,-0.35213 0.16295,-0.37839 -0.14122,-0.0993 -0.47461,0.43545 -0.79693,2.43491 -0.51215,3.17704 0.21282,0.55459 0.82214,0.68588 0.82214,0.17714 z m -7.24701,-0.3578 c 0.11163,-0.18062 0.0416,-0.42812 -0.15557,-0.54999 -0.1972,-0.12187 -0.35853,0.0259 -0.35853,0.3284 0,0.61967 0.21168,0.71091 0.5141,0.22159 z m -0.93383,-1.82964 c -0.63491,-0.3924 -0.75887,-0.12801 -0.46658,0.99508 l 0.25675,0.98657 0.32581,-0.8543 c 0.23014,-0.60345 0.19608,-0.93449 -0.11598,-1.12735 z m 5.18223,0.27656 c 0,-0.51741 -0.15875,-0.94074 -0.35278,-0.94074 -0.19403,0 -0.35278,0.47625 -0.35278,1.05833 0,0.58208 0.15875,1.00542 0.35278,0.94074 0.19403,-0.0647 0.35278,-0.54092 0.35278,-1.05833 z m 11.00403,-1.29352 c 0.4002,0 0.92526,-0.23812 1.1668,-0.52917 0.24154,-0.29104 0.63077,-0.52916 0.86496,-0.52916 0.23418,0 0.41318,-0.27782 0.39777,-0.61736 -0.0154,-0.33955 0.13074,-0.61736 0.32477,-0.61736 0.19403,0 0.31309,0.11906 0.26458,0.26458 -0.11441,0.34323 0.0368,0.33373 1.0956,-0.0688 0.65412,-0.2487 0.82878,-0.51761 0.68738,-1.05834 -0.10427,-0.3987 -0.32981,-0.72491 -0.50121,-0.72491 -0.17139,0 -0.31163,-0.15875 -0.31163,-0.35278 0,-0.19403 -0.64713,-0.99991 -1.43807,-1.79085 -1.06629,-1.06629 -1.7499,-1.4539 -2.64425,-1.4993 -0.6634,-0.0337 -1.20689,-0.1803 -1.20776,-0.32582 -0.003,-0.55797 -0.63344,-0.23176 -0.80272,0.41557 -0.11055,0.42277 -0.42651,0.64017 -0.83489,0.57448 -0.36137,-0.0581 -0.84852,0.0463 -1.08255,0.23215 -0.23403,0.18581 -0.59094,0.2356 -0.79313,0.11065 -0.20219,-0.12496 -0.72072,0.0201 -1.15228,0.3224 -1.06506,0.746 -2.18419,0.73178 -1.89414,-0.0241 0.2,-0.5212 0.13084,-0.51941 -0.75601,0.0196 -0.53688,0.3263 -0.0236,-0.30496 1.14052,-1.40279 1.35982,-1.28233 1.67956,-1.70291 0.89421,-1.17623 -1.52927,1.0256 -2.64704,1.25059 -2.34855,0.47272 0.12161,-0.31692 0.0633,-0.45964 -0.1372,-0.33573 -0.1918,0.11855 -0.34873,0.0524 -0.34873,-0.14699 0,-0.19939 -0.26621,-0.26037 -0.59157,-0.13552 -0.5341,0.20495 -0.52781,0.24937 0.0648,0.45724 0.51097,0.17924 0.55201,0.29471 0.18527,0.52137 -0.2965,0.18325 -0.62541,0.0801 -0.88753,-0.2784 -0.38305,-0.52384 -0.48252,-0.52327 -1.23972,0.007 -0.45279,0.31715 -0.70818,0.39044 -0.56754,0.16287 0.38358,-0.62064 -0.0842,-0.5006 -1.23076,0.31581 -0.56353,0.40127 -1.0246,0.90212 -1.0246,1.11301 0,0.21089 0.29031,0.1207 0.64514,-0.20041 0.89158,-0.80687 0.93129,-0.77229 1.02733,0.89448 0.0467,0.81107 0.26551,1.58624 0.48617,1.72262 0.22066,0.13637 0.29211,0.42445 0.15879,0.64017 -0.14313,0.2316 0.019,0.39682 0.39578,0.40344 0.61558,0.0108 0.61557,0.0284 -2.9e-4,0.4953 -0.95756,0.72601 -0.0738,1.0408 0.98128,0.34951 0.54171,-0.35494 0.89191,-0.42995 0.89191,-0.19105 0,0.21635 -0.15875,0.39335 -0.35278,0.39335 -0.19403,0 -0.35278,0.17574 -0.35278,0.39053 0,0.21478 0.23813,0.29914 0.52917,0.18746 0.32806,-0.12589 0.52917,0.002 0.52917,0.33585 0,0.2964 0.16134,0.4392 0.35853,0.31733 0.19719,-0.12187 0.28704,-0.33726 0.19967,-0.47864 -0.28314,-0.45813 0.42409,-1.23061 1.17748,-1.28611 0.95562,-0.0704 0.93211,0.31418 -0.06,0.98116 -0.43656,0.2935 -0.69024,0.64127 -0.56372,0.77282 0.12651,0.13156 1.03775,-0.34109 2.02496,-1.05034 0.98721,-0.70924 1.99495,-1.22212 2.23942,-1.13973 0.24446,0.0824 0.71231,-0.28814 1.03966,-0.82341 0.6172,-1.00925 1.04867,-1.09532 2.19896,-0.43863 0.65839,0.37587 0.6559,0.40024 -0.0882,0.86493 -0.72621,0.45352 -1.06758,1.37798 -0.50109,1.35697 0.14552,-0.005 0.88818,-0.48165 1.65035,-1.05833 1.43597,-1.08652 1.96562,-1.28122 1.96562,-0.72255 0,0.17928 -0.89463,0.77459 -1.98808,1.32291 -1.09345,0.54832 -2.46939,1.59226 -3.05766,2.31987 -0.58826,0.7276 -1.3605,1.32291 -1.71607,1.32291 -0.41418,0 -0.64652,0.25695 -0.64652,0.715 0,0.66638 0.16348,0.6304 2.40418,-0.52917 1.3223,-0.68429 2.73161,-1.24416 3.1318,-1.24416 z m -9.81431,-3.40876 c -0.41528,-0.50308 -0.40888,-0.56016 0.045,-0.40118 0.29104,0.10195 0.96573,-0.0351 1.4993,-0.30447 1.17439,-0.59294 1.26026,-0.29765 0.17639,0.60654 -0.98397,0.82086 -1.11851,0.82861 -1.72069,0.0991 z m 0.86815,-1.33822 c 0,-0.28251 0.13488,-0.43029 0.29973,-0.3284 0.16486,0.10188 0.20841,0.33303 0.0968,0.51365 -0.28526,0.46156 -0.3965,0.40959 -0.3965,-0.18525 z m 11.17129,0.16087 c 0,-0.19403 0.16812,-0.35278 0.3736,-0.35278 0.20548,0 0.27549,0.15875 0.15557,0.35278 -0.11992,0.19403 -0.28804,0.35278 -0.3736,0.35278 -0.0856,0 -0.15557,-0.15875 -0.15557,-0.35278 z m -3.52778,-0.35278 c 0,-0.19403 0.16812,-0.35278 0.3736,-0.35278 0.20548,0 0.27549,0.15875 0.15557,0.35278 -0.11991,0.19403 -0.28803,0.35278 -0.3736,0.35278 -0.0856,0 -0.15557,-0.15875 -0.15557,-0.35278 z m 1.06942,-0.34113 c 0.006,-0.10342 0.40463,-0.47451 0.88563,-0.82465 0.78647,-0.57249 0.89633,-0.57984 1.09083,-0.073 0.11896,0.30999 0.11615,0.66376 -0.006,0.78615 -0.27436,0.27435 -1.98554,0.37117 -1.97023,0.11147 z m -3.83302,-0.32073 c -0.38724,-0.24547 -0.38204,-0.33225 0.0294,-0.49013 0.28519,-0.10944 0.49995,0.021 0.49995,0.30368 0,0.27254 -0.0132,0.4931 -0.0294,0.49013 -0.0162,-0.003 -0.24115,-0.13963 -0.49995,-0.30368 z m -8.51604,-0.38329 c -0.43841,-0.27725 -0.38728,-0.46999 0.32608,-1.22932 0.8065,-0.85848 1.69278,-1.26066 1.26975,-0.57619 -0.11025,0.17838 0.0649,0.58967 0.38917,0.91396 0.49812,0.49811 0.51231,0.63857 0.0914,0.90498 -0.64158,0.40614 -1.42095,0.40109 -2.07644,-0.0134 z m -1.88492,7.32901 c -0.11262,-0.28143 -0.19621,-0.19783 -0.21314,0.21313 -0.0153,0.37189 0.0681,0.58025 0.18529,0.46302 0.11722,-0.11722 0.12975,-0.42149 0.0278,-0.67615 z m 1.26348,-4.61392 c -0.0782,-0.14868 -0.28989,-0.179 -0.47051,-0.0674 -0.39439,0.24374 -0.42497,1.74699 -0.0688,3.38042 0.23968,1.09907 0.27586,1.02786 0.47052,-0.92604 0.11599,-1.16417 0.14693,-2.23832 0.0688,-2.38701 z m -17.73225,3.09256 c 0.4557,-0.48507 0.74917,-0.88194 0.65216,-0.88194 -0.097,0 -0.54924,0.39687 -1.00494,0.88194 -0.4557,0.48507 -0.74917,0.88195 -0.65215,0.88195 0.097,0 0.54923,-0.39688 1.00493,-0.88195 z m 16.20186,-1.39119 c -0.14332,-1.05619 -0.36425,-2.08807 -0.49094,-2.29305 -0.31481,-0.50939 0.27653,-0.47192 0.79908,0.0506 0.23283,0.23283 0.43548,0.3519 0.45033,0.26458 0.0148,-0.0873 0.0802,-0.43656 0.14517,-0.77611 0.065,-0.33955 -0.0874,-0.61736 -0.33862,-0.61736 -0.25125,0 -0.56929,-0.35719 -0.70676,-0.79375 -0.22695,-0.72073 -0.27799,-0.68016 -0.55487,0.44097 -0.16771,0.6791 -0.2401,2.02848 -0.16086,2.99862 0.0792,0.97013 0.15166,1.96232 0.16095,2.20486 0.009,0.24253 0.22844,0.44097 0.487,0.44097 0.36598,0 0.4124,-0.42539 0.20952,-1.92036 z m 3.2729,1.07364 c 0.52843,-0.94425 0.008,-1.13653 -0.78126,-0.28889 -0.85044,0.91284 -0.87542,1.09865 -0.13302,0.98969 0.31285,-0.0459 0.72428,-0.36127 0.91428,-0.7008 z m 5.57246,-0.40882 c 0,-0.3025 -0.16134,-0.45028 -0.35853,-0.32841 -0.19719,0.12188 -0.2672,0.36937 -0.15557,0.54999 0.30242,0.48932 0.5141,0.39808 0.5141,-0.22158 z m -20.54134,-2.27224 c 0.19064,0 0.56449,-0.26717 0.83079,-0.59372 0.67526,-0.82806 -3.02199,1.19945 -3.82961,2.10009 -0.37386,0.41693 0.0335,0.2543 1.01355,-0.40463 0.90126,-0.60595 1.79463,-1.10174 1.98527,-1.10174 z m 23.91905,1.36853 c 0.10544,-0.17061 0.0366,-0.3102 -0.15304,-0.3102 -0.60166,0 -1.46078,0.41773 -1.46078,0.71028 0,0.35445 1.35512,0.0185 1.61382,-0.40008 z m -2.12848,0.0191 c 0.37969,-0.61434 -0.0528,-0.74444 -0.53659,-0.16144 -0.27826,0.33527 -0.30502,0.53769 -0.0711,0.53769 0.20634,0 0.4798,-0.16931 0.60769,-0.37625 z m -12.05776,-1.56403 c 0.11168,-0.29104 0.0493,-0.52916 -0.13865,-0.52916 -0.18794,0 -0.34171,0.23812 -0.34171,0.52916 0,0.29104 0.0624,0.52917 0.13865,0.52917 0.0763,0 0.23002,-0.23813 0.34171,-0.52917 z m 14.73409,-0.76331 c 0.43902,-0.5322 0.41016,-0.54749 -0.30958,-0.16398 -0.8209,0.43742 -1.02304,0.7509 -0.48417,0.7509 0.17027,0 0.52746,-0.26411 0.79375,-0.58692 z m -14.29087,-2.72421 c -0.1664,-0.66299 -0.0435,-0.89272 0.57911,-1.08207 0.43814,-0.13326 0.60451,-0.31797 0.37331,-0.41447 -0.46323,-0.19334 -2.58155,0.79568 -2.58155,1.2053 0,0.20637 1.00997,0.84845 1.71394,1.08961 0.0695,0.0238 0.0314,-0.33544 -0.0848,-0.79837 z m 12.0142,-1.40727 c 0.78801,0.20607 1.4296,-0.37324 0.82631,-0.7461 -0.19719,-0.12187 -0.35853,-0.0535 -0.35853,0.15202 0,0.20548 -0.16812,0.37359 -0.3736,0.37359 -0.20548,0 -0.27548,-0.15875 -0.15557,-0.35277 0.463,-0.74914 -0.44855,-0.30484 -1.26142,0.61483 -0.58121,0.65758 -0.625,0.7749 -0.13668,0.36615 0.41857,-0.35036 1.0279,-0.52058 1.45949,-0.40772 z m 1.87889,65.43442 c 0,-0.17299 0.38573,-0.41134 0.85717,-0.52967 0.78073,-0.19595 0.82793,-0.31714 0.52917,-1.35883 -0.46218,-1.61154 -0.4189,-4.85252 0.0648,-4.85252 0.2451,0 0.3248,0.43115 0.21194,1.14653 -0.0995,0.63059 -0.0271,1.89049 0.16077,2.79978 0.39536,1.91319 -0.0396,3.10925 -1.13071,3.10925 -0.38123,0 -0.69315,-0.14155 -0.69315,-0.31454 z m -0.67598,-11.15074 c 0,-0.19403 0.30419,-0.9084 0.67598,-1.5875 0.37179,-0.6791 0.67598,-1.07597 0.67598,-0.88195 0,0.19403 -0.30419,0.90841 -0.67598,1.5875 -0.37179,0.6791 -0.67598,1.07598 -0.67598,0.88195 z m -0.91443,-17.02153 c -0.49631,-1.20256 -0.80316,-2.90517 -0.48854,-2.71072 0.17328,0.1071 0.31506,0.43136 0.31506,0.72059 0,0.28922 0.24221,0.99423 0.53823,1.56668 0.29602,0.57245 0.39238,1.04081 0.21413,1.04081 -0.17825,0 -0.43875,-0.27781 -0.57888,-0.61736 z m -3.00038,-2.21617 c -0.59418,-1.43446 -0.19186,-1.74483 0.50783,-0.39177 0.63762,1.23301 0.67594,1.46141 0.2452,1.46141 -0.17048,0 -0.50935,-0.48134 -0.75303,-1.06964 z m 1.06301,-1.76215 c -0.58282,-0.44957 -0.70247,-0.68112 -0.35277,-0.68274 0.75855,-0.004 1.51956,0.54633 1.36591,0.98687 -0.0784,0.22474 -0.48621,0.10232 -1.01314,-0.30413 z m 2.11991,-2.37168 c 0.002,-0.14552 0.89222,-2.09021 1.97875,-4.32153 1.08653,-2.23132 2.35983,-5.08882 2.82955,-6.35 0.82167,-2.20614 0.84564,-2.23288 0.63244,-0.70555 -0.12188,0.87312 -0.81391,2.77812 -1.53784,4.23333 -0.72393,1.45521 -1.76403,3.7174 -2.31133,5.02709 -0.54731,1.30968 -1.13004,2.38125 -1.29496,2.38125 -0.16492,0 -0.29839,-0.11907 -0.29661,-0.26459 z m -4.23657,-2.30528 c 0,-0.0552 -0.3258,-1.02738 -0.724,-2.16032 -0.46491,-1.32275 -0.64226,-2.43204 -0.4956,-3.09981 0.32428,-1.47642 0.67218,-0.89979 0.55979,0.92782 -0.11229,1.82592 0.54529,3.10551 1.44858,2.81882 0.71507,-0.22696 0.77023,-0.0272 0.25715,0.93155 -0.29727,0.55545 -1.04592,0.97199 -1.04592,0.58194 z m -0.75056,-12.48095 c -0.44273,-0.53669 -0.41013,-0.54746 0.38092,-0.1258 0.62998,0.33581 0.90162,0.35151 0.99953,0.0578 0.0739,-0.22185 0.29942,-0.40337 0.50103,-0.40337 0.22132,0 0.19256,0.20969 -0.0726,0.52917 -0.57331,0.69079 -1.20811,0.67052 -1.80889,-0.0578 z"
       style="fill:#000000;stroke-width:0.35277778" />
  </g>
</svg>
