<?xml version="1.0" encoding="UTF-8" standalone="no"?>
<svg
   xmlns:dc="http://purl.org/dc/elements/1.1/"
   xmlns:cc="http://creativecommons.org/ns#"
   xmlns:rdf="http://www.w3.org/1999/02/22-rdf-syntax-ns#"
   xmlns:svg="http://www.w3.org/2000/svg"
   xmlns="http://www.w3.org/2000/svg"
   id="svg8026"
   version="1.1"
   viewBox="0 0 67.489014 119.46703"
   height="119.46703mm"
   width="67.489014mm">
  <defs
     id="defs8020" />
  <metadata
     id="metadata8023">
    <rdf:RDF>
      <cc:Work
         rdf:about="">
        <dc:format>image/svg+xml</dc:format>
        <dc:type
           rdf:resource="http://purl.org/dc/dcmitype/StillImage" />
        <dc:title></dc:title>
      </cc:Work>
    </rdf:RDF>
  </metadata>
  <g
     transform="translate(-65.497668,-89.194187)"
     id="layer1">
    <path
       id="path8633"
       d="m 113.37949,208.50614 c -0.39549,-0.40189 -0.31906,-1.83986 0.11194,-2.10623 0.20733,-0.12814 0.4636,0.1003 0.57031,0.50835 0.12771,0.48836 0.4772,0.74105 1.02494,0.74105 1.11464,0 4.68218,-1.71476 5.05288,-2.4287 0.26194,-0.50448 0.74146,-4.62686 0.5382,-4.62686 -0.0439,0 -0.58432,0.47119 -1.20082,1.04709 -0.6165,0.5759 -1.62811,1.14224 -2.24803,1.25854 -0.83304,0.15628 -1.33543,0.57341 -1.92554,1.59874 -0.43913,0.76302 -1.04504,1.3873 -1.34645,1.3873 -0.30142,0 -0.48675,-0.11906 -0.41184,-0.26458 1.31387,-2.55242 1.41167,-3.12221 1.25569,-7.31586 -0.17203,-4.62537 0.13615,-3.69709 -3.74915,-11.29317 -0.71031,-1.38872 -1.10862,-2.72329 -1.15817,-3.88056 -0.0617,-1.44182 -0.27374,-1.96366 -1.16107,-2.85801 -1.41658,-1.42781 -3.02581,-3.66757 -3.02581,-4.21142 0,-0.23618 -0.6916,-1.67974 -1.53688,-3.20789 -0.84528,-1.52816 -1.98615,-3.92873 -2.53526,-5.3346 -0.54912,-1.40587 -1.10808,-2.55613 -1.24215,-2.55613 -0.468888,0 -0.970107,0.89484 -1.383192,2.46944 -0.229055,0.87313 -0.942474,2.77813 -1.585373,4.23334 -1.47994,3.34986 -1.880709,6.64897 -1.090456,8.97661 0.694315,2.04506 0.711124,4.56346 0.03862,5.78562 -0.990762,1.80054 -2.3388,5.66715 -2.656663,7.62018 -0.176297,1.08321 -0.417929,2.12705 -0.536962,2.31965 -0.730778,1.18242 -4.779671,1.9383 -6.892917,1.28681 -0.723256,-0.22297 -1.267588,-0.025 -2.766765,1.00625 -1.026501,0.70611 -2.526319,1.57015 -3.332932,1.92009 -1.443753,0.62636 -1.452055,0.64009 -0.533697,0.88247 0.567989,0.14991 1.947842,-0.028 3.527778,-0.45484 1.427199,-0.38558 3.979358,-0.78741 5.671466,-0.89294 3.607673,-0.22502 4.656618,-0.6465 4.377422,-1.7589 -0.105974,-0.42224 -0.0576,-0.98626 0.107501,-1.2534 0.450061,-0.72822 1.198312,0.86036 0.922626,1.95878 -0.301398,1.20086 -1.848521,1.74806 -5.66641,2.00412 -1.748737,0.11729 -4.115152,0.53516 -5.258699,0.9286 -2.496502,0.85892 -5.914558,0.95766 -6.552262,0.18927 -0.360819,-0.43476 -0.239381,-0.7103 0.699668,-1.5875 0.624946,-0.58379 1.444374,-1.06143 1.82095,-1.06143 0.376577,0 1.986977,-0.73949 3.578665,-1.64331 5.528,-3.13902 6.235623,-4.32827 6.302869,-10.59282 0.0935,-8.71048 -0.139917,-13.22994 -0.780833,-15.11847 -0.591159,-1.74191 -0.496898,-4.61465 0.2446,-7.45453 0.550145,-2.10701 0.54428,-2.22715 -0.181955,-3.72735 -1.011565,-2.08961 -0.95856,-2.67277 0.527595,-5.80454 1.176376,-2.47898 1.264352,-2.88419 1.106167,-5.09504 -0.181675,-2.53914 0.284259,-3.83338 1.380041,-3.83338 0.453527,0 0.506415,-0.28543 0.303554,-1.63821 -0.135115,-0.90101 -0.532297,-2.29007 -0.882626,-3.0868 -1.079437,-2.4549 -1.822322,-6.19195 -1.996207,-10.04184 -0.09605,-2.12662 -0.371295,-4.06941 -0.651666,-4.59975 -0.266959,-0.50497 -1.838048,-2.32873 -3.491308,-4.0528 -1.860516,-1.94021 -3.357765,-3.87777 -3.929265,-5.0848 -1.124497,-2.37497 -2.707935,-4.76989 -4.245213,-6.4208 -1.669026,-1.7924 -4.764382,-6.75871 -6.429108,-10.31511 -0.98579,-2.105974 -1.716412,-3.207654 -2.305201,-3.475924 -0.944615,-0.43039 -2.366778,-2.677196 -2.354343,-3.719505 0.0043,-0.361638 0.318284,-1.054398 0.697711,-1.539468 0.379427,-0.485069 0.693397,-1.015248 0.697711,-1.178174 0.01462,-0.552266 1.589753,-1.619646 2.72153,-1.844235 0.987254,-0.19591 1.270135,-0.061 2.293055,1.093561 1.6758,1.891466 1.685288,1.924626 1.14576,4.00456 -0.548579,2.114826 -0.714655,1.726331 2.210946,5.171991 0.816354,0.961474 2.289992,2.383134 3.274752,3.159244 0.98476,0.77611 2.213482,2.04611 2.73049,2.82222 1.371037,2.05814 2.569779,3.32179 4.049225,4.26845 0.719504,0.4604 1.954824,1.71241 2.745156,2.78224 0.790331,1.06983 1.590708,1.94515 1.778615,1.94515 0.53831,0 0.398244,-1.05876 -0.168855,-1.27638 -0.768224,-0.29479 -1.400088,-3.79245 -0.929163,-5.14334 0.209734,-0.60165 0.381334,-1.43487 0.381334,-1.85161 0,-0.41674 0.618266,-1.36142 1.373923,-2.0993 1.115094,-1.08886 1.827591,-1.4367 3.782104,-1.8464 2.513794,-0.52694 3.768906,-0.42936 5.693573,0.44263 1.511044,0.68459 2.685944,2.9337 2.444754,4.68 -0.0967,0.70046 -0.34767,2.44525 -0.55763,3.8773 -0.34041,2.3219 -0.30769,2.77113 0.3023,4.15012 0.54571,1.23364 1.00056,1.68205 2.24914,2.21726 0.86081,0.36898 2.1792,1.05854 2.92975,1.53234 0.75056,0.47381 2.23701,1.11518 3.30323,1.42527 1.06622,0.3101 2.18576,0.76924 2.48788,1.02032 1.07062,0.88977 2.46354,3.08589 2.68461,4.23264 0.12329,0.63952 0.65528,1.71838 1.1822,2.39748 0.52693,0.6791 1.29518,1.90016 1.70724,2.71348 0.41205,0.81331 1.14755,2.06578 1.63444,2.78325 0.48689,0.71748 0.88526,1.52048 0.88526,1.78444 0,0.69039 -0.68654,0.59162 -0.95524,-0.13742 -0.12515,-0.33955 -0.58512,-1.09379 -1.02216,-1.67609 -0.43704,-0.58229 -1.12249,-1.8236 -1.52321,-2.75845 -0.5917,-1.38038 -0.85544,-1.65947 -1.40372,-1.48546 -0.59684,0.18944 -0.74634,-0.11529 -1.28918,-2.62768 -0.53806,-2.4903 -0.78229,-2.99397 -1.97378,-4.0704 -1.41634,-1.27958 -2.39145,-1.48858 -4.03309,-0.86443 -0.81729,0.31073 -0.89564,0.28956 -0.53528,-0.14466 0.34824,-0.4196 0.23391,-0.55002 -0.65303,-0.74482 -0.59136,-0.12988 -1.07519,-0.44211 -1.07519,-0.69384 0,-0.25173 -1.06972,-1.00892 -2.37715,-1.68264 -2.20705,-1.13729 -2.42987,-1.36129 -3.11376,-3.13025 -0.69287,-1.79219 -0.80307,-1.89999 -1.856182,-1.81577 -0.80095,0.064 -1.119579,-0.0615 -1.119579,-0.44097 0,-0.29178 0.298993,-0.53051 0.664429,-0.53051 0.428131,0 0.724238,-0.31286 0.832598,-0.87971 0.203842,-1.06632 -0.470655,-1.76944 -1.096776,-1.14332 -0.275068,0.27507 -0.519532,0.30378 -0.679524,0.0798 -0.137442,-0.1924 -0.448331,-0.3657 -0.690866,-0.38511 -0.993435,-0.0795 -1.116045,-0.16284 -0.934664,-0.63551 0.215705,-0.56212 1.552025,-1.01923 1.552025,-0.5309 0,0.42587 0.753481,0.39705 1.411111,-0.054 0.452614,-0.31041 0.414338,-0.44344 -0.264583,-0.91957 -0.896073,-0.62841 -1.03687,-1.17615 -0.302327,-1.17615 0.270284,0 0.581773,-0.23545 0.692203,-0.52322 0.114243,-0.29772 0.434594,-0.43349 0.743295,-0.31503 0.8637,0.33143 0.62973,-0.46344 -0.42401,-1.44053 -0.531594,-0.49292 -1.365031,-0.91463 -1.852084,-0.93714 -0.597986,-0.0276 -0.685076,-0.0933 -0.268188,-0.20226 1.203367,-0.31447 0.595644,-0.8541 -0.841528,-0.74724 -1.073517,0.0798 -1.605734,0.33068 -2.014795,0.94965 -0.535026,0.80958 -0.526607,0.83188 0.224167,0.59359 0.578425,-0.18358 0.780072,-0.10465 0.780072,0.30536 0,0.66063 0.154687,0.68262 1.01639,0.14448 0.703914,-0.4396 1.805833,-0.19712 1.805833,0.39738 0,0.20012 -0.223263,0.36385 -0.49614,0.36385 -0.315059,0 -0.431684,0.24649 -0.319532,0.67535 0.210365,0.80444 -0.927315,1.54363 -1.8928,1.22982 -0.353605,-0.11493 -0.848201,-0.27076 -1.099103,-0.34628 -0.344966,-0.10383 -0.363442,-0.3106 -0.07578,-0.8481 0.212985,-0.39796 0.236512,-0.71079 0.05346,-0.71079 -0.692505,0 -0.803416,-1.83198 -0.155983,-2.57647 0.598643,-0.68839 0.559744,-0.68442 -0.688423,0.0703 -0.727604,0.43993 -1.322917,0.69947 -1.322917,0.57675 0,-0.12271 -0.555625,0.20069 -1.234722,0.71866 -0.748612,0.57099 -1.234722,1.24596 -1.234722,1.71441 0,0.42496 -0.233076,1.08081 -0.517948,1.45744 -0.28487,0.37663 -0.522995,1.35389 -0.529166,2.17168 -0.0087,1.15498 0.153673,1.57514 0.727461,1.88222 0.613005,0.32807 0.717608,0.6603 0.614819,1.95269 -0.132688,1.66834 0.167467,1.90593 1.313102,1.03942 0.376633,-0.28488 0.80385,-0.523 0.949371,-0.52917 0.490652,-0.0208 0.269351,0.78909 -0.352778,1.29107 -0.568979,0.45909 -0.555155,0.48101 0.176389,0.2797 0.944732,-0.25997 1.011829,0.0618 0.199969,0.95885 -0.539007,0.5956 -0.542803,0.7071 -0.04116,1.20875 0.431601,0.4316 0.711074,0.46782 1.276145,0.1654 0.957184,-0.51227 1.294638,-0.49031 0.842238,0.0548 -0.257891,0.31074 -0.222048,0.70362 0.120692,1.32291 1.083898,1.95848 0.404201,2.37599 -0.855861,0.52572 -0.468346,-0.68771 -1.138184,-1.23231 -1.515713,-1.23231 -0.382326,0 -0.937808,-0.45923 -1.277443,-1.0561 -0.330525,-0.58086 -0.799391,-1.05711 -1.041926,-1.05834 -0.242534,-0.001 -0.440972,-0.14854 -0.440972,-0.32736 0,-0.17882 -0.702797,-0.77414 -1.56177,-1.32292 -0.858973,-0.54878 -1.652677,-1.34273 -1.763786,-1.76434 -0.288305,-1.09399 -1.865754,-2.86759 -3.133531,-3.52318 -0.595858,-0.30813 -1.365416,-0.89774 -1.71013,-1.31025 l -0.626753,-0.75001 -0.01174,0.81127 c -0.01764,1.21937 -1.055431,3.04865 -1.485551,2.61853 -0.238733,-0.23873 -0.228876,-0.59193 0.03002,-1.07568 0.212002,-0.39613 0.385459,-1.12755 0.385459,-1.62537 0,-0.57615 0.195626,-0.90514 0.538227,-0.90514 0.973115,0 -0.276533,-1.75104 -3.272924,-4.58611 -1.538012,-1.45521 -3.220758,-3.320524 -3.739436,-4.145144 -0.518678,-0.82462 -1.18221,-1.4993 -1.474514,-1.4993 -0.36937,0 -0.476485,-0.24209 -0.351206,-0.793754 0.887534,-3.908219 0.888868,-3.83338 -0.09019,-5.060398 -0.662615,-0.83043 -1.051626,-1.064177 -1.353749,-0.813437 -0.283439,0.235234 -0.499718,0.229247 -0.652564,-0.01806 -0.338356,-0.547472 -0.892531,-0.448588 -0.892531,0.159258 0,0.291042 -0.238125,0.529167 -0.529167,0.529167 -0.291042,0 -0.529167,0.155713 -0.529167,0.346029 0,0.208774 0.650179,0.256912 1.639146,0.121359 l 1.639145,-0.22467 -0.247565,1.025169 c -0.136161,0.563843 -0.240554,1.382356 -0.231986,1.818919 0.01696,0.863779 -0.321746,1.012965 -0.926582,0.408129 -0.278976,-0.278976 -0.639956,-0.218974 -1.305278,0.216962 -1.184159,0.77589 -1.158646,1.123816 0.136445,1.860757 0.580857,0.33053 1.057107,0.71504 1.058334,0.85447 0.0012,0.13943 0.200668,0.17905 0.443203,0.088 0.527882,-0.19806 1.321235,1.37964 1.327122,2.639184 0.0073,1.56579 3.22617,6.72271 6.788642,10.8761 1.380493,1.60948 5.201597,7.8283 5.201597,8.46556 0,0.0973 1.170939,1.40258 2.602087,2.90054 1.630747,1.70689 2.766015,3.23595 3.041228,4.09615 0.632384,1.97657 0.976936,2.17122 1.25161,0.70709 0.260359,-1.38783 -0.35585,-3.41928 -0.998192,-3.29073 -0.429386,0.0859 -0.805009,-1.72445 -1.027343,-4.95143 -0.105713,-1.53433 -0.02644,-2.20486 0.260652,-2.20486 0.260611,0 0.486609,0.97906 0.613604,2.65821 0.144006,1.90409 0.444675,3.08005 1.05983,4.14514 0.829396,1.43603 1.542801,5.19389 1.074863,5.66183 -0.125785,0.12578 -0.41151,0.077 -0.634946,-0.10846 -0.296669,-0.24621 -0.413336,0.13274 -0.432527,1.40493 -0.01474,0.97681 0.163827,1.89985 0.406488,2.10124 0.300248,0.24918 0.355589,0.86773 0.180724,2.01997 -0.287122,1.89192 0.0023,2.36547 1.669354,2.73163 1.26727,0.27833 2.729537,1.61051 1.767787,1.61051 -0.309663,0 -0.649824,-0.14045 -0.755914,-0.3121 -0.10609,-0.17166 -0.687792,-0.38474 -1.29267,-0.47352 -1.058486,-0.15535 -1.092863,-0.12045 -0.915579,0.92947 0.101311,0.59998 0.632398,2.04337 1.180194,3.20754 0.547797,1.16417 0.997552,2.51354 0.999456,2.99861 0.0031,0.77894 0.171826,0.89429 1.445044,0.9876 l 1.441584,0.10566 -0.162351,-1.95774 c -0.108644,-1.31009 -0.0312,-1.95774 0.234111,-1.95774 0.218054,0 0.412105,0.19844 0.431225,0.44097 0.01912,0.24254 0.06919,0.75847 0.111266,1.14653 0.04208,0.38805 0.105808,1.06274 0.141626,1.4993 0.05904,0.71964 0.247332,0.79375 2.016471,0.79375 1.481154,0 2.004714,-0.13906 2.172814,-0.57711 0.33831,-0.88163 -0.37023,-1.70383 -1.572076,-1.82425 -0.594508,-0.0596 -1.177548,-0.3601 -1.295643,-0.66785 -0.297572,-0.77546 -0.03179,-0.93595 0.806816,-0.48715 0.391919,0.20975 1.034931,0.38136 1.428913,0.38136 0.86752,0 1.56807,1.17856 1.2661,2.13 -0.27439,0.86452 0.20861,0.88489 2.60799,0.10997 1.66034,-0.53623 1.87268,-0.73479 2.68635,-2.51207 1.01586,-2.21893 1.1152,-2.96967 0.35433,-2.67769 -0.74795,0.28701 -0.66219,0.0336 0.38586,-1.14047 1.19401,-1.33754 2.24248,-3.59095 2.25223,-4.84057 0.004,-0.54633 0.1801,-1.31537 0.39075,-1.70898 0.30887,-0.57714 0.2406,-0.86723 -0.35278,-1.49885 -0.40468,-0.43076 -0.73578,-0.95197 -0.73578,-1.15824 0,-0.20627 -0.21831,-0.55622 -0.48513,-0.77766 -0.3829,-0.31778 -0.84749,-0.0569 -2.20486,1.23815 -1.59142,1.51833 -4.65503,3.29989 -5.68848,3.30797 -0.66406,0.005 -0.5295,-0.69626 0.17639,-0.91948 2.125,-0.67198 3.6372,-1.5897 5.309,-3.22189 1.81072,-1.76783 3.34458,-2.57684 3.87671,-2.0447 0.13487,0.13486 -0.0239,0.39583 -0.35288,0.57992 -0.54955,0.30755 -0.53378,0.42709 0.1943,1.47285 0.43582,0.62597 1.32394,1.69376 1.97361,2.37286 0.64967,0.67909 1.56547,1.84228 2.03511,2.58485 1.07333,1.69711 3.18224,3.76515 3.83957,3.76515 0.27438,0 0.49888,0.17595 0.49888,0.39102 0,0.2339 0.33199,0.30769 0.82622,0.18365 0.62595,-0.1571 0.91748,-0.0167 1.20273,0.57912 0.81713,1.70687 1.52065,4.13787 1.19748,4.13787 -0.40647,0 -1.46254,-1.98623 -1.46254,-2.75071 0,-0.60499 -0.94045,-1.36532 -1.27499,-1.03079 -0.0636,0.0636 0.48371,1.13892 1.21627,2.38956 0.8122,1.38661 1.53762,2.2398 1.85907,2.18652 0.31028,-0.0514 1.02801,0.72439 1.74464,1.88581 0.66963,1.08523 1.78251,2.63267 2.47306,3.43874 0.75536,0.88173 1.28096,1.88721 1.31934,2.52393 0.0798,1.32385 0.78208,2.7069 1.28141,2.52356 0.20737,-0.0761 0.65156,0.10061 0.9871,0.39277 0.55089,0.47968 0.67622,0.44955 1.29186,-0.31061 0.57621,-0.71146 1.33426,-3.42674 1.02019,-3.65421 -0.0549,-0.0398 -0.7349,-0.31531 -1.51101,-0.61226 -1.51632,-0.58017 -1.71397,-0.87276 -3.52528,-5.21842 -1.13183,-2.71546 -3.09576,-5.92186 -4.47709,-7.3095 -1.04231,-1.04706 -0.5269,-1.47336 0.68626,-0.5676 0.9734,0.72675 2.53482,3.26933 4.18744,6.81877 2.45386,5.2703 2.43184,5.24176 4.53978,5.88482 1.03429,0.31552 1.05617,0.36961 0.96287,2.38021 -0.0937,2.01861 -0.19382,2.23092 -2.21682,4.69955 -0.19875,0.24254 -0.71948,0.44097 -1.15717,0.44097 -0.62207,0 -1.03924,-0.48136 -1.91084,-2.20486 -0.61327,-1.21267 -1.22803,-2.67897 -1.36614,-3.25844 -0.28913,-1.21316 -3.39217,-5.46952 -5.19805,-7.13005 -0.67475,-0.62044 -1.8032,-2.22494 -2.50768,-3.56557 -0.70448,-1.34062 -1.65201,-2.63613 -2.10563,-2.87889 -0.80574,-0.43122 -3.84564,-4.28342 -4.28622,-5.43155 -0.45281,-1.18 -1.10688,-0.57306 -1.3198,1.22468 -0.11741,0.99139 -0.54945,2.37195 -0.96007,3.06791 -0.41063,0.69596 -1.19038,2.58603 -1.73279,4.20015 -0.93278,2.77581 -0.95846,3.01569 -0.47424,4.42862 0.28157,0.82161 0.78607,1.81134 1.1211,2.19939 1.25191,1.45005 2.56995,3.67313 3.26757,5.51125 0.396,1.0434 0.8428,2.05584 0.9929,2.24986 0.85048,1.09942 0.67998,2.13632 -0.54884,3.33781 -0.90799,0.8878 -1.18491,1.40937 -1.02848,1.93716 0.27257,0.9197 0.79294,4.13575 1.27553,7.88327 0.40853,3.17232 1.37786,5.26411 4.10309,8.85438 0.79501,1.04736 1.55216,2.31736 1.68255,2.82222 0.1304,0.50487 0.34691,3.69607 0.48115,7.09155 l 0.24407,6.17361 1.35479,2.79149 c 1.46927,3.0274 1.50507,3.25272 1.0074,6.33948 -0.37105,2.30141 -0.92498,2.93877 -3.59291,4.13404 -1.75513,0.78632 -4.29376,1.23011 -4.69636,0.82099 z m 5.07925,-7.11738 c 0.6457,-0.38142 0.98635,-0.83266 0.89431,-1.18461 -0.0818,-0.31269 -0.0171,-0.80364 0.14374,-1.09102 0.18113,-0.32365 -0.035,-1.45033 -0.56786,-2.96052 -0.717,-2.03203 -0.86194,-3.11362 -0.87036,-6.49497 -0.0164,-6.58884 -0.58152,-8.95485 -2.69626,-11.28889 -1.42351,-1.57112 -3.65481,-6.40601 -3.66315,-7.9375 -0.009,-1.62102 -0.84107,-6.77096 -1.41375,-8.74826 -0.28945,-0.99942 -0.53955,-1.29748 -0.98415,-1.17287 -0.32784,0.0919 -1.09534,0.26725 -1.70555,0.38969 -0.61021,0.12244 -1.94485,0.84589 -2.96585,1.60766 -1.021,0.76177 -2.15556,1.47999 -2.52124,1.59605 -0.48568,0.15415 -0.60594,0.41728 -0.44621,0.97632 0.32446,1.13561 3.01426,6.52958 3.92624,7.87346 0.43581,0.64219 0.96901,1.8236 1.1849,2.62534 0.25242,0.93743 0.63571,1.52131 1.07388,1.63589 0.38223,0.1 0.68136,0.48309 0.68136,0.8727 0,0.38198 0.55985,1.19016 1.24412,1.79596 1.24928,1.10604 2.98922,3.72086 2.98922,4.49229 0,0.22717 0.22322,0.91327 0.49606,1.52468 1.44614,3.24077 2.67893,9.50011 2.67893,13.60199 0,2.74056 0.47473,3.09574 2.52162,1.88661 z m -2.65204,-13.5832 c -0.3259,-1.21609 -0.26208,-2.38125 0.13042,-2.38125 0.19403,0 0.35278,0.21828 0.35278,0.48507 0,0.26679 0.0992,0.98116 0.22049,1.5875 0.25338,1.26692 -0.37323,1.54179 -0.70369,0.30868 z m -3.536,-6.81983 c -0.32297,-0.84166 -0.25683,-2.61698 0.0975,-2.61698 0.35678,0 0.7348,1.21334 0.74189,2.38125 0.005,0.91271 -0.52268,1.06105 -0.83939,0.23573 z m -3.03635,-3.1084 c 0,-0.52972 0.8563,-1.00413 1.19717,-0.66326 0.24879,0.24879 -0.44756,1.15468 -0.88759,1.15468 -0.17027,0 -0.30958,-0.22114 -0.30958,-0.49142 z m 1.93255,-1.18427 c 0.13428,-0.33955 0.33231,-1.14275 0.44008,-1.78488 0.11567,-0.68923 0.32562,-1.03784 0.51248,-0.85098 0.50272,0.50272 -0.0679,3.25322 -0.67489,3.25322 -0.35479,0 -0.44367,-0.1976 -0.27767,-0.61736 z m -18.783093,19.54248 c 0.14255,-0.22236 0.261612,-0.87551 0.264583,-1.45145 0.003,-0.57594 0.733734,-3.09771 1.623918,-5.60393 1.525569,-4.2951 1.604548,-4.69585 1.375307,-6.97854 -0.235034,-2.34036 -0.582061,-2.99405 -1.00473,-1.89259 -0.111683,0.29104 -0.449394,0.52917 -0.750468,0.52917 -0.470648,0 -0.451408,-0.18818 0.137201,-1.34195 0.376534,-0.73807 0.869806,-2.36525 1.096158,-3.61597 0.226353,-1.25071 0.723768,-2.92318 1.105367,-3.71658 0.381599,-0.79341 0.650024,-1.58716 0.5965,-1.76389 -0.05352,-0.17673 0.346619,-1.06976 0.889206,-1.9845 1.390713,-2.34458 1.185654,-3.20847 -0.829723,-3.4955 -0.873125,-0.12435 -2.675785,-0.56234 -4.00591,-0.9733 -1.330126,-0.41096 -2.549183,-0.7472 -2.709017,-0.7472 -0.399569,0 -1.127595,3.6691 -1.127595,5.68285 0,0.9081 0.256407,2.42307 0.569794,3.36658 0.42644,1.2839 0.484248,2.01378 0.22977,2.90109 -0.249799,0.871 -0.20775,1.50217 0.158465,2.37865 0.554504,1.32711 0.756875,1.40265 1.748447,0.65267 0.730045,-0.55218 1.610046,-0.69105 1.605551,-0.25337 -0.0015,0.14552 -0.617686,0.61569 -1.369314,1.04481 -1.675873,0.95681 -1.818873,1.55796 -1.792842,7.5369 0.02332,5.3562 -0.561736,7.58615 -2.435136,9.28155 -0.403344,0.36502 -0.638214,0.81761 -0.521933,1.00576 0.283577,0.45884 4.808819,-0.0347 5.146401,-0.56126 z m -0.788348,-0.58068 c 0,-0.19402 0.168119,-0.35277 0.373598,-0.35277 0.205478,0 0.275484,0.15875 0.155569,0.35277 -0.119916,0.19403 -0.288035,0.35278 -0.373598,0.35278 -0.08556,0 -0.155569,-0.15875 -0.155569,-0.35278 z m 0.378202,-6.88423 c -0.502519,-2.52816 -0.287098,-4.99796 0.526186,-6.03271 0.476839,-0.60669 0.498949,-0.54127 0.252171,0.74611 -0.148772,0.77611 -0.231417,2.80017 -0.183655,4.49792 0.04776,1.69774 0.03627,3.0868 -0.02553,3.0868 -0.06181,0 -0.317931,-1.03415 -0.569168,-2.29812 z m -0.819174,-12.19402 c -1.040624,-0.60611 -0.688085,-0.99663 0.705555,-0.78158 1.605895,0.24781 1.811334,0.39672 1.136312,0.82361 -0.659085,0.41682 -1.07017,0.40744 -1.841867,-0.042 z m 21.422363,9.48528 c -1.15982,-3.08879 -1.73888,-3.87352 -1.38157,-1.8723 0.27731,1.5532 1.85459,4.94513 2.1583,4.64141 0.10518,-0.10518 -0.24434,-1.35128 -0.77673,-2.76911 z m -12.30963,-22.20348 c 0.13571,-0.21957 -0.0137,-0.54496 -0.331953,-0.72308 -0.681069,-0.38115 -0.771666,-1.56903 -0.137725,-1.80583 0.294248,-0.10991 0.227678,-0.25265 -0.200102,-0.42902 -0.850935,-0.35082 -1.610431,0.36482 -1.016981,0.95827 0.232833,0.23284 0.423333,0.762 0.423333,1.17593 0,1.15837 0.753142,1.6494 1.263428,0.82373 z m 2.26435,-1.01188 c 0.42791,-0.27653 0.37728,-0.343 -0.26458,-0.34738 -0.43657,-0.003 -0.79375,0.15335 -0.79375,0.34738 0,0.442 0.37438,0.442 1.05833,0 z m -10.759722,-1.76389 c -0.119916,-0.19403 -0.376779,-0.35278 -0.570807,-0.35278 -0.194027,0 -0.254665,0.15875 -0.134749,0.35278 0.119916,0.19403 0.376779,0.35278 0.570807,0.35278 0.194027,0 0.254665,-0.15875 0.134749,-0.35278 z m 3.101866,-0.34881 c -0.100909,-0.38587 -0.317238,-0.61891 -0.480733,-0.51787 -0.34723,0.2146 -0.03229,1.21946 0.382194,1.21946 0.155105,0 0.199447,-0.31571 0.09854,-0.70159 z m 3.424523,-1.45827 c 0,-0.49533 -0.257373,-0.66236 -1.02059,-0.66236 -0.581757,0 -1.107902,-0.22753 -1.22365,-0.52917 -0.111684,-0.29104 -0.351931,-0.52916 -0.533884,-0.52916 -0.489823,0 -0.02502,1.44057 0.534021,1.65509 0.264118,0.10136 0.480214,0.39219 0.480214,0.64631 0,0.25411 0.198437,0.53331 0.440972,0.62044 0.620117,0.22277 1.322917,-0.41534 1.322917,-1.20115 z m 9.129383,0.55854 c 1.95499,-0.24857 1.92327,-0.85176 -0.0454,-0.86272 -0.53357,-0.003 -0.97014,-0.12806 -0.97014,-0.27797 0,-0.14992 -0.71437,-0.43832 -1.5875,-0.64089 -0.87312,-0.20258 -1.5875,-0.23867 -1.5875,-0.0802 0,0.15846 0.3175,0.28811 0.70556,0.28811 0.38805,0 0.70555,0.14877 0.70555,0.3306 0,0.18234 -0.59325,0.24104 -1.32291,0.13089 l -1.32292,-0.1997 1.23472,0.89309 c 0.6791,0.49121 1.47285,0.84066 1.76389,0.77657 0.29104,-0.0641 1.38302,-0.22509 2.42661,-0.35777 z m -14.773828,-0.16257 c 0,-0.19403 -0.357187,-0.35035 -0.79375,-0.34738 -0.641857,0.004 -0.692488,0.0708 -0.264583,0.34738 0.683951,0.442 1.058333,0.442 1.058333,0 z m 18.285918,-1.3897 c 0.0666,-0.45508 -0.0308,-0.71338 -0.22406,-0.59396 -0.18806,0.11623 -0.84451,0.0361 -1.45879,-0.17802 -1.57024,-0.54739 -1.71123,-0.16711 -0.20332,0.54844 0.71417,0.3389 1.15476,0.75881 1.02184,0.97389 -0.13542,0.21911 -0.0276,0.31016 0.25639,0.21651 0.26954,-0.0889 0.54312,-0.52396 0.60794,-0.96686 z m -10.70119,-0.0214 c -0.11992,-0.19403 -0.407104,-0.35035 -0.638187,-0.34738 -0.252452,0.003 -0.20894,0.1419 0.109015,0.34738 0.677732,0.43798 0.799852,0.43798 0.529172,0 z m -6.727487,-0.3128 c 0.106328,-0.17205 -0.02452,-0.4936 -0.29076,-0.71457 -0.369461,-0.30662 -0.529849,-0.28249 -0.677364,0.10193 -0.301562,0.78586 0.534203,1.31473 0.968124,0.61264 z m 2.667707,-1.27129 c 0.261429,-0.315 0.748835,-0.44732 1.215902,-0.3301 0.477284,0.11979 0.957147,-0.0183 1.237552,-0.35618 0.492467,-0.59339 1.783226,-0.73665 2.329516,-0.25855 0.30674,0.26845 2.93797,1.11781 3.46287,1.11781 0.5455,0 0.15329,-0.64167 -0.49598,-0.81146 -0.57435,-0.15019 -0.67347,-0.37217 -0.49093,-1.09947 0.18925,-0.75402 0.10605,-0.91129 -0.48205,-0.91129 -0.54985,0 -0.66662,0.16883 -0.51576,0.74572 0.17091,0.65357 0.0905,0.71163 -0.65039,0.46987 -0.46497,-0.15171 -1.34941,-0.245 -1.965434,-0.20729 -0.752291,0.046 -1.273517,-0.14952 -1.5875,-0.59565 -0.556962,-0.79137 -2.054966,-1.35434 -2.054966,-0.77228 0,0.21641 0.436563,0.79335 0.970139,1.28209 l 0.970139,0.88861 -1.303862,-0.21239 c -1.054807,-0.17182 -1.372517,-0.0841 -1.663283,0.45919 -0.574379,1.07323 0.235818,1.54112 1.024037,0.59137 z m 12.24041,-0.96631 0.35095,-0.78651 0.42092,0.78651 c 0.23151,0.43258 0.56327,0.78651 0.73723,0.78651 0.42558,0 0.22358,-1.69308 -0.25966,-2.17631 -0.53497,-0.53497 -2.90369,-0.76128 -2.90369,-0.27742 0,0.21181 -0.46107,0.0568 -1.02459,-0.34447 -0.56353,-0.40127 -1.19853,-0.72958 -1.41111,-0.72958 -0.79217,0 -0.34291,0.60014 1.02459,1.36873 0.77611,0.43619 1.41111,1.00782 1.41111,1.27028 0,0.42035 0.45159,0.77618 1.09262,0.86092 0.11587,0.0153 0.3686,-0.32608 0.56163,-0.75866 z m -13.648691,-1.15377 c 0,-0.29104 -0.238125,-0.52916 -0.529167,-0.52916 -0.550888,0 -0.699899,0.41723 -0.293981,0.82314 0.405918,0.40592 0.823148,0.25691 0.823148,-0.29398 z m 15.366601,-1.42233 c -0.37663,-0.28487 -0.85288,-0.5129 -1.05833,-0.50673 -0.20545,0.006 -0.0654,0.2443 0.31124,0.52917 0.37663,0.28487 0.85288,0.5129 1.05833,0.50673 0.20545,-0.006 0.0654,-0.2443 -0.31124,-0.52917 z m -12.897156,-0.52901 c 0,-0.45471 -1.005091,-0.86533 -1.327915,-0.5425 -0.131534,0.13153 -0.0056,0.38684 0.279798,0.56735 0.68289,0.43187 1.048117,0.42321 1.048117,-0.0248 z m 5.291666,0.0552 c 0,-0.16977 -0.47625,-0.40393 -1.05833,-0.52034 -0.62074,-0.12415 -1.05834,-0.43412 -1.05834,-0.74966 0,-0.29589 -0.27781,-0.55608 -0.617358,-0.57821 -0.339548,-0.0221 -1.053923,-0.092 -1.5875,-0.15525 -0.662474,-0.0786 -0.970138,0.0461 -0.970138,0.393 0,0.27942 0.247494,0.50803 0.549987,0.50803 0.302493,0 0.477563,0.11907 0.389047,0.26459 -0.08852,0.14552 0.474659,0.28944 1.251504,0.31982 0.776848,0.0304 1.586018,0.22882 1.798178,0.44097 0.46152,0.46153 1.30295,0.51129 1.30295,0.077 z m 3.175,-1.42069 c 0,-0.37948 -1.92267,-1.09285 -2.94542,-1.09285 -1.15958,0 -0.13526,0.7677 1.42818,1.07038 0.73747,0.14278 1.38054,0.27785 1.42905,0.30016 0.0485,0.0223 0.0882,-0.10265 0.0882,-0.27769 z m 2.11667,-0.88195 c 0,-0.27206 -0.47398,-0.65989 -1.05329,-0.86183 l -1.05329,-0.36718 0.5647,0.86183 c 0.61492,0.93849 1.54188,1.15923 1.54188,0.36718 z m -10.841513,-0.30136 c 0.09355,-0.24378 0.150219,-0.83909 0.125938,-1.32292 -0.04033,-0.80349 -0.196907,-0.88632 -1.808039,-0.95646 -1.511698,-0.0658 -1.650403,-0.0203 -0.970139,0.31849 0.436562,0.2174 0.79375,0.52977 0.79375,0.69415 0,0.34465 1.123753,1.6368 1.461562,1.68058 0.124762,0.0162 0.303378,-0.17006 0.396928,-0.41384 z m 3.785953,-1.69096 c 0,-0.56697 -0.12506,-0.65309 -0.57927,-0.3989 -0.318601,0.17829 -0.913913,0.25377 -1.322917,0.16773 -0.729767,-0.15352 -0.730864,-0.14608 -0.05886,0.39891 0.980609,0.79526 1.961047,0.71139 1.961047,-0.16774 z m 1.41111,0.37031 c 0,-0.19403 -0.15875,-0.35278 -0.35277,-0.35278 -0.19403,0 -0.35278,0.15875 -0.35278,0.35278 0,0.19403 0.15875,0.35278 0.35278,0.35278 0.19402,0 0.35277,-0.15875 0.35277,-0.35278 z m 2.11667,-0.31163 c 0,-0.1714 -0.27781,-0.40963 -0.61736,-0.52939 -0.33955,-0.11977 -0.85549,-0.31082 -1.14653,-0.42455 -0.29104,-0.11373 -0.0529,0.12345 0.52917,0.52707 1.2101,0.83908 1.23472,0.8476 1.23472,0.42687 z m -3.175,-39.04391 c 0,-0.30249 -0.15875,-0.45187 -0.35278,-0.33196 -0.19403,0.11992 -0.35278,0.36741 -0.35278,0.54999 0,0.18257 0.15875,0.33196 0.35278,0.33196 0.19403,0 0.35278,-0.2475 0.35278,-0.54999 z M 67.377313,93.537948 c 0.358978,-0.271961 0.548046,-0.663787 0.420152,-0.870725 -0.308116,-0.498542 -0.896451,-0.481589 -0.896451,0.02583 0,0.221145 -0.277813,0.612971 -0.617361,0.870725 -0.497129,0.377375 -0.514306,0.468644 -0.0882,0.468644 0.291042,0 0.822876,-0.222514 1.181855,-0.494475 z m 25.982035,49.350812 c 0,-0.29306 -0.3175,-0.87364 -0.705556,-1.29016 -0.761753,-0.81765 -0.904542,-1.32985 -0.370731,-1.32985 0.325063,0 2.13462,2.16439 2.13462,2.5532 0,0.10645 -0.238125,0.28492 -0.529166,0.3966 -0.326435,0.12527 -0.529167,-0.001 -0.529167,-0.32979 z m 8.466672,-0.15056 c 0,-0.19403 0.15875,-0.35278 0.35277,-0.35278 0.19403,0 0.35278,0.15875 0.35278,0.35278 0,0.19403 -0.15875,0.35278 -0.35278,0.35278 -0.19402,0 -0.35277,-0.15875 -0.35277,-0.35278 z m 1.76388,-0.32542 c 0,-0.40471 2.31754,-1.19582 2.9135,-0.99455 0.50731,0.17135 -1.55226,1.31997 -2.36681,1.31997 -0.30068,0 -0.54669,-0.14644 -0.54669,-0.32542 z m -2.82222,-0.38014 c -0.31795,-0.20548 -0.36146,-0.34413 -0.10901,-0.34737 0.23108,-0.003 0.51826,0.15335 0.63818,0.34737 0.27068,0.43799 0.14856,0.43799 -0.52917,0 z m -4.715656,-0.5343 c -0.31019,-0.80834 -0.278739,-1.22959 0.0918,-1.22959 0.473001,0 0.81263,1.13012 0.448929,1.49382 -0.188148,0.18815 -0.408447,0.0805 -0.540732,-0.26423 z m 1.789387,-1.78818 c -0.542297,-0.90163 -0.926635,-1.81742 -0.854079,-2.03508 0.193527,-0.58058 2.098834,2.44383 1.958869,3.10944 -0.07741,0.36814 -0.462294,-0.006 -1.10479,-1.07436 z m -2.162829,-0.73512 c -0.124134,-0.32349 -0.08237,-0.73148 0.0928,-0.90665 0.189473,-0.18947 0.388704,0.0488 0.491811,0.58816 0.192617,1.00761 -0.231502,1.23867 -0.584608,0.31849 z m 10.220078,-1.15033 c -0.11129,-0.18006 0.12944,-0.43268 0.53493,-0.56138 0.83749,-0.26581 1.2182,-0.0428 0.87499,0.51251 -0.28623,0.46312 -1.13571,0.49256 -1.40992,0.0489 z m -1.6032,-1.42745 c 0,-0.45311 2.11547,-1.53925 2.41403,-1.23943 0.29422,0.29545 -1.27068,1.58315 -1.92394,1.58315 -0.26955,0 -0.49009,-0.15468 -0.49009,-0.34372 z m -8.763744,-1.06739 c 0,-0.48507 0.08007,-0.68351 0.177937,-0.44098 0.09786,0.24254 0.09786,0.63941 0,0.88195 -0.09787,0.24253 -0.177937,0.0441 -0.177937,-0.44097 z m 3.472076,0.37359 c 0,-0.42222 0.277626,-0.57315 1.587498,-0.86305 l 1.05834,-0.23423 -0.88195,0.70678 c -0.940511,0.75371 -1.763888,0.93599 -1.763888,0.3905 z m 3.880558,-1.07243 c 0,-0.19033 0.43656,-0.45035 0.97014,-0.57781 0.53357,-0.12746 1.16324,-0.38362 1.39925,-0.56924 0.23601,-0.18562 0.63289,-0.26203 0.88194,-0.1698 0.26919,0.0997 0.0733,0.31899 -0.48303,0.54076 -0.51473,0.20519 -1.04004,0.54161 -1.16735,0.74761 -0.29116,0.4711 -1.60095,0.4944 -1.60095,0.0285 z m 4.40972,-1.06505 c 0.11992,-0.19403 0.28804,-0.35278 0.3736,-0.35278 0.0856,0 0.15557,0.15875 0.15557,0.35278 0,0.19402 -0.16812,0.35277 -0.3736,0.35277 -0.20548,0 -0.27549,-0.15875 -0.15557,-0.35277 z m -14.085358,-0.53674 c -0.373891,-0.28287 -0.585925,-0.60818 -0.471186,-0.72292 0.278862,-0.27886 1.680155,0.48785 1.680155,0.91929 0,0.47406 -0.411042,0.40729 -1.208969,-0.19637 z m 2.972858,-0.0302 c 0,-0.37201 0.191842,-0.4933 0.558019,-0.35278 0.306911,0.11777 0.783161,0.21413 1.058335,0.21413 0.27517,0 0.500313,0.15875 0.500313,0.35278 0,0.19403 -0.47625,0.35278 -1.058333,0.35278 -0.736872,0 -1.058334,-0.1722 -1.058334,-0.56691 z m -0.479961,-1.08898 c -0.397293,-0.39729 -0.241967,-0.81356 0.303572,-0.81356 0.291042,0 0.529167,0.14938 0.529167,0.33196 0,0.44484 -0.550894,0.76345 -0.832739,0.4816 z m -4.458928,-0.65799 c 0,-0.30249 0.15875,-0.45187 0.352778,-0.33196 0.194028,0.11992 0.352778,0.36741 0.352778,0.54999 0,0.18258 -0.15875,0.33196 -0.352778,0.33196 -0.194028,0 -0.352778,-0.2475 -0.352778,-0.54999 z m 11.014409,-0.21408 c 0.18223,-0.54668 1.29082,-0.63864 1.42101,-0.11788 0.0485,0.19403 -0.28668,0.40583 -0.74485,0.47066 -0.57112,0.0808 -0.78372,-0.0301 -0.67616,-0.35278 z m -6.520553,-0.90587 c -0.285019,-0.54644 -0.07314,-2.91394 0.268644,-3.00184 0.434867,-0.11183 0.605272,2.81921 0.179213,3.08253 -0.168767,0.10431 -0.370303,0.068 -0.447857,-0.0807 z m 16.179773,-1.72141 c -0.75624,-0.85856 -1.28859,-1.64739 -1.18302,-1.75297 0.19615,-0.19615 3.43995,2.79552 3.43995,3.17257 0,0.61331 -1.04555,-0.0444 -2.25693,-1.4196 z m -4.56019,-1.68944 c -0.22053,-0.57469 0.0758,-0.98191 0.51632,-0.70964 0.40073,0.24767 0.39163,1.20432 -0.0115,1.20432 -0.17327,0 -0.40045,-0.22261 -0.50486,-0.49468 z m -11.17455,-2.28435 c 0,-0.17027 0.264116,-0.52746 0.586924,-0.79375 0.5322,-0.43903 0.54749,-0.41016 0.163978,0.30958 -0.437414,0.8209 -0.750902,1.02303 -0.750902,0.48417 z m 9.57411,-0.40771 c -0.45806,-0.3816 -1.05337,-0.69382 -1.32291,-0.69382 -0.69328,0 -0.60783,-0.48964 0.21547,-1.23472 0.66711,-0.60373 0.70555,-0.60467 0.70555,-0.0172 0,0.3417 0.39688,0.93344 0.88195,1.315 0.84827,0.66725 1.16868,1.3608 0.61736,1.33635 -0.14552,-0.006 -0.63936,-0.32396 -1.09742,-0.70556 z m -6.933296,-1.95128 c 0.893702,-0.67545 5.086136,-1.98029 5.513676,-1.71606 0.59099,0.36525 -0.026,0.79238 -1.50582,1.04239 -0.80384,0.1358 -1.98854,0.46712 -2.63266,0.73625 -1.543344,0.64485 -2.267594,0.61189 -1.375196,-0.0626 z m -14.017897,-1.89302 c -0.727605,-0.74959 -1.322917,-1.54268 -1.322917,-1.76241 0,-0.21974 -0.635,-1.20287 -1.41111,-2.18472 -1.317863,-1.66722 -1.827914,-3.13294 -1.09022,-3.13294 0.17649,0 0.965218,1.17399 1.752728,2.60888 0.78751,1.43488 1.992484,3.20334 2.67772,3.9299 1.197688,1.26992 1.541444,1.94112 0.981299,1.91603 -0.145521,-0.007 -0.859896,-0.62515 -1.5875,-1.37474 z m 11.377083,0.65784 c 0,-0.40081 -0.164335,-1.03581 -0.36519,-1.41111 -0.405662,-0.75798 -0.0099,-0.91633 0.647412,-0.25903 0.511267,0.51127 0.566787,2.39889 0.07056,2.39889 -0.194028,0 -0.352778,-0.32793 -0.352778,-0.72875 z m 3.216706,-3.34583 0.0417,-2.09903 0.354241,1.70308 c 0.253373,1.21816 0.241503,1.81583 -0.04171,2.09903 -0.292739,0.29274 -0.385075,-0.15117 -0.354238,-1.70308 z m -3.413863,-0.69914 c 0.891307,-0.67415 1.465594,-0.66701 0.902713,0.0112 -0.241543,0.29104 -0.697544,0.52412 -1.013335,0.51795 -0.48236,-0.009 -0.464672,-0.094 0.110622,-0.52917 z M 91.839904,112.505 c -0.362084,-0.0938 -0.589383,-0.41908 -0.526124,-0.75283 0.144554,-0.76265 3.103901,-1.07316 3.103901,-0.32567 0,1.07594 -0.989771,1.49004 -2.577777,1.0785 z m -0.926125,-6.43808 c -0.0182,-0.92772 0.07403,-1.11917 0.387948,-0.80526 0.3045,0.3045 0.310722,0.62168 0.02388,1.21708 -0.364332,0.75624 -0.389401,0.73117 -0.411824,-0.41182 z m 1.034458,0.70033 c 0,-0.33304 1.115422,-1.07075 1.618984,-1.07075 0.139841,0 -0.03308,0.3175 -0.384262,0.70556 -0.684086,0.7559 -1.234722,0.91876 -1.234722,0.36519 z M 71.476826,98.804926 c -0.61261,-0.73815 -0.101723,-1.13275 0.581718,-0.44931 0.329914,0.32991 0.414171,0.64142 0.207962,0.76887 -0.190663,0.11783 -0.546018,-0.026 -0.78968,-0.31956 z"
       style="fill:#000000;stroke-width:0.35277778" />
  </g>
</svg>
