<?xml version="1.0" encoding="UTF-8" standalone="no"?>
<svg
   xmlns:dc="http://purl.org/dc/elements/1.1/"
   xmlns:cc="http://creativecommons.org/ns#"
   xmlns:rdf="http://www.w3.org/1999/02/22-rdf-syntax-ns#"
   xmlns:svg="http://www.w3.org/2000/svg"
   xmlns="http://www.w3.org/2000/svg"
   id="svg9934"
   version="1.1"
   viewBox="0 0 86.190285 115.5749"
   height="115.5749mm"
   width="86.190285mm">
  <defs
     id="defs9928" />
  <metadata
     id="metadata9931">
    <rdf:RDF>
      <cc:Work
         rdf:about="">
        <dc:format>image/svg+xml</dc:format>
        <dc:type
           rdf:resource="http://purl.org/dc/dcmitype/StillImage" />
        <dc:title></dc:title>
      </cc:Work>
    </rdf:RDF>
  </metadata>
  <g
     transform="translate(-42.210725,-115.44373)"
     id="layer1">
    <path
       id="path10541"
       d="m 109.61986,230.68638 c -0.81297,-0.16066 -1.88158,-0.55647 -2.37469,-0.87957 -0.78824,-0.51647 -1.60749,-2.33695 -1.61328,-3.58491 -0.001,-0.2333 -0.78914,-1.21135 -1.75125,-2.17346 -2.22598,-2.22598 -2.48718,-3.17873 -1.34563,-4.90836 0.85222,-1.29125 1.02325,-3.2018 0.4164,-4.65158 -0.12488,-0.29833 -0.29267,-1.09805 -0.37286,-1.77715 -0.26734,-2.26388 -1.20187,-6.50863 -1.75961,-7.99234 -0.42964,-1.14293 -0.50233,-2.23121 -0.32991,-4.93889 0.12163,-1.91012 0.25137,-4.02856 0.28832,-4.70766 0.17532,-3.22262 -0.76726,-9.10183 -1.781611,-11.1125 -0.82624,-1.63781 -2.18658,-6.82174 -2.40692,-9.17222 -0.1824,-1.94573 -0.32338,-2.23063 -1.74572,-3.52778 -1.37818,-1.25688 -1.55764,-1.60001 -1.64204,-3.1395 l -0.0947,-1.72839 -2.24584,-0.83978 c -2.47894,-0.92695 -5.72504,-1.17832 -15.672349,-1.2136 -4.174126,-0.0148 -5.766299,0.10316 -6.350001,0.47046 -1.293592,0.81401 -3.432615,1.28909 -6.761771,1.50181 -1.875265,0.11983 -3.484144,0.414 -3.956338,0.72339 -0.437702,0.28679 -1.08657,0.52144 -1.441928,0.52144 -0.355358,0 -1.853794,0.79284 -3.329859,1.76186 -2.28925,1.50287 -2.851551,1.7283 -3.825246,1.53356 -0.843175,-0.16863 -1.534213,-0.0138 -2.644219,0.5926 -1.411222,0.77092 -1.585215,0.78951 -2.857345,0.30533 -1.821613,-0.69331 -2.271634,-1.92817 -1.337277,-3.66949 1.244073,-2.31853 2.052421,-2.81226 4.677729,-2.85709 2.844262,-0.0486 5.651176,-0.47062 5.909474,-0.88856 0.10401,-0.16829 0.567246,-0.30598 1.029414,-0.30598 0.462167,0 0.926958,-0.14021 1.032869,-0.31158 0.380801,-0.61615 7.51926,-4.57563 8.938089,-4.95769 0.797711,-0.2148 2.081262,-0.28966 2.852337,-0.16636 1.091594,0.17455 1.847815,0.0201 3.415989,-0.69787 1.107718,-0.50714 2.284159,-0.92206 2.614312,-0.92206 0.330153,0 1.489866,-0.48182 2.577142,-1.07072 2.860052,-1.54906 6.722748,-2.8154 8.460558,-2.77369 l 1.50593,0.0361 -1.94028,0.44372 c -2.07481,0.47448 -6.130185,1.95519 -7.692213,2.80861 -2.617772,1.43022 -7.37893,3.02586 -9.052405,3.03379 -0.976919,0.005 -2.379183,0.14839 -3.116141,0.31946 -1.982145,0.46013 -8.008687,4.15449 -8.008687,4.90945 0,1.12456 0.594911,1.34371 2.734884,1.00746 1.115189,-0.17522 3.138866,-0.34496 4.497061,-0.37719 1.886692,-0.0448 2.991083,-0.29811 4.679918,-1.07351 2.005405,-0.92077 2.447229,-0.99481 4.7625,-0.79819 2.429551,0.20634 4.878268,-0.0386 8.992203,-0.89937 1.71866,-0.35961 3.03562,-0.17128 1.72421,0.24656 -1.88816,0.60161 -1.82456,0.5569 -1.27533,0.89662 0.55976,0.34623 7.79299,0.44361 8.6457,0.11639 0.28892,-0.11087 0.51663,-0.64809 0.51663,-1.21884 0,-0.96787 -0.082,-1.02287 -1.5875,-1.06469 -0.87312,-0.0242 -1.74625,-0.0838 -1.94027,-0.13229 -0.19403,-0.0485 -0.86872,-0.12543 -1.49931,-0.17094 -1.0824,-0.0781 -1.05989,-0.0998 0.4025,-0.38697 0.85196,-0.16732 1.66716,-0.2312 1.81156,-0.14196 0.14439,0.0892 0.73831,-0.004 1.31982,-0.20631 1.00123,-0.34904 1.05049,-0.45635 0.92905,-2.02425 -0.0705,-0.91063 -0.12691,-2.16144 -0.12529,-2.77959 0.004,-1.68018 -1.05824,-2.49765 -3.0188,-2.32231 -0.87089,0.0779 -1.58071,0.012 -1.5774,-0.14637 0.01,-0.46412 3.60096,-1.87991 4.76264,-1.87759 0.78265,0.001 1.50315,-0.4182 2.7212,-1.58537 0.91118,-0.87313 1.86091,-1.59255 2.1105,-1.59872 0.24959,-0.006 0.76449,-0.24615 1.14422,-0.53329 0.63434,-0.47966 0.70086,-1.06834 0.81899,-7.24789 0.0885,-4.63215 0.28543,-7.17045 0.6325,-8.15413 0.27716,-0.78556 0.50393,-2.25649 0.50393,-3.26873 0,-2.69591 1.15676,-4.6845 3.365801,-5.78613 0.9556,-0.47655 2.08493,-0.9046 2.5096,-0.95122 0.42468,-0.0466 1.26082,-0.19209 1.85809,-0.32327 1.05214,-0.23109 1.08595,-0.29891 1.08595,-2.1779 0,-1.66175 0.14391,-2.0833 1.00526,-2.94464 1.43604,-1.43604 3.27221,-1.70046 5.22388,-0.75227 0.85297,0.4144 1.85329,0.75346 2.22295,0.75346 0.70613,0 2.13125,1.69947 2.13125,2.54154 0,0.2708 0.19481,0.68717 0.43291,0.92527 0.34205,0.34204 0.1938,0.34956 -0.7062,0.0358 -0.62652,-0.21841 -1.22757,-0.54022 -1.33568,-0.71514 -0.10811,-0.17492 -0.62376,-0.31909 -1.14588,-0.32037 -0.52213,-0.001 -1.42557,-0.31773 -2.00765,-0.70323 -1.30825,-0.86642 -2.24671,-0.97069 -1.5875,-0.17639 0.36566,0.4406 0.32017,0.52917 -0.27184,0.52917 -0.39106,0 -0.81591,0.27336 -0.94412,0.60747 -0.1994,0.51962 -0.27954,0.53238 -0.55415,0.0882 -0.27721,-0.44838 -0.40537,-0.43498 -0.93856,0.0981 -0.58817,0.58801 -0.58138,0.61736 0.14281,0.61736 0.41818,0 0.85844,0.15875 0.97836,0.35278 0.11991,0.19403 -0.0295,0.35278 -0.33196,0.35278 -0.74881,0 -0.69802,0.92446 0.0674,1.22631 1.12257,0.4427 3.96875,0.79044 3.96875,0.48489 0,-0.45977 1.12443,-0.35328 2.20127,0.20846 1.78748,0.93246 2.52076,0.84474 2.77673,-0.33216 0.22086,-1.01545 0.23188,-1.0036 0.27193,0.29261 0.04,1.29338 3.6e-4,1.34253 -0.9284,1.15342 -0.53358,-0.10864 -2.16076,-0.29676 -3.61597,-0.41805 -1.45521,-0.12129 -3.0975,-0.25852 -3.64953,-0.30496 -0.55203,-0.0464 -1.13059,-0.28973 -1.28567,-0.54066 -0.54742,-0.88574 -4.55642,-0.31056 -7.35054,1.05461 -1.94851,0.952 -2.864981,2.81182 -2.875961,5.83622 -0.004,1.17387 -0.14644,2.28512 -0.31595,2.46944 -0.42267,0.4596 -0.74892,3.29286 -0.40374,3.50619 0.15357,0.0949 0.4754,-0.0638 0.71517,-0.35271 0.23977,-0.2889 0.6731,-0.52528 0.962961,-0.52528 0.34156,0 0.0716,0.50411 -0.767161,1.4325 -1.1736,1.29904 -1.27512,1.5702 -1.0896,2.91042 0.11251,0.81285 0.0584,2.35104 -0.12035,3.41819 -0.21659,1.29332 -0.20394,2.01587 0.0379,2.16698 0.24627,0.15385 0.23418,0.59587 -0.0376,1.37556 -0.22027,0.63187 -0.4005,1.20047 -0.4005,1.26354 0,0.18938 2.05361,1.19114 2.441841,1.19114 0.51113,0 1.03939,-2.18051 0.69385,-2.86403 -0.29451,-0.58259 -0.0932,-1.01652 0.4717,-1.01652 0.17315,0 0.22555,0.14442 0.11645,0.32094 -0.24137,0.39055 0.12653,1.44295 0.50444,1.44295 0.43789,0 1.15559,-2.03486 0.8768,-2.48595 -0.18013,-0.29146 -0.0225,-0.3382 0.53937,-0.15989 0.54362,0.17254 0.71728,0.128 0.55085,-0.1413 -0.13368,-0.2163 -0.005,-0.6314 0.28611,-0.92244 0.32471,-0.32471 0.61335,-0.39296 0.74704,-0.17664 0.11983,0.19389 -0.16699,0.73739 -0.63738,1.20778 -0.47039,0.47038 -0.95556,1.25488 -1.07815,1.74333 -0.12259,0.48844 -0.50837,0.97869 -0.85728,1.08943 -0.34892,0.11074 -0.84588,0.7862 -1.10436,1.50103 -0.45408,1.25573 -0.43558,1.32721 0.54701,2.11347 0.55935,0.44758 1.17724,0.81457 1.3731,0.81553 0.19586,0.001 0.55216,0.31567 0.79176,0.69934 0.36649,0.58684 0.58729,0.63993 1.3909,0.3344 0.91813,-0.34908 0.93202,-0.33753 0.3576,0.2972 -0.7119,0.78664 -0.53669,1.05926 1.94501,3.02638 l 1.66639,1.32086 1.04011,-1.16252 c 0.97326,-1.08779 0.99653,-1.17879 0.36209,-1.41573 -0.75198,-0.28084 -0.93028,-0.71035 -0.23705,-0.57104 0.24253,0.0487 0.83784,-0.0239 1.32291,-0.16139 1.03478,-0.29333 2.3843,-1.97885 1.85476,-2.31656 -0.44273,-0.28235 -0.13811,-2.51863 0.34308,-2.51863 0.19462,0 0.27799,0.39688 0.18527,0.88195 -0.0927,0.48507 -0.0319,0.88194 0.13526,0.88194 0.16712,0 0.30386,-0.23812 0.30386,-0.52916 0,-0.29105 0.15875,-0.52917 0.35277,-0.52917 0.19403,0 0.35278,-0.43891 0.35278,-0.97536 0,-0.53645 0.31966,-1.57178 0.71036,-2.30073 0.45419,-0.84743 0.63122,-1.64063 0.49092,-2.19964 -0.16542,-0.65909 -0.0798,-0.87427 0.34798,-0.87427 1.2083,0 0.39443,-5.51287 -0.97786,-6.62374 -0.41324,-0.33451 -1.03534,-1.04983 -1.38243,-1.58959 -0.34709,-0.53976 -0.78406,-0.88683 -0.97103,-0.77127 -0.18698,0.11556 -0.15402,-0.19798 0.0732,-0.69675 0.38208,-0.83857 0.45984,-0.86462 1.03285,-0.34605 0.34081,0.30843 1.30702,0.92823 2.14713,1.37732 2.27443,1.21585 2.87457,2.19173 2.57526,4.18764 -0.15668,1.04481 -0.42351,1.64022 -0.73507,1.64022 -0.26901,0 -0.48912,0.3175 -0.48912,0.70555 0,0.38806 0.17596,0.70556 0.39103,0.70556 0.61975,0 0.0729,1.57651 -1.2812,3.69324 -0.79943,1.24971 -1.22649,2.34589 -1.22649,3.14816 0,0.67696 -0.17648,1.33991 -0.39216,1.47322 -0.2157,0.1333 -0.76246,1.05548 -1.21504,2.04929 -0.856,1.87966 -3.29531,4.9583 -3.31844,4.18817 -0.007,-0.24253 -0.15036,-0.44097 -0.31792,-0.44097 -0.16757,0 -0.30467,0.62709 -0.30467,1.39353 0,1.40852 -0.98839,4.37051 -2.27632,6.82166 -0.53712,1.02223 -0.62579,1.56081 -0.37751,2.29306 0.17847,0.52636 0.22919,2.46515 0.11271,4.30842 -0.12978,2.05387 -0.0444,4.30745 0.22062,5.82083 0.76409,4.36383 0.58642,7.39557 -0.69939,11.9342 -0.28266,0.99773 -0.27247,1.76306 0.039,2.92757 0.29127,1.08901 0.31118,1.78321 0.0644,2.24433 -0.58302,1.08938 -0.62613,4.7584 -0.086,7.31788 0.4588,2.17403 0.42653,6.95211 -0.064,9.47809 -0.15899,0.81872 0.28452,5.70968 0.66857,7.37293 0.13441,0.58208 0.288,1.57071 0.34132,2.19695 0.0533,0.62624 0.27032,1.3475 0.48221,1.60281 0.21188,0.25531 0.49661,1.55115 0.63272,2.87965 0.22732,2.21881 0.35797,2.51529 1.60479,3.64171 0.97728,0.88292 1.35732,1.51109 1.35732,2.24354 0,1.12756 -0.30847,1.19275 -3.06562,0.64787 z m 1.65451,-0.82097 c 0,-0.0726 -0.53857,-0.72003 -1.19682,-1.43867 -1.06937,-1.16748 -1.17944,-1.47357 -1.03349,-2.87416 0.19721,-1.89256 -0.54731,-4.61109 -0.95498,-3.487 -0.13962,0.38497 -0.11504,0.96731 0.0546,1.29411 0.16965,0.32679 0.30846,1.08644 0.30846,1.6881 0,0.98462 -0.0705,1.0562 -0.70556,0.71634 -0.56841,-0.30421 -0.70556,-0.26829 -0.70556,0.18479 0,0.30932 -0.14394,0.47344 -0.31987,0.36471 -0.17594,-0.10873 -0.23679,0.12002 -0.13525,0.50835 0.22661,0.86656 0.42357,0.88405 1.00475,0.0892 0.25566,-0.34964 0.57812,-0.48152 0.74445,-0.30448 0.16138,0.17178 0.095,0.3832 -0.14755,0.46982 -0.85622,0.30579 -0.42342,1.11438 1.05834,1.97725 1.46434,0.85273 2.02847,1.07844 2.02847,0.81161 z m -3.90183,-5.15961 c 0.30036,0 0.35615,-0.34589 0.18495,-1.14653 -0.31504,-1.47337 -0.77779,-2.02581 -2.19215,-2.61702 -1.06563,-0.44544 -1.33247,-0.83451 -1.16221,-1.69461 0.0373,-0.18858 -0.26136,-0.0449 -0.66377,0.31926 -1.19095,1.07779 -0.92971,2.31154 0.85584,4.04197 0.87313,0.84617 1.59255,1.71695 1.59872,1.93507 0.006,0.21812 0.22211,0.11877 0.47987,-0.22078 0.25775,-0.33955 0.66219,-0.61736 0.89875,-0.61736 z m -0.0596,-3.94671 c -0.0768,-0.23041 -0.32827,-0.4818 -0.55881,-0.55864 -0.25779,-0.0859 -0.33663,0.0754 -0.20479,0.41892 0.24607,0.64125 0.97525,0.77467 0.7636,0.13972 z m 0.64676,-1.24942 c -0.35861,-0.3586 -0.65449,0.18129 -0.36027,0.65736 0.22227,0.35963 0.30536,0.35991 0.42485,10e-4 0.0817,-0.2451 0.0526,-0.54156 -0.0646,-0.65878 z m -1.22841,-0.68644 c -0.30746,-0.52874 -0.3763,-0.54398 -0.38511,-0.0853 -0.0114,0.59411 0.35954,1.12903 0.60957,0.87901 0.0825,-0.0825 -0.0186,-0.43965 -0.22446,-0.79375 z m -2.21947,-3.66217 c -0.19913,-0.57123 -0.53703,-1.0386 -0.75088,-1.0386 -0.27428,0 -0.26975,0.11908 0.0154,0.40423 0.2231,0.22309 0.31497,0.85052 0.20503,1.40022 -0.10956,0.5478 -0.0814,1.27871 0.0626,1.62425 0.45039,1.08087 0.8918,-1.17403 0.46787,-2.3901 z m 1.47085,2.35598 c 0,-0.0732 -0.24176,-0.33383 -0.53724,-0.57906 -0.44921,-0.37281 -0.50083,-0.35098 -0.31503,0.1332 0.18975,0.4945 0.85227,0.8411 0.85227,0.44586 z m 0.34156,-1.54249 c -0.0155,-0.36415 -0.89873,-1.49931 -1.16664,-1.49931 -0.11997,0 -0.0373,0.39687 0.18371,0.88194 0.37361,0.81997 1.00843,1.2187 0.98293,0.61737 z m -1.58722,-3.2809 c -0.27203,-0.44016 -1.12386,-0.42939 -1.40017,0.0177 -0.40252,0.65129 0.17269,1.08514 0.91323,0.68881 0.38172,-0.20429 0.60084,-0.52222 0.48694,-0.70651 z m 1.88484,0.46272 c -0.065,-0.33732 -0.38141,-0.66401 -0.70321,-0.72599 -0.50866,-0.098 -0.60806,0.29594 -0.31574,1.25111 0.0148,0.0485 0.27676,0.0882 0.58203,0.0882 0.33731,0 0.5087,-0.24058 0.43692,-0.61331 z m 0.25654,-5.67932 c 0.21433,-3.71596 0.15594,-5.37581 -0.33727,-9.58857 -0.0345,-0.29445 -0.19457,-0.74876 -0.35576,-1.00958 -0.17653,-0.28563 -0.12113,-0.58049 0.13934,-0.74146 0.23783,-0.14699 0.47989,-0.8833 0.53793,-1.63625 0.058,-0.75295 0.16159,-1.68651 0.23013,-2.07456 0.0952,-0.53923 -0.0625,-0.69895 -0.66912,-0.67755 -0.43656,0.0154 -0.79375,-0.10365 -0.79375,-0.26458 0,-0.16093 0.3175,-0.29259 0.70556,-0.29259 0.81888,0 0.96121,-0.98238 0.18545,-1.28006 -0.43586,-0.16726 -0.44319,-0.27649 -0.0453,-0.67441 0.87269,-0.87269 1.7431,-7.05682 1.48699,-10.56478 -0.31223,-4.27654 -0.53014,-5.12387 -1.40922,-5.4796 -0.41092,-0.16628 -2.05908,-0.87762 -3.6626,-1.58075 -1.60351,-0.70312 -3.714621,-1.40474 -4.691351,-1.55914 l -1.77588,-0.28073 0.17829,0.92015 c 0.0981,0.50608 0.44371,2.42827 0.76812,4.27154 0.64862,3.68543 1.01407,5.04985 2.56113,9.5619 0.649451,1.89416 1.138401,4.21545 1.300401,6.17361 0.16373,1.97913 0.54753,3.78954 1.03922,4.90199 1.14967,2.60117 1.50194,3.63344 2.10676,6.17361 0.83639,3.51269 1.00425,5.38512 0.46684,5.20731 -0.28462,-0.0942 -0.53159,-1.15351 -0.67418,-2.89182 -0.12376,-1.50876 -0.38925,-3.08353 -0.58996,-3.49948 -0.20072,-0.41596 -0.63696,-1.51035 -0.96944,-2.43198 -0.33247,-0.92164 -0.72009,-1.6757 -0.86139,-1.6757 -0.31275,0 -0.70558,2.69751 -0.70558,4.84517 0,0.86443 0.30063,2.62821 0.66805,3.91951 0.36743,1.2913 0.93671,3.30032 1.26508,4.46449 l 0.59702,2.11667 1.52623,0.008 1.52623,0.008 0.252,-4.3692 z m -1.73992,2.55961 c -0.31575,-0.82284 -0.26023,-1.91142 0.0975,-1.91142 0.30658,0 0.73245,1.16442 0.74189,2.02847 0.007,0.62863 -0.58491,0.54612 -0.83939,-0.11705 z m -3.1498,-6.0493 c -0.32783,-0.52273 0.4389,-3.27045 0.91259,-3.27045 0.18407,0 0.21688,0.27781 0.0729,0.61736 -0.14397,0.33955 -0.36341,1.17298 -0.48764,1.85208 -0.14211,0.77684 -0.32674,1.07388 -0.49787,0.80101 z m 2.93567,-8.20934 c 0,-0.19403 0.15875,-0.35278 0.35278,-0.35278 0.19402,0 0.35277,0.15875 0.35277,0.35278 0,0.19402 -0.15875,0.35277 -0.35277,0.35277 -0.19403,0 -0.35278,-0.15875 -0.35278,-0.35277 z m -0.82315,-0.94075 c -0.34224,-0.34224 -0.28804,-1.17592 0.0765,-1.17592 0.1714,0 0.39466,0.3175 0.49614,0.70556 0.18134,0.69345 -0.1101,0.93286 -0.57259,0.47036 z m 1.38158,-1.48135 c -0.15197,-0.24589 -0.18103,-0.54234 -0.0646,-0.65878 0.31572,-0.31572 0.65996,0.14862 0.48944,0.6602 -0.11949,0.35849 -0.20259,0.35821 -0.42485,-0.001 z m -3.03495,-1.99615 c -0.71233,-0.8583 -0.11863,-1.01802 0.75583,-0.20334 0.61095,0.5692 0.66728,0.74103 0.24291,0.74103 -0.30388,0 -0.75331,-0.24196 -0.99874,-0.53769 z m 0.31485,-1.46034 c -0.44053,-0.53403 -0.41015,-0.54748 0.33715,-0.14923 0.45173,0.24074 1.04704,0.35109 1.32292,0.24522 0.27588,-0.10586 0.5016,-0.0387 0.5016,0.14922 0,0.56906 -1.64378,0.38259 -2.16167,-0.24521 z m -0.77815,-1.05938 c -0.12935,-0.12935 -0.23518,-0.39922 -0.23518,-0.59972 0,-0.22105 0.16431,-0.20022 0.41745,0.0529 0.2296,0.2296 0.33544,0.49947 0.23519,0.59972 -0.10025,0.10025 -0.28811,0.0764 -0.41746,-0.0529 z m 3.2926,-0.78151 c 0,-0.19402 0.15875,-0.45089 0.35277,-0.5708 0.19403,-0.11992 0.35278,-0.0593 0.35278,0.13475 0,0.19403 -0.15875,0.45089 -0.35278,0.5708 -0.19402,0.11992 -0.35277,0.0593 -0.35277,-0.13475 z m -2.87734,-1.62545 c -0.29894,-0.29895 0.42462,-3.0023 0.80358,-3.0023 0.40427,0 0.35463,0.61024 -0.16668,2.04914 -0.23258,0.64195 -0.51918,1.07088 -0.6369,0.95316 z m 2.87734,-0.20089 c 0,-0.20548 0.15875,-0.27549 0.35277,-0.15557 0.19403,0.11991 0.35278,0.28803 0.35278,0.3736 0,0.0856 -0.15875,0.15556 -0.35278,0.15556 -0.19402,0 -0.35277,-0.16812 -0.35277,-0.37359 z m 0.38133,-1.31343 c -0.0157,-0.24877 0.21272,-1.02976 0.50761,-1.73554 0.2949,-0.70578 0.57271,-2.11793 0.61736,-3.13812 0.053,-1.21096 0.18347,-1.6723 0.37581,-1.32893 0.40938,0.73084 -0.0305,3.55724 -0.8165,5.24599 -0.36065,0.7749 -0.66857,1.20537 -0.68428,0.9566 z m -3.96086,-4.12676 c -0.10398,-0.10398 -0.0925,-0.7831 0.0255,-1.50916 0.24206,-1.48913 0.97576,-1.6361 0.78534,-0.15731 -0.14391,1.1176 -0.54186,1.93547 -0.81086,1.66647 z m -2.539971,-1.15421 c -0.38181,-0.61778 -0.36002,-4.92078 0.023,-4.53778 0.21238,0.21238 0.41147,4.80265 0.20831,4.80291 -0.0371,5e-5 -0.14114,-0.11926 -0.23129,-0.26513 z m 6.825051,-4.12369 c 0,-0.66764 0.15875,-1.31201 0.35278,-1.43193 0.21305,-0.13167 0.35278,0.34912 0.35278,1.2139 0,0.78757 -0.15875,1.43194 -0.35278,1.43194 -0.19403,0 -0.35278,-0.54626 -0.35278,-1.21391 z m -59.781963,-4.80576 c 0.112285,-0.18168 -0.290833,-0.33033 -0.895818,-0.33033 -0.604985,0 -1.023301,0.12405 -0.929591,0.27568 0.248053,0.40136 1.586368,0.44142 1.825409,0.0547 z m 2.681695,-1.03589 c 0.531827,0 1.066672,0.16134 1.188543,0.35853 0.448982,0.72647 0.841988,-0.0525 0.455002,-0.90179 -0.472668,-1.03739 -0.160721,-1.49901 0.59125,-0.87493 0.652519,0.54154 0.689543,0.25469 0.09672,-0.74935 -0.352778,-0.59749 -0.352778,-0.7788 0,-0.90656 0.242535,-0.0878 0.440972,-0.30023 0.440972,-0.472 0,-0.59104 -0.989036,0.068 -1.176214,0.78378 -0.103074,0.39415 -0.349909,0.61621 -0.548523,0.49346 -0.198613,-0.12275 -0.271689,-0.45622 -0.16239,-0.74105 0.15731,-0.40994 -0.146104,-0.51787 -1.455917,-0.51787 -1.170763,0 -1.60955,0.12896 -1.50045,0.44097 0.08481,0.24254 0.414867,0.39448 0.733471,0.33766 0.318603,-0.0568 0.921462,0.21547 1.339684,0.6051 0.616994,0.57482 0.678943,0.80659 0.328468,1.22888 -0.448733,0.54069 -1.583057,0.37584 -1.239449,-0.18013 0.10735,-0.17369 0.02706,-0.31581 -0.178416,-0.31581 -0.205478,0 -0.373597,0.25664 -0.373597,0.57031 0,0.39663 -0.214871,0.51412 -0.705556,0.38581 -0.870034,-0.22752 -0.907508,0.0516 -0.08819,0.65693 0.382829,0.28284 0.744678,0.33112 0.9525,0.12709 0.184326,-0.18097 0.770269,-0.32903 1.302096,-0.32903 z m -3.783341,-0.83145 c -0.229536,-0.59816 -0.90129,-0.76606 -1.333941,-0.33341 -0.135437,0.13544 0.115678,0.43995 0.558034,0.67669 0.94189,0.50408 1.077968,0.44388 0.775907,-0.34328 z m 7.614162,-1.63799 c 0,-0.19403 -0.247494,-0.35278 -0.549987,-0.35278 -0.302492,0 -0.451874,0.15875 -0.331958,0.35278 0.119916,0.19402 0.36741,0.35277 0.549987,0.35277 0.182577,0 0.331958,-0.15875 0.331958,-0.35277 z m 0.881944,-1.05834 c -0.119916,-0.19403 -0.376779,-0.35278 -0.570806,-0.35278 -0.194028,0 -0.254665,0.15875 -0.134749,0.35278 0.119915,0.19403 0.376778,0.35278 0.570806,0.35278 0.194028,0 0.254665,-0.15875 0.134749,-0.35278 z m 42.549412,-5.39309 c -0.2881,-0.2881 -0.39246,-0.24862 -0.39246,0.14846 0,0.29751 0.11575,0.65668 0.25723,0.79816 0.14148,0.14148 0.31809,0.0747 0.39247,-0.14846 0.0744,-0.22313 -0.0414,-0.5823 -0.25724,-0.79816 z m -4.97858,0.10143 c 0,-0.19403 -0.16812,-0.35278 -0.37359,-0.35278 -0.20548,0 -0.27549,0.15875 -0.15557,0.35278 0.11991,0.19402 0.28803,0.35277 0.3736,0.35277 0.0856,0 0.15556,-0.15875 0.15556,-0.35277 z m 8.76002,-4.29012 c 0.345461,-0.4534 0.350461,-0.6453 0.022,-0.84826 -0.26906,-0.16629 -0.33228,-0.11323 -0.17269,0.14498 0.13844,0.22401 0.0836,0.40728 -0.12189,0.40728 -0.20547,0 -0.37359,0.26459 -0.37359,0.58797 0,0.32338 0.0449,0.52181 0.0998,0.44097 0.0549,-0.0808 0.30074,-0.41067 0.5463,-0.73294 z m 2.528871,-0.13202 c 0,-0.38389 -1.14947,-1.92786 -1.43527,-1.92786 -0.16269,0 -0.0254,0.47524 0.30515,1.0561 0.53258,0.93595 1.13012,1.39688 1.13012,0.87176 z m -6.702771,-0.67232 c 0,-0.0856 -0.15875,-0.25368 -0.35278,-0.3736 -0.19403,-0.11992 -0.35278,-0.0499 -0.35278,0.15557 0,0.20548 0.15875,0.3736 0.35278,0.3736 0.19403,0 0.35278,-0.07 0.35278,-0.15557 z m 0.70555,-0.90277 c -0.20768,-0.38805 -0.45698,-0.70555 -0.55399,-0.70555 -0.097,0 -0.006,0.3175 0.20121,0.70555 0.20768,0.38806 0.45698,0.70556 0.55399,0.70556 0.097,0 0.006,-0.3175 -0.20121,-0.70556 z m 2.26978,-0.0377 c 0.29014,0.46946 0.90522,0.5185 0.90522,0.0722 0,-0.17505 -0.47625,-0.48429 -1.05833,-0.68721 -0.81724,-0.28489 -1.05834,-0.26596 -1.05834,0.0831 0,0.66507 0.44357,0.99351 0.72556,0.53725 0.17818,-0.28829 0.3101,-0.28973 0.48589,-0.005 z m 5.844111,-0.64707 c 0,-0.59141 -0.62567,-0.73785 -0.83391,-0.19519 -0.12287,0.32021 0.001,0.52715 0.31581,0.52715 0.28496,0 0.5181,-0.14938 0.5181,-0.33196 z m -3.2329,-0.76476 c 0.38509,-0.61663 0.38452,-0.71535 -0.003,-0.57684 -0.25737,0.0919 -0.74575,0.0242 -1.0853,-0.15041 -0.708361,-0.36433 -0.768551,-0.17604 -0.252171,0.78882 0.467811,0.87412 0.764971,0.86048 1.340801,-0.0616 z m 17.57301,-15.06395 c 0.6696,-1.07221 -0.23903,-2.60213 -2.11999,-3.56954 -0.90266,-0.46425 -1.72979,-0.7555 -1.83807,-0.64721 -0.10829,0.10828 0.44015,0.82757 1.21874,1.59842 0.77859,0.77086 1.52039,1.81898 1.64844,2.32916 0.27387,1.09119 0.54511,1.16308 1.09088,0.28917 z m -10.10678,-19.82267 c 0,-0.19403 -0.07,-0.35278 -0.15556,-0.35278 -0.0856,0 -0.25369,0.15875 -0.3736,0.35278 -0.11992,0.19403 -0.0499,0.35278 0.15557,0.35278 0.20547,0 0.37359,-0.15875 0.37359,-0.35278 z m 7.40834,0 c 0,-0.19403 -0.15875,-0.35278 -0.35278,-0.35278 -0.19403,0 -0.35278,-0.21166 -0.35278,-0.47037 0,-0.2587 -0.24495,-0.47037 -0.54434,-0.47037 -0.3348,0 -0.4675,0.20029 -0.34471,0.52027 0.17192,0.44802 0.11707,0.4521 -0.39496,0.0294 -0.51169,-0.42241 -0.57067,-0.41843 -0.4229,0.0286 0.0944,0.28569 0.55683,0.62706 1.02751,0.75859 1.25215,0.34991 1.38496,0.34576 1.38496,-0.0433 z m -5.64445,-0.86112 c 0,-0.37235 -0.67702,-0.52879 -0.87839,-0.20297 -0.12187,0.1972 0.0259,0.35854 0.32841,0.35854 0.30249,0 0.54998,-0.07 0.54998,-0.15557 z m 2.64584,-0.54999 c -0.11992,-0.19403 -0.4071,-0.35035 -0.63819,-0.34738 -0.25245,0.003 -0.20894,0.1419 0.10902,0.34738 0.67773,0.43798 0.79985,0.43798 0.52917,0 z m -1.84537,-0.93696 c -0.23884,-0.0966 -0.71509,-0.10251 -1.05834,-0.0131 -0.34324,0.0894 -0.14782,0.16851 0.43426,0.1757 0.58209,0.007 0.86292,-0.066 0.62408,-0.16263 z m -53.36436,48.23796 c 0,-0.37834 2.189871,-1.79267 2.775667,-1.79267 0.751243,0 0.22398,0.84742 -0.922305,1.48233 -1.268223,0.70246 -1.853362,0.80043 -1.853362,0.31034 z m 3.678968,-1.47997 c 0,-0.78274 0.396351,-0.88054 0.670736,-0.1655 0.105521,0.27498 -0.0022,0.57445 -0.23944,0.66547 -0.245943,0.0944 -0.431296,-0.12049 -0.431296,-0.49997 z m 1.294715,-0.44381 c 0.685018,-0.75403 8.903954,-1.94317 9.275492,-1.34201 0.09918,0.16047 -1.508197,0.48804 -3.571941,0.72793 -2.063744,0.2399 -4.238818,0.5285 -4.833498,0.64136 -0.59468,0.11285 -0.986203,0.10058 -0.870053,-0.0273 z m 10.264801,-0.64651 c -0.269905,-0.26991 -0.168645,-0.54901 0.3522,-0.97076 0.627198,-0.50788 0.670187,-0.70561 0.302696,-1.39227 -0.480316,-0.89748 -0.221482,-1.43689 0.394101,-0.82131 0.29911,0.29911 0.622773,0.22605 1.276418,-0.2881 0.481633,-0.37885 1.1321,-0.67876 1.445483,-0.66646 0.397976,0.0156 0.34133,0.11453 -0.187865,0.32805 -1.028985,0.41517 -1.374773,1.05507 -0.586086,1.08457 0.530347,0.0198 0.504058,0.0886 -0.155569,0.40669 -0.436563,0.21055 -0.79375,0.6578 -0.79375,0.99388 0,0.83394 -1.541426,1.83191 -2.047628,1.32571 z m 11.125775,0.0283 c 0.2393,-0.2411 0.52396,-0.34949 0.63258,-0.24087 0.10861,0.10862 -0.0872,0.30588 -0.43509,0.43835 -0.50278,0.19145 -0.5433,0.15093 -0.19749,-0.19748 z m -1.14065,-2.07289 c -0.27593,-0.44647 0.19108,-0.44647 0.88195,0 0.45603,0.29471 0.44672,0.34272 -0.0674,0.34738 -0.32809,0.003 -0.69465,-0.15335 -0.81457,-0.34738 z m -4.54466,-0.28571 c -0.09712,-0.15715 0.64757,-0.29535 1.65487,-0.30713 1.25193,-0.0146 1.6082,0.0679 1.1259,0.26092 -0.93957,0.37597 -2.560323,0.4029 -2.78077,0.0462 z m -1.342316,-0.66083 c 0.254659,-0.10191 0.55893,-0.0894 0.676158,0.0278 0.117225,0.11723 -0.09114,0.20061 -0.46302,0.18529 -0.410969,-0.0169 -0.49456,-0.10052 -0.213138,-0.21313 z m 3.946706,-1.52414 c -0.29105,-0.18741 -0.9058,-0.34317 -1.36612,-0.34614 -1.544601,-0.01 -0.17838,-0.942 1.98735,-1.35577 4.30325,-0.82213 4.83725,-0.8632 4.4018,-0.33851 -0.33083,0.39862 -0.18809,0.45982 0.80271,0.34415 0.6628,-0.0774 1.38884,-0.36209 1.61342,-0.6327 0.54671,-0.65874 1.05701,-0.62661 0.79729,0.0502 -0.27993,0.72949 -1.85842,1.45981 -2.94479,1.36248 -0.48507,-0.0435 -1.04516,0.12737 -1.24465,0.37964 -0.47013,0.59452 -3.36167,0.97794 -4.04701,0.53665 z m 2.33715,-1.0571 c 0.26679,0 0.48507,-0.13743 0.48507,-0.30541 0,-0.35066 -2.72277,0.0775 -3.10079,0.48767 -0.13783,0.14952 0.28518,0.16969 0.94002,0.0448 0.65485,-0.12489 1.40891,-0.22707 1.6757,-0.22707 z m 23.422701,-2.99008 c -0.27825,-0.33528 -0.30502,-0.53769 -0.0711,-0.53769 0.42635,0 0.92343,0.66929 0.67878,0.91394 -0.0888,0.0888 -0.36225,-0.0805 -0.60769,-0.37625 z m 1.22765,-0.18492 c -0.35119,-0.38805 -0.47977,-0.70555 -0.28575,-0.70555 0.19403,0 0.64012,0.3175 0.9913,0.70555 0.35119,0.38806 0.47977,0.70556 0.28575,0.70556 -0.19403,0 -0.64012,-0.3175 -0.9913,-0.70556 z m 2.09608,-1.23472 c 0.13579,-0.58208 0.41491,-1.21708 0.62026,-1.41111 0.26064,-0.24627 0.29882,-0.0333 0.12646,0.70556 -0.13579,0.58208 -0.41491,1.21708 -0.62026,1.41111 -0.26064,0.24627 -0.29882,0.0333 -0.12646,-0.70556 z m -3.68358,-1.10378 c 0,-0.20849 0.47625,-0.87742 1.05833,-1.48652 0.58208,-0.60909 1.05833,-0.95994 1.05833,-0.77965 0,0.18029 -0.47625,0.84922 -1.05833,1.48652 -0.58208,0.6373 -1.05833,0.98815 -1.05833,0.77965 z m -3.99815,-1.07168 c -0.47663,-0.47663 -0.21201,-0.82315 0.62858,-0.82315 0.47507,0 1.29371,-0.39845 1.81919,-0.88545 0.52547,-0.48699 1.03538,-0.80547 1.13314,-0.70771 0.26791,0.26791 -1.04127,1.59955 -2.12205,2.15845 -1.09495,0.56622 -1.14216,0.57456 -1.45886,0.25786 z m 7.69279,-0.83856 c -0.11468,-0.18555 0.11836,-0.33737 0.51787,-0.33737 0.85181,0 0.93774,0.19619 0.20851,0.47602 -0.28483,0.1093 -0.6117,0.0469 -0.72638,-0.13865 z m -1.36142,-1.68348 c -0.13711,-0.22185 -0.67137,-0.30917 -1.22013,-0.19942 -0.66175,0.13235 -1.13176,0.008 -1.45904,-0.38652 -0.43224,-0.52081 -0.38397,-0.56096 0.46073,-0.38319 2.97608,0.62633 2.81158,0.63489 2.61,-0.13596 -0.12461,-0.4765 -0.0198,-0.7238 0.30686,-0.7238 0.62766,0 0.63733,0.73039 0.0208,1.57352 -0.31901,0.43627 -0.55553,0.52025 -0.71923,0.25537 z m 5.33496,-0.75845 c -0.26714,-0.38139 -0.87145,-0.84758 -1.34292,-1.03597 -0.84624,-0.33814 -0.84705,-0.34281 -0.0635,-0.36488 0.79987,-0.0225 2.20486,1.08721 2.20486,1.74152 0,0.53697 -0.26207,0.42516 -0.79848,-0.34067 z m -15.715931,-2.15082 c 0.0849,-0.25466 0.3627,-0.53247 0.61736,-0.61736 0.26459,-0.0882 0.39688,0.0441 0.30869,0.30868 -0.0849,0.25466 -0.36271,0.53247 -0.61737,0.61736 -0.26458,0.0882 -0.39687,-0.0441 -0.30868,-0.30868 z m 6.989411,0.0221 c 0,-0.19403 0.2475,-0.35278 0.54999,-0.35278 0.30249,0 0.45187,0.15875 0.33196,0.35278 -0.11992,0.19403 -0.36741,0.35278 -0.54999,0.35278 -0.18258,0 -0.33196,-0.15875 -0.33196,-0.35278 z m -5.29166,-1.05833 c 0,-0.19403 0.32687,-0.35278 0.72637,-0.35278 0.39951,0 0.62827,0.15875 0.50835,0.35278 -0.11992,0.19402 -0.44679,0.35277 -0.72638,0.35277 -0.27959,0 -0.50834,-0.15875 -0.50834,-0.35277 z m 10.49038,-1.6757 c 0.75249,-1.65585 0.75543,-1.65997 1.00504,-1.41036 0.27027,0.27027 -0.90061,2.73328 -1.29935,2.73328 -0.16879,0 -0.0363,-0.59531 0.29431,-1.32292 z m -11.195941,0.44097 c 0,-0.29104 0.15875,-0.52916 0.35278,-0.52916 0.194031,0 0.352781,0.23812 0.352781,0.52916 0,0.29105 -0.15875,0.52917 -0.352781,0.52917 -0.19403,0 -0.35278,-0.23812 -0.35278,-0.52917 z m 7.320141,0.27218 c -0.7276,-0.0761 -1.32292,-0.25567 -1.32292,-0.39902 0,-0.35845 2.42934,-0.0471 2.66993,0.34221 0.10666,0.17259 0.14488,0.28711 0.0849,0.2545 -0.06,-0.0326 -0.70433,-0.12158 -1.43193,-0.19769 z m -7.997841,-0.86247 c -0.0345,-0.73043 1.630261,-2.76109 2.263531,-2.76109 0.59909,0 0.29445,1.23151 -0.45528,1.84052 -0.4724,0.38373 -0.52297,0.36141 -0.33262,-0.14686 0.15751,-0.4206 0.0777,-0.54309 -0.26745,-0.41063 -0.270551,0.10382 -0.646811,0.61167 -0.836121,1.12856 -0.20427,0.55771 -0.35554,0.69981 -0.37206,0.3495 z m 3.499921,0.28071 c 0,-0.0733 0.23813,-0.33082 0.52917,-0.57236 0.43339,-0.35968 0.52917,-0.33557 0.52917,0.13319 0,0.3148 -0.23813,0.57237 -0.52917,0.57237 -0.29104,0 -0.52917,-0.0599 -0.52917,-0.1332 z m 3.88056,-2.33625 c 0,-0.19403 0.24749,-0.35278 0.54999,-0.35278 0.30249,0 0.45187,0.15875 0.33195,0.35278 -0.11991,0.19403 -0.36741,0.35278 -0.54998,0.35278 -0.18258,0 -0.33196,-0.15875 -0.33196,-0.35278 z m 5.18945,-0.35278 c 0.10148,-0.38805 0.30988,-0.70555 0.46311,-0.70555 0.15323,0 0.19558,0.3175 0.0941,0.70555 -0.10148,0.38806 -0.30988,0.70556 -0.46311,0.70556 -0.15323,0 -0.19558,-0.3175 -0.0941,-0.70556 z m -10.48112,-1.4499 c 0,-0.15069 0.28026,-0.48142 0.6228,-0.73495 1.24522,-0.92169 2.01904,-4.15171 1.12674,-4.70318 -0.20192,-0.1248 -0.2706,-0.53104 -0.15262,-0.90277 0.18304,-0.57669 0.0362,-0.67586 -1.00078,-0.67586 -0.66842,0 -1.38685,-0.2067 -1.59651,-0.45933 -0.475671,-0.57315 -0.149541,-2.04128 0.58367,-2.62748 0.97154,-0.77675 1.27387,-0.47144 0.42642,0.43063 -1.090541,1.16083 -0.49036,1.95062 1.48233,1.95062 1.12699,0 1.3639,0.10882 1.19503,0.54889 -0.53378,1.39101 1.61638,4.03129 2.78098,3.41488 0.19403,-0.1027 0.16249,0.0189 -0.0701,0.27025 -0.34477,0.37258 -0.58679,0.34956 -1.31051,-0.12463 -1.35146,-0.88551 -1.54755,-0.73933 -1.80836,1.34811 -0.1326,1.06135 -0.42184,2.07158 -0.64274,2.24497 -0.48981,0.38445 -1.63637,0.39835 -1.63637,0.0199 z m -0.25387,-2.87162 c -0.4399,-1.64806 -0.0927,-4.63181 0.37521,-3.2247 0.13609,0.40922 0.15769,0.97794 0.048,1.2638 -0.10969,0.28586 -0.0508,1.18135 0.13089,1.98998 0.43383,1.93083 -0.0375,1.90609 -0.55409,-0.0291 z m 10.29201,-0.0722 c -0.47625,-0.47625 -0.86592,-1.06363 -0.86592,-1.30528 0,-0.25981 0.1103,-0.3024 0.26987,-0.10423 0.14843,0.18432 0.65235,0.7717 1.11983,1.30528 1.05448,1.20357 0.65504,1.28305 -0.52378,0.10423 z m 2.19149,0.63072 c -0.12935,-0.12935 -0.23518,-0.39923 -0.23518,-0.59972 0,-0.22105 0.16431,-0.20023 0.41745,0.0529 0.2296,0.2296 0.33544,0.49948 0.23519,0.59973 -0.10025,0.10024 -0.28811,0.0764 -0.41746,-0.0529 z m -4.94301,-2.8794 c -0.6431,-0.71062 -0.78482,-1.2846 -0.23296,-0.94353 0.368,0.22743 1.18279,1.58867 0.95093,1.58867 -0.0738,0 -0.39685,-0.29031 -0.71797,-0.64514 z m 2.82635,0.40996 c -0.32368,-0.32368 -0.29796,-2.58704 0.0294,-2.58704 0.14552,0 0.26459,0.635 0.26459,1.41111 0,0.77611 -0.0132,1.41111 -0.0294,1.41111 -0.0162,0 -0.13523,-0.10583 -0.26458,-0.23518 z m -2.35186,-1.35232 c -0.4767,-0.5744 -0.36268,-0.6462 0.50032,-0.31503 0.30691,0.11777 0.55802,0.35589 0.55802,0.52916 0,0.48798 -0.57163,0.37232 -1.05834,-0.21413 z m 5.6417,-0.20991 c -0.003,-0.48159 -1.49807,-1.37759 -2.29914,-1.37759 -0.21854,0 -0.75842,-0.38435 -1.19974,-0.85411 -0.5014,-0.53371 -1.12316,-0.81991 -1.65751,-0.76294 -1.00782,0.10745 -2.24448,1.32181 -2.26041,2.21966 -0.0104,0.58395 -0.0508,0.5798 -0.53049,-0.0545 -0.40297,-0.53283 -0.61379,-0.59208 -0.94128,-0.26459 -0.23211,0.23211 -0.54902,0.42202 -0.70424,0.42202 -0.60793,0 -0.23125,-0.79399 0.78057,-1.64539 l 1.0628,-0.89428 -1.44839,-1.04921 c -0.79661,-0.57706 -1.35521,-1.14237 -1.24134,-1.25624 0.11387,-0.11387 0.48582,0.0433 0.82656,0.34917 0.34074,0.30591 1.32106,0.83563 2.1785,1.17714 1.39336,0.55498 1.918,0.5765 4.93888,0.20258 4.65043,-0.57562 7.59705,-0.53952 8.12745,0.0996 0.49106,0.59169 1.99868,1.09536 4.22845,1.41266 1.5148,0.21556 1.5475,0.20082 0.97014,-0.43716 -0.76619,-0.84663 -0.75181,-1.0112 0.10805,-1.23606 0.57399,-0.1501 0.70656,-0.01 0.71096,0.7526 0.004,0.73462 0.0793,0.82277 0.34737,0.40795 0.28158,-0.43571 0.34293,-0.4409 0.34738,-0.0294 0.003,0.27487 0.0892,0.41595 0.19166,0.31351 0.32721,-0.3272 -0.44622,-1.83505 -1.5481,-3.01814 -0.9969,-1.07036 -1.22286,-1.14653 -3.40159,-1.14653 -1.63843,0 -2.26071,-0.1182 -2.08856,-0.39674 0.16139,-0.26114 1.08642,-0.33656 2.7063,-0.22066 2.6595,0.19029 2.88056,0.34291 5.06821,3.49903 0.73834,1.0652 0.8275,1.42402 0.504,2.02847 -0.42613,0.79623 -1.29451,0.91601 -2.98897,0.41229 -0.59586,-0.17714 -1.87713,-0.5045 -2.84727,-0.72748 -0.97014,-0.22297 -2.09162,-0.71304 -2.49218,-1.08904 -0.40056,-0.37601 -0.98687,-0.68364 -1.30292,-0.68364 -0.68297,0 -1.67296,1.30555 -1.67296,2.20623 0,0.35097 -0.27781,0.73665 -0.61736,0.85707 -0.33955,0.12042 -0.89517,0.45754 -1.23472,0.74916 -0.51397,0.44143 -0.61782,0.44722 -0.62011,0.0346 z m 1.31693,-1.31022 c 0.23773,-0.15103 0.47586,-0.66454 0.52917,-1.14112 0.0941,-0.84131 0.0225,-0.86954 -2.46071,-0.97018 -3.2827,-0.13303 -3.36705,0.75512 -0.17974,1.89248 1.58843,0.56681 1.56702,0.56459 2.11128,0.21882 z m 6.63959,-2.44365 c -0.57313,-0.0847 -1.36252,-0.37837 -1.75419,-0.6527 -0.39167,-0.27434 -1.43087,-0.52132 -2.30933,-0.54886 l -1.5972,-0.0501 1.41112,-0.22323 c 0.83161,-0.13156 1.86438,-0.044 2.51485,0.21331 0.97484,0.38555 1.17693,0.35567 1.73037,-0.25588 0.34465,-0.38082 0.90009,-0.69241 1.23431,-0.69241 0.70534,0 1.61616,0.9594 1.25433,1.32122 -0.13521,0.13522 -0.37529,0.0364 -0.53351,-0.21962 -0.3425,-0.55417 -1.49425,-0.40446 -1.7026,0.22132 -0.0808,0.24253 0.0952,0.44097 0.39092,0.44097 0.29576,0 0.63585,0.15875 0.75577,0.35278 0.11992,0.19402 0.0896,0.32899 -0.0674,0.29992 -0.15698,-0.0291 -0.75433,-0.12212 -1.32747,-0.20676 z m -20.30099,-0.93737 c 0,-0.0763 0.23812,-0.23002 0.52916,-0.3417 0.29104,-0.11168 0.52917,-0.0493 0.52917,0.13864 0,0.18794 -0.23813,0.34171 -0.52917,0.34171 -0.29104,0 -0.52916,-0.0624 -0.52916,-0.13865 z m 6.17361,-0.0466 c -0.19403,-0.0712 -1.02747,-0.30295 -1.85209,-0.51491 -0.82461,-0.21196 -1.4993,-0.51475 -1.4993,-0.67288 0,-0.15813 0.82834,-0.0726 1.84077,0.18999 1.01242,0.26261 2.24273,0.48864 2.73403,0.50228 0.81526,0.0226 0.83165,0.0513 0.1877,0.32798 -0.78753,0.33842 -0.9071,0.35261 -1.41111,0.16754 z m 4.15185,-0.41201 c 0.34324,-0.0894 0.81949,-0.0836 1.05833,0.0131 0.23884,0.0966 -0.042,0.16982 -0.62407,0.16263 -0.58208,-0.007 -0.7775,-0.0863 -0.43426,-0.1757 z m 1.8914,-0.11906 c 0.24072,-0.24072 0.65189,-0.24827 1.21708,-0.0224 0.80203,0.32057 0.78008,0.34252 -0.36353,0.36353 -0.83539,0.0153 -1.10307,-0.0917 -0.85355,-0.34117 z M 102.30777,124.917 c -0.15197,-0.24589 -0.18103,-0.54234 -0.0646,-0.65878 0.31572,-0.31572 0.65996,0.14862 0.48944,0.6602 -0.1195,0.35849 -0.20259,0.35821 -0.42485,-10e-4 z"
       style="fill:#000000;stroke-width:0.35277778" />
  </g>
</svg>
