<?xml version="1.0" encoding="UTF-8" standalone="no"?>
<svg
   xmlns:dc="http://purl.org/dc/elements/1.1/"
   xmlns:cc="http://creativecommons.org/ns#"
   xmlns:rdf="http://www.w3.org/1999/02/22-rdf-syntax-ns#"
   xmlns:svg="http://www.w3.org/2000/svg"
   xmlns="http://www.w3.org/2000/svg"
   id="svg13112"
   version="1.1"
   viewBox="0 0 104.25311 102.89419"
   height="102.89419mm"
   width="104.25311mm">
  <defs
     id="defs13106" />
  <metadata
     id="metadata13109">
    <rdf:RDF>
      <cc:Work
         rdf:about="">
        <dc:format>image/svg+xml</dc:format>
        <dc:type
           rdf:resource="http://purl.org/dc/dcmitype/StillImage" />
        <dc:title></dc:title>
      </cc:Work>
    </rdf:RDF>
  </metadata>
  <g
     transform="translate(-18.695312,-84.770608)"
     id="layer1">
    <path
       id="path13719"
       d="m 21.319101,187.38074 c -1.485334,-0.20721 -2.902069,-1.18876 -2.576766,-1.78524 0.05408,-0.0991 0.368725,-0.76114 0.699222,-1.47107 0.554232,-1.19053 3.987712,-4.17726 4.802087,-4.17726 0.671167,0 2.379674,-1.96786 3.062852,-3.52778 0.382389,-0.87313 1.045617,-2.8461 1.47384,-4.38439 1.146082,-4.11701 4.684306,-11.56109 6.735925,-14.17173 1.416076,-1.80192 1.762412,-2.50758 1.762412,-3.59089 0,-1.11031 0.300231,-1.68756 1.701139,-3.27076 2.252878,-2.54604 2.760373,-3.57436 3.193677,-6.47124 0.200079,-1.33764 0.745681,-3.24264 1.212448,-4.23334 1.710906,-3.63133 1.927759,-4.29208 1.760296,-5.36366 -0.09394,-0.60113 0.07846,-1.82716 0.383123,-2.72451 0.304659,-0.89735 0.463201,-1.86797 0.352315,-2.15694 -0.131577,-0.34288 0.826793,-1.54101 2.758901,-3.4491 1.628282,-1.60805 3.397299,-3.51903 3.931149,-4.24663 0.533852,-0.72761 1.181513,-1.32292 1.439245,-1.32292 0.257736,0 1.003011,-1.29435 1.656169,-2.87634 1.431191,-3.46644 3.427268,-6.3849 5.867541,-8.57891 0.996043,-0.89553 2.141675,-2.1633 2.545842,-2.81726 0.404171,-0.65396 1.563787,-1.70807 2.576922,-2.34247 1.013139,-0.6344 2.214855,-1.60578 2.670482,-2.15864 0.45563,-0.55285 1.641535,-1.41722 2.635349,-1.92082 0.993814,-0.503607 2.367277,-1.366177 3.052142,-1.916837 2.361359,-1.89863 6.052679,-4.557743 7.024729,-5.060413 0.53605,-0.277203 1.18833,-0.761484 1.4495,-1.076179 0.6676,-0.8044 4.28312,-2.559203 7.41126,-3.597072 1.4552,-0.482816 3.63549,-1.26488 4.84508,-1.73792 1.97322,-0.771676 5.060198,-1.373705 8.560468,-1.669484 0.6791,-0.05738 1.67129,-0.229416 2.20486,-0.382293 0.82047,-0.235074 0.97014,-0.172372 0.97014,0.40643 0,0.713065 -2.57812,2.600644 -4.23333,3.099446 -0.48507,0.146177 -1.27882,0.539878 -1.76389,0.874891 -0.96072,0.663519 -2.222618,0.999725 -4.409718,1.17487 -1.42734,0.114302 -3.12785,1.030187 -6.04012,3.25317 -0.87926,0.671154 -1.80321,1.220279 -2.05322,1.220279 -0.25001,0 -0.8582,0.3175 -1.35154,0.705556 -0.49333,0.388055 -1.20985,0.705555 -1.59227,0.705555 -0.4272,0 -0.85145,0.376951 -1.10023,0.977565 -0.47568,1.148399 -2.0888,2.525319 -5.29867,4.522796 -1.83856,1.14412 -2.29671,1.60078 -2.20956,2.20236 0.0605,0.41742 -0.13797,1.1129 -0.44097,1.5455 -0.30301,0.4326 -0.55092,1.06522 -0.55092,1.40583 0,0.53581 0.20796,0.48741 1.54262,-0.35901 1.92326,-1.21969 3.74904,-2.92166 3.74904,-3.49479 0,-0.2387 0.39767,-0.69455 0.88372,-1.01302 0.68234,-0.44709 0.99624,-0.48563 1.3776,-0.16913 0.38625,0.32056 1.01278,0.16473 2.87481,-0.71504 2.10973,-0.9968 2.50818,-1.07892 3.49814,-0.72094 0.61447,0.22219 1.38376,0.40399 1.70953,0.40399 0.65471,0 0.74847,0.58889 0.29119,1.82911 -0.16561,0.4492 -0.4118,1.27336 -0.54708,1.83148 -0.21206,0.87488 -0.1584,0.98417 0.38931,0.79288 0.55785,-0.19483 0.55182,-0.15727 -0.0495,0.30816 -0.37664,0.29152 -0.55564,0.53003 -0.39778,0.53003 0.15786,0 0.0862,0.24197 -0.15923,0.5377 -0.65089,0.78427 -0.29024,0.91072 0.58151,0.20389 0.62254,-0.50476 0.7431,-0.96059 0.70556,-2.66774 -0.0327,-1.48568 0.0932,-2.10692 0.45191,-2.23121 0.3464,-0.12 0.42851,0.007 0.27074,0.41788 -0.12455,0.32457 -10e-4,1.24469 0.27469,2.04471 0.45657,1.32519 0.44153,1.56727 -0.16907,2.72121 -0.36863,0.69664 -0.75772,1.69935 -0.86466,2.22824 -0.16551,0.81856 -0.49553,1.04772 -2.21833,1.54044 -1.11314,0.31835 -2.28415,0.80716 -2.60225,1.08624 -0.36409,0.31942 -1.40969,0.51795 -2.82223,0.53586 -1.23412,0.0156 -2.56135,0.14554 -2.94941,0.28865 -0.61299,0.22608 -0.52043,0.34039 0.70556,0.87131 1.91507,0.82935 4.2356,0.70406 7.11639,-0.38421 1.85425,-0.70048 2.84977,-0.87398 4.32541,-0.75384 2.06107,0.16779 3.91716,-0.37319 5.946758,-1.73325 0.63843,-0.42782 1.90843,-1.04411 2.82222,-1.36954 5.01069,-1.78445 8.18783,-3.40553 8.18783,-4.17771 0,-0.5398 5.58413,-3.47088 6.05642,-3.17898 0.17725,0.10955 0.21562,0.53522 0.0853,0.94593 -0.23311,0.73446 -0.22132,0.73648 0.71587,0.12241 1.32717,-0.86959 4.17087,-1.68289 4.55192,-1.30184 0.51587,0.51587 -0.0145,0.97694 -2.68698,2.33592 -1.40189,0.71287 -2.62827,1.40714 -2.72528,1.54282 -0.50063,0.70016 -4.02377,3.19952 -4.5296,3.21336 -0.32212,0.009 -1.30005,0.72189 -2.17318,1.58461 -0.87312,0.86273 -1.71715,1.56989 -1.87562,1.57148 -0.15847,0.002 -0.79347,0.38133 -1.41111,0.84388 -0.61764,0.46255 -1.51986,0.9548 -2.00493,1.09387 -0.48507,0.13908 -1.6863,0.69808 -2.6694,1.24221 -1.0489,0.58056 -2.6523,1.09479 -3.880558,1.24454 -2.37561,0.28965 -4.29201,0.9618 -6.29283,2.20712 -0.75762,0.47155 -2.50387,1.06374 -3.88055,1.31598 -6.30964,1.15605 -7.93589,1.66686 -11.81271,3.71045 -1.088575,0.57383 -2.394386,1.04366 -2.901797,1.04408 -0.507411,3.5e-4 -1.327972,0.31965 -1.823469,0.70941 -0.495498,0.38976 -1.429721,0.80897 -2.076048,0.93158 -0.646328,0.12262 -1.359447,0.36706 -1.584707,0.5432 -0.251258,0.19648 -0.497931,0.17729 -0.638182,-0.0496 -0.125737,-0.20345 -0.71248,-0.36991 -1.303873,-0.36991 -0.835555,0 -1.027522,0.1244 -0.861124,0.55802 0.117775,0.30691 0.214133,0.64385 0.214133,0.74875 0,0.10491 0.238125,-0.007 0.529166,-0.24843 0.423637,-0.35159 0.641506,-0.34594 1.092476,0.0283 0.47499,0.39421 0.61601,0.37333 0.899474,-0.13319 0.890545,-1.59131 1.427808,0.55845 0.595884,2.38433 -0.296535,0.65082 -0.306099,1.12147 -0.0344,1.69229 1.211224,2.54462 1.957317,5.13964 2.054493,7.14582 0.06086,1.25636 0.212471,2.44904 0.33692,2.6504 0.564212,0.91292 0.910615,2.9176 1.095594,6.34035 0.131583,2.43479 0.370039,3.89503 0.69584,4.26111 0.272613,0.30632 0.495657,0.75858 0.495657,1.00502 0,0.24644 0.219512,0.94832 0.487807,1.55972 0.268291,0.61141 0.684424,1.62759 0.924743,2.25818 0.240316,0.63059 0.537676,1.14653 0.660799,1.14653 0.438154,0 1.586544,3.30369 2.697824,7.76111 0.68361,2.74199 2.90244,7.53651 4.20317,9.08234 0.51394,0.61078 1.28464,1.2197 1.71268,1.35316 0.42804,0.13346 1.43261,0.70987 2.23237,1.28092 0.79975,0.57105 2.13327,1.19086 2.96335,1.37737 2.76081,0.62031 4.24989,2.26302 3.09671,3.41621 -0.55279,0.55279 -5.37305,0.55725 -6.39083,0.006 -0.42381,-0.22957 -2.27869,-0.43699 -4.12195,-0.46091 -1.94013,-0.0252 -3.73989,-0.23552 -4.27399,-0.4995 -0.85903,-0.42458 -0.93528,-0.65944 -1.10683,-3.40912 -0.17072,-2.73654 -0.30491,-3.15442 -1.829523,-5.69767 -0.904904,-1.50951 -2.189294,-3.45893 -2.854195,-4.33205 -1.635005,-2.14703 -2.1362,-3.34654 -2.436693,-5.8317 -0.187695,-1.55233 -0.608658,-2.66214 -1.601622,-4.22247 -0.740854,-1.16416 -1.463033,-2.51354 -1.604846,-2.99861 -0.52603,-1.7993 -1.712803,-3.75318 -3.321247,-5.46805 -0.909934,-0.97014 -2.107357,-2.55764 -2.66094,-3.52778 -2.147104,-3.76274 -3.179699,-5.21449 -3.295015,-4.63255 -0.06273,0.31658 -0.343115,0.5756 -0.623069,0.5756 -0.279954,0 -0.773966,0.55563 -1.097806,1.23473 -0.323839,0.67909 -0.727516,1.23472 -0.897057,1.23472 -0.169542,0 -0.218454,0.14531 -0.108691,0.32291 0.240605,0.3893 -1.052029,1.98276 -3.738378,4.60837 -2.219775,2.16959 -3.82788,4.55097 -3.82788,5.66858 0,0.40486 -0.396875,1.25643 -0.881945,1.89239 -0.485069,0.63596 -0.881944,1.32905 -0.881944,1.54019 0,0.21115 -0.3175,0.48467 -0.705556,0.60784 -0.388055,0.12316 -0.705556,0.37391 -0.705556,0.55721 0,0.1833 -0.578302,1.53532 -1.285116,3.00449 -1.384727,2.87825 -3.283269,5.55909 -6.061698,8.55942 -1.814418,1.95933 -3.529941,5.06355 -4.316596,7.81082 -0.250011,0.87313 -0.625209,1.80884 -0.833772,2.07937 -0.208564,0.27052 -0.618039,1.14365 -0.909945,1.94028 -0.42024,1.14685 -0.860926,1.60995 -2.116667,2.22431 -0.87226,0.42675 -1.824053,1.00009 -2.115094,1.27408 -0.737922,0.6947 -1.981982,1.31037 -2.534447,1.25427 -0.25529,-0.0259 -1.216597,-0.1521 -2.136237,-0.2804 z m 3.917733,-2.14785 c 0.627794,-0.65692 1.226026,-0.98409 1.563002,-0.85478 0.853265,0.32743 2.694032,-0.81908 2.712324,-1.68935 0.003,-0.14137 -0.395445,-0.0744 -0.88537,0.14884 -0.793329,0.36146 -1.01706,0.28346 -2.045266,-0.71312 -0.634973,-0.61544 -1.387182,-1.11898 -1.671577,-1.11898 -0.947336,0 -4.211829,2.45199 -4.211829,3.16355 0,0.37145 -0.166459,0.77824 -0.369908,0.90398 -0.812299,0.50203 0.470081,1.22413 2.173924,1.22413 1.450661,0 1.875705,-0.16541 2.7347,-1.06427 z m 4.577025,-4.34551 c 0.747262,-0.77098 1.206363,-1.65248 1.332053,-2.55764 0.105486,-0.75965 0.375575,-1.77806 0.600197,-2.26313 0.762698,-1.64703 3.110471,-4.91999 5.120385,-7.13817 1.101594,-1.21575 2.341201,-2.68669 2.75468,-3.26877 0.858622,-1.20874 2.715167,-5.46687 2.484241,-5.6978 -0.0843,-0.0843 -0.731253,0.12234 -1.437667,0.45921 -0.948834,0.45246 -1.704052,1.30894 -2.890721,3.27831 -0.883484,1.46621 -1.757978,2.90396 -1.943321,3.195 -0.185342,0.29104 -0.740045,1.35957 -1.232672,2.3745 -0.879562,1.81212 -1.426753,2.45814 -1.781562,2.10333 -0.09841,-0.0984 0.551139,-1.55176 1.44344,-3.22968 0.8923,-1.67791 1.529635,-3.20079 1.416298,-3.38418 -0.113336,-0.18338 0.003,-0.33342 0.258529,-0.33342 0.255527,0 1.139403,-0.9951 1.964168,-2.21134 1.238737,-1.8267 1.790512,-2.31791 3.172198,-2.82402 1.725879,-0.63217 3.612902,-2.05173 3.612902,-2.71788 0,-0.5097 -1.988056,0.53052 -2.391408,1.25127 -0.170394,0.30448 -0.694222,0.60327 -1.164061,0.66397 -0.46984,0.0607 -1.132066,0.22545 -1.471615,0.3661 -0.433582,0.1796 -0.617361,0.0917 -0.617361,-0.2952 0,-0.35906 0.460715,-0.63394 1.322917,-0.7893 0.727604,-0.1311 1.512303,-0.38835 1.743775,-0.57165 0.371385,-0.2941 0.398896,-1.55506 0.05615,-2.57333 -0.06531,-0.19403 0.157834,-0.74529 0.495876,-1.22503 l 0.614621,-0.87224 v 1.65843 c 0,1.6334 0.01309,1.65247 0.867112,1.26335 1.012419,-0.46129 3.100292,-3.42672 4.603343,-6.53818 1.081534,-2.23887 1.794627,-2.88962 1.504741,-1.37319 -0.242696,1.26958 0.691339,0.54986 2.175736,-1.67651 0.667385,-1.00098 1.38176,-1.97872 1.5875,-2.17275 0.205737,-0.19402 0.636306,-0.92081 0.956815,-1.61507 0.554073,-1.20019 0.547987,-1.32313 -0.123659,-2.49836 -0.444564,-0.7779 -1.639486,-1.81379 -3.2237,-2.79465 -2.808462,-1.73886 -4.189594,-2.49999 -4.279913,-2.35864 -0.03321,0.052 -0.744849,1.42888 -1.581418,3.05979 -1.804011,3.51696 -2.946127,7.17318 -3.383944,10.83292 -0.194192,1.62327 -0.142437,1.82295 0.51719,1.99545 0.403136,0.10542 0.732974,0.46318 0.732974,0.79502 0,0.42243 -0.204219,0.54993 -0.681097,0.42522 -0.694154,-0.18152 -1.533019,0.55968 -2.414265,2.13321 -0.399928,0.7141 -0.34517,0.89938 0.496266,1.6792 1.149743,1.06555 0.946527,1.42124 -0.409928,0.7175 -1.137149,-0.58996 -1.577087,-0.44914 -1.577087,0.5048 0,0.36516 -0.139224,0.74996 -0.309388,0.85513 -0.247217,0.15279 -1.132297,2.99024 -1.163798,3.73098 -0.02361,0.55533 -0.742306,1.41112 -1.185059,1.41112 -0.744821,0 -0.63451,-0.61077 0.541578,-2.99862 1.396945,-2.83625 1.326654,-3.49317 -0.188739,-1.76388 -1.446377,1.65052 -2.796238,4.10928 -3.147214,5.73263 -0.136337,0.63059 -0.364789,1.14653 -0.507671,1.14653 -0.695455,0 -2.724534,4.95784 -3.58878,8.7688 -0.19169,0.84527 -0.661567,2.18478 -1.044173,2.97668 -0.834748,1.72774 -0.841686,1.79161 -0.166479,1.5325 0.291042,-0.11168 0.529167,-0.081 0.529167,0.0681 0,0.47568 -0.826345,1.11782 -1.43847,1.11782 -0.325492,0 -0.804521,0.25631 -1.064508,0.56957 -0.407148,0.49059 -0.337024,0.68628 0.505644,1.41111 1.285134,1.10543 1.641755,1.06561 2.999187,-0.33491 z m 13.814814,-32.84882 c 0,-1.35871 0.294146,-2.31084 0.713901,-2.31084 0.522869,0 0.322032,3.10811 -0.214132,3.31386 -0.370548,0.14219 -0.499769,-0.11715 -0.499769,-1.00302 z m 47.054699,32.92148 c -0.33004,-0.36469 -1.20265,-0.82533 -1.93912,-1.02364 -0.73648,-0.19831 -1.80575,-0.75327 -2.37616,-1.23323 -1.16645,-0.98151 -1.89809,-1.09416 -2.59303,-0.39922 -1.05555,1.05555 -2.0828,1.33666 -4.00632,1.09633 -1.57507,-0.19679 -1.92062,-0.14522 -1.92062,0.28665 0,0.28964 0.19844,0.68487 0.44097,0.87827 0.61655,0.49167 2.80276,0.76471 3.44452,0.43021 0.29376,-0.15312 1.24626,-0.12699 2.11667,0.0581 2.39363,0.5089 5.71655,0.86425 6.62453,0.70842 0.76797,-0.13181 0.77846,-0.17213 0.20856,-0.80186 z m -8.24914,-2.95315 c 0.24154,-0.29104 0.65786,-0.52917 0.92514,-0.52917 0.69557,0 0.60071,-0.62055 -0.13139,-0.85956 -1.62772,-0.5314 -5.12331,-7.30261 -6.11255,-11.84044 -0.53321,-2.44596 -2.159392,-6.10222 -2.481944,-5.58032 -0.435401,0.7045 -0.788179,0.0587 -1.053359,-1.92835 -0.13505,-1.01197 -0.477329,-2.45191 -0.760613,-3.19988 l -0.515063,-1.35995 -0.842769,1.18356 c -0.463518,0.65095 -0.803694,1.22324 -0.755942,1.27175 0.313203,0.31815 -0.0064,1.14653 -0.442345,1.14653 -0.291042,0 -0.529167,-0.14713 -0.529167,-0.32694 0,-0.32728 -2.133201,-1.53801 -2.341978,-1.32923 -0.06093,0.0609 0.265588,0.81568 0.725596,1.67722 0.574838,1.07661 1.284133,1.78708 2.268249,2.272 1.525852,0.75187 1.925507,1.5875 0.759245,1.5875 -0.584186,0 -0.705556,0.23519 -0.705556,1.36722 0,1.54462 1.275084,4.68115 2.535714,6.2375 1.345307,1.66089 3.350602,4.76041 4.437692,6.85917 0.82836,1.59927 1.16957,1.94311 1.94142,1.95641 1.21348,0.0209 1.46696,0.30113 0.78464,0.86741 -0.4207,0.34915 -0.75075,0.36259 -1.41963,0.0578 -1.08918,-0.49626 -1.1632,0.0448 -0.0778,0.56834 1.17674,0.56752 3.28502,0.5127 3.79236,-0.0986 z m -9.172224,-13.6513 c -1.619507,-3.27203 -1.656246,-3.40607 -0.706162,-2.57648 0.746054,0.65144 2.470051,3.98249 2.470051,4.77256 0,0.87678 -0.633095,0.0886 -1.763889,-2.19608 z m 2.116667,1.45964 c 0,-0.3995 0.15875,-0.62826 0.352778,-0.50834 0.194028,0.11991 0.352779,0.44678 0.352779,0.72637 0,0.2796 -0.158751,0.50835 -0.352779,0.50835 -0.194028,0 -0.352778,-0.32687 -0.352778,-0.72638 z m -1.197218,-4.77115 c -0.131844,-0.34358 -0.053,-0.50486 0.204791,-0.41893 0.527346,0.17579 0.8177,0.97757 0.354012,0.97757 -0.189438,0 -0.440898,-0.25139 -0.558803,-0.55864 z m -1.872058,-3.08393 c -0.155162,-0.25717 -0.599613,-0.59315 -0.987669,-0.74663 -0.466728,-0.1846 -0.552347,-0.33612 -0.252945,-0.44765 0.671894,-0.25027 1.391899,0.11818 1.829781,0.93637 0.430354,0.80412 -0.11545,1.04305 -0.589167,0.25791 z m -32.762253,-4.55951 c 0.354179,-1.01865 0.886364,-2.24896 1.182633,-2.73403 l 0.538671,-0.88194 -0.797705,0.70555 c -0.971604,0.85937 -2.133738,3.06132 -2.133738,4.04289 0,1.28038 0.550238,0.76545 1.210139,-1.13247 z m 31.344915,-0.17639 c 0.429694,-0.7276 0.74077,-1.44519 0.691282,-1.59463 -0.04949,-0.14944 -0.148332,-1.73694 -0.219653,-3.52778 -0.07132,-1.79083 -0.404767,-4.18866 -0.740992,-5.3285 l -0.611318,-2.07244 -2.519825,0.16834 c -1.978815,0.1322 -6.772021,1.34925 -7.603505,1.93062 -0.209391,0.14641 1.444477,3.28064 1.731127,3.28064 0.13238,0 0.421516,0.39688 0.642532,0.88194 0.594667,1.30516 1.139634,1.11335 0.745116,-0.26225 -0.409843,-1.42905 -0.410397,-1.67802 -0.0037,-1.67802 0.178435,0 0.596918,0.82038 0.929958,1.82308 0.333043,1.00269 1.2983,2.73401 2.145019,3.84737 0.846717,1.11336 1.539488,2.18898 1.539488,2.39025 0,0.45284 1.402672,1.4643 2.03067,1.4643 0.254412,0 0.814137,-0.59532 1.243827,-1.32292 z m -9.095331,-9.26042 c -0.119916,-0.19402 -0.04991,-0.35277 0.155568,-0.35277 0.205479,0 0.373599,0.15875 0.373599,0.35277 0,0.19403 -0.07001,0.35278 -0.155568,0.35278 -0.08556,0 -0.253683,-0.15875 -0.373599,-0.35278 z m 1.763889,-3.175 c 0.260294,-0.42116 -0.431017,-0.42116 -1.411111,0 -0.630001,0.27073 -0.603899,0.30585 0.243762,0.32799 0.522125,0.0137 1.047433,-0.13396 1.167349,-0.32799 z m -0.220401,-2.46944 c 0.38936,0 0.804919,-0.15693 0.923459,-0.34874 0.120361,-0.19474 -0.01048,-0.26201 -0.296273,-0.15234 -0.281492,0.10802 -0.616607,0.0268 -0.7447,-0.18043 -0.369041,-0.59712 -0.770287,-0.44607 -1.410452,0.53094 -0.577744,0.88175 -0.57452,0.89691 0.112625,0.52916 0.389078,-0.20822 1.02598,-0.37859 1.415341,-0.37859 z m 6.031018,0.0138 c 0.285422,-0.1805 0.443922,-0.40322 0.352224,-0.49492 -0.0917,-0.0917 -0.474634,0.0584 -0.85096,0.3336 -0.75263,0.55033 -0.331685,0.6865 0.498736,0.16132 z M 58.445341,137.5467 c 0,-0.46368 -0.801786,-0.17333 -0.977569,0.35402 -0.08593,0.25779 0.07535,0.33663 0.418924,0.20479 0.307255,-0.11791 0.558645,-0.36937 0.558645,-0.55881 z m 8.113889,-0.10924 c 0.24498,-0.29519 0.283182,-0.52917 0.08639,-0.52917 -0.194028,0 -0.550404,0.23812 -0.791947,0.52917 -0.24498,0.29518 -0.283182,0.52916 -0.08639,0.52916 0.194028,0 0.550404,-0.23812 0.791947,-0.52916 z m -6.135247,-0.9035 c 0.712005,-0.39991 1.550268,-1.00944 1.862815,-1.35452 0.312547,-0.34507 1.401855,-1.30278 2.420691,-2.12825 1.018833,-0.82546 1.772677,-1.62987 1.675208,-1.78758 -0.09747,-0.15771 0.110193,-0.21158 0.461475,-0.11972 0.441477,0.11545 0.772499,-0.12665 1.072029,-0.78405 0.582616,-1.2787 0.304048,-1.43866 -0.950147,-0.54559 -0.5747,0.40922 -1.153704,0.74404 -1.28668,0.74404 -0.132972,0 -0.541803,0.35719 -0.908512,0.79375 -0.560419,0.66717 -0.72075,0.71153 -1.005424,0.27817 -0.280155,-0.42649 -0.468704,-0.35028 -1.091103,0.44097 -0.413833,0.5261 -0.899654,0.95655 -1.079599,0.95655 -0.677612,0 -0.282631,-1.05164 1.014963,-2.70234 1.87656,-2.38724 1.957921,-2.55597 1.127796,-2.33889 -0.388324,0.10155 -0.706043,0.47425 -0.706043,0.82822 0,0.80069 -0.646917,1.23776 -1.124765,0.75992 -0.218644,-0.21865 -0.75499,-0.24381 -1.379467,-0.0647 -0.935736,0.26837 -0.991072,0.23574 -0.657451,-0.38764 0.412031,-0.76988 0.242034,-0.84215 -0.742064,-0.31548 -0.439081,0.23499 -0.682364,0.73809 -0.682364,1.41111 0,1.09763 0.591023,1.37212 1.340556,0.62259 0.298682,-0.29868 0.423333,-0.30629 0.423333,-0.0258 0,0.66909 -2.081576,1.49688 -3.201071,1.27298 -0.567742,-0.11355 -1.032263,-0.35605 -1.032263,-0.5389 0,-0.18285 0.298701,-0.23765 0.66378,-0.12178 0.790861,0.25101 1.19592,-0.54051 0.89341,-1.74581 -0.236711,-0.94313 0.393608,-2.34579 1.018875,-2.26731 0.959192,0.12038 1.369289,-0.0584 1.192241,-0.51981 -0.131703,-0.3432 0.01499,-0.43622 0.491423,-0.31163 0.505915,0.1323 0.679161,-0.005 0.679161,-0.5397 0,-1.05984 -0.772411,-1.13837 -1.679703,-0.17077 -0.530666,0.56594 -1.022702,0.7794 -1.469615,0.63755 -0.369525,-0.11728 -0.775565,-0.0454 -0.902314,0.15964 -0.12675,0.20509 -0.361601,0.29183 -0.521889,0.19277 -0.160292,-0.0991 -0.382464,0.0571 -0.49372,0.34702 -0.111255,0.28993 -0.08253,0.52714 0.06383,0.52714 0.459197,0 0.297784,1.56383 -0.215275,2.08569 -0.384048,0.39063 -0.54851,0.40317 -0.761796,0.0581 -0.149606,-0.24207 -0.37393,-0.42559 -0.498496,-0.40784 -0.124566,0.0178 -0.538212,-0.1624 -0.919208,-0.40033 -0.682481,-0.42622 -0.681158,-0.44498 0.08953,-1.26886 l 0.782263,-0.83625 -1.234454,0.64935 c -0.678953,0.35714 -1.35364,0.8081 -1.499307,1.00213 -0.168275,0.22414 -0.377407,0.17824 -0.573531,-0.12586 -0.215276,-0.33381 -0.381697,-0.36049 -0.549986,-0.0882 -0.132718,0.21475 -0.0335,0.3928 0.220486,0.39569 0.253986,0.003 -0.173208,0.55255 -0.949319,1.22148 -1.472425,1.26907 -1.474141,1.64701 -0.0031,0.68314 0.469711,-0.30776 1.026705,-0.45284 1.237764,-0.3224 0.21106,0.13044 0.654604,0.0251 0.985653,-0.23418 0.542144,-0.42454 0.553835,-0.41004 0.117741,0.14602 -0.611266,0.77942 -0.28892,0.78558 0.93755,0.0179 l 0.957728,-0.59947 -0.855243,0.95224 c -0.908004,1.01099 -1.642096,1.22134 -1.870543,0.536 -0.08615,-0.25846 -0.39819,-0.31577 -0.823148,-0.15119 -0.657615,0.25468 -0.659319,0.28351 -0.04355,0.73689 0.352468,0.25952 0.630281,0.60537 0.617361,0.76856 -0.02347,0.29646 0.688558,0.57053 2.554189,0.98316 0.786003,0.17384 0.944922,0.3616 0.770682,0.91058 -0.167626,0.52814 -0.08899,0.6415 0.332736,0.47967 0.315708,-0.12115 0.552235,-0.027 0.552235,0.21975 0,0.25968 0.284463,0.35728 0.713941,0.24497 0.508875,-0.13307 0.686199,-0.0313 0.617362,0.35442 -0.06413,0.35927 0.229425,0.57792 0.873559,0.65065 0.785523,0.0887 0.970138,-0.0316 0.970138,-0.63236 0,-0.40805 0.262728,-1.03222 0.583844,-1.38705 0.543271,-0.60031 0.543271,-0.64514 0,-0.64514 -0.649979,0 -0.72512,-0.28904 -0.26429,-1.01665 0.232173,-0.36659 0.459546,-0.16972 0.916739,0.79375 0.334394,0.70468 0.828026,1.28124 1.096959,1.28124 0.268933,0 0.488971,0.23812 0.488971,0.52916 0,0.29104 -0.220539,0.52917 -0.490086,0.52917 -0.496824,0 -2.369348,1.37776 -1.901896,1.39937 0.139619,0.006 0.836401,-0.31546 1.548402,-0.71536 z m -7.623087,-4.21178 c 0,-0.19403 0.16812,-0.35278 0.373599,-0.35278 0.205479,0 0.275484,0.15875 0.155568,0.35278 -0.119916,0.19403 -0.288036,0.35278 -0.373599,0.35278 -0.08556,0 -0.155568,-0.15875 -0.155568,-0.35278 z m 3.175,-2.13749 c 0,-0.20548 0.15875,-0.27548 0.352778,-0.15557 0.194028,0.11992 0.352778,0.28804 0.352778,0.3736 0,0.0856 -0.15875,0.15557 -0.352778,0.15557 -0.194028,0 -0.352778,-0.16812 -0.352778,-0.3736 z m 12.700001,5.84165 c 0.24498,-0.29518 0.283182,-0.52916 0.08639,-0.52916 -0.194028,0 -0.550404,0.23812 -0.791948,0.52916 -0.244979,0.29519 -0.283181,0.52917 -0.08639,0.52917 0.194027,0 0.550404,-0.23812 0.791948,-0.52917 z m -16.661401,-1.52135 c 0.211651,-0.63495 -0.517526,-0.50153 -0.763596,0.13972 -0.131843,0.34358 -0.053,0.50485 0.204791,0.41892 0.23054,-0.0768 0.482002,-0.32823 0.558805,-0.55864 z m 16.49931,-1.03803 c -0.185628,-0.48375 -0.28485,-0.50489 -0.527431,-0.11239 -0.17738,0.287 -0.13383,0.66308 0.107171,0.9255 0.483926,0.52693 0.742505,0.0266 0.42026,-0.81311 z m -1.998673,-0.0423 c 0.363802,-0.3638 0.863865,-0.72893 1.11125,-0.81139 0.247386,-0.0825 0.37646,-0.36993 0.28683,-0.63881 -0.115853,-0.34756 -0.564554,-0.11578 -1.552223,0.80184 -0.764092,0.7099 -1.190822,1.29502 -0.948288,1.30027 0.242535,0.005 0.738629,-0.28811 1.102431,-0.65191 z m 0.258569,-4.18924 c 0.682974,-0.8997 0.655651,-1.72227 -0.03808,-1.14653 -0.291042,0.24155 -0.529167,0.64463 -0.529167,0.89575 0,0.25111 -0.198437,0.53664 -0.440972,0.63451 -0.322132,0.12998 -0.308843,0.18544 0.0493,0.20578 0.26965,0.0153 0.701164,-0.24996 0.958919,-0.58951 z m -2.922041,-2.76823 c -0.115158,-0.56133 -0.820209,-0.5572 -0.820209,0.005 0,0.30721 -0.15875,0.55856 -0.352778,0.55856 -0.194027,0 -0.352777,0.17812 -0.352777,0.39581 0,0.25367 0.285027,0.20655 0.79375,-0.13123 0.436562,-0.28986 0.765969,-0.66244 0.732014,-0.82795 z m 6.980714,-0.87935 c 0.312938,-0.16181 0.772188,-0.7848 1.020558,-1.38441 0.279604,-0.67503 0.633899,-1.02025 0.930328,-0.9065 0.574364,0.2204 0.667857,-1.04674 0.10299,-1.39585 -0.431811,-0.26687 0.597492,-1.58028 1.224184,-1.56208 0.212461,0.006 0.08493,0.23934 -0.283411,0.51814 -0.546474,0.41364 -0.589079,0.60408 -0.231528,1.0349 0.379028,0.4567 0.559277,0.38406 1.335229,-0.53811 0.818399,-0.97261 4.374437,-3.49559 4.926897,-3.49559 0.3747,0 3.98772,-2.5636 3.98772,-2.82947 0,-0.24235 -4.75958,-1.75987 -5.51306,-1.75776 -0.21877,6e-4 -0.56233,-0.19732 -0.76347,-0.43985 -0.2858,-0.34464 0.10937,-0.44098 1.80889,-0.44098 1.19602,0 3.20302,-0.27781 4.46001,-0.61736 1.25698,-0.33955 2.79594,-0.61736 3.41991,-0.61736 0.67811,0 1.49184,-0.3193 2.02282,-0.79375 0.96088,-0.85857 1.61471,-2.73403 0.95315,-2.73403 -0.21507,0 -0.39103,-0.3175 -0.39103,-0.70555 0,-0.43371 0.23787,-0.70865 0.61736,-0.71359 0.37806,-0.005 0.17616,-0.22556 -0.52085,-0.5692 -0.62602,-0.30865 -1.55144,-0.94414 -2.05649,-1.41221 -0.99928,-0.9261 -1.20146,-0.9716 -3.94905,-0.88867 -1.03315,0.0312 -1.85208,0.22108 -1.85208,0.42949 0,0.20548 0.15875,0.27548 0.35278,0.15557 0.19403,-0.11992 0.34416,-0.0896 0.33362,0.0674 -0.0105,0.15697 -0.76426,0.76166 -1.67494,1.34374 -2.58785,1.65409 -3.55769,4.23979 -2.18422,5.82341 0.82559,0.95191 0.70371,1.26959 -0.28422,0.74087 -0.89927,-0.48128 -1.20056,-1.73375 -0.77448,-3.21943 0.18636,-0.6498 0.28211,-1.23818 0.21278,-1.30751 -0.33545,-0.33545 -2.307411,1.81321 -2.509803,2.7347 -0.249767,1.13717 -0.776828,1.37497 -1.111942,0.50168 -0.118851,-0.30972 0.115563,-0.89361 0.54024,-1.34566 0.412602,-0.43919 0.755813,-1.18518 0.762688,-1.65774 0.0069,-0.47257 0.239377,-1.25608 0.516667,-1.74115 0.73724,-1.28968 0.64327,-1.70354 -0.415236,-1.82866 -0.818466,-0.0967 -0.432054,-0.44092 2.897706,-2.58107 2.11316,-1.35819 4.16533,-2.860397 4.56037,-3.338236 0.39505,-0.477839 1.14262,-1.311276 1.66127,-1.852083 0.91918,-0.958446 0.92364,-0.983881 0.17639,-1.006884 -0.97873,-0.03013 2.11698,-1.022083 3.21252,-1.029379 0.44227,-0.003 1.59238,-0.628438 2.55581,-1.389985 2.25284,-1.780766 4.99545,-3.052873 7.22339,-3.350428 1.7445,-0.232989 4.056948,-1.18736 4.056948,-1.674345 0,-0.709544 -0.89341,-0.611924 -2.10894,0.230433 -0.783838,0.543201 -1.710948,0.894398 -2.184138,0.827373 -1.25472,-0.177722 -0.97917,-0.80712 0.41111,-0.939032 0.67831,-0.06436 1.45549,-0.302485 1.727048,-0.529167 0.27156,-0.226681 0.9072,-0.602027 1.41253,-0.834102 1.8074,-0.830059 -2.461798,-0.198397 -4.902058,0.725297 -3.91828,1.483164 -6.13226,2.358432 -7.23194,2.859055 -0.58209,0.26499 -1.95548,0.876502 -3.05199,1.358915 -1.23815,0.544732 -2.08269,1.157679 -2.22863,1.617485 -0.13561,0.427251 -0.53374,0.740368 -0.9414,0.740368 -0.68241,0 -3.64058,1.815661 -4.36132,2.67688 -0.19403,0.231847 -1.02294,0.834781 -1.84203,1.339854 -0.81909,0.505074 -1.747933,1.418544 -2.064096,2.029944 -0.397263,0.768217 -0.658958,0.975517 -0.847133,0.671047 -0.372671,-0.602997 -1.320631,-0.0652 -3.728205,2.11512 -1.048477,0.9495 -2.545634,2.05252 -3.327012,2.45115 -0.781378,0.39863 -1.420689,0.89209 -1.420689,1.09658 0,0.20449 -0.873125,1.28718 -1.940278,2.40598 -1.067153,1.1188 -1.942709,2.33732 -1.945679,2.70784 -0.0066,0.82878 -0.580736,1.79261 -0.885945,1.4874 -0.123282,-0.12328 -0.04695,-0.55524 0.169619,-0.95992 0.261588,-0.48878 0.27118,-0.73577 0.02858,-0.73577 -0.200854,0 -0.365188,0.12019 -0.365188,0.26709 0,0.14689 -0.715952,1.13908 -1.591007,2.20486 -0.875055,1.06577 -1.858821,2.65215 -2.18615,3.52527 -0.327328,0.87313 -0.870416,2.08876 -1.20686,2.7014 -0.572593,1.04265 -0.573789,1.14605 -0.0187,1.61677 1.190512,1.00958 4.200578,2.66011 5.285973,2.89851 1.024188,0.22495 1.162488,0.14299 1.715439,-1.01656 0.824607,-1.72922 1.305147,-1.59748 0.600131,0.16452 -0.313757,0.78416 -0.51091,1.47595 -0.438115,1.53731 0.0728,0.0614 1.084856,0.35242 2.249022,0.64679 2.07426,0.5245 4.72591,0.47306 5.860645,-0.11368 z m -2.156478,-0.96711 c 0,-0.47539 1.615006,-1.19944 2.334881,-1.0468 0.547021,0.11598 0.465205,0.24617 -0.465279,0.74035 -1.235724,0.65629 -1.869602,0.76019 -1.869602,0.30645 z M 66.222624,123.533 c -0.273043,-0.51018 -0.278412,-0.73577 -0.01751,-0.73577 0.427676,0 0.893452,0.98937 0.602671,1.28015 -0.105265,0.10526 -0.368585,-0.13971 -0.585159,-0.54438 z m -4.770382,-2.78541 c -0.456684,-0.45669 -0.09942,-0.77264 0.873655,-0.77264 0.582083,0 1.058333,0.14024 1.058333,0.31165 0,0.35216 -1.647663,0.74531 -1.931988,0.46099 z m -2.301345,-0.34727 c 0,-0.18644 0.256434,-0.55181 0.569856,-0.81192 0.493021,-0.40917 0.552478,-0.38326 0.440972,0.19216 -0.13287,0.68566 -1.010828,1.22396 -1.010828,0.61976 z m 5.644444,-0.36 c 0,-0.58624 1.738641,-2.32488 2.03176,-2.03176 0.123815,0.12381 -0.282684,0.73291 -0.903322,1.35355 -0.620642,0.62064 -1.128438,0.92583 -1.128438,0.67821 z m 5.077796,-1.20088 c 0.124904,-0.62452 0.40447,-1.29921 0.621255,-1.4993 0.285705,-0.2637 0.333742,-0.12113 0.174594,0.51814 -0.120763,0.48507 -0.221735,1.15976 -0.224385,1.49931 -0.0028,0.33954 -0.183409,0.61736 -0.40169,0.61736 -0.258819,0 -0.317874,-0.395 -0.169774,-1.13551 z m 4.799983,0.45077 c 0,-0.18257 0.15875,-0.43007 0.352777,-0.54999 0.194028,-0.11991 0.352778,0.0295 0.352778,0.33196 0,0.30249 -0.15875,0.54999 -0.352778,0.54999 -0.194027,0 -0.352777,-0.14938 -0.352777,-0.33196 z m -7.055556,-2.05532 c 0,-0.50264 3.105072,-2.90439 3.754896,-2.90439 0.772714,0 0.556793,0.29513 -0.668091,0.91316 -0.63059,0.31818 -1.58309,0.98695 -2.116666,1.48617 -0.533577,0.49922 -0.970139,0.7265 -0.970139,0.50506 z m -5.303087,-0.59757 c 0.507746,-0.6118 1.858776,-0.96972 1.684271,-0.44621 -0.07223,0.21669 -0.567881,0.51073 -1.10145,0.65343 -0.781777,0.20908 -0.89493,0.16885 -0.582821,-0.20722 z m -2.458025,-1.24848 c -0.41088,-0.26554 -0.307654,-0.34319 0.461793,-0.34738 0.571881,-0.003 0.898755,0.14379 0.772929,0.34738 -0.270711,0.43802 -0.556933,0.43802 -1.234722,0 z m 11.994445,-2.07893 c 0,-0.40082 0.893421,-0.74732 1.880937,-0.72949 0.603063,0.0109 0.513754,0.12285 -0.422134,0.52917 -1.392925,0.60475 -1.458803,0.61379 -1.458803,0.20032 z m -8.819445,-1.82245 c 0,-0.39951 0.15875,-0.62826 0.352778,-0.50835 0.194028,0.11992 0.352778,0.44679 0.352778,0.72638 0,0.27959 -0.15875,0.50835 -0.352778,0.50835 -0.194028,0 -0.352778,-0.32687 -0.352778,-0.72638 z m 1.743573,-0.20901 c -0.545028,-1.43353 -0.232347,-1.6164 0.453824,-0.26542 0.335442,0.66044 0.450575,1.20081 0.255852,1.20081 -0.194726,0 -0.514079,-0.42093 -0.709676,-0.93539 z m 15.895607,-1.35714 c -0.47744,-0.89208 -0.24678,-1.64135 0.31872,-1.03534 0.47902,0.51333 0.82309,1.91675 0.46993,1.91675 -0.17432,0 -0.52921,-0.39663 -0.78865,-0.88141 z m 5.55596,0.26546 c -0.33955,-0.0777 -0.61736,-0.36782 -0.61736,-0.64463 0,-0.5926 -0.33505,-0.62671 -1.56454,-0.15926 -0.52459,0.19945 -0.90491,0.20944 -0.90491,0.0238 0,-0.17615 0.29998,-0.41549 0.66662,-0.53185 0.76552,-0.24297 1.25316,-1.95264 0.55693,-1.95264 -0.59473,0 -0.879,-0.82807 -0.49539,-1.4431 0.24008,-0.38493 0.45175,-0.4071 0.9375,-0.0982 0.60918,0.38741 0.70803,0.96343 0.41584,2.42323 -0.11643,0.58174 0.0243,0.68847 0.80224,0.6082 0.70112,-0.0724 1.00462,0.0953 1.18157,0.65287 0.27854,0.87758 -0.10817,1.32084 -0.9785,1.12159 z m -17.837327,-0.46443 c 0.08488,-0.25466 0.362698,-0.53247 0.617361,-0.61736 0.264584,-0.0882 0.396875,0.0441 0.308681,0.30868 -0.08489,0.25466 -0.362702,0.53248 -0.617361,0.61736 -0.264584,0.0882 -0.396875,-0.0441 -0.308681,-0.30868 z m 13.339407,-1.21267 c 0,-0.29104 0.23315,-0.52917 0.5181,-0.52917 0.31559,0 0.43873,0.20683 0.31503,0.52917 -0.11168,0.29104 -0.34482,0.52917 -0.51809,0.52917 -0.17327,0 -0.31504,-0.23813 -0.31504,-0.52917 z m -9.751036,-2.18488 c 0.696045,-0.71662 1.367656,-1.20082 1.492469,-1.07601 0.249294,0.2493 -1.938249,2.37894 -2.443618,2.37894 -0.172914,0 0.255104,-0.58632 0.951149,-1.30293 z m 4.459376,-5.3746 c 0,-0.42138 2.80178,-2.279937 3.05511,-2.026607 0.0914,0.0914 -0.36014,0.55571 -1.00347,1.03175 -1.65254,1.222807 -2.05164,1.416337 -2.05164,0.994857 z m 3.88055,-2.774957 c 0,-0.162031 0.59531,-0.597678 1.32292,-0.968102 1.93232,-0.983742 1.97337,-0.997168 1.70086,-0.556239 -0.33494,0.541958 -3.02378,1.897451 -3.02378,1.524341 z m 12.5225,-8.184594 c 0.32557,-0.526789 2.40135,-1.418439 3.25298,-1.397319 0.39739,0.0099 0.17442,0.252952 -0.60603,0.66075 -1.7947,0.937756 -2.97413,1.265955 -2.64695,0.736569 z m -38.598785,33.917221 1.531123,-1.35875 -0.827973,-0.44312 c -0.783181,-0.41915 -0.815869,-0.39489 -0.604241,0.4483 0.187984,0.74899 0.02653,1.01331 -1.010557,1.65426 -0.678857,0.41956 -1.234288,0.82926 -1.234288,0.91045 0,0.43967 0.78487,-0.003 2.145936,-1.21114 z m 4.027675,0.31814 c 0,-0.23683 -0.506243,-0.64347 -1.124984,-0.90363 -0.9418,-0.396 -1.189217,-0.39563 -1.519467,0.002 -0.314109,0.37847 -0.246623,0.43665 0.331234,0.28554 0.428526,-0.11206 0.725717,-0.0199 0.725717,0.22496 0,0.22811 0.15875,0.31663 0.352778,0.19672 0.502444,-0.31053 0.437352,0.30304 -0.08819,0.83133 -0.353744,0.35559 -0.266516,0.379 0.440973,0.11834 0.485069,-0.17872 0.881944,-0.51872 0.881944,-0.75556 z m 17.656529,-0.70301 c 0.184331,-0.18289 1.525761,-0.82937 2.980971,-1.43663 1.45521,-0.60726 2.90941,-1.41013 3.23155,-1.78415 0.70373,-0.81707 1.00178,-0.86196 1.00178,-0.15087 0,0.66095 1.18767,0.6943 1.72372,0.0484 0.21944,-0.26441 1.4591,-0.58937 2.75477,-0.72212 1.71473,-0.17567 3.11373,-0.62353 5.14111,-1.64581 1.53193,-0.77246 3.5814,-1.57519 4.55439,-1.78386 1.28312,-0.27518 1.66282,-0.48565 1.38226,-0.7662 -0.21274,-0.21274 -0.3868,-0.62085 -0.3868,-0.90691 0,-0.38716 0.20871,-0.32403 0.81649,0.24695 0.949678,0.89217 2.085558,0.99183 2.711288,0.23788 0.24154,-0.29104 0.55916,-0.52917 0.70582,-0.52917 0.52033,0 6.18726,-3.25764 7.05529,-4.05574 0.48507,-0.446 1.44924,-1.10963 2.14261,-1.47475 0.69337,-0.36511 1.21862,-0.81793 1.16722,-1.00626 -0.0514,-0.18833 0.81005,-0.7857 1.91433,-1.32749 1.10428,-0.54179 2.40466,-1.29462 2.88973,-1.67296 l 0.88194,-0.68789 -1.18223,0.22489 c -0.66828,0.12713 -1.28174,0.0702 -1.41111,-0.13096 -0.13257,-0.20612 -0.52577,-0.23812 -0.93443,-0.076 -0.38806,0.15391 -0.50712,0.29099 -0.26459,0.30463 0.55841,0.0314 0.585,0.73035 0.0278,0.73035 -0.22726,0 -0.70448,0.26361 -1.0605,0.5858 -0.76837,0.69536 -1.2919,0.3725 -0.65005,-0.40089 0.28215,-0.33995 0.30724,-0.53769 0.0682,-0.53769 -0.20792,0 -0.77658,0.52254 -1.2637,1.16119 -0.98308,1.28888 -4.85201,3.59089 -6.64025,3.95094 -1.38718,0.2793 -3.29645,1.10888 -4.51495,1.96175 -1.335138,0.9345 -4.598258,1.67371 -6.557368,1.48547 -1.32413,-0.12723 -2.25986,0.0483 -3.97768,0.74636 -1.23543,0.502 -3.05902,1.01307 -4.05242,1.13572 -1.97139,0.24338 -2.59237,0.55324 -4.45201,2.22143 -0.67909,0.60918 -2.22691,1.60292 -3.43958,2.2083 -1.21267,0.60538 -2.20486,1.23213 -2.20486,1.39277 0,0.16064 -0.492698,0.85323 -1.094879,1.53907 l -1.094878,1.247 h 0.847934 c 0.466361,0 0.998745,-0.14963 1.183072,-0.33251 z m 5.803191,-4.95915 c 0.69022,-0.44606 1.41111,-0.44606 1.41111,0 0,0.19402 -0.43656,0.35034 -0.97013,0.34737 -0.75599,-0.004 -0.85333,-0.0809 -0.44098,-0.34737 z m 4.23334,-1.72414 c 0,-0.19831 0.59531,-0.45724 1.32291,-0.57539 0.72761,-0.11816 1.68758,-0.36348 2.13327,-0.54516 0.99983,-0.40755 1.12993,-0.41024 1.12993,-0.0234 0,0.16881 -0.75406,0.50328 -1.6757,0.74327 -0.92163,0.23999 -1.9535,0.50944 -2.29305,0.59879 -0.33955,0.0893 -0.61736,1.8e-4 -0.61736,-0.19813 z m 6.70278,-8.8592 c 0.20768,-0.38805 0.25145,-0.70555 0.0973,-0.70555 -0.15418,0 -0.47862,0.3175 -0.72096,0.70555 -0.24408,0.39084 -0.28747,0.70556 -0.0973,0.70556 0.18884,0 0.51327,-0.3175 0.72096,-0.70556 z m -3.53318,-5.02708 c -0.0104,-0.84725 -0.55193,-1.29563 -1.32171,-1.09432 -0.63269,0.16545 -0.70806,0.32285 -0.41594,0.86868 0.39688,0.74158 1.74611,0.91679 1.73765,0.22564 z m 2.76147,-1.30087 c 0.0882,-0.26458 -0.0441,-0.39687 -0.30868,-0.30868 -0.25466,0.0849 -0.53247,0.3627 -0.61736,0.61736 -0.0882,0.26459 0.0441,0.39688 0.30868,0.30868 0.25466,-0.0849 0.53247,-0.3627 0.61736,-0.61736 z"
       style="fill:#000000;stroke-width:0.35277778" />
  </g>
</svg>
