<?xml version="1.0" encoding="UTF-8" standalone="no"?>
<svg
   xmlns:dc="http://purl.org/dc/elements/1.1/"
   xmlns:cc="http://creativecommons.org/ns#"
   xmlns:rdf="http://www.w3.org/1999/02/22-rdf-syntax-ns#"
   xmlns:svg="http://www.w3.org/2000/svg"
   xmlns="http://www.w3.org/2000/svg"
   id="svg8"
   version="1.1"
   viewBox="0 0 138.12978 234.36724"
   height="234.36726mm"
   width="138.12978mm">
  <defs
     id="defs2" />
  <metadata
     id="metadata5">
    <rdf:RDF>
      <cc:Work
         rdf:about="">
        <dc:format>image/svg+xml</dc:format>
        <dc:type
           rdf:resource="http://purl.org/dc/dcmitype/StillImage" />
        <dc:title></dc:title>
      </cc:Work>
    </rdf:RDF>
  </metadata>
  <g
     transform="translate(-4.0244873,33.766341)"
     id="layer1">
    <path
       id="path3012"
       d="m 13.107488,200.26296 c -4.0091276,-0.56067 -7.1154496,-1.66064 -8.3139766,-2.94402 -1.864015,-1.99598 -0.28686,-3.30713 4.16029,-3.4586 2.5416306,-0.0866 2.9580766,-0.2189 6.1736106,-1.96187 3.60737,-1.95535 5.05459,-2.46976 5.746038,-2.04242 0.556778,0.3441 -0.737158,1.22614 -5.225575,3.56213 -3.326046,1.73104 -3.817742,1.88667 -5.8156556,1.84074 -2.165413,-0.0498 -3.427509,0.30244 -3.427509,0.95654 0,0.1872 0.298062,0.34036 0.66236,0.34036 0.364298,0 0.868673,0.2486 1.120834,0.55243 1.436127,1.73043 2.4137736,1.82659 14.9737496,1.47287 1.552222,-0.0437 3.946119,0.10095 5.31977,0.32148 2.881152,0.46256 6.063303,0.0633 6.762868,-0.84852 0.571211,-0.74453 0.571211,-4.36788 0,-5.11576 -0.400332,-0.52414 -0.619785,-0.52958 -2.38125,-0.059 -3.924449,1.04846 -7.216259,0.62503 -9.823407,-1.26358 -1.772283,-1.28383 -1.836925,-1.97766 -0.381354,-4.09326 1.020718,-1.48356 1.757416,-3.29489 2.244575,-5.51876 0.238544,-1.08895 1.104861,-1.30097 1.408373,-0.34469 0.367148,1.15678 -1.624236,6.10166 -2.930733,7.27741 -0.590798,0.53167 -0.659157,0.77496 -0.329391,1.17231 0.755134,0.90988 3.025493,1.84494 5.060197,2.08409 l 2.003256,0.23544 -0.918813,-0.91881 c -0.913421,-0.91343 -1.228897,-2.00922 -0.578448,-2.00922 0.187201,0 0.510785,0.31843 0.719075,0.70762 0.353264,0.66008 0.447846,0.67187 1.407702,0.17551 0.778639,-0.40265 1.076737,-0.85376 1.225226,-1.85415 0.107927,-0.72712 0.353171,-1.999 0.544987,-2.8264 0.191815,-0.82741 0.359913,-2.09741 0.37355,-2.82223 0.01364,-0.72482 0.148898,-1.63535 0.30058,-2.02341 0.267287,-0.68381 0.283528,-0.68119 0.527142,0.085 0.138247,0.43483 0.173785,0.91611 0.07897,1.06952 -0.156149,0.25265 -0.368453,2.04293 -0.756824,6.38201 -0.143383,1.60194 -0.857786,2.70374 -1.985081,3.06153 -0.362466,0.11504 -0.65903,0.36984 -0.65903,0.56621 0,0.32387 1.13114,0.21951 2.866923,-0.2645 0.709861,-0.19794 1.096931,-1.99804 1.547248,-7.19564 0.513359,-5.92521 3.032255,-16.0168 4.931057,-19.75556 1.90639,-3.7537 2.177923,-4.82975 2.250831,-8.91982 0.03995,-2.24084 -0.179902,-5.63933 -0.50698,-7.83712 -0.317627,-2.13431 -0.557618,-5.06271 -0.533308,-6.50757 0.06792,-4.03678 0.965111,-5.51209 7.083118,-11.6472 5.319906,-5.33477 6.788297,-7.15461 9.207654,-11.41145 0.792903,-1.39511 1.985035,-3.40703 2.649185,-4.47094 l 1.207544,-1.93438 -0.799553,-0.61076 c -1.028171,-0.7854 -8.495312,-4.51631 -9.039049,-4.51631 -0.227224,0 -0.688791,-0.15183 -1.025708,-0.33741 -0.618888,-0.34088 -5.849708,-2.13204 -6.226323,-2.13204 -0.177256,0 -1.144379,1.40229 -5.934007,8.60405 -0.530433,0.79757 -1.060344,1.68825 -1.17758,1.97929 -1.079344,2.6795 -1.562163,4.04275 -1.562163,4.41081 0,0.23989 -0.326443,1.44903 -0.725431,2.68698 -0.622914,1.93274 -0.697547,2.82413 -0.528126,6.30776 0.208753,4.29233 -0.134538,6.11467 -1.287161,6.83286 -0.987212,0.61512 -1.160692,-0.0514 -0.379221,-1.45694 0.553255,-0.9951 0.676943,-1.64757 0.503715,-2.65718 -0.126285,-0.73601 -0.388359,-1.37101 -0.582387,-1.41111 -0.194028,-0.0401 -0.966861,1.09925 -1.717407,2.53189 -1.263657,2.41205 -1.33544,2.70222 -0.970139,3.92148 0.21697,0.72418 0.395084,1.8539 0.395809,2.51049 l 0.0013,1.19379 0.699052,-1.14653 c 0.384479,-0.63059 0.93951,-1.14652 1.233404,-1.14652 0.748027,0 0.685956,0.23114 -0.600384,2.23572 -0.700653,1.09188 -1.224062,2.45321 -1.368245,3.55867 -1.080039,8.28074 -1.378687,12.00489 -1.515637,18.90005 -0.277549,13.97406 -0.733731,17.99167 -2.042877,17.99167 -0.637895,0 -0.692172,-0.1473 -0.476968,-1.29444 0.35852,-1.91107 0.527799,-5.12654 0.888317,-16.87362 0.178641,-5.82083 0.486334,-11.53583 0.683762,-12.7 0.197428,-1.16417 0.508686,-4.01331 0.691684,-6.33141 0.277678,-3.51746 0.243559,-4.4376 -0.206231,-5.56174 -0.44311,-1.10744 -0.466178,-1.63601 -0.129714,-2.97223 0.441402,-1.75297 1.709825,-4.42984 3.080505,-6.50108 0.494535,-0.74729 1.128852,-2.61636 1.502517,-4.42729 0.65405,-3.1698 2.544519,-8.67993 3.313433,-9.65763 0.230096,-0.29258 0.894606,-1.45869 1.476689,-2.59138 0.582084,-1.13268 1.746353,-2.79956 2.587265,-3.70416 1.505839,-1.6199 3.585087,-5.49171 3.587666,-6.68066 7.05e-4,-0.33469 0.293715,-1.088 0.651093,-1.67403 0.576213,-0.94487 0.974648,-2.34037 1.307352,-4.57895 0.436051,-2.93392 1.3982,-6.97182 2.479767,-10.40694 2.279628,-7.240235 2.207111,-6.882596 2.396239,-11.818052 0.110557,-2.885052 0.34859,-4.256839 1.285498,-7.408334 0.173048,-0.582083 0.475756,-1.789098 0.672683,-2.682254 0.196928,-0.893155 0.904868,-2.591336 1.573199,-3.773731 0.66833,-1.182398 1.329224,-2.509244 1.468652,-2.948548 1.216569,-3.833061 7.023848,-10.088256 11.403132,-12.282653 0.848706,-0.425278 2.17,-1.227353 2.936212,-1.782392 0.766212,-0.55504 2.294315,-1.195134 3.395786,-1.422429 1.998415,-0.412386 4.425642,-1.44949 4.796412,-2.049406 0.25571,-0.413748 0.95378,-5.193524 0.96908,-6.635468 0.008,-0.778894 -0.42453,-1.693661 -1.41726,-2.995513 l -1.429158,-1.874192 0.617999,-1.061427 c 0.339898,-0.583788 0.975699,-1.113282 1.412889,-1.176652 0.43719,-0.06337 0.9276,-0.460248 1.0898,-0.881944 0.1622,-0.4217 0.88892,-1.375693 1.61494,-2.119983 1.29257,-1.325097 1.31082,-1.381217 0.87676,-2.696432 -0.24381,-0.738742 -0.34795,-1.497422 -0.23143,-1.685957 0.11651,-0.188532 1.17647,-0.532564 2.35545,-0.764515 2.74614,-0.540269 3.70866,-1.440413 5.85939,-5.479652 1.48929,-2.796998 3.84283,-5.835463 4.52006,-5.835463 0.13266,0 1.06405,-0.907715 2.06976,-2.017148 2.05553,-2.26753201 3.983752,-4.224302 5.016252,-5.09052 0.38107,-0.319701 1.83328,-1.772955 3.22714,-3.229449 1.39385,-1.4564937 3.02417,-2.9375627 3.62294,-3.2912637 0.64144,-0.378908 1.01303,-0.840207 0.90455,-1.122918 -0.10127,-0.2638443 -0.28483,-1.1405753 -0.40791,-1.9482313 -0.12309,-0.807656 -0.36361,-1.646781 -0.53449,-1.864724 -0.17089,-0.217942 -0.21777,-0.638447 -0.10418,-0.934455 0.11359,-0.296008 0.0584,-0.629768 -0.12273,-0.741689 -0.35665,-0.220418 -0.32036,-0.700985 0.29639,-3.92482 0.22271,-1.164166 0.41793,-2.513541 0.43381,-2.998611 0.0159,-0.485069 0.14097,-0.961319 0.27797,-1.058333 0.137,-0.09701 0.78353,-1.157881 1.43673,-2.357482 1.36299,-2.503111 3.80827,-5.24692 4.97593,-5.583411 0.43881,-0.126452 1.47686,-0.537463 2.30679,-0.913359 5.34662,-2.421606 12.96611,-2.212698 17.21912,0.472107 1.9954,1.259643 3.84677,3.447031 4.91125,5.802625 0.50959,1.127694 1.1539,2.471722 1.43179,2.986729 0.27789,0.515006 0.50526,1.2597 0.50526,1.654874 0,0.395175 0.1765,0.827585 0.39223,0.960911 0.25547,0.157894 0.31143,0.851489 0.16049,1.989351 -0.12746,0.960817 -0.30559,2.567663 -0.39585,3.570769 -0.14716,1.635383 -1.03927,4.361263 -1.57827,4.8224413 -0.11339,0.09701 -0.40728,0.674079 -0.6531,1.282366 -1.51089,3.7387187 -8.00871,7.54560169 -12.85283,7.5300897 -3.40683,-0.0109 -6.60186,-0.588719 -9.27852,-1.677994 l -2.45657,-0.99971 -1.08661,1.783317 c -0.59764,0.98082799 -1.67593,3.05332 -2.39621,4.605543 -3.02946,6.528586 -3.33974,7.010886 -6.21112,9.654458 -2.4572,2.262262 -2.87098,2.822724 -3.37812,4.57568 -0.31786,1.098702 -0.65893,2.212178 -0.75792,2.47439 -0.11816,0.312992 0.0388,0.434167 0.45709,0.352778 0.50409,-0.0981 0.65693,-0.517662 0.73221,-2.010036 0.0523,-1.037332 0.1896,-1.98053 0.30507,-2.095994 0.11546,-0.115464 1.03944,0.613244 2.05329,1.619349 1.96863,1.953609 3.31921,4.465094 2.63016,4.89095 -0.21581,0.133382 -0.44499,0.08471 -0.50928,-0.108162 -0.2231,-0.66929 -2.64998,-4.398546 -2.77869,-4.269846 -0.0712,0.07117 0.34074,0.992731 0.91534,2.047918 1.69669,3.115726 1.86172,3.609167 1.43649,4.294977 -0.46076,0.743088 -0.49926,2.270588 -0.064,2.539581 0.45945,0.283961 0.69896,-0.575127 0.47987,-1.721249 -0.14258,-0.745818 -0.0675,-0.953442 0.30091,-0.832009 0.80257,0.264545 0.8162,3.171469 0.0215,4.586355 -0.37455,0.666859 -0.7928,1.721478 -0.92944,2.343591 -0.3439,1.565765 -1.82089,3.23088 -2.86585,3.23088 -0.48586,0 -0.85059,0.207662 -0.85059,0.484283 0,0.600053 -2.946562,0.938374 -4.962322,0.569767 -1.59249,-0.291207 -1.96554,0.0062 -1.31477,1.048265 0.34811,0.557421 0.35602,0.869725 0.0351,1.38369 -0.228,0.365079 -0.59061,1.634751 -0.80581,2.821492 -0.49388,2.723635 -1.20474,4.748223 -2.11694,6.029297 -0.39215,0.550711 -0.71299,1.257762 -0.71299,1.571226 0,0.903404 -5.16679,6.098191 -5.62144,5.651902 -0.26845,-0.26351 0.14216,-0.912703 1.40774,-2.225724 1.86158,-1.931352 4.17002,-6.341502 5.45081,-10.413467 0.52764,-1.677519 0.58329,-2.386193 0.29706,-3.783464 -0.32269,-1.575245 -0.28468,-1.782742 0.4535,-2.476232 0.50961,-0.478748 0.88672,-1.355118 1.02617,-2.384672 0.12126,-0.895262 0.30482,-1.929578 0.40792,-2.298478 0.14212,-0.50855 0.0496,-0.617851 -0.38243,-0.452046 -0.68409,0.262509 -0.76276,-0.456752 -0.12891,-1.178563 0.24254,-0.27619 0.08,-0.200569 -0.36111,0.168052 -0.5629,0.470355 -0.91314,0.559171 -1.17449,0.297826 -0.26134,-0.261345 0.24325,-0.990011 1.69209,-2.443469 1.66716,-1.672485 2.35147,-2.738152 3.55573,-5.537208 0.82016,-1.906372 1.491222,-3.752296 1.491222,-4.102054 0,-1.328455 1.0804,-3.122323 2.99651,-4.975327 3.31043,-3.201413 4.41166,-4.780178 6.19759,-8.885089 0.94096,-2.16276801 2.03535,-4.371235 2.43198,-4.907704 0.39663,-0.536469 0.72114,-1.109073 0.72114,-1.272451 0,-0.163378 1.36296,-1.757691 3.0288,-3.5429167 3.197,-3.4261303 4.43185,-4.1427023 5.23833,-3.039772 0.34566,0.472716 1.1573,0.70708 3.06877,0.886113 3.20492,0.300179 4.2088,-0.08941 1.89772,-0.736474 -1.18257,-0.331097 -1.74205,-0.7028583 -1.97336,-1.3112423 -0.17756,-0.46702 -0.48188,-0.750831 -0.67627,-0.630691 -0.70354,0.434808 -1.03841,-0.187064 -0.62396,-1.158717 0.58689,-1.375937 1.00699,-1.86202 1.39956,-1.619395 0.21709,0.134167 0.20238,0.353492 -0.04,0.595838 -0.21093,0.210934 -0.38292,0.708953 -0.38219,1.10671 10e-4,0.598132 0.11706,0.533378 0.67064,-0.374451 0.6594,-1.08137 2.48024,-2.606521 3.11186,-2.606521 0.45361,0 3.17464,-1.380992 2.74256,-1.39192 -0.52858,-0.01337 -3.26288,0.977895 -4.04537,1.466566 -0.37677,0.235297 -0.79425,0.318596 -0.92774,0.185108 -0.44372,-0.443716 0.60334,-1.282009 3.26918,-2.617374 2.4859,-1.245228 3.38209,-1.875713 2.66619,-1.875713 -0.17277,0 -1.72578,0.714375 -3.45114,1.5875 -1.72536,0.873125 -3.26026,1.5875 -3.41088,1.5875 -0.65251,0 -0.19529,-1.10925 0.6081,-1.475301 0.48507,-0.221012 0.88194,-0.535109 0.88194,-0.697992 0,-0.162884 0.20698,-0.296152 0.45996,-0.296152 0.25299,0 1.00705,-0.575537 1.6757,-1.278971 1.36732,-1.438448 0.73359,-1.204618 -1.95814,0.722496 -1.76139,1.261052 -3.35939,1.653321 -3.34477,0.821059 0.004,-0.242535 0.32176,-1.132996 0.70556,-1.978803 0.71175,-1.568572 0.96221,-3.298697 0.38764,-2.677864 -0.17059,0.184326 -0.50128,0.933144 -0.73489,1.66404 -0.62546,1.95696 -2.68045,4.012958 -5.14306,5.145589 -0.96845,0.445422 -1.40052,1.036619 -1.90716,2.609538 -0.23436,0.727604 -0.57392,1.322916 -0.75458,1.322916 -0.37884,0 -1.9507,1.298245 -4.13922,3.4186953 -0.83923,0.81313 -1.64854,1.527505 -1.79847,1.5875 -0.25064,0.1003 -1.68708,1.270881 -4.889,3.9841267 -0.68334,0.579052 -1.45119,1.552417 -1.70632,2.163037 -0.25513,0.61061899 -1.10461,1.71737499 -1.88773,2.45945399 C 100.17876,1.713499 99.538028,2.428177 99.538028,2.559598 c 0,0.131416 0.35719,0.347514 0.793752,0.480215 0.48451,0.147277 0.62109,0.312487 0.35058,0.424053 -0.24374,0.100527 -0.35344,0.32797 -0.24376,0.505424 0.10967,0.177455 0.0392,0.322648 -0.15666,0.322648 -0.19584,0 -0.497922,-0.253475 -0.671302,-0.563274 -0.25824,-0.461461 -0.54831,-0.245741 -1.60477,1.193437 -0.70924,0.966188 -1.92466,2.330499 -2.70091,3.0318 -0.77626,0.701298 -1.41137,1.587959 -1.41137,1.970352 0,0.662944 -2.46034,6.029089 -3.14163,6.85207 -0.80624,0.973932 -2.61771,6.344913 -3.56602,10.57323 -1.97736,8.81664 -2.6592,10.786788 -4.48341,12.954741 l -0.874,1.038694 0.94021,-0.357469 c 1.21045,-0.46021 1.24707,-0.455366 1.24707,0.164976 0,0.287345 -0.43656,0.623623 -0.97014,0.747286 -0.53358,0.123662 -1.65729,0.616934 -2.49714,1.096158 -0.83985,0.47922 -1.61735,0.780958 -1.72779,0.670528 -0.11043,-0.110433 -0.81056,0.14193 -1.55585,0.560807 -0.745294,0.418878 -1.465063,0.651606 -1.599493,0.517176 -0.348153,-0.348149 1.975513,-2.695892 3.235133,-3.268659 1.97823,-0.899527 3.19504,-2.229548 1.4236,-1.556046 -1.6983,0.645693 -1.21971,-0.296196 0.7014,-1.380405 2.34561,-1.323781 2.96102,-2.47873 4.05533,-7.61068 1.14344,-5.362385 1.74358,-7.810274 2.30481,-9.400971 0.63634,-1.803579 0.64682,-1.711529 -0.19486,-1.711529 -0.72126,0 -0.97647,-0.84926 -0.36818,-1.225201 0.18555,-0.114677 0.24179,-0.457567 0.12498,-0.761979 -0.11682,-0.304408 0.009,-0.709972 0.27999,-0.901248 0.3515,-0.248275 0.24004,-0.279817 -0.38957,-0.110243 -0.48507,0.130644 -1.64186,0.426607 -2.57064,0.657697 l -1.6887,0.420166 1.00245,0.960402 c 0.55134,0.528225 1.27157,0.960406 1.6005,0.960406 0.74804,0 0.76593,0.487285 0.0444,1.208825 -0.40055,0.400558 -0.72972,0.459443 -1.19032,0.21294 -0.47963,-0.256692 -0.79192,-0.169161 -1.26619,0.354908 -0.52317,0.57809 -0.56048,0.847228 -0.22079,1.59275 0.22481,0.493409 0.40875,1.048388 0.40875,1.233286 0,0.581438 -0.92209,0.365898 -1.58946,-0.371538 -0.61234,-0.676632 -1.00544,-0.665357 -1.10048,0.03157 -0.0242,0.17786 -0.0639,0.47347 -0.0882,0.656908 -0.0242,0.183441 -0.48066,0.542117 -1.01423,0.797055 -1.77112,0.84623 -1.46675,1.85988 1.03309,3.440494 1.22492,0.774495 2.66435,1.504205 3.19875,1.621578 1.02018,0.22407 1.3668,1.215679 0.42494,1.215679 -0.62991,0 -2.557,-0.92753 -3.33386,-1.604627 -0.46396,-0.404375 -0.53085,-0.147637 -0.54283,2.083393 -0.0212,3.951714 -0.74625,6.424831 -2.24594,7.661 -0.6889,0.567852 -1.573039,1.032457 -1.964753,1.032457 -0.391713,0 -2.992328,1.145081 -5.779138,2.544621 -4.352424,2.185797 -5.414595,2.892288 -7.532398,5.01009 -2.895257,2.895258 -4.345806,5.059737 -6.706979,10.008016 -1.698731,3.560008 -2.362528,5.548366 -3.264154,9.777551 -0.634199,2.974795 -1.371,9.339569 -1.111239,9.59933 0.119168,0.119168 0.621682,0.03214 1.116704,-0.193414 1.103249,-0.502673 3.567613,-0.53921 3.865446,-0.0573 0.119916,0.194028 0.603909,0.352778 1.075545,0.352778 0.471632,0 1.94588,0.697625 3.276102,1.550273 3.544489,2.27196 4.381881,2.64607 6.473063,2.89184 l 1.889647,0.22209 0.404552,-1.89113 c 0.222504,-1.04012 0.979314,-3.081754 1.681801,-4.536962 1.581986,-3.277108 1.7589,-3.568676 3.720122,-6.131014 0.873125,-1.140738 1.745852,-2.331363 1.939393,-2.645833 0.193536,-0.31447 0.687076,-1.048015 1.096746,-1.630098 0.40967,-0.582083 1.40055,-2.129896 2.20195,-3.439583 l 1.45708,-2.38125 -1.31911,-0.0048 c -1.82264,-0.0067 -2.90661,-0.342946 -2.90661,-0.901686 0,-0.352545 0.42249,-0.425845 1.67569,-0.290728 2.07664,0.223905 3.4849,-0.565185 5.10132,-2.85841 1.12678,-1.59857 2.04243,-2.062596 2.04243,-1.035039 0,0.555674 -1.89598,3.547844 -2.66683,4.208702 -0.22633,0.194028 -1.02856,1.61828 -1.78275,3.165003 -1.56284,3.205134 -3.17837,5.802626 -4.72361,7.594719 -1.486033,1.723429 -3.879587,5.303154 -3.879587,5.802186 0,0.22841 -0.302497,1.041386 -0.672211,1.80661 -0.369719,0.765228 -0.999663,2.322973 -1.399883,3.461663 -0.726418,2.0668 -0.726475,2.07295 -0.03334,3.594467 0.381878,0.83828 0.694323,1.69948 0.694323,1.91379 0,0.21431 0.271995,0.89771 0.604432,1.51866 1.233784,2.30456 1.578006,3.67635 1.699669,6.77345 0.119398,3.03945 0.07238,3.27884 -1.101192,5.60699 -1.214251,2.40885 -1.220932,2.44744 -0.702533,4.05694 0.287857,0.89373 0.620103,2.25996 0.738318,3.03607 0.358867,2.35601 0.913974,4.82456 1.604554,7.13539 0.361022,1.20807 0.757064,2.95432 0.880088,3.88056 0.62265,4.68778 0.823602,6.10386 1.165127,8.21044 0.204463,1.26118 0.538195,4.23461 0.741625,6.60763 0.56712,6.61542 1.91061,9.0362 6.21532,11.19909 1.14913,0.57737 2.77773,1.52987 3.61913,2.11666 0.8414,0.5868 1.87644,1.30503 2.30009,1.59607 1.0818,0.74318 3.78776,3.78872 4.85837,5.46805 0.91263,1.43154 2.777,5.79751 2.777,6.50315 0,0.21208 0.13947,0.66125 0.30994,0.99817 0.17047,0.33692 0.74765,1.64445 1.28264,2.90563 1.27294,3.00085 2.256012,4.91892 3.052952,5.9566 0.35537,0.46273 0.64614,0.98545 0.64614,1.16159 0,0.53573 2.80739,4.15807 4.34526,5.60664 0.79563,0.74943 1.88968,1.45992 2.43122,1.57886 1.37823,0.30271 1.236,0.86191 -0.1619,0.63657 -1.02386,-0.16504 -1.25976,-0.0305 -2.20486,1.25759 -1.65582,2.25672 -4.32427,3.94617 -6.3541,4.02292 -1.667152,0.063 -1.692782,0.0817 -1.780762,1.29867 -0.0491,0.6791 -0.24224,2.02848 -0.42921,2.99861 -0.18697,0.97014 -0.54901,2.84745 -0.80452,4.1718 -0.37972,1.96809 -0.38123,2.45941 -0.008,2.68993 0.68595,0.42394 -0.0331,0.68363 -0.94192,0.34017 -0.81854,-0.30936 -1.06306,-1.17298 -0.44097,-1.55745 0.19403,-0.11992 0.35389,-0.7246 0.35525,-1.34374 0.001,-0.61914 0.31886,-2.44545 0.70556,-4.05847 1.02638,-4.28132 0.92697,-6.16264 -0.45377,-8.58829 -1.39554,-2.45165 -4.26997,-6.74868 -5.62633,-8.41089 -1.95902,-2.40075 -5.76033,-6.53713 -7.29111,-7.9338 -3.91539,-3.57234 -9.145252,-8.99428 -10.260196,-10.63703 -0.930589,-1.37113 -1.783993,-2.10115 -3.527777,-3.01775 -2.031824,-1.06801 -2.364204,-1.3918 -2.848423,-2.77484 -0.301505,-0.86116 -0.976193,-2.48309 -1.499306,-3.60428 -0.523109,-1.12119 -0.95111,-2.16305 -0.95111,-2.31525 0,-0.15219 -0.47625,-0.73299 -1.058333,-1.29066 -0.582083,-0.55767 -1.058333,-1.21103 -1.058333,-1.45191 0,-0.24089 -0.222497,-0.66047 -0.494436,-0.93241 -0.271939,-0.27194 -0.892179,-1.27546 -1.37831,-2.23006 -1.417165,-2.78282 -3.418921,-7.08047 -3.418921,-7.34022 0,-0.13139 -0.269727,-0.82911 -0.599394,-1.55048 -0.329667,-0.72137 -0.693808,-1.70846 -0.809205,-2.19353 l -0.209811,-0.88195 -0.866489,1.03039 c -0.476568,0.56671 -2.692115,2.88376 -4.923434,5.14898 -4.39045,4.45717 -5.9179,6.24811 -6.824183,8.00136 -0.632378,1.22337 -0.860915,4.8281 -0.427877,6.74898 0.406954,1.80516 0.491557,2.69184 0.746316,7.82168 0.294566,5.93145 -0.240443,9.03957 -2.444069,14.19877 -1.910345,4.47256 -3.786798,10.65758 -4.600314,15.16322 -0.427648,2.36851 -0.577123,8.04868 -0.228928,8.69929 0.224307,0.41913 0.214538,0.76213 -0.02865,1.0053 -0.25696,0.25696 -0.195774,0.63365 0.201376,1.23978 0.780874,1.19176 1.066147,4.77606 0.470175,5.90753 -0.360422,0.68428 -0.857775,0.9424 -2.219064,1.1517 -4.384531,0.67411 -5.786497,0.69879 -7.215547,0.127 -1.893445,-0.75761 -4.550985,-0.59263 -10.061182,0.62461 -0.388056,0.0857 -2.213681,-0.055 -4.056944,-0.31284 z m 88.442422,-17.19493 c 2.32125,-1.02336 4.32325,-2.78484 4.73785,-4.16866 l 0.41054,-1.37027 -2.60999,-2.67116 c -2.77125,-2.8362 -3.25979,-3.6094 -5.794118,-9.17017 -0.88428,-1.94028 -1.75585,-3.84528 -1.93682,-4.23333 -0.18097,-0.38806 -0.65341,-1.5954 -1.04987,-2.68298 -1.19825,-3.28705 -4.80281,-8.63539 -6.61914,-9.82128 -0.72663,-0.47443 -1.63866,-1.13799 -2.02671,-1.47458 -0.38806,-0.33659 -2.29306,-1.42229 -4.23333,-2.41265 -3.71351,-1.89547 -4.7611,-2.77944 -4.76468,-4.02051 -10e-4,-0.41507 -0.22436,-1.18054 -0.49591,-1.70105 -0.617425,-1.18343 -0.825211,-2.24117 -1.096159,-5.58001 -0.118092,-1.45521 -0.286159,-2.89692 -0.373485,-3.20379 -0.08733,-0.30688 -0.546407,-3.24376 -1.020181,-6.52639 -0.473773,-3.28264 -1.104939,-7.00031 -1.402591,-8.26149 -0.297653,-1.26118 -0.710763,-3.24555 -0.918023,-4.40972 -0.207261,-1.16417 -0.527308,-2.26841 -0.711218,-2.45387 -0.212534,-0.21433 -0.913938,-0.18219 -1.924879,0.0882 -0.874776,0.23396 -2.070061,0.42539 -2.656184,0.42539 -1.481998,0 -2.880698,0.96884 -2.613607,1.81037 0.15179,0.47825 0.03327,0.65956 -0.431951,0.66083 -1.073852,0.003 -2.454533,1.45967 -3.843472,4.05519 -0.72681,1.3582 -1.866409,3.32939 -2.532443,4.38043 l -1.210973,1.91098 0.705164,2.14596 c 1.621373,4.93421 3.426735,9.13006 5.14303,11.95298 1.213778,1.99638 1.891189,2.44786 0.80088,0.53377 -1.275574,-2.23934 -0.599592,-2.46874 0.970791,-0.32945 1.533056,2.08844 3.895962,4.27617 4.61857,4.27617 0.534745,0 0.701358,0.41475 0.319868,0.79624 -0.114554,0.11456 -0.853694,-0.0194 -1.64253,-0.29775 -0.788836,-0.27832 -1.509212,-0.43106 -1.600832,-0.33944 -0.251435,0.25143 1.194344,3.16561 1.833817,3.69633 0.314466,0.26098 0.559495,1.00143 0.559495,1.69072 0,1.70718 1.328155,2.82965 5.065197,4.2808 1.676781,0.65112 3.048691,1.25036 3.048691,1.33165 0,0.0813 -0.403263,0.30112 -0.89614,0.48851 -0.715419,0.272 -0.828858,0.46588 -0.5625,0.96141 0.328485,0.61111 5.730855,6.16038 9.018505,9.26375 1.42708,1.34708 3.73115,3.92391 6.53656,7.31038 1.16632,1.40789 5.30635,7.12365 5.30635,7.32599 0,0.10852 0.55033,0.99734 1.22296,1.97516 0.67262,0.97783 1.32529,2.32338 1.45037,2.99011 0.19574,1.04339 0.36705,1.21225 1.22989,1.21225 0.551358,0 1.446508,-0.19576 1.989208,-0.43502 z m -1.51622,-2.08904 -0.672038,-0.76016 0.936638,0.6024 c 0.91776,0.59026 0.96223,0.57995 2.20487,-0.5111 1.41628,-1.24351 1.83182,-0.63456 0.45172,0.66198 -1.03641,0.97366 -2.06436,0.97608 -2.92119,0.007 z m -1.818568,-1.23736 c -0.59632,-0.24062 -0.56059,-0.82469 0.0504,-0.82469 0.27028,0 0.5828,0.23812 0.69449,0.52916 0.20759,0.54098 0.034,0.60985 -0.74494,0.29553 z m 1.35833,-4.45671 c -0.44623,-0.74306 -0.43872,-0.75058 0.16875,-0.16875 0.349678,0.33494 0.559848,0.6849 0.467038,0.77771 -0.0928,0.0928 -0.378908,-0.18122 -0.635788,-0.60896 z m -8.12586,-6.50383 c -1.17673,-1.5073 -2.37916,-3.24371 -2.67206,-3.8587 -0.29291,-0.61499 -0.65023,-1.17062 -0.79405,-1.23473 -0.39235,-0.17489 -1.54503,-2.4784 -1.34186,-2.68157 0.097,-0.097 0.45916,0.3376 0.80477,0.96579 0.63434,1.15304 4.54129,6.20283 6.00823,7.76575 0.86638,0.92306 0.96795,1.2689 0.46411,1.58028 -0.1813,0.11205 -1.29241,-1.02952 -2.46914,-2.53682 z m 0.0261,-8.07358 c -0.99741,-0.49703 -1.81347,-1.04823 -1.81347,-1.22491 0,-0.48611 -0.97734,-0.38467 -1.15379,0.11975 -0.11305,0.32322 -0.34027,0.27612 -0.85092,-0.17639 -0.38317,-0.33955 -0.85823,-0.61736 -1.05567,-0.61736 -0.9093,0 -2.63473,-1.22978 -4.38072,-3.12232 -3.10106,-3.36134 -4.88753,-5.48052 -4.74241,-5.62565 0.4296,-0.42959 1.72267,0.57174 3.22302,2.49583 0.94146,1.20736 1.86712,2.25896 2.05704,2.33689 0.18991,0.0779 1.06681,0.80982 1.94868,1.62642 2.05471,1.90265 3.0918,2.45746 3.68044,1.96893 0.31034,-0.25756 0.56069,-0.25262 0.82969,0.0164 0.45533,0.45533 1.52317,1.09085 3.38857,2.01668 0.74603,0.37028 1.2049,0.76688 1.0197,0.88133 -0.18519,0.11446 -1.15277,-0.19855 -2.15017,-0.69558 z M 73.10539,145.49906 c -1.083409,-1.31437 -1.38532,-2.21268 -0.743649,-2.21268 0.187202,0 0.524098,0.35719 0.748658,0.79375 0.224564,0.43656 0.815474,1.23031 1.313138,1.76389 0.703601,0.75437 0.778185,0.97014 0.335357,0.97014 -0.313217,0 -1.057292,-0.5918 -1.653504,-1.3151 z m -3.212952,-17.92608 c -0.487592,-0.58751 -1.651547,-2.72084 -3.167803,-5.80604 -0.964477,-1.96248 -1.561423,-4.80122 -1.073094,-5.10303 0.146188,-0.0903 0.455884,0.68517 0.688224,1.72336 0.232336,1.03819 0.931058,2.74157 1.552716,3.78529 1.473376,2.4737 3.07056,5.45294 3.07056,5.72753 0,0.40687 -0.618222,0.21798 -1.070603,-0.32711 z M 65.024327,114.3097 c 0.06483,-0.45817 0.276631,-0.79336 0.470659,-0.74485 0.520763,0.13019 0.428801,1.23878 -0.117881,1.42101 -0.322672,0.10756 -0.433592,-0.10504 -0.352778,-0.67616 z m -2.527952,-3.83165 c 0,-0.19403 -0.16812,-0.35278 -0.373599,-0.35278 -0.205479,0 -0.275484,0.15875 -0.155568,0.35278 0.119916,0.19402 0.288036,0.35277 0.373599,0.35277 0.08556,0 0.155568,-0.15875 0.155568,-0.35277 z m 0.705555,-2.11667 c 0,-0.19403 -0.238125,-0.35278 -0.529167,-0.35278 -0.291041,0 -0.529166,0.15875 -0.529166,0.35278 0,0.19403 0.238125,0.35278 0.529166,0.35278 0.291042,0 0.529167,-0.15875 0.529167,-0.35278 z m 3.351389,0 c 0.119916,-0.19403 0.04991,-0.35278 -0.155568,-0.35278 -0.205479,0 -0.373599,0.15875 -0.373599,0.35278 0,0.19403 0.07,0.35278 0.155568,0.35278 0.08556,0 0.253683,-0.15875 0.373599,-0.35278 z m -7.231944,-0.70556 c 0,-0.19402 -0.07001,-0.35277 -0.155568,-0.35277 -0.08556,0 -0.253683,0.15875 -0.373599,0.35277 -0.119916,0.19403 -0.04991,0.35278 0.155568,0.35278 0.205479,0 0.373599,-0.15875 0.373599,-0.35278 z m 6.61525,-0.79811 c 0.436925,-0.62819 1.338537,-1.85451 2.003573,-2.72516 0.665039,-0.87065 1.14531,-1.64685 1.067272,-1.72489 -0.272316,-0.27231 -2.63054,1.76046 -2.63054,2.26751 0,0.28116 -0.15875,0.51121 -0.352778,0.51121 -0.194028,0 -0.352778,0.22401 -0.352778,0.49781 0,0.27379 -0.488431,0.90879 -1.085401,1.41111 -1.045052,0.87935 -1.054887,0.91314 -0.264584,0.90893 0.523632,-0.003 1.108446,-0.4179 1.615236,-1.14652 z m 3.615305,0.62172 c 0,-0.63158 -0.168296,-0.65272 -1.124098,-0.14119 -0.527131,0.28212 -0.659511,0.28212 -0.485154,0 0.131879,-0.21338 0.08865,-0.38797 -0.09607,-0.38797 -0.184722,0 -0.427232,0.23812 -0.538918,0.52916 -0.156446,0.4077 0.07784,0.52917 1.02059,0.52917 0.852505,0 1.223652,-0.1605 1.223652,-0.52917 z M 58.0632,106.98822 c 0.205645,-0.33274 -4.081251,-4.6939 -4.349895,-4.42525 -0.08621,0.0862 0.187833,0.52354 0.608994,0.97184 0.881796,0.93863 1.012048,1.72394 0.236576,1.42637 -0.291042,-0.11169 -0.529167,-0.0141 -0.529167,0.21685 0,0.23096 -0.139682,0.36701 -0.310405,0.30233 -0.426466,-0.16156 -4.904077,-4.12862 -6.005876,-5.32106 -1.045143,-1.13114 -1.797607,-1.25419 -1.797607,-0.29398 0,0.37188 -0.198438,0.75878 -0.440973,0.85977 -0.285115,0.11871 -0.06691,0.47048 0.617361,0.99525 0.582084,0.4464 1.685625,1.40888 2.452317,2.13884 1.252813,1.19279 1.957406,1.61358 1.957406,1.16899 0,-0.29268 -1.665387,-1.95846 -1.957995,-1.95846 -0.404181,0 -1.922561,-1.46485 -1.922561,-1.85478 0,-0.17637 0.143866,-0.26776 0.319701,-0.20309 0.326179,0.11998 3.178204,2.52935 5.021446,4.24209 1.21484,1.12883 4.748594,1.91994 3.875183,0.86754 -0.265801,-0.32027 -0.367623,-0.58231 -0.226268,-0.58231 0.141351,0 0.569186,0.39687 0.950743,0.88194 0.727431,0.92478 1.175374,1.09402 1.50102,0.56712 z m 5.270517,-0.55614 c -0.104598,-0.27258 -0.419216,-0.40771 -0.699152,-0.30028 -0.388779,0.14919 -0.414101,0.30963 -0.107224,0.67939 0.486929,0.58671 1.071528,0.31187 0.806376,-0.37911 z m 8.334879,0.16541 c 0,-0.19403 -0.168119,-0.35278 -0.373598,-0.35278 -0.205479,0 -0.275484,0.15875 -0.155568,0.35278 0.119916,0.19403 0.288036,0.35278 0.373599,0.35278 0.08556,0 0.155567,-0.15875 0.155567,-0.35278 z m -13.645662,-2.20625 c -1.219906,-1.35519 -1.347841,-1.80644 -0.321487,-1.13394 1.624122,1.06416 1.385144,0.30068 -0.472161,-1.50844 -0.983657,-0.95813 -1.788467,-1.84665 -1.788467,-1.97449 0,-0.65343 0.996351,-0.0355 2.753632,1.70784 1.075697,1.06716 2.092399,1.94028 2.259337,1.94028 0.537855,0 -0.316798,-1.19355 -2.020877,-2.82222 -3.20215,-3.06045 -4.505067,-4.42019 -5.408531,-5.64445 -1.672019,-2.26568 -3.200418,-3.85782 -3.397409,-3.53907 -0.107181,0.17342 0.225743,0.76284 0.739835,1.30983 1.359521,1.44651 4.721236,5.94216 4.721236,6.31374 0,0.17463 -0.552581,-0.31575 -1.227956,-1.08974 -1.38217,-1.58399 -1.681928,-1.35198 -0.417749,0.32333 0.453058,0.6004 0.909182,1.4287 1.013611,1.84066 0.152408,0.60124 0.05845,0.71467 -0.476204,0.57485 -0.502069,-0.13129 -0.612059,-0.0334 -0.446701,0.3975 0.120654,0.31443 0.321451,0.57186 0.446215,0.57208 0.124759,2.2e-4 1.176125,0.86333 2.336362,1.91802 2.067556,1.87948 3.116562,2.37975 1.707314,0.81422 z m 5.178996,0.0123 c 0,-0.1432 -0.391897,-0.0818 -0.870881,0.13644 -0.478988,0.21824 -0.789125,0.52909 -0.689201,0.69077 0.197598,0.31972 1.560082,-0.40272 1.560082,-0.82721 z m -16.778654,-1.30603 c -0.964868,-0.71942 -1.459494,-0.9058 -1.638413,-0.61736 -0.161618,0.26055 0.120897,0.54349 0.764791,0.76595 0.561597,0.19403 1.138311,0.47184 1.281589,0.61736 0.143277,0.14552 0.421075,0.26459 0.617329,0.26459 0.196254,0 -0.26513,-0.46374 -1.025296,-1.03054 z m 4.410883,-1.69372 c -1.035368,-0.927 -2.274295,-2.12203 -2.753169,-2.65561 -0.478879,-0.53357 -1.003195,-0.97013 -1.165151,-0.97013 -0.559845,0 -0.292298,1.01152 0.322897,1.22079 0.339549,0.11551 1.649236,1.14403 2.910417,2.28562 1.26118,1.14158 2.354802,2.01467 2.430272,1.9402 0.07547,-0.0745 -0.709898,-0.89386 -1.745266,-1.82087 z m 14.660827,1.31314 c 0.119916,-0.19402 -0.03883,-0.35277 -0.352778,-0.35277 -0.313944,0 -0.472694,0.15875 -0.352778,0.35277 0.119916,0.19403 0.278666,0.35278 0.352778,0.35278 0.07411,0 0.232861,-0.15875 0.352778,-0.35278 z m -4.470139,-1.02397 c -0.254145,-0.40696 -0.586303,-0.73991 -0.738131,-0.73991 -0.151829,0 -0.01277,0.40182 0.309037,0.89295 0.695632,1.06167 1.098059,0.91814 0.429094,-0.15304 z m 3.235416,-0.38714 c 0,-0.19402 -0.168119,-0.35277 -0.373598,-0.35277 -0.205479,0 -0.275484,0.15875 -0.155568,0.35277 0.119916,0.19403 0.288036,0.35278 0.373598,0.35278 0.08556,0 0.155568,-0.15875 0.155568,-0.35278 z m 6.066603,-0.45365 c 0.948309,-0.77859 0.949209,-0.78386 0.28363,-1.66301 -0.551427,-0.72837 -0.747797,-0.80102 -1.127714,-0.41723 -0.378541,0.38242 -0.348837,0.54686 0.16771,0.92842 0.565852,0.41799 0.571409,0.48531 0.05636,0.68295 -0.314254,0.12059 -0.70099,0.13915 -0.859412,0.0412 -0.158426,-0.0979 -0.204957,0.1397 -0.10341,0.52802 0.230498,0.88142 0.400099,0.87066 1.582836,-0.10039 z M 59.15909,99.8078 c -0.72935,-1.0413 -5.691981,-6.8118 -7.169612,-8.33677 -1.350095,-1.39334 -1.928837,-1.24476 -0.79079,0.20302 1.821243,2.31691 8.014123,8.88559 8.407273,8.91745 0.05951,0.005 -0.141581,-0.34784 -0.446871,-0.7837 z m 4.403915,-0.28137 c 0.327036,-0.61107 0.215614,-0.88013 -0.730451,-1.76389 -1.264242,-1.18098 -1.458052,-1.26612 -1.16931,-0.51366 0.321264,0.83719 -0.104595,0.62626 -1.448167,-0.71731 -1.274342,-1.27435 -1.638582,-2.15447 -0.750605,-1.81373 0.984303,0.37772 -0.353233,-1.49514 -3.274818,-4.58549 -2.819453,-2.98232 -3.26534,-3.64319 -2.458046,-3.64319 0.243783,0 0.172931,-0.25915 -0.176389,-0.64514 -0.843982,-0.93259 -0.718041,-1.34796 0.168596,-0.55607 0.747649,0.66776 0.750778,0.66671 0.491373,-0.16589 -0.195809,-0.62847 -0.14981,-0.76917 0.184009,-0.56285 0.275188,0.17007 0.35681,0.13225 0.213833,-0.0991 -0.345056,-0.558317 -1.710373,-0.0774 -1.906189,0.67136 -0.09379,0.35867 -0.390144,0.65212 -0.658555,0.65212 -0.753706,0 -0.627461,0.198 1.452256,2.27772 1.067152,1.06715 1.940277,2.02924 1.940277,2.13798 0,0.10874 0.793584,1.02501 1.763522,2.03615 1.89882,1.97947 2.171817,2.5445 1.0587,2.19121 -0.916576,-0.29091 -0.89487,0.10578 0.06149,1.12379 1.203516,1.28108 -0.0049,1.00971 -1.362329,-0.30593 -0.636922,-0.61733 -1.255162,-1.02529 -1.373872,-0.90658 -0.118709,0.11871 0.828354,1.28077 2.104581,2.58237 1.894127,1.93177 2.413335,2.28941 2.826215,1.94675 0.406873,-0.33767 0.632446,-0.2459 1.15333,0.46924 0.79,1.08462 1.38007,1.14397 1.890546,0.19013 z m 3.166703,-0.33727 c 0,-0.19403 -0.07,-0.35278 -0.155568,-0.35278 -0.08556,0 -0.253683,0.15875 -0.373599,0.35278 -0.119916,0.19402 -0.04991,0.35277 0.155568,0.35277 0.205479,0 0.373599,-0.15875 0.373599,-0.35277 z M 50.546737,98.21902 c -0.493942,-0.91629 -2.161473,-2.39258 -2.161473,-1.91358 0,0.22785 0.15875,0.41427 0.352778,0.41427 0.194027,0 0.352777,0.15377 0.352777,0.34171 0,0.18794 -0.277812,0.24189 -0.617361,0.1199 -0.467476,-0.16796 -0.409719,0.006 0.237882,0.71662 0.993613,1.09026 2.380855,1.33294 1.835397,0.32108 z m 1.134449,-0.88723 c -0.586067,-0.62768 -1.406977,-1.52657 -1.824246,-1.99752 -0.417269,-0.47094 -0.870109,-0.74483 -1.006309,-0.60863 -0.136201,0.1362 0.606883,1.11291 1.6513,2.17046 1.99821,2.02335 3.011028,2.39754 1.179255,0.43569 z m 20.494426,0.26387 c 0.271367,-1.44651 -0.08018,-2.33168 -0.574925,-1.44762 -0.17768,0.31749 -0.225027,0.73587 -0.105213,0.92974 0.119814,0.19386 -0.02032,0.44386 -0.311411,0.55556 -0.61227,0.23495 -0.365527,1.20304 0.306628,1.20304 0.248687,0 0.556905,-0.55832 0.684921,-1.24072 z m -5.910474,-0.23654 c -0.112613,-0.28142 -0.196208,-0.19783 -0.213134,0.21314 -0.01531,0.37188 0.06806,0.58025 0.185286,0.46302 0.117225,-0.11722 0.129755,-0.4215 0.02783,-0.67616 z m 1.875681,0.22172 c 0,-0.3025 -0.16134,-0.45028 -0.358532,-0.3284 -0.197192,0.12187 -0.267201,0.36936 -0.155568,0.54998 0.302412,0.48932 0.5141,0.39808 0.5141,-0.22158 z m -3.634211,-1.55693 c 0.05634,-0.84137 -0.07787,-1.74703 -0.298242,-2.01256 -0.317129,-0.38212 -0.279936,-0.43646 0.178389,-0.26058 0.388857,0.14922 0.579064,0.036 0.579064,-0.3447 0,-0.31181 0.15875,-0.56691 0.352778,-0.56691 0.854823,0 0.196596,-1.31646 -1.763889,-3.52778 -2.021925,-2.28062 -2.52192,-3.175 -1.774959,-3.175 0.187935,0 0.250327,-0.23813 0.138645,-0.52917 -0.111686,-0.29104 -0.361812,-0.52916 -0.55584,-0.52916 -0.194028,0 -0.261401,0.23812 -0.149715,0.52916 0.12555,0.32718 -0.0014,0.52917 -0.332564,0.52917 -0.700123,0 -0.362504,0.58131 1.473122,2.53643 0.794488,0.84621 1.640784,1.90528 1.880666,2.3535 0.80561,1.5053 0.0053,1.27375 -1.439468,-0.41645 -1.095001,-1.28104 -1.540115,-1.58531 -1.891972,-1.29329 -0.31902,0.26476 -0.5302,0.26842 -0.688717,0.0119 -0.268577,-0.43458 -1.245309,-0.50019 -1.245309,-0.0837 0,0.31906 0.754235,1.20715 3.120577,3.67436 0.879662,0.91716 1.497439,1.76951 1.372842,1.89411 -0.335866,0.33587 -3.523414,-2.59468 -5.025175,-4.62001 -1.312845,-1.77055 -3.142216,-3.70416 -3.504463,-3.70416 -0.371711,0 5.206612,7.11271 5.971254,7.61372 0.42375,0.27766 0.988311,0.94034 1.25458,1.47264 0.689251,1.37788 1.462381,2.23936 1.883671,2.09893 0.199256,-0.0664 0.408383,-0.80916 0.464725,-1.65054 z m 2.88115,-0.20414 c 0.111506,-0.57542 0.05205,-0.60133 -0.440972,-0.19216 -0.67425,0.55958 -0.758201,1.21361 -0.128884,1.00407 0.242535,-0.0807 0.498969,-0.44612 0.569856,-0.81191 z m -6.464377,-0.13492 c -0.127896,-0.20694 -0.401355,-0.37625 -0.607688,-0.37625 -0.233927,0 -0.207162,0.20242 0.07109,0.53769 0.483849,0.58301 0.91628,0.4529 0.536596,-0.16144 z M 50.455046,93.93449 c -0.459281,-0.58096 -0.960889,-1.06508 -1.114682,-1.07581 -0.153794,-0.0107 0.157843,0.52874 0.692524,1.19883 0.53468,0.6701 1.036292,1.15422 1.114686,1.07582 0.07839,-0.0784 -0.233243,-0.61787 -0.692528,-1.19884 z m 18.124547,1.13974 c -0.243745,-0.0983 -0.353437,-0.32386 -0.243762,-0.50131 0.109671,-0.17746 0.03129,-0.32265 -0.174191,-0.32265 -0.418903,0 -0.497015,0.46455 -0.138413,0.82315 0.12935,0.12935 0.407162,0.22265 0.617362,0.20733 0.211338,-0.0154 0.184075,-0.10772 -0.061,-0.20652 z m 1.532689,-1.08676 c -0.385374,-0.38537 -0.649633,0.22749 -0.37295,0.86494 0.262354,0.60444 0.281373,0.60389 0.427546,-0.0124 0.08414,-0.35473 0.05957,-0.73838 -0.0546,-0.85255 z m -3.029796,0.2628 c 0,-0.19403 -0.15875,-0.35278 -0.352778,-0.35278 -0.194028,0 -0.352778,0.15875 -0.352778,0.35278 0,0.19403 0.15875,0.35278 0.352778,0.35278 0.194028,0 0.352778,-0.15875 0.352778,-0.35278 z M 47.679708,93.36832 c 0,-0.29104 -0.15875,-0.52916 -0.352777,-0.52916 -0.194028,0 -0.352778,0.23812 -0.352778,0.52916 0,0.29105 0.15875,0.52917 0.352778,0.52917 0.194027,0 0.352777,-0.23812 0.352777,-0.52917 z m 6.995139,-0.49481 C 54.420702,92.46656 54.084791,92.1336 53.92838,92.1336 c -0.156415,0 7.05e-4,0.38133 0.349444,0.84739 0.760067,1.01617 1.049775,0.93774 0.397023,-0.10748 z m 1.998737,0.31626 c -0.352263,-0.38924 -0.716989,-0.63121 -0.810504,-0.53769 -0.237042,0.23704 0.642839,1.24541 1.086722,1.24541 0.200342,0 0.07604,-0.31847 -0.276218,-0.70772 z m 14.289457,-0.0894 c 0,-0.24437 -0.325187,-0.64739 -0.722637,-0.8956 -0.705661,-0.4407 -0.708851,-0.43026 -0.135816,0.4443 0.655002,0.99966 0.858453,1.10661 0.858453,0.4513 z M 48.208875,91.42805 c -0.135375,-0.42653 -0.06339,-0.70556 0.182016,-0.70556 0.223269,0 0.349063,-0.17066 0.279534,-0.37924 -0.06952,-0.20858 -0.279845,-0.32764 -0.467378,-0.26458 -0.490354,0.16489 -0.643389,2.05493 -0.166384,2.05493 0.235606,0 0.305396,-0.28593 0.172212,-0.70555 z m 3.704167,-1.5875 c -1.076798,-1.1462 -1.329479,-0.89352 -0.282223,0.28222 0.441802,0.496 0.87187,0.83322 0.955714,0.74938 0.08384,-0.0838 -0.21923,-0.54807 -0.673491,-1.0316 z m 1.717004,-0.16825 c -1.965589,-2.55429 -2.400353,-3.00141 -2.409133,-2.47759 -0.01,0.59482 2.794786,4.01216 3.06839,3.73855 0.09669,-0.0967 -0.199972,-0.66412 -0.659257,-1.26096 z m 16.980217,0.40338 c 0,-0.44004 -6.315325,-6.996257 -6.333955,-6.575557 -0.0199,0.44928 1.465481,2.189907 4.124727,4.833547 2.175633,2.16287 2.209228,2.18936 2.209228,1.74201 z M 49.090819,88.40861 c 0,-0.27959 -0.15875,-0.50834 -0.352777,-0.50834 -0.194028,0 -0.352778,0.32687 -0.352778,0.72637 0,0.39951 0.15875,0.62827 0.352778,0.50835 0.194027,-0.11992 0.352777,-0.44679 0.352777,-0.72638 z m 17.638889,0.26321 c 0,-0.15772 -0.47625,-0.74305 -1.058334,-1.30072 -1.230502,-1.1789 -1.433808,-0.66468 -0.264583,0.66921 0.799335,0.91191 1.322917,1.16185 1.322917,0.63151 z m -5.869647,-0.59516 c -0.111686,-0.29104 -0.265451,-0.52917 -0.341708,-0.52917 -0.07625,0 -0.138645,0.23813 -0.138645,0.52917 0,0.29104 0.153769,0.52916 0.341708,0.52916 0.187935,0 0.250327,-0.23812 0.138645,-0.52916 z m -2.799472,-0.26459 c -0.09917,-0.24253 -0.593573,-0.74364 -1.09867,-1.11357 l -0.918354,-0.67261 0.823302,1.11358 c 0.819489,1.10841 1.537296,1.51286 1.193722,0.6726 z M 70.06235,87.28291 c -0.278342,-0.53358 -0.507051,-1.31012 -0.508247,-1.72565 -0.0014,-0.51983 -0.290269,-0.82781 -0.925745,-0.98731 -1.320469,-0.33141 -1.445856,0.0165 -0.366445,1.01691 0.515483,0.47774 0.937239,1.04164 0.937239,1.25312 0,0.43694 0.757929,1.3794 1.125608,1.39965 0.134013,0.007 0.01595,-0.42315 -0.26241,-0.95672 z M 49.548965,86.60768 c -0.160168,-0.41739 -0.09507,-0.50658 0.225255,-0.30861 0.333827,0.20632 0.388885,0.0842 0.212567,-0.47129 -0.175059,-0.55156 -0.08852,-0.74973 0.327395,-0.74973 0.454692,0 0.491963,-0.13713 0.190419,-0.70057 -0.324894,-0.607067 -0.220609,-0.766247 0.781336,-1.192657 1.008528,-0.42921 1.268963,-0.42198 2.038216,0.0566 0.851108,0.52952 0.863441,0.52497 0.352777,-0.13026 -0.774964,-0.99436 -1.186437,-1.2189 -1.450551,-0.79155 -0.257941,0.41736 -1.018893,0.0907 -1.018893,-0.43741 0,-0.18258 0.24371,-0.33196 0.541578,-0.33196 0.432262,0 0.465359,-0.14242 0.163978,-0.70556 -0.40682,-0.76015 -1.228471,-0.93369 -1.59705,-0.33732 -0.125169,0.20253 -0.04929,0.58306 0.168624,0.84563 0.2988,0.36003 0.230428,0.85494 -0.278098,2.01302 -1.211407,2.758777 -1.46842,3.828667 -0.919738,3.828667 0.309711,0 0.40531,-0.21405 0.262185,-0.58703 z m 9.066854,-0.68897 c 0,-0.70832 -2.797591,-3.470837 -3.524042,-3.479867 -0.293094,-0.004 -0.68961,-0.36381 -0.88114,-0.80038 -0.360045,-0.82066 -0.886484,-1.07301 -0.886484,-0.42494 0,0.73052 1.711028,2.09796 2.36166,1.88741 0.473946,-0.15336 0.515779,-0.11941 0.163463,0.13267 -0.394896,0.28255 -0.39545,0.46373 -0.0032,1.091607 0.258583,0.41406 0.600086,0.75284 0.758888,0.75284 0.158807,0 0.175469,-0.18328 0.03702,-0.40729 -0.155956,-0.25234 -0.09677,-0.31152 0.155568,-0.15557 0.224007,0.13845 0.407286,0.44873 0.407286,0.68951 0,0.49127 0.69712,1.28446 1.128889,1.28446 0.155222,0 0.282222,-0.25671 0.282222,-0.57045 z m -2.822222,-0.48789 c 0,-0.19402 -0.16812,-0.35277 -0.373599,-0.35277 -0.205479,0 -0.275484,0.15875 -0.155568,0.35277 0.119917,0.19403 0.288036,0.35278 0.373599,0.35278 0.08556,0 0.155568,-0.15875 0.155568,-0.35278 z m 2.452899,-2.312987 c -0.360683,-0.43459 -0.335968,-0.48698 0.143037,-0.30317 0.845394,0.32441 0.716788,-0.0247 -0.533908,-1.44911 -0.78802,-0.89751 -1.19217,-1.13946 -1.384225,-0.82871 -0.212267,0.34345 -0.404644,0.32875 -0.884675,-0.0676 -1.045919,-0.86358 -0.42405,0.21462 1.249288,2.16601 0.864373,1.008 1.633442,1.647157 1.709046,1.42034 0.0756,-0.22681 -0.05875,-0.64881 -0.298563,-0.93777 z m -1.394566,-1.39117 c -0.244979,-0.29519 -0.283181,-0.52917 -0.08639,-0.52917 0.194027,0 0.550403,0.23813 0.791947,0.52917 0.244979,0.29518 0.283182,0.52916 0.08639,0.52916 -0.194028,0 -0.550404,-0.23812 -0.791947,-0.52916 z m 5.291667,1.27791 c 0,-0.45111 -1.037301,-1.24015 -1.29352,-0.98393 -0.256219,0.25622 0.532822,1.29352 0.983936,1.29352 0.170272,0 0.309584,-0.13931 0.309584,-0.30959 z m -3.175,-2.853 c 0,-0.1872 -0.357188,-0.5278 -0.79375,-0.75689 -0.789495,-0.41429 -0.790148,-0.41246 -0.121712,0.34037 0.746594,0.84086 0.915462,0.91769 0.915462,0.41652 z m -4.938889,-0.68494 c 0,-0.17586 -0.3175,-0.23673 -0.705555,-0.13525 -0.388056,0.10148 -0.705556,0.24537 -0.705556,0.31975 0,0.0744 0.3175,0.13525 0.705556,0.13525 0.388055,0 0.705555,-0.14389 0.705555,-0.31975 z m 1.834445,-0.45636 c -0.226367,-0.226369 -0.528684,-0.294465 -0.67182,-0.15133 -0.143136,0.14314 -0.03133,0.40173 0.248486,0.57466 0.658845,0.40719 0.956349,0.10968 0.423334,-0.42333 z m 42.784909,-48.40819 c 0.29359,-0.954631 0.46946,-1.800031 0.39082,-1.878669 -0.0786,-0.07864 -0.25576,0.22617 -0.39361,0.677355 -0.44113,1.443817 -1.56421,3.768986 -1.92953,3.99476 -0.19454,0.120234 -0.35291,0.407674 -0.35195,0.638757 0.004,0.884023 1.77565,-1.77843 2.28427,-3.432203 z m 0.62045,1.410215 c -0.11328,-0.183285 -0.32617,-0.02628 -0.47309,0.34889 -0.43263,1.104763 -0.35327,1.396154 0.18117,0.665262 0.27383,-0.374495 0.4052,-0.830863 0.29192,-1.014152 z m 4.149078,0.85464 c 0,-0.194028 -0.14938,-0.352778 -0.33195,-0.352778 -0.18258,0 -0.43008,0.15875 -0.54999,0.352778 -0.11992,0.194027 0.0295,0.352777 0.33196,0.352777 0.30249,0 0.54998,-0.15875 0.54998,-0.352777 z m -2.31261,-5.236344 c 0.34836,-1.09758 0.71618,-2.233726 0.81738,-2.524767 0.38162,-1.097499 0.47294,-3.527778 0.13256,-3.527778 -0.19275,0 -0.44959,0.912812 -0.57077,2.028472 -0.34062,3.135955 -0.45358,3.45264 -1.41516,3.967258 -0.616368,0.329872 -0.764318,0.563435 -0.471548,0.744378 0.32927,0.2035 0.33349,0.571515 0.0185,1.612481 -0.40512,1.338865 -0.40347,1.342711 0.22376,0.522178 0.347538,-0.454643 0.916908,-1.724643 1.265268,-2.822222 z m 2.45572,1.271912 c 0.53986,-2.768022 0.62736,-3.361588 0.73495,-4.985876 0.11821,-1.784547 -0.36005,-3.749692 -0.91257,-3.749692 -0.43942,0 -0.39817,0.587181 0.097,1.379985 0.50466,0.808098 -0.24947,6.457492 -1.02371,7.668814 -0.3932,0.615185 -0.39818,0.789517 -0.0263,0.922532 0.68626,0.245505 0.88399,0.02942 1.13074,-1.235763 z m -4.385898,-2.805247 c 0.61606,-0.573948 1.677638,-4.379736 1.321118,-4.736253 -0.0886,-0.0886 -0.524358,0.757428 -0.968348,1.880058 -0.444,1.122634 -1.083,2.358651 -1.42,2.746707 -0.337,0.388056 -0.71644,1.419931 -0.84321,2.293056 l -0.23048,1.5875 0.74042,-1.57806 c 0.40723,-0.867929 1.03746,-1.854786 1.4005,-2.193008 z m -9.27075,-10.163655 c 0.34709,-0.919533 0.32022,-1.058333 -0.20488,-1.058333 -0.99682,0 -1.46587,0.691349 -0.9881,1.456383 0.55816,0.893762 0.72659,0.837565 1.19298,-0.39805 z m 0.8826,-2.781416 c 0.56392,-0.214401 1.02963,-0.903979 1.48907,-2.204861 0.58816,-1.665323 1.69886,-3.665827 2.32408,-4.185945 0.11662,-0.09701 0.67539,-0.811389 1.24171,-1.5875 l 1.02968,-1.411111 -1.95179,1.763889 c -1.07349,0.970139 -2.14037,2.250916 -2.37085,2.846172 -0.23048,0.595253 -1.05423,1.933614 -1.83056,2.974128 -0.77633,1.040518 -1.41151,1.942554 -1.41151,2.004526 0,0.204572 0.64707,0.117447 1.48017,-0.199298 z M 130.67349,-3.424237 c 2.28975,-0.805331 2.69383,-1.056034 4.92651,-3.0565657 2.06559,-1.85082 3.20652,-4.0498513 3.6539,-7.0425373 0.087,-0.582083 0.33744,-1.645657 0.5565,-2.363498 0.69715,-2.284485 0.19304,-5.104765 -1.47127,-8.231083 -1.96727,-3.69543 -2.84889,-4.708793 -5.23749,-6.020202 -2.44505,-1.342403 -3.92985,-1.641833 -7.90739,-1.594633 -4.84779,0.05753 -7.65076,0.838724 -9.73588,2.713429 -0.95507,0.858696 -1.89653,1.561265 -2.09212,1.561265 -0.19559,0 -0.78484,0.732413 -1.30944,1.627584 -0.79403,1.354902 -0.88957,1.76863 -0.57025,2.469445 0.21096,0.463023 0.56424,0.84186 0.78506,0.84186 0.2278,0 0.32167,0.305223 0.21698,0.705555 -0.12403,0.474288 -0.0108,0.705556 0.34537,0.705556 0.29143,0 1.00362,0.33734 1.58265,0.749644 0.84454,0.601366 1.36121,0.707368 2.6121,0.535915 1.7301,-0.237136 2.13165,0.278193 0.65441,0.839839 -1.4754,0.560946 -2.69374,0.374949 -4.56315,-0.696624 -1.21093,-0.694125 -1.76708,-1.240109 -1.77407,-1.74164 -0.006,-0.401802 -0.18111,-0.901488 -0.39004,-1.110413 -0.77153,-0.771529 -1.36367,1.775702 -1.36367,5.866166 0,3.887023 0.45615,5.787668 1.38902,5.787668 0.61905,0 3.96701,-3.463959 4.43128,-4.584818 0.27607,-0.666483 1.24476,-1.517294 2.79166,-2.451948 2.61125,-1.577741 3.46548,-2.554283 4.38902,-5.017478 0.69781,-1.861128 4.09342,-5.41582 5.89845,-6.174778 2.34687,-0.986785 6.90786,-0.273444 5.53525,0.865718 -0.37587,0.311944 -0.76085,0.316342 -1.55196,0.01773 -1.64795,-0.622031 -3.56782,-0.08161 -5.12187,1.44174 -0.74617,0.731435 -1.35668,1.583403 -1.35668,1.893261 0,0.309857 -0.14494,0.652953 -0.32208,0.762435 -0.17715,0.109481 -0.43371,0.872913 -0.57014,1.696514 -0.13642,0.823601 -0.40123,1.788866 -0.58844,2.145032 -0.52495,0.998689 -0.1378,1.03661 0.88697,0.08688 0.51041,-0.473029 1.40842,-1.143834 1.99558,-1.490675 0.58715,-0.346843 1.06755,-0.759074 1.06755,-0.91607 0,-0.556869 1.82055,-1.012909 2.33597,-0.58515 0.74808,0.620851 0.60756,1.728276 -0.2193,1.728276 -0.38805,0 -0.70555,0.224896 -0.70555,0.499769 0,0.274872 -0.19844,0.570639 -0.44098,0.657258 -0.24253,0.08662 -0.34191,0.26505 -0.22085,0.396511 0.12107,0.131462 0.78932,-0.09681 1.48501,-0.507279 1.65478,-0.976342 2.88098,-0.823077 2.88098,0.360099 0,0.621296 -0.30874,1.032324 -1.05833,1.40898 l -1.05833,0.531788 0.99133,0.115804 c 1.38066,0.161282 1.18674,1.468288 -0.28578,1.926181 -3.0646,0.952965 -5.78879,2.486981 -6.32135,3.559615 -0.52856,1.064565 -0.51568,1.134791 0.34828,1.89919 0.49343,0.436563 1.1661,0.7987991 1.49482,0.8049701 0.84041,0.01578 1.68462,0.731253 1.98702,1.684016 l 0.25727,0.810582 -3.64552,-0.227551 c -2.00504,-0.125152 -4.20114,-0.370576 -4.88024,-0.545385 -0.6791,-0.17481 -1.42442,-0.318721 -1.65627,-0.319803 -0.38636,-0.0018 -3.33416,2.8883377 -3.5537,3.4841797 -0.0521,0.141348 0.6623,0.589946 1.5875,0.996883 1.52698,0.671618 1.73894,0.689382 2.29722,0.192527 0.33827,-0.301047 0.88593,-1.161359 1.21702,-1.911803 0.70159,-1.5901877 1.2966,-1.5912347 1.4535,-0.0026 0.0807,0.817216 -0.035,1.119376 -0.42856,1.119376 -0.46105,0 -1.26949,0.983268 -1.26949,1.544024 0,0.289814 2.81637,0.491123 5.29167,0.378241 1.26118,-0.05751 3.20713,-0.426061 4.32434,-0.818995 z m 5.33481,-7.541043 c -0.55885,-0.657415 -1.57,-1.579454 -2.247,-2.048974 -1.01287,-0.702463 -1.11459,-0.876072 -0.5743,-0.980123 1.20898,-0.232827 3.25533,0.98616 3.8901,2.317284 0.84813,1.7785533 0.20316,2.2081003 -1.0688,0.711813 z M 93.364432,198.96637 c -1.9571,-0.36921 -2.77648,-0.95406 -2.4669,-1.7608 0.24107,-0.62823 2.36578,-1.70808 3.36081,-1.70808 1.08401,0 0.81331,0.6232 -0.38502,0.8864 -0.84852,0.18636 -1.05548,0.3993 -0.97014,0.99817 0.10166,0.71347 0.27087,0.75384 2.69494,0.64302 1.42256,-0.065 3.11344,-0.33842 3.75752,-0.60754 1.102918,-0.46082 2.941998,-2.79241 2.725738,-3.45568 -0.054,-0.1655 0.49544,-1.31558 1.22089,-2.55573 1.28367,-2.1944 1.38287,-2.27497 3.70214,-3.00694 2.22939,-0.70361 4.88085,-2.64244 4.88085,-3.56903 0,-0.17554 0.25277,-0.57195 0.56171,-0.88089 0.8041,-0.8041 0.38124,-2.40868 -0.92426,-3.50719 -0.5931,-0.49906 -1.00142,-0.98432 -0.90738,-1.07836 0.33796,-0.33797 2.20345,1.29164 2.84738,2.48735 0.57304,1.06408 0.59855,1.3626 0.19889,2.32748 -0.61022,1.4732 -3.38047,3.91995 -5.85679,5.17285 -1.58379,0.80132 -2.15665,1.3293 -2.73587,2.52149 -0.40293,0.82936 -0.85972,1.50793 -1.01509,1.50793 -0.15536,0 -0.28248,0.29807 -0.28248,0.66237 0,0.36429 -0.24105,0.86241 -0.53567,1.10693 -0.29463,0.24451 -0.78055,0.96058 -1.07982,1.59125 -0.42969,0.90549 -0.97392,1.3034 -2.587348,1.89168 -2.18309,0.796 -3.40391,0.86159 -6.2041,0.33332 z M 29.089978,183.94402 c 0.549682,-1.78812 1.783967,-4.89497 2.065341,-5.19873 0.663327,-0.71607 -0.177182,3.88469 -0.885301,4.84595 -0.803774,1.09111 -1.468056,1.2897 -1.18004,0.35278 z m 4.050026,-11.99445 c 0.129706,-4.15464 0.246366,-4.82856 0.77888,-4.49945 0.381276,0.23564 0.500998,6.79601 0.141137,7.73379 -0.117773,0.30692 -0.399595,0.55803 -0.626273,0.55803 -0.296119,0 -0.378811,-1.06759 -0.293744,-3.79237 z m 2.646765,-6.15866 c -0.63197,-0.79488 -0.751251,-5.18048 -0.271501,-9.98227 0.647608,-6.48188 1.32407,-8.68708 2.350082,-7.66106 0.237776,0.23777 0.226116,0.59502 -0.03537,1.08362 -0.508748,0.9506 -1.527073,6.32753 -1.275458,6.73464 0.106853,0.1729 0.01817,1.13553 -0.197082,2.1392 -0.290827,1.35607 -0.284854,2.55323 0.02325,4.6603 0.410809,2.80954 0.177856,3.99629 -0.593909,3.02557 z m 1.140083,-25.02974 c 1.412053,-4.64074 3.744443,-8.76368 4.957705,-8.76368 0.812726,0 0.578627,1.21792 -0.411977,2.14337 -1.117342,1.04384 -1.814636,2.31789 -2.783942,5.08663 -0.485754,1.38753 -0.959192,2.15688 -1.376758,2.23729 -0.519359,0.10002 -0.590176,-0.0294 -0.385028,-0.70361 z m 6.872301,-12.09112 c 0,-0.27787 1.431413,-1.71966 3.180923,-3.20397 1.749506,-1.48431 3.412363,-3.12228 3.695238,-3.63992 0.781036,-1.42925 3.264161,-4.14761 3.53829,-3.87348 0.376449,0.37645 -4.274273,6.12273 -6.454182,7.97458 -1.075069,0.91328 -2.275808,2.0177 -2.668312,2.45426 -0.81915,0.9111 -1.291957,1.0167 -1.291957,0.28853 z m -5.997222,-1.18403 c 0,-0.37677 0.302422,-1.06951 0.672049,-1.53942 0.369626,-0.4699 1.027906,-1.5371 1.462849,-2.37155 0.768294,-1.47401 1.545791,-2.12557 1.997449,-1.67392 0.121747,0.12175 -0.08561,0.57793 -0.460805,1.01372 -0.37519,0.4358 -0.984522,1.34799 -1.354071,2.02709 -0.369549,0.67909 -1.042158,1.68346 -1.494687,2.23192 -0.707405,0.85737 -0.822784,0.90114 -0.822784,0.31216 z m 1.5875,0.27814 c 0.119916,-0.19403 0.288036,-0.35278 0.373599,-0.35278 0.08556,0 0.155568,0.15875 0.155568,0.35278 0,0.19403 -0.16812,0.35278 -0.373599,0.35278 -0.205479,0 -0.275484,-0.15875 -0.155568,-0.35278 z m 0.881944,-1.75199 c 0,-0.37425 2.223163,-3.90154 3.410102,-5.41048 0.41161,-0.52328 0.963665,-0.95143 1.226781,-0.95143 0.602661,-2e-5 1.761017,-1.47874 4.145206,-5.29166 2.302355,-3.68205 4.976244,-6.32317 4.976244,-4.91526 0,0.20703 -0.790733,1.27859 -1.757186,2.38125 -1.651271,1.884 -4.240036,5.80822 -4.240036,6.42733 0,0.35127 -3.170153,3.16224 -3.566319,3.16224 -0.341397,0 -2.90166,3.41735 -3.23767,4.32153 -0.241953,0.65107 -0.957122,0.85766 -0.957122,0.27648 z M 53.8537,76.259222 c -0.119704,-0.193686 0.02967,-0.705259 0.331961,-1.136827 0.341901,-0.488135 0.549603,-1.546235 0.549603,-2.799877 0,-1.108361 0.161381,-2.43967 0.358623,-2.958458 0.309764,-0.814737 0.435497,-0.879457 0.92281,-0.475022 0.456544,0.378897 0.533824,0.992646 0.405063,3.21692 -0.131081,2.264333 -0.304528,2.903471 -0.984303,3.627057 -0.895717,0.953449 -1.247475,1.070321 -1.583757,0.526207 z m 11.489722,-1.365345 c -0.479242,-0.89547 -0.172114,-1.104717 1.621472,-1.104717 1.854087,0 1.944867,0.376425 0.282011,1.169384 -1.536933,0.73291 -1.475518,0.734999 -1.903483,-0.06467 z m 0.68073,-3.886366 c 0,-0.553988 1.560883,-1.355369 3.169137,-1.627082 0.861427,-0.145538 1.842929,-0.437413 2.181116,-0.648614 0.872355,-0.544798 1.201423,-0.03561 0.646761,1.000789 -0.281612,0.526196 -0.980669,1.022671 -1.735021,1.232224 -1.568834,0.435804 -4.261993,0.462774 -4.261993,0.04268 z m -10.93611,-3.50235 c 0,-0.157727 0.471558,-0.738558 1.047908,-1.290736 0.913462,-0.87515 1.077369,-0.927195 1.277507,-0.405642 0.282635,0.73653 -0.769994,1.983155 -1.674537,1.983155 -0.357981,0 -0.650878,-0.12905 -0.650878,-0.286777 z m 16.815741,-0.653965 c -0.560945,-0.560941 -0.14956,-1.157161 0.911341,-1.320811 3.457074,-0.533269 4.497918,-0.584358 4.497918,-0.220775 0,0.210718 -0.396876,0.534017 -0.881946,0.718439 -0.485069,0.184422 -0.881944,0.497995 -0.881944,0.696824 0,0.394744 -3.263847,0.507849 -3.645369,0.126323 z m -6.004507,-3.452135 c -1.098183,-1.017764 -1.1958,-1.604345 -0.266982,-1.604345 1.012535,0 2.313453,1.196851 2.049258,1.885329 -0.305273,0.795528 -0.685356,0.735608 -1.782276,-0.280984 z m -8.97679,-1.322123 c -0.497861,-0.497861 -0.576079,-3.457222 -0.09138,-3.457222 0.487575,0 0.630333,0.346473 0.90847,2.204861 0.251361,1.679469 -0.0018,2.067588 -0.817093,1.252361 z m 7.598755,-2.589555 c -1.664066,-1.543008 -1.040302,-2.176194 0.831092,-0.843647 1.04739,0.745808 1.378779,1.739868 0.580019,1.739868 -0.244517,0 -0.879517,-0.403299 -1.411111,-0.896221 z m 9.969578,-2.984334 c 0,-0.194028 0.238125,-0.352778 0.529166,-0.352778 0.291042,0 0.529167,0.15875 0.529167,0.352778 0,0.194028 -0.238125,0.352778 -0.529167,0.352778 -0.291041,0 -0.529166,-0.15875 -0.529166,-0.352778 z M 63.398438,55.466944 c -0.641322,-0.708649 -0.490248,-1.43334 0.298803,-1.43334 0.54786,0 1.621356,1.127866 1.621356,1.703473 0,0.654854 -1.241065,0.480257 -1.920159,-0.270133 z m 20.970154,-5.334582 c 0,-0.205405 0.47696,-0.966967 1.0599,-1.69236 0.58294,-0.725392 1.3913,-2.263895 1.79634,-3.418896 0.40505,-1.155002 0.90546,-2.304966 1.11201,-2.555473 0.20655,-0.250511 0.4109,-1.037872 0.45412,-1.749697 0.0861,-1.418914 0.68565,-1.927817 1.02213,-0.86766 0.26381,0.831173 -2.99488,8.670166 -4.08783,9.833561 -0.82783,0.881185 -1.35667,1.056802 -1.35667,0.450525 z M 64.041541,48.229666 c -0.108116,-0.281753 -0.09376,-0.678628 0.03189,-0.881945 0.333329,-0.539337 2.303498,-0.463268 2.303498,0.08894 0,1.148052 -1.945626,1.808709 -2.335389,0.793006 z m 8.547992,0.222585 c -0.102277,-0.165488 0.05455,-0.644257 0.348503,-1.063932 0.58015,-0.828287 1.90556,-1.043866 1.90556,-0.309944 0,0.565291 -2.000288,1.784491 -2.254063,1.373876 z m 8.662569,-14.575882 c 0.0648,-0.458174 0.27663,-0.793355 0.47066,-0.744848 0.52076,0.130193 0.4288,1.238779 -0.11788,1.421007 -0.32267,0.107558 -0.43359,-0.10504 -0.35278,-0.676159 z m 2.41094,-9.306719 c 0,-0.473262 1.81773,-2.991601 2.15933,-2.991601 0.63005,0 -3e-5,1.872872 -0.8578,2.549793 -0.77107,0.608492 -1.30153,0.78856 -1.30153,0.441808 z m 13.28384,-13.867296 c -0.7864,-0.868962 -0.73559,-1.11875 0.22755,-1.11875 0.89771,0 1.65805,0.598565 1.65805,1.305278 0,0.676959 -1.21272,0.556994 -1.8856,-0.186528 z m 4.002268,-0.61312 c 0,-0.303989 0.42441,-1.137427 0.94314,-1.852084 1.14173,-1.572976 6.05616,-6.414657 6.51104,-6.414657 0.60234,0 -0.72184,2.036283 -2.09901,3.227786 -0.75136,0.650064 -2.11626,2.174124 -3.0331,3.386797 -1.67557,2.216217 -2.32207,2.676204 -2.32207,1.652158 z m 7.56637,-10.38340801 c 0.11475,-0.679097 0.50095,-1.47284699 0.85821,-1.76388899 0.70508,-0.574392 1.59873,-2.079048 2.1476,-3.615972 0.36808,-1.0306717 1.06948,-1.3237027 1.06948,-0.4468077 0,0.7590897 -2.5647,5.82666869 -2.94888,5.82666869 -0.1786,0 -0.55205,0.277813 -0.8299,0.617362 -0.45419,0.555053 -0.48411,0.492742 -0.29651,-0.617362 z"
       style="fill:#000000;stroke-width:0.35277778" />
  </g>
</svg>
