<?xml version="1.0" encoding="UTF-8" standalone="no"?>
<svg
   xmlns:dc="http://purl.org/dc/elements/1.1/"
   xmlns:cc="http://creativecommons.org/ns#"
   xmlns:rdf="http://www.w3.org/1999/02/22-rdf-syntax-ns#"
   xmlns:svg="http://www.w3.org/2000/svg"
   xmlns="http://www.w3.org/2000/svg"
   id="svg8"
   version="1.1"
   viewBox="0 0 76.178134 107.97936"
   height="107.97936mm"
   width="76.178131mm">
  <defs
     id="defs2" />
  <metadata
     id="metadata5">
    <rdf:RDF>
      <cc:Work
         rdf:about="">
        <dc:format>image/svg+xml</dc:format>
        <dc:type
           rdf:resource="http://purl.org/dc/dcmitype/StillImage" />
        <dc:title></dc:title>
      </cc:Work>
    </rdf:RDF>
  </metadata>
  <g
     transform="translate(-35.203711,3.5034594)"
     id="layer1">
    <path
       id="path5325"
       d="m 96.76884,104.2436 c -0.463328,-0.46333 -1.629258,-3.35644 -1.629258,-4.0428 0,-0.372657 -0.368487,-1.027167 -0.818865,-1.454457 -0.450373,-0.4273 -1.167313,-1.507015 -1.593197,-2.39937 -0.425884,-0.892351 -1.208857,-2.003601 -1.739936,-2.469444 -1.089321,-0.955513 -4.99606,-4.230659 -5.543779,-4.647537 -0.197115,-0.150026 -1.110608,-0.844511 -2.029982,-1.5433 -2.100626,-1.596623 -3.606578,-3.847095 -4.163029,-6.221159 -0.237268,-1.012299 -0.728109,-2.465673 -1.09075,-3.229723 -0.362645,-0.764049 -0.662958,-1.557799 -0.667364,-1.763889 -0.0044,-0.206089 -0.520344,-0.625199 -1.146528,-0.931354 -0.626184,-0.306155 -2.035933,-1.734905 -3.132776,-3.175 -2.581392,-3.389221 -7.319765,-7.975748 -8.561882,-8.287498 -0.891701,-0.223802 -4.083349,-3.746062 -4.083915,-4.506955 -1.22e-4,-0.164077 -0.321169,-0.749046 -0.713437,-1.299936 -0.392268,-0.550891 -0.683746,-1.131023 -0.647728,-1.289181 0.03602,-0.158161 -0.355859,-1.160688 -0.870838,-2.227841 -0.51498,-1.067153 -0.937877,-2.108898 -0.939773,-2.314988 -0.0051,-0.557713 -1.414066,-3.38298 -2.167898,-4.347171 -0.809944,-1.035963 -0.821784,-1.751351 -0.06853,-4.140941 0.424761,-1.347494 0.492114,-2.086941 0.241294,-2.649054 -0.326771,-0.732321 -0.439425,-0.649358 -1.851212,1.363285 -1.93251,2.75498 -2.510152,2.900765 -4.441139,1.120842 -2.221182,-2.047413 -2.586173,-3.007578 -2.232575,-5.873143 0.388248,-3.146372 0.390322,-3.262245 0.127135,-7.105689 -0.151651,-2.214604 -0.454598,-3.756237 -0.915791,-4.660249 -0.379046,-0.742992 -0.689175,-2.048979 -0.689175,-2.902193 v -1.551299 l -2.168416,-0.226644 c -1.192629,-0.124655 -3.296067,-0.229075 -4.674306,-0.232047 -3.051697,-0.0066 -3.474812,-0.235002 -3.32581,-1.79548 0.107246,-1.123176 0.202199,-1.20397 1.525476,-1.298006 0.776111,-0.05515 3.157361,0.130321 5.291667,0.412163 2.563987,0.338583 3.924318,0.390928 4.009543,0.154286 0.304513,-0.845525 2.375913,-2.852962 3.575179,-3.464783 3.843052,-1.960578 4.772707,-5.8410267 2.441427,-10.1906905 -1.027143,-1.916425 -0.887886,-4.06001749 0.393478,-6.0568501 1.24738,-1.9438736 2.283324,-2.4658006 4.957633,-2.4977442 2.879436,-0.034392 4.770011,0.6572684 6.125682,2.2410642 1.150518,1.34412241 1.459964,2.4493967 1.790164,6.394064 0.06239,0.7453164 0.166572,1.4082613 0.231525,1.4732112 0.06495,0.06495 1.062479,-0.2007333 2.216736,-0.5904074 1.444336,-0.4876049 2.545951,-0.6414209 3.533341,-0.4933523 1.044677,0.156659 2.439254,-0.074608 5.129996,-0.8507208 2.032413,-0.5862271 4.027883,-1.0668508 4.434371,-1.0680534 1.018544,-0.003 1.734386,0.9325387 2.209821,2.8880583 0.746185,3.0691653 0.508039,5.395303 -1.008616,9.851857 -1.570987,4.616201 -1.655364,5.25439 -0.856005,6.474366 0.653525,0.997406 0.816169,1.037213 7.911561,1.936345 6.660247,0.843991 20.987181,2.47678 21.784031,2.482648 0.0485,3.53e-4 0.0882,0.179903 0.0882,0.398996 0,0.279058 -0.66026,0.326453 -2.20487,0.15827 -1.21267,-0.132041 -2.99861,-0.316953 -3.96875,-0.410919 -0.97013,-0.09397 -2.24013,-0.239476 -2.82222,-0.323359 -0.58208,-0.08388 -1.85208,-0.246004 -2.822224,-0.360269 -0.970139,-0.114265 -5.165937,-0.67774 -9.323995,-1.252167 -5.997758,-0.828578 -7.618684,-0.952014 -7.843569,-0.597297 -0.47902,0.755565 -0.118195,1.148536 1.143342,1.245206 0.664157,0.05089 2.160055,0.245898 3.324222,0.433342 1.791578,0.288466 16.123304,1.987804 22.842364,2.708458 1.84944,0.198364 2.45915,0.523081 1.76389,0.939405 -0.14552,0.08714 -1.05833,0.02155 -2.02847,-0.145708 -2.6643,-0.459394 -3.69556,-0.594832 -10.583339,-1.389934 -3.492501,-0.403158 -8.570046,-1.055719 -11.283432,-1.450134 -4.104612,-0.59664 -5.152701,-0.64475 -6.23859,-0.286374 -0.982003,0.32409 -1.682136,0.334697 -2.82768,0.04283 -0.953784,-0.243008 -1.56645,-0.261238 -1.640113,-0.0488 -0.218807,0.630982 -1.00166,0.343976 -1.390686,-0.509844 -0.237493,-0.521239 -0.813809,-0.942736 -1.492966,-1.091904 -1.429558,-0.313984 -1.553372,-0.1474 -0.955336,1.285364 0.79527,1.905306 1.099703,3.845527 0.992522,6.325608 -0.09474,2.192362 -0.02632,2.423812 1.255537,4.24701 0.745659,1.060556 2.03043,2.535915 2.855048,3.278576 0.867777,0.781526 1.500756,1.667333 1.502752,2.102986 0.0018,0.413984 0.39877,1.6019 0.881945,2.639815 0.483175,1.037911 0.878498,2.018873 0.878498,2.179912 0,0.161043 0.645978,1.26534 1.435505,2.453997 0.789524,1.188656 1.810054,2.906903 2.267836,3.818329 1.356275,2.700281 3.310809,8.412226 3.744052,10.941632 0.221862,1.295318 0.621337,2.783804 0.887719,3.307746 0.266383,0.523942 0.484333,1.346038 0.484333,1.826885 0,0.480846 0.19921,1.084043 0.442693,1.340435 0.910234,0.958512 4.401771,5.106935 5.54305,6.585896 0.744477,0.964762 1.667062,2.992991 2.487256,5.468055 0.717099,2.163943 1.792616,4.933788 2.390056,6.15521 1.17486,2.401948 2.89896,4.598374 3.46217,4.41064 0.19283,-0.06428 1.00284,0.441424 1.80002,1.12378 0.79718,0.682354 1.71243,1.240646 2.03389,1.240646 0.82933,0 1.83021,0.59218 2.07381,1.226986 0.2606,0.679118 -1.88941,2.094757 -3.6904,2.429877 -1.07295,0.19965 -1.25088,0.360397 -1.13347,1.024007 0.26056,1.47268 -1.20428,2.6821 -3.9438,3.25611 -2.731404,0.57232 -4.162136,0.65967 -4.54435,0.27746 z m 6.35974,-1.91282 c 1.10226,-1.03553 1.05372,-1.25998 -0.40427,-1.86917 -0.6791,-0.28374 -1.23473,-0.674667 -1.23473,-0.868717 0,-0.19406 -0.55137,-0.77338 -1.22526,-1.28739 -1.111143,-0.847502 -1.276631,-0.883185 -1.776729,-0.383088 -0.303301,0.303308 -1.021793,0.829288 -1.596648,1.168868 -1.118347,0.66062 -1.126765,0.944807 -0.09417,3.179127 0.307383,0.66512 0.832796,1.1731 1.283674,1.24109 1.518052,0.22893 4.220433,-0.40314 5.048133,-1.18072 z m -5.343165,0.40115 c -0.119916,-0.19403 0.0096,-0.35278 0.28786,-0.35278 0.278239,0 1.001984,-0.0992 1.608321,-0.22048 0.872904,-0.17458 1.102434,-0.10113 1.102434,0.35277 0,0.4322 -0.34213,0.57327 -1.390294,0.57327 -0.76466,0 -1.488405,-0.15875 -1.608321,-0.35278 z m 10.243735,-4.597047 c 0.82635,-0.685807 0.61646,-1.400172 -0.41139,-1.400172 -0.56851,0 -1.46898,-0.489295 -2.32692,-1.264401 l -1.39954,-1.264398 -0.75989,0.703689 c -0.41793,0.387029 -1.47017,0.892338 -2.3383,1.12291 l -1.578416,0.419223 1.024616,0.75885 c 0.56354,0.417368 1.51196,0.954839 2.10759,1.194379 1.28423,0.51648 4.94411,0.34252 5.68225,-0.27008 z m -4.4229,0.0645 c 0,-0.614033 1.2533,-1.111894 2.79903,-1.111894 1.80101,0 1.87524,0.544513 0.11139,0.817107 -0.72761,0.112452 -1.68011,0.310617 -2.11667,0.440377 -0.47927,0.14245 -0.79375,0.0848 -0.79375,-0.14559 z m -6.799042,-0.406338 c 0.493332,-0.388056 1.130671,-0.705556 1.416304,-0.705556 1.122476,0 -0.929164,-2.917853 -2.445826,-3.478459 -0.522164,-0.193012 -1.395289,-0.983016 -1.940278,-1.755564 -0.544985,-0.772551 -1.753559,-2.490625 -2.685722,-3.817944 -0.932159,-1.327319 -2.634696,-3.683311 -3.783418,-5.235533 -2.884788,-3.89811 -4.223132,-6.496216 -4.223132,-8.198298 0,-0.924246 -0.427852,-2.203005 -1.264736,-3.780024 -0.695608,-1.310795 -1.507088,-3.200033 -1.803295,-4.198306 -0.606682,-2.044637 -1.339938,-3.214663 -3.470074,-5.537048 -1.319117,-1.438173 -2.986895,-4.863151 -2.986895,-6.133938 0,-0.299836 -0.697258,-0.614507 -1.852084,-0.835844 -1.018646,-0.195234 -2.169583,-0.428198 -2.557639,-0.517697 -2.876899,-0.663515 -3.193048,-0.63615 -4.141964,0.358517 -1.205794,1.263932 -1.680003,2.570413 -1.674052,4.612132 0.0062,2.112867 0.311533,3.240229 0.877699,3.240229 0.246097,0 0.733276,0.436562 1.082622,0.970139 0.349345,0.533576 0.997581,1.255521 1.440519,1.604323 1.331358,1.0484 5.986431,5.9526 7.335273,7.727838 0.693392,0.912583 2.170497,2.400349 3.282453,3.306141 1.97177,1.60619 3.209484,2.972114 2.693148,2.972114 -0.141245,0 -0.537281,-0.253824 -0.880078,-0.564049 -0.436655,-0.395168 -0.202368,0.476246 0.782485,2.910416 1.541498,3.809983 2.498076,4.927985 8.254987,9.648077 3.377664,2.769345 4.552925,4.016545 5.318891,5.644445 0.483058,1.02665 1.742595,2.431417 2.207098,2.461597 0.06641,0.004 0.524383,-0.30965 1.017714,-0.697708 z m -8.114782,-7.82997 c -2.07542,-2.553296 -3.468564,-4.9732 -3.084301,-5.357463 0.43059,-0.43059 0.689772,-0.191174 0.883818,0.816419 0.08232,0.427475 0.970365,1.884271 1.973425,3.237322 2.011514,2.713383 2.185663,3.713303 0.227058,1.303722 z M 83.678727,81.219499 C 82.718903,79.699037 82.635436,79.4486 83.088509,79.4486 c 0.162884,0 0.477964,0.357188 0.700175,0.79375 0.222211,0.436563 0.663932,1.150938 0.981597,1.5875 0.341616,0.469473 0.417686,0.79375 0.1862,0.79375 -0.215261,0 -0.79025,-0.631846 -1.277754,-1.404101 z m -2.690079,-4.111935 c -0.263444,-0.31743 -1.072106,-0.951566 -1.797029,-1.409189 -1.230803,-0.776972 -2.668422,-2.798209 -2.272118,-3.194509 0.09701,-0.09701 0.420451,0.295579 0.718753,0.87243 0.298302,0.576852 1.341882,1.623216 2.319069,2.325254 0.977184,0.702038 1.776702,1.435446 1.776702,1.629798 0,0.498973 -0.193841,0.440778 -0.745377,-0.223784 z m 0.95951,-2.09754 c -0.117775,-0.306909 -0.21976,-1.060972 -0.226635,-1.675694 -0.0069,-0.614719 -0.239374,-1.514549 -0.516664,-1.999618 -0.782867,-1.369484 -0.606366,-1.726604 0.217519,-0.440112 0.404142,0.631063 0.785234,1.662938 0.846871,2.293056 0.06164,0.630117 0.221537,1.423479 0.355332,1.763028 0.133795,0.339548 0.08452,0.617361 -0.109513,0.617361 -0.194028,0 -0.449139,-0.251107 -0.56691,-0.558021 z m -6.182583,-4.510701 c -0.78443,-1.269231 -0.958987,-2.339611 -0.38155,-2.339611 0.194028,0 0.352778,0.296089 0.352778,0.65798 0,0.36189 0.3175,1.061617 0.705555,1.554949 0.7767,0.987414 0.871718,1.314848 0.381551,1.314848 -0.178203,0 -0.654453,-0.534677 -1.058334,-1.188166 z M 72.14979,67.649962 c -2.485352,-2.759714 -3.194185,-3.821564 -4.127201,-6.182656 -0.619569,-1.567879 -1.227853,-3.362555 -1.351745,-3.988171 -0.204252,-1.031402 -0.170364,-1.092327 0.363407,-0.653313 0.323765,0.266295 0.590973,0.742545 0.593795,1.058334 0.0072,0.809558 0.917924,3.330031 1.905723,5.274405 0.460972,0.907369 2.057168,3.038824 3.547104,4.736567 1.489939,1.697743 2.565125,3.086806 2.389304,3.086806 -0.175821,0 -1.669994,-1.499387 -3.320387,-3.331972 z m 29.77427,26.924359 c 0.86867,-0.464894 0.79687,-0.708508 -0.61087,-2.072943 -0.67909,-0.658206 -1.23472,-1.345625 -1.23472,-1.527598 0,-0.18197 -0.612605,-1.539893 -1.361348,-3.017601 -0.748742,-1.477709 -1.567896,-3.321745 -1.820344,-4.097856 -0.252444,-0.776112 -0.747254,-1.887362 -1.099573,-2.469445 -0.352319,-0.582083 -1.042779,-1.772708 -1.53435,-2.645833 -0.491571,-0.873125 -1.759356,-2.81807 -2.817301,-4.322099 -1.057942,-1.504033 -2.088544,-3.409033 -2.29023,-4.233334 -0.201683,-0.824304 -0.663861,-2.054359 -1.027064,-2.733456 -0.408375,-0.763559 -0.597344,-1.65518 -0.495208,-2.336571 0.390977,-2.608357 -5.773964,-16.915641 -6.970279,-16.176279 -0.153779,0.09504 -0.332934,0.01277 -0.398127,-0.182785 -0.395535,-1.18661 -4.606583,1.691944 -5.799128,3.964118 -0.865226,1.648538 0.298757,4.661994 3.394474,8.787998 1.113995,1.484747 2.300651,3.469122 2.637011,4.409722 1.385302,3.87386 2.765009,6.24864 4.649205,8.002299 1.416012,1.31791 2.294432,2.586721 3.441306,4.970698 1.267971,2.635705 1.926533,3.537381 3.728709,5.105185 1.203812,1.04726 2.649037,2.539517 3.211612,3.316125 0.562571,0.776609 1.022858,1.346588 1.022858,1.266617 0,-0.774562 -1.920882,-5.873231 -2.663081,-7.06871 -1.221881,-1.968119 -6.996134,-7.579939 -8.690067,-8.445613 -1.323167,-0.676191 -1.91721,-1.279483 -1.586005,-1.610692 0.101357,-0.101353 0.789104,0.226709 1.528329,0.729026 0.739228,0.50232 1.480319,0.913306 1.646866,0.913306 0.782454,0 4.403199,3.622757 6.3298,6.333317 2.399972,3.376557 4.686688,8.007043 4.057724,8.216699 -0.279693,0.09323 -0.232078,0.64406 0.162088,1.875025 0.306966,0.958659 0.760063,2.668234 1.006877,3.79906 l 0.448751,2.056042 1.254115,-0.235271 c 0.68976,-0.129403 1.53485,-0.385519 1.87797,-0.569151 z M 88.635872,73.20201 c -0.191445,-0.502779 -0.150925,-0.543299 0.197485,-0.197485 0.241096,0.239303 0.349487,0.52396 0.24087,0.632577 -0.108617,0.108616 -0.305876,-0.08718 -0.438355,-0.435092 z m -1.679137,-1.976628 c -0.707937,-0.618966 -1.378903,-1.48258 -1.491044,-1.919143 -0.112137,-0.436562 -0.293959,-1.11125 -0.40405,-1.499305 -0.110088,-0.388056 -0.04838,-0.705556 0.137128,-0.705556 0.185508,0 0.444853,0.573356 0.576319,1.274124 0.153959,0.820688 0.696934,1.693623 1.525718,2.452892 1.661142,1.521806 1.351298,1.8793 -0.344071,0.396988 z m -4.164376,-3.418448 c 0,-0.194028 0.30813,-0.352778 0.684734,-0.352778 0.376605,0 0.782849,0.15875 0.902766,0.352778 0.123655,0.200081 -0.172727,0.352778 -0.684735,0.352778 -0.496521,0 -0.902765,-0.15875 -0.902765,-0.352778 z m -1.171254,-1.995689 c -0.492471,-0.954006 -2.035659,-5.865244 -2.513817,-8.000284 -0.277118,-1.237378 0.04684,-2.351249 0.683838,-2.351249 0.353032,0 0.477407,0.579836 0.472952,2.204861 -0.0032,1.212673 0.167305,2.651756 0.379172,3.197966 0.211872,0.546205 0.38522,1.385968 0.38522,1.866138 0,0.480165 0.328573,1.517092 0.730165,2.304273 0.401592,0.787185 0.651422,1.509988 0.555181,1.606233 -0.09625,0.09624 -0.407963,-0.276331 -0.692711,-0.827938 z m 2.048563,-6.957709 c -0.642292,-0.98026 -1.36475,-5.007201 -1.003258,-5.592106 0.322389,-0.521635 0.773095,0.60615 0.808027,2.021893 0.01436,0.582083 0.34302,1.578109 0.730352,2.213388 1.167621,1.915071 0.665258,3.188835 -0.535121,1.356825 z M 96.178075,90.678611 C 95.323964,88.581534 94.628452,87.56469 92.826876,85.779123 91.576501,84.539864 90.55347,83.691 90.55347,83.892761 c 0,0.897332 6.230356,9.90419 6.597266,9.537276 0.05783,-0.05782 -0.379871,-1.295968 -0.972661,-2.751426 z M 89.44675,83.267123 c -0.509676,-1.383587 -1.399512,-2.678585 -2.984726,-4.343745 -1.242205,-1.304851 -2.258554,-2.224994 -2.258554,-2.044767 0,0.490435 5.682171,8.610804 5.895143,8.424725 0.04087,-0.03571 -0.252469,-0.952007 -0.651863,-2.036213 z m 7.961341,-0.499357 c -0.707323,-2.433104 -1.398796,-3.71778 -3.612346,-6.711322 -1.834363,-2.480736 -2.841597,-3.126302 -1.174828,-0.752983 1.700294,2.421061 4.577652,7.665541 4.825987,8.796197 0.126093,0.57411 0.302926,0.970174 0.392959,0.880142 0.09003,-0.09003 -0.104264,-1.085448 -0.431772,-2.212034 z M 86.892413,76.844504 c -1.006571,-1.717587 -2.769976,-3.326412 -2.974266,-2.713542 -0.286625,0.859868 3.20742,4.982581 3.757009,4.432988 0.078,-0.078 -0.274239,-0.851747 -0.782743,-1.719446 z m 4.719391,-3.526321 c 0,-0.07325 -0.277813,-0.351066 -0.617362,-0.617361 -0.559526,-0.438809 -0.572004,-0.426332 -0.133194,0.133195 0.460858,0.58764 0.750556,0.774517 0.750556,0.484166 z M 65.1651,52.48812 c 0.479033,-0.628057 0.45848,-0.663321 -0.276215,-0.473999 -0.436562,0.112493 -0.79375,0.05128 -0.79375,-0.136035 0,-0.187314 -0.152959,-0.246034 -0.33991,-0.130493 -0.194437,0.120167 -0.0812,0.481366 0.264583,0.843968 0.332472,0.34864 0.609729,0.620663 0.616125,0.604492 0.0064,-0.01616 0.244521,-0.33474 0.529167,-0.707933 z m -3.239363,-1.990739 c 1.336518,-2.150004 1.35595,-2.269945 0.250409,-1.545566 -0.496565,0.32536 -0.779445,0.775558 -0.668684,1.064193 0.11737,0.305862 -0.130815,0.629557 -0.63865,0.832958 -0.456842,0.182979 -0.637166,0.342752 -0.400721,0.35505 0.236445,0.01231 0.338523,0.260487 0.22684,0.551529 -0.403166,1.050632 0.142015,0.493335 1.230806,-1.258164 z m 7.511745,0.971606 c 0.39611,-0.755279 0.389365,-0.758119 -0.315538,-0.132849 -0.526609,0.467117 -0.760162,0.519345 -0.868536,0.194225 -0.107823,-0.323472 -0.203401,-0.300937 -0.350604,0.08267 -0.330038,0.860066 1.077348,0.727968 1.534678,-0.144046 z M 58.45069,51.18474 c 0,-0.194028 -0.15875,-0.254667 -0.352777,-0.13475 -0.194028,0.119916 -0.352778,0.376777 -0.352778,0.570805 0,0.194027 0.15875,0.254666 0.352778,0.13475 0.194027,-0.119916 0.352777,-0.376777 0.352777,-0.570805 z m 5.848585,-1.522529 c 0.372183,-0.272147 0.557881,-0.613625 0.412667,-0.758842 -0.145217,-0.145214 -0.264029,-0.06945 -0.264029,0.168366 0,0.237818 -0.146611,0.341785 -0.325802,0.231038 -0.373662,-0.230935 -1.792033,1.617497 -1.78854,2.330841 0.0013,0.261091 0.291828,0.03567 0.645667,-0.50094 0.353839,-0.536611 0.947855,-1.19832 1.320037,-1.470463 z m 2.976149,1.554286 c 0.21059,-0.393488 0.522703,-0.629024 0.693589,-0.523413 0.170889,0.105615 0.400135,0.04732 0.509443,-0.12954 0.109304,-0.176861 -0.03277,-0.410407 -0.315726,-0.518985 -0.313535,-0.120315 -0.804365,0.209705 -1.256721,0.844977 -0.408238,0.57332 -0.578277,1.042398 -0.377864,1.042398 0.200413,0 0.536688,-0.321945 0.747279,-0.715437 z m -0.799039,-0.81461 c 0.660538,-0.412647 0.536635,-0.782556 -0.405976,-1.212042 -0.726183,-0.33087 -0.873129,-0.285767 -1.030577,0.316315 -0.158376,0.605624 -0.106723,0.638782 0.375535,0.241074 0.495576,-0.408689 0.51301,-0.374488 0.153296,0.300718 -0.427044,0.801586 -0.04641,0.949999 0.907722,0.353935 z m -7.320139,-0.233842 c -0.683951,-0.442002 -1.058333,-0.442002 -1.058333,0 0,0.194028 0.357187,0.350347 0.79375,0.347377 0.641857,-0.0044 0.692488,-0.07084 0.264583,-0.347377 z m 2.374765,-1.411111 c 0.246102,0 0.447457,-0.15875 0.447457,-0.352778 0,-0.669286 -0.659631,-0.3498 -1.387089,0.67182 -0.401268,0.563527 -0.725353,1.158839 -0.72019,1.322916 0.0052,0.164077 0.280057,-0.138243 0.610876,-0.671819 0.330819,-0.533577 0.802844,-0.970139 1.048946,-0.970139 z m 11.655501,1.124479 c 0.211652,-0.63495 -0.517525,-0.501526 -0.763595,0.139721 -0.131843,0.343574 -0.053,0.504854 0.204791,0.418924 0.230541,-0.07685 0.482001,-0.328239 0.558804,-0.558645 z m 2.053121,-0.68091 c -0.244652,-0.244648 -0.913942,0.25243 -0.913942,0.678779 0,0.233927 0.202417,0.207162 0.537694,-0.07109 0.29573,-0.245435 0.465042,-0.518894 0.376248,-0.607689 z m -17.707225,-0.032 c 0.09993,-0.161692 -0.04247,-0.293984 -0.31644,-0.293984 -0.273971,0 -0.416369,0.132292 -0.316439,0.293984 0.09993,0.161692 0.242327,0.293984 0.316439,0.293984 0.07411,0 0.21651,-0.132292 0.31644,-0.293981 z m 1.418787,-0.535446 c -0.121912,-0.317698 -0.362193,-0.490778 -0.533958,-0.38462 -0.171765,0.106154 -0.115443,0.406732 0.12516,0.667946 0.541219,0.587587 0.700608,0.477118 0.408798,-0.283326 z m 12.715286,-1.728209 c 0.5293,-0.921632 0.881521,-1.675695 0.782715,-1.675695 -0.215456,0 -2.356838,3.434465 -2.356838,3.780021 0,0.407649 0.566081,-0.349105 1.574123,-2.104326 z m 5.644296,-0.352775 c 0.343112,-0.533576 0.547797,-0.970139 0.454854,-0.970139 -0.252663,0 -2.028828,2.633281 -2.028828,3.007875 0,0.319465 0.347479,-0.130397 1.573974,-2.037736 z M 60.55449,47.522212 c 0.201104,0 0.365645,-0.119063 0.365645,-0.264584 0,-0.14552 -0.0035,-0.46302 -0.0078,-0.705555 -0.0091,-0.512159 -1.386368,1.148147 -1.39002,1.675694 -0.0013,0.194028 0.148086,0.114653 0.332066,-0.176389 0.183979,-0.291041 0.499049,-0.529166 0.700153,-0.529166 z m 6.715645,0.214365 c 0,-0.150237 -0.22299,-0.273163 -0.495532,-0.273163 -0.272542,0 -0.414659,0.210757 -0.315811,0.468345 0.180175,0.469533 0.811343,0.317694 0.811343,-0.195182 z m -8.466667,-1.171804 c 0,-0.496619 -0.658016,0.0314 -1.107769,0.888891 -0.403188,0.768727 -0.400751,0.769436 0.350881,0.102065 0.416289,-0.369619 0.756888,-0.815551 0.756888,-0.990956 z m 4.372219,0.575183 c 0.131842,-0.343574 0.053,-0.504853 -0.204791,-0.418924 -0.527345,0.175782 -0.817702,0.977569 -0.354013,0.977569 0.189437,0 0.4409,-0.25139 0.558804,-0.558645 z m 2.154171,0.205867 c 0.119916,-0.194028 0.05928,-0.352778 -0.134751,-0.352778 -0.194028,0 -0.450889,0.15875 -0.570805,0.352778 -0.119916,0.194028 -0.05928,0.352778 0.13475,0.352778 0.194028,0 0.450889,-0.15875 0.570806,-0.352778 z m 10.694268,-1.013136 c -0.445477,-0.158418 -1.021877,0.680816 -0.759347,1.105599 0.102838,0.166395 0.398769,0.01521 0.657624,-0.335936 0.303092,-0.41117 0.339305,-0.685179 0.101723,-0.769663 z m 2.919349,-0.104379 c 0.558627,-1.043799 0.08348,-0.742076 -0.787619,0.500154 -0.570441,0.813477 -0.623062,1.00124 -0.181147,0.646373 0.342561,-0.275082 0.778506,-0.791019 0.968766,-1.146527 z M 68.717713,46.039356 c 0.474158,0.296115 0.757195,0.301138 1.039883,0.01845 0.282688,-0.282688 0.173578,-0.376301 -0.400865,-0.343945 -0.434096,0.02445 -0.855126,-0.193664 -0.935623,-0.484706 -0.08946,-0.323458 -0.03305,-0.387438 0.145087,-0.164585 0.160292,0.200519 0.489878,0.339425 0.732413,0.308681 0.242534,-0.03073 0.586775,-0.07574 0.764977,-0.1 0.333509,-0.04539 1.792662,-2.221639 1.792662,-2.67366 0,-0.139277 -0.54881,0.311891 -1.219574,1.002598 -0.694754,0.715405 -1.315516,1.100596 -1.442519,0.8951 -0.27281,-0.441417 -1.092532,0.176766 -1.633682,1.232019 -0.299505,0.584031 -0.28628,0.64938 0.06453,0.31888 0.334479,-0.315112 0.598858,-0.31725 1.092711,-0.0088 z m -3.917022,-1.17511 c 0,-0.340271 -1.687878,-0.187123 -2.040025,0.185103 -0.139167,0.147101 0.128171,0.15004 0.594085,0.0065 0.712866,-0.219572 0.809424,-0.162704 0.609285,0.358849 -0.200442,0.522344 -0.153373,0.549685 0.299412,0.173906 0.295484,-0.245223 0.537243,-0.571197 0.537243,-0.724384 z m 2.479961,-0.0075 c 0.252388,-0.471593 0.25298,-0.685909 0.0019,-0.685909 -0.200854,0 -0.365188,0.238125 -0.365188,0.529167 0,0.291041 -0.119063,0.510367 -0.264584,0.48739 -0.587907,-0.09283 -0.823584,0.06088 -0.613805,0.400308 0.277111,0.448373 0.76388,0.161819 1.241683,-0.730956 z M 77.51216,44.681433 c 0.426011,-0.689303 0.691579,-1.336265 0.590148,-1.437696 -0.10143,-0.101431 -0.289715,0.147352 -0.418415,0.552845 -0.128701,0.405493 -0.389947,0.640884 -0.580546,0.523085 -0.210167,-0.129889 -0.119662,-0.560451 0.229976,-1.094063 0.317087,-0.483937 0.496168,-0.96024 0.397958,-1.058449 -0.09821,-0.09821 -0.427813,0.303427 -0.732451,0.892531 -0.354489,0.685507 -0.425281,1.150577 -0.196645,1.291883 0.514836,0.318188 0.0151,0.96158 -0.571899,0.736321 -0.509037,-0.195337 -0.67419,0.195742 -0.258297,0.611635 0.445117,0.445121 0.767602,0.231948 1.540171,-1.018092 z m -16.239247,0.333591 c 0,-0.07625 -0.238125,-0.138646 -0.529167,-0.138646 -0.291042,0 -0.529167,0.153769 -0.529167,0.341708 0,0.187935 0.238125,0.250328 0.529167,0.138645 0.291042,-0.111686 0.529167,-0.265451 0.529167,-0.341707 z m 1.058333,-0.138646 c 0,-0.194027 -0.07001,-0.352777 -0.155569,-0.352777 -0.08556,0 -0.253682,0.15875 -0.373597,0.352777 -0.119916,0.194028 -0.04991,0.352778 0.155569,0.352778 0.205478,0 0.373597,-0.15875 0.373597,-0.352778 z m -4.952135,-1.940277 c 0.0026,-0.377497 -0.485891,0.260431 -1.080578,1.411111 -0.242196,0.468633 -0.122401,0.409402 0.356747,-0.176389 0.396764,-0.48507 0.722488,-1.040695 0.723831,-1.234722 z m 15.006303,0.881944 c 0.301007,-0.582083 0.39999,-1.058333 0.21996,-1.058333 -0.18003,0 -0.493349,0.47625 -0.696267,1.058333 -0.202914,0.582083 -0.301897,1.058333 -0.219957,1.058333 0.08194,0 0.395256,-0.47625 0.696264,-1.058333 z m 1.5875,0.331957 c 0,-0.399507 -0.15875,-0.628262 -0.352778,-0.508346 -0.194028,0.119916 -0.352778,0.446786 -0.352778,0.726377 0,0.27959 0.15875,0.508345 0.352778,0.508345 0.194028,0 0.352778,-0.326869 0.352778,-0.726376 z M 53.40276,41.673707 c 1.643424,-2.47148 1.659256,-2.523092 1.542126,-5.027084 -0.198957,-4.25329 -0.09353,-5.836641 0.509534,-7.652293 0.318366,-0.958508 0.477069,-2.063414 0.352674,-2.455347 -0.162846,-0.513083 -0.0675,-0.712604 0.340537,-0.712604 0.733763,0 3.361393,-2.598184 3.361393,-3.323725 0,-0.306257 -0.175735,-0.556831 -0.390521,-0.556831 -0.214787,0 -0.300806,0.233795 -0.191153,0.519545 0.143164,0.373081 -0.192581,0.625086 -1.19098,0.893926 -0.764691,0.20591 -1.557383,0.68649 -1.761537,1.067956 -0.511453,0.955658 -1.051921,0.869572 -1.051921,-0.167551 0,-0.956423 -0.108703,-1.057529 -1.492478,-1.388164 -0.919115,-0.219611 -0.947171,-0.18772 -0.611518,0.695114 0.672068,1.767674 0.09069,4.703224 -1.721667,8.693207 -0.593717,1.307095 -1.18412,2.934282 -1.312006,3.615973 -0.127886,0.681693 -0.373602,1.239438 -0.546036,1.239438 -0.172435,0 -0.313517,0.238125 -0.313517,0.529167 0,0.291042 -0.15875,0.529167 -0.352778,0.529167 -0.490268,0 -0.440309,-0.588243 0.128389,-1.511717 0.264643,-0.429736 0.756646,-1.813214 1.093342,-3.074394 0.336696,-1.261181 0.981573,-3.036821 1.433059,-3.945869 1.027575,-2.068971 1.130269,-2.728785 0.58008,-3.727048 -0.373958,-0.678511 -0.353364,-0.79375 0.14185,-0.79375 0.38333,0 0.506879,-0.188785 0.36519,-0.558019 -0.117773,-0.306911 -0.214132,-0.923417 -0.214132,-1.370014 0,-0.743666 -0.20038,-0.832111 -2.38125,-1.051056 -1.309688,-0.131483 -2.659063,-0.319425 -2.998611,-0.417648 -0.952816,-0.275625 -0.801589,2.045538 0.272606,4.184213 0.489482,0.974537 0.892025,2.26759 0.894539,2.873454 0.0025,0.605864 0.04249,3.48282 0.08884,6.393237 l 0.08427,5.291666 1.133607,1.64488 c 1.032468,1.49812 1.543727,1.95248 2.285833,2.031435 0.143975,0.01531 1.008984,-1.095851 1.922243,-2.469264 z m -2.357932,-3.588301 c 0.0057,-1.025909 1.452692,-6.380434 1.959891,-7.25274 0.303596,-0.52214 0.446662,-0.631843 0.317923,-0.243787 -0.851403,2.566377 -1.57473,5.643139 -1.57473,6.698311 0,0.681553 -0.15875,1.239189 -0.352778,1.239189 -0.194027,0 -0.351665,-0.198438 -0.350306,-0.440973 z m 3.212565,-9.436805 c -0.01608,-0.679097 0.118455,-1.46825 0.298962,-1.753673 0.554346,-0.876548 0.62758,-0.265867 0.167997,1.400895 l -0.437727,1.5875 -0.02923,-1.234722 z m 11.248853,15.068652 c 0,-0.249467 -0.299462,-0.453573 -0.665476,-0.453573 -0.397302,0 -0.595335,0.182781 -0.491422,0.453573 0.09573,0.249463 0.395191,0.45357 0.665475,0.45357 0.270281,0 0.491423,-0.204107 0.491423,-0.45357 z m 10.847918,-0.941955 c 0.436562,-0.764551 0.783689,-1.596764 0.771387,-1.849367 -0.01231,-0.2526 -0.1792,-0.06622 -0.370893,0.414178 -0.284614,0.713275 -0.408912,0.777967 -0.677792,0.352778 -0.242224,-0.383046 -0.330687,-0.398611 -0.334662,-0.05888 -0.0028,0.253986 -0.147518,0.373959 -0.321215,0.266608 -0.173694,-0.10735 -0.403737,0.03394 -0.5112,0.313994 -0.130334,0.339644 -0.02519,0.443858 0.315814,0.313005 0.28116,-0.10789 0.5112,-0.02043 0.5112,0.194356 0,0.214789 -0.15875,0.390522 -0.352778,0.390522 -0.194028,0 -0.352778,0.238125 -0.352778,0.529166 0,0.905849 0.496722,0.580553 1.322917,-0.866358 z m -7.891089,0.495257 c 0.12047,-0.313944 0.06133,-0.455549 -0.138646,-0.331957 -0.191805,0.118541 -0.348738,0.364914 -0.348738,0.54749 0,0.507446 0.252861,0.395626 0.487384,-0.215533 z m -7.285706,-0.01841 c -0.117225,-0.117224 -0.421496,-0.129755 -0.676158,-0.02783 -0.281422,0.112614 -0.197829,0.196208 0.213137,0.213134 0.371886,0.01531 0.580246,-0.06806 0.463021,-0.185286 z m 2.212211,-0.13965 c 0,-0.194028 -0.07001,-0.352778 -0.155569,-0.352778 -0.08556,0 -0.253682,0.15875 -0.373598,0.352778 -0.119916,0.194027 -0.04991,0.352777 0.155569,0.352777 0.205479,0 0.373598,-0.15875 0.373598,-0.352777 z m 4.368803,-0.617362 c 0.119768,-0.339548 0.308766,-0.855486 0.419989,-1.146527 0.111228,-0.291042 -0.123472,-0.132292 -0.52155,0.352777 -0.781819,0.95267 -0.920813,1.411112 -0.427831,1.411112 0.171397,0 0.409624,-0.277813 0.529392,-0.617362 z m -8.602137,-0.08819 c 0,-0.194028 -0.07001,-0.352778 -0.155569,-0.352778 -0.08556,0 -0.253682,0.15875 -0.373598,0.352778 -0.119916,0.194028 -0.04991,0.352778 0.155569,0.352778 0.205479,0 0.373598,-0.15875 0.373598,-0.352778 z m 10.759723,0 c 0.119916,-0.194028 -0.03883,-0.352778 -0.352778,-0.352778 -0.313944,0 -0.472694,0.15875 -0.352778,0.352778 0.119917,0.194028 0.278667,0.352778 0.352778,0.352778 0.07411,0 0.232862,-0.15875 0.352778,-0.352778 z m -9.444156,-0.213138 c -0.117225,-0.117224 -0.421496,-0.129755 -0.676157,-0.02783 -0.281423,0.112614 -0.19783,0.196208 0.213136,0.213134 0.371887,0.01531 0.580246,-0.06806 0.463021,-0.185286 z m 1.683044,-1.358254 c 1.552223,-0.332267 2.875467,-0.750619 2.940548,-0.929672 0.06508,-0.179056 0.258071,-0.239187 0.428872,-0.133625 0.310194,0.19171 3.176013,-1.112135 3.509747,-1.59681 0.09701,-0.140892 0.697516,-0.523201 1.334453,-0.84958 0.636933,-0.326376 1.064126,-0.745402 0.949318,-0.931168 -0.114808,-0.185762 0.108758,-0.337753 0.496813,-0.337753 0.388056,0 0.808482,-0.166539 0.93428,-0.370085 0.533068,-0.862524 0.331156,-4.877678 -0.379028,-7.537281 -0.861921,-3.227831 -1.029992,-3.349367 -4.788419,-3.462652 -1.335384,-0.04025 -2.427972,-0.1767 -2.427972,-0.303222 0,-0.126521 -1.114482,-0.339857 -2.476625,-0.474079 -1.400855,-0.138037 -2.387498,-0.388253 -2.271436,-0.576045 0.112854,-0.182602 0.552648,-0.25232 0.977319,-0.154929 0.873089,0.200228 14.291479,1.940263 14.971437,1.941427 0.242534,4.15e-4 0.440972,-0.316745 0.440972,-0.7048 0,-0.388056 -0.104997,-0.705556 -0.233327,-0.705556 -0.516696,0 -14.471737,-1.787358 -15.334333,-1.964017 -0.833991,-0.170801 -0.951009,-0.06398 -1.162009,1.060747 -0.158929,0.847161 -0.635894,1.564543 -1.478336,2.2235 -1.222714,0.956404 -2.253107,2.466952 -2.253107,3.303039 0,0.254141 0.296426,0.156711 0.737418,-0.242383 0.723727,-0.654964 0.746715,-0.654639 1.238222,0.01753 0.437586,0.598435 0.429597,0.72474 -0.06329,1.000573 -0.310252,0.173627 -0.943328,0.243191 -1.406836,0.154584 -0.628032,-0.120054 -0.902794,0.02812 -1.078451,0.581554 -0.34664,1.092165 -0.06056,10.063519 0.363509,11.399654 0.246695,0.777265 0.600855,0.753248 6.030263,-0.408958 z m 0.966896,-2.852508 c -0.438346,-0.67131 -0.691456,-1.220553 -0.562466,-1.220553 0.447784,0 2.594182,1.8019 2.594182,2.177817 0,0.253308 -0.163255,0.242531 -0.494859,-0.03267 -0.311043,-0.258142 -0.540366,-0.279457 -0.617363,-0.05738 -0.06738,0.194327 -0.481148,-0.195922 -0.919494,-0.86722 z m 2.91366,-0.162211 c 0.119916,-0.194028 0.486474,-0.350347 0.814571,-0.347377 0.514093,0.0047 0.523406,0.05267 0.06737,0.347377 -0.69087,0.446476 -1.157881,0.446476 -0.881945,0 z m 1.749383,-0.376248 c -0.127893,-0.206936 -0.147825,-0.460957 -0.04429,-0.564494 0.252701,-0.252698 0.940742,0.192557 0.940742,0.608785 0,0.45084 -0.60904,0.420748 -0.896451,-0.04429 z M 57.819838,36.19743 c -0.817198,-0.487317 -1.485814,-0.930889 -1.485814,-0.985711 0,-0.05483 0.436562,-0.0659 0.970139,-0.02459 1.357928,0.105082 3.131718,0.860178 2.722074,1.158772 -0.187453,0.136638 -0.42627,0.35849 -0.530704,0.493004 -0.104434,0.134514 -0.858497,-0.154143 -1.675695,-0.64146 z m 0.98363,-0.316876 c -0.485069,-0.27729 -1.040694,-0.504165 -1.234722,-0.504165 -0.194028,0 0.0441,0.226875 0.529167,0.504165 0.485069,0.277291 1.040694,0.504166 1.234722,0.504166 0.194028,0 -0.0441,-0.226875 -0.529167,-0.504166 z m 8.311353,-0.747183 c -0.279594,-1.113988 -0.0055,-1.549929 0.323265,-0.514124 0.225626,0.710882 0.718312,0.887511 2.075473,0.744057 0.391544,-0.04139 0.560892,0.08443 0.420151,0.312152 -0.129674,0.209818 -0.764815,0.381487 -1.411429,0.381487 -0.973952,0 -1.215428,-0.158454 -1.40746,-0.923572 z M 63.23008,35.025936 c -0.157257,-0.254445 0.06362,-0.784472 0.536811,-1.288165 1.483627,-1.579248 1.64594,-0.843435 0.231554,1.049698 -0.368477,0.493201 -0.571911,0.556337 -0.768365,0.238467 z m 6.862024,-0.909747 c -0.259743,-0.48533 -1.000944,-1.194354 -1.647113,-1.575604 -0.646172,-0.381247 -1.174856,-0.944739 -1.174856,-1.252199 0,-0.43888 0.261388,-0.359646 1.216283,0.368688 1.195003,0.911475 2.910692,3.341536 2.359209,3.341536 -0.154697,0 -0.493783,-0.39709 -0.753523,-0.882421 z m -4.674052,-5.805572 c -0.691494,-2.353182 -0.761661,-2.96783 -0.306705,-2.686651 0.302412,0.1869 0.47014,0.730734 1.068874,3.465616 0.457458,2.089556 -0.08093,1.5393 -0.762169,-0.778965 z m -5.203473,-0.308522 c 0,-0.161551 0.635,-0.804033 1.411112,-1.427733 1.681465,-1.351262 1.901426,-0.803258 0.274157,0.683023 -1.14631,1.046991 -1.685269,1.285155 -1.685269,0.74471 z m 4.176956,13.557747 c 0.243618,-0.150565 0.660327,-0.190334 0.926021,-0.08838 0.265691,0.101956 0.577392,-0.0604 0.692662,-0.360793 0.14412,-0.375571 0.05087,-0.485267 -0.298531,-0.35119 -0.279464,0.107241 -1.076766,0.301664 -1.771785,0.43205 -0.695019,0.130387 -1.344157,0.367295 -1.442529,0.526465 -0.216474,0.350262 1.272716,0.225922 1.894162,-0.158152 z m 7.203699,-0.568205 c 0.367453,-0.412432 0.344159,-0.420789 -0.145652,-0.05226 -0.463998,0.349105 -0.61286,0.349271 -0.729008,7.05e-4 -0.09984,-0.299508 -0.214429,-0.259422 -0.362659,0.126866 -0.266076,0.693378 0.599362,0.64062 1.237319,-0.07543 z M 67.315481,40.55486 c 0.383512,-0.719745 0.368223,-0.748609 -0.163978,-0.309584 -0.322809,0.266294 -0.586923,0.623482 -0.586923,0.79375 0,0.538865 0.313489,0.336733 0.750901,-0.484166 z m 6.340144,-1.146528 c 0.242196,-0.468634 0.122404,-0.409402 -0.356746,0.176389 -0.396762,0.485069 -0.722486,1.040694 -0.72383,1.234722 -0.0025,0.377497 0.485892,-0.260431 1.080576,-1.411111 z m 1.660268,0.696221 c -0.108617,-0.108617 -0.305876,0.08718 -0.438355,0.435091 -0.191445,0.502779 -0.150925,0.543299 0.197485,0.197485 0.241096,-0.239303 0.349487,-0.523959 0.24087,-0.632576 z m -0.258555,-0.680096 c 0.175232,0.1083 0.218956,-0.06277 0.09716,-0.38016 -0.177229,-0.461846 -0.280999,-0.483115 -0.519723,-0.106518 -0.164056,0.258805 -0.288181,0.629303 -0.275834,0.823331 0.01235,0.194028 0.102849,0.153352 0.201119,-0.09039 0.09827,-0.243744 0.32204,-0.354562 0.497275,-0.24626 z M 71.503469,37.9764 c 0,-0.302493 -0.15875,-0.451873 -0.352778,-0.331957 -0.194028,0.119916 -0.352778,0.367411 -0.352778,0.549988 0,0.182576 0.15875,0.331957 0.352778,0.331957 0.194028,0 0.352778,-0.247495 0.352778,-0.549988 z m 2.30239,-0.440214 c -0.108617,-0.108617 -0.393273,-2.26e-4 -0.632576,0.24087 -0.345814,0.34841 -0.305294,0.38893 0.197485,0.197485 0.347916,-0.132479 0.543708,-0.329738 0.435091,-0.438355 z M 78.848828,25.52894 c 0.06238,-0.424243 0.245915,-0.689462 0.407854,-0.589377 0.161943,0.100084 0.211451,0.499314 0.110024,0.887176 -0.103074,0.394158 -0.01067,0.705204 0.209508,0.705204 0.216658,0 0.393922,-0.308131 0.393922,-0.684735 0,-0.376605 0.181765,-0.797074 0.403927,-0.934377 0.278818,-0.172319 0.348605,0.03976 0.225309,0.684736 -0.09824,0.513907 -0.04908,0.934376 0.109255,0.934376 0.15833,0 0.390677,-0.548003 0.516329,-1.217784 0.174064,-0.927843 0.05188,-1.465761 -0.513182,-2.259319 -1.004496,-1.410685 -0.945095,-2.128256 0.515352,-6.225561 C 82.68612,12.736039 83.104489,9.1952623 82.451004,6.4712279 81.94354,4.35588 81.160948,3.9473213 79.192176,4.7699268 c -0.677015,0.2828766 -2.053064,0.6273916 -3.057877,0.7655891 -1.004817,0.1381976 -2.057429,0.4817576 -2.33914,0.7634669 -0.407751,0.4077511 -0.882265,0.4449367 -2.326964,0.1823543 -2.159374,-0.3924786 -3.879127,-0.00947 -5.520976,1.2295922 -0.630591,0.47589 -1.147505,0.738113 -1.148701,0.582718 -0.0011,-0.155396 -0.243036,0.179331 -0.537421,0.743835 -0.294385,0.564505 -0.491845,1.5869107 -0.438798,2.2720127 0.08739,1.128684 -0.0093,1.276702 -1.029675,1.576448 -0.619367,0.181943 -1.206595,0.540515 -1.30495,0.796826 -0.11376,0.296454 0.0072,0.394643 0.332372,0.269854 0.690247,-0.264873 0.647675,-0.08996 -0.286173,1.175801 -0.671571,0.910264 -0.869473,1.003594 -1.254369,0.591561 -0.376836,-0.403404 -0.323039,-0.677345 0.30669,-1.561719 0.420029,-0.589875 0.706683,-1.104693 0.637009,-1.144038 -0.571646,-0.322813 -3.326919,-2.567144 -3.419272,-2.785196 -0.235311,-0.5555857 -0.764352,-0.2594097 -0.764352,0.427911 0,0.388056 -0.155315,0.705556 -0.345145,0.705556 -0.18983,0 -0.314055,-0.714375 -0.276055,-1.5874997 0.038,-0.873125 0.1384,-1.5875 0.22311,-1.5875 0.08471,0 0.669397,0.595312 1.299303,1.322917 1.48913,1.7200917 4.189086,3.1639277 4.865989,2.6021487 0.51083,-0.423952 0.379096,-2.1611767 -0.163883,-2.1611767 -0.626251,0 -0.29036,-0.628834 0.437571,-0.819192 0.605066,-0.158228 0.705156,-0.371504 0.520193,-1.1084516 -0.212477,-0.8465871 -0.160953,-0.8954486 0.712948,-0.6761132 0.895675,0.2247998 0.929013,0.186225 0.678258,-0.7847768 -0.145044,-0.5616589 -0.317302,-1.563679 -0.382796,-2.2267118 -0.362038,-3.66527429 -1.307266,-5.9207134 -2.23977,-5.3443945 -0.528451,0.32660061 -3.288199,-0.627827 -3.028834,-1.0474879 0.283137,-0.4581253 -0.785344,-0.6612459 -1.830067,-0.3478995 -0.549994,0.1649613 -0.792182,0.3135742 -0.538196,0.3302515 0.253985,0.016676 0.364803,0.1872541 0.24626,0.3790593 -0.123591,0.1999756 0.01801,0.2591178 0.331958,0.1386456 0.301119,-0.1155503 0.54749,-0.3518571 0.54749,-0.525126 0,-0.1732689 0.3175,0.00247 0.705555,0.3905211 0.388056,0.3880556 1.013687,0.7055556 1.390292,0.7055556 0.376604,0 0.781308,0.15625801 0.899341,0.34723951 0.135288,0.2189014 -0.502557,0.2862136 -1.725794,0.182124 -1.196976,-0.1018551 -2.031703,-0.017385 -2.17871,0.2204783 -0.166447,0.269318 0.200674,0.3114284 1.217448,0.1396454 1.746736,-0.2951092 1.925934,0.2039941 0.397423,1.10690729 -1.249499,0.7380975 -1.280794,0.9336606 -0.357012,2.2309927 0.620272,0.8710905 0.639672,1.0360812 0.167864,1.4276462 -0.293402,0.243502 -0.644087,0.3321021 -0.7793,0.1968895 C 57.699808,4.7319779 57.8227,4.4591453 58.108129,4.2608958 58.492228,3.9941072 58.514783,3.8547106 58.194929,3.7244524 57.957242,3.6276579 57.670829,3.5673336 57.558451,3.5903982 57.446074,3.6134629 57.084918,3.3400749 56.755882,2.9828691 56.426846,2.6256632 56.296135,2.5393237 56.465414,2.7910027 c 0.219777,0.3267594 0.0987,0.4575987 -0.423443,0.4575987 -0.402172,0 -0.878208,-0.2626505 -1.057859,-0.583668 -0.410823,-0.7340995 -1.476355,-0.380958 -1.461583,0.4844016 0.01025,0.6003921 0.02696,0.6005551 0.374459,0.00365 0.362364,-0.6224292 1.025924,-0.5336544 1.025924,0.1372549 0,0.1940277 -0.156931,0.2557885 -0.348737,0.1372464 -0.20382,-0.1259678 -0.256717,0.024268 -0.127295,0.3615369 0.121793,0.3173874 0.318412,0.4391064 0.436932,0.2704863 0.182228,-0.2592602 2.861323,-0.489743 2.861323,-0.2461598 0,0.4867885 -0.523921,1.1991393 -0.881945,1.1991393 -0.722218,0 -0.94963,1.104374 -0.361283,1.7544901 0.61718,0.6819763 0.68805,1.067732 0.196161,1.067732 -0.187831,0 -0.57835,-0.4365624 -0.86782,-0.9701388 -0.50314,-0.927432 -0.528872,-0.935197 -0.584531,-0.1763889 -0.09824,1.3393473 -0.132347,1.4499589 -0.587388,1.9049999 -0.242535,0.242535 -0.440972,0.914726 -0.440972,1.4937587 0,2.318697 -2.526871,5.643774 -4.835201,6.362578 -0.751257,0.233939 -2.573133,2.101538 -2.573133,2.637712 0,0.368248 5.794696,1.028884 5.938426,0.677021 0.06468,-0.158331 0.721696,-0.287875 1.460045,-0.287875 1.252336,0 1.357845,0.08205 1.571766,1.222347 0.126122,0.672291 0.408892,1.333333 0.628378,1.468982 0.274923,0.169912 0.313353,0.03658 0.123536,-0.428597 -0.573115,-1.404523 -0.416439,-1.731376 0.861183,-1.796576 0.769739,-0.03928 1.500427,0.177694 1.940278,0.576157 0.449721,0.407405 1.537017,0.721274 2.998611,0.865605 1.261181,0.124541 3.404306,0.376014 4.7625,0.558828 3.177477,0.427693 3.704167,0.429651 3.704167,0.01377 0,-0.187938 -0.254225,-0.24415 -0.564945,-0.124915 -0.418807,0.16071 -0.527459,0.04377 -0.420021,-0.452044 0.07971,-0.367859 0.333933,-0.629147 0.564946,-0.58064 0.265581,0.05577 0.420772,-0.398229 0.422063,-1.234723 0.005,-3.24141 1.452344,-9.163792 2.320943,-9.497105 0.754239,-0.2894287 1.031215,0.124862 0.506314,0.75733 -0.381858,0.46011 -0.302768,0.537693 0.548125,0.537693 1.01541,0 3.788191,-1.6531807 3.514781,-2.0955717 -0.08304,-0.134364 0.39599,-0.492219 1.064514,-0.795234 1.444244,-0.6546156 1.597861,-0.268792 0.276282,0.693911 -0.938753,0.683835 -0.939257,0.686808 -1.009051,5.9699087 -0.03841,2.907153 -0.22329,5.559947 -0.410848,5.895099 -0.187562,0.335151 -0.778351,0.896251 -1.312866,1.246888 l -0.971847,0.637522 1.10543,0.385355 c 1.032852,0.360055 1.092634,0.472998 0.910551,1.720266 l -0.194878,1.334911 0.547179,-1.187566 c 0.668486,-1.450851 1.093925,-1.213022 0.561619,0.313956 -0.296344,0.850095 -0.285485,1.070117 0.04741,0.960514 0.237494,-0.07819 0.48284,-0.489276 0.545218,-0.913518 z M 64.866837,20.512663 c 0.08488,-0.254661 0.362701,-0.532474 0.617361,-0.617361 0.264583,-0.08819 0.396875,0.0441 0.30868,0.308681 -0.08488,0.254661 -0.362701,0.532474 -0.617361,0.617361 -0.264583,0.08819 -0.396875,-0.0441 -0.30868,-0.308681 z m 1.344965,-0.821879 c 0,-0.283785 0.394497,-0.826284 0.876656,-1.205552 0.482163,-0.379269 1.200528,-1.445134 1.596366,-2.368591 0.395841,-0.923456 0.788067,-1.610657 0.871608,-1.527112 0.220962,0.22096 -0.789076,3.016363 -1.459668,4.039817 -0.749173,1.143385 -1.884962,1.782957 -1.884962,1.061438 z m -7.320139,-2.45363 c -0.630591,-0.20687 -1.146528,-0.519257 -1.146528,-0.694195 0,-0.444134 1.830736,0.05034 2.456845,0.663579 0.580271,0.568346 0.345542,0.573831 -1.310317,0.03062 z m -5.49861,-0.661282 c 0.756404,-0.243352 1.552067,-0.243496 2.469445,-4.59e-4 1.274765,0.337736 1.209871,0.358614 -1.115975,0.359034 -2.170478,3.88e-4 -2.334338,-0.04302 -1.35347,-0.358587 z M 52.10069,16.033461 c 0,-0.408432 1.448177,-1.223721 1.709493,-0.962404 0.126321,0.126321 -0.07823,0.454821 -0.454557,0.729999 -0.754803,0.551925 -1.254936,0.644546 -1.254936,0.232405 z m 3.885826,-0.774132 c -0.48217,-0.370471 -0.793466,-0.756791 -0.691769,-0.858489 0.101698,-0.101697 0.654951,0.199236 1.229452,0.668741 1.229116,1.004483 0.745038,1.175313 -0.537683,0.189748 z m 2.1108,-1.290274 c -0.205213,-0.560486 -0.442797,-1.217503 -0.527965,-1.460037 -0.08517,-0.242535 -0.01339,-0.440973 0.159497,-0.440973 0.382066,0 1.226905,2.434753 0.943261,2.718397 -0.110923,0.110923 -0.36958,-0.256901 -0.574793,-0.817387 z m 20.667206,-0.137121 c 0.261715,-0.982492 0.428547,-1.247436 0.64758,-1.028403 0.08114,0.08114 -0.08423,0.544158 -0.367492,1.028935 l -0.515017,0.881413 z M 65.506246,13.170063 c 0,-0.22443 0.586363,-0.396462 1.351323,-0.396462 0.743229,0 2.09986,-0.378957 3.014737,-0.842127 1.765868,-0.893995 2.034212,-0.548573 0.477022,0.614036 -1.067491,0.796997 -4.843082,1.283889 -4.843082,0.624553 z m 13.758335,-2.160351 c 0,-0.194028 0.166511,-0.352778 0.370025,-0.352778 0.203514,0 0.676278,-0.6746867 1.050586,-1.4993047 0.423545,-0.933094 0.682989,-1.232853 0.686989,-0.79375 0.0077,0.848963 -1.246547,2.9986107 -1.749637,2.9986107 -0.196882,0 -0.357963,-0.15875 -0.357963,-0.352778 z M 61.272913,9.7541703 c 0,-0.302492 0.161339,-0.450273 0.358532,-0.328402 0.197193,0.121873 0.267199,0.369366 0.155569,0.549987 -0.302415,0.4893177 -0.514101,0.3980777 -0.514101,-0.221585 z m 0.705555,-1.743069 c 0.241543,-0.2910416 0.59792,-0.5291666 0.791947,-0.5291666 0.196789,0 0.15859,0.2339834 -0.08639,0.5291666 -0.241543,0.291042 -0.597919,0.529167 -0.791947,0.529167 -0.196789,0 -0.158589,-0.233984 0.08639,-0.529167 z m -2.666601,-1.421482 c -0.663146,-0.5224865 -0.657788,-0.536423 0.169524,-0.4409722 0.469872,0.054211 0.919664,0.2970029 0.999537,0.5395376 0.197623,0.6000746 -0.339854,0.5547589 -1.169061,-0.098565 z M 56.686801,5.8944347 c 0,-0.2910417 0.15875,-0.5291667 0.352778,-0.5291667 0.194028,0 0.352778,0.238125 0.352778,0.5291667 0,0.2910417 -0.15875,0.5291667 -0.352778,0.5291667 -0.194028,0 -0.352778,-0.238125 -0.352778,-0.5291667 z m 5.394864,-0.8498865 c -0.946517,-0.7900613 -0.715829,-1.0903913 0.837544,-1.0903913 1.223894,0 1.536433,0.5567133 0.752593,1.3405556 C 63.12606,5.8404544 63.014078,5.822837 62.081665,5.0445482 Z m -5.97974,18.1539638 c 0.131112,-0.341673 0.02664,-0.446147 -0.315034,-0.315035 -0.28116,0.107891 -0.511201,0.337932 -0.511201,0.511201 0,0.507161 0.612111,0.361833 0.826235,-0.196166 z M 75.844252,21.81005 c 0.749765,-0.686757 1.318958,-1.548612 1.339663,-2.028473 0.01979,-0.458901 0.05949,-2.673213 0.08819,-4.920694 l 0.05219,-4.086329 -1.058334,0.645427 c -0.582083,0.354985 -1.653646,0.64602 -2.38125,0.646746 -0.727604,7.41e-4 -1.323837,0.120381 -1.324959,0.265902 -0.0011,0.145521 -0.156912,1.210334 -0.346199,2.366252 -0.189283,1.155918 -0.369743,2.981543 -0.401023,4.056945 -0.03129,1.075401 -0.188355,2.310602 -0.349056,2.74489 -0.249686,0.674765 -0.152573,0.82036 0.667653,1.000997 0.527907,0.116259 1.118584,0.264337 1.312612,0.329062 0.80349,0.26803 1.158155,0.117221 2.400505,-1.020725 z m -21.279519,0.223968 c -0.01053,-0.515871 -0.533167,-1.054298 -1.229321,-1.266468 -1.3193,-0.402088 -12.296862,-1.643949 -14.531868,-1.643949 -2.359902,0 -2.967622,0.486405 -1.11587,0.893118 0.875199,0.192226 14.556505,2.055279 16.441488,2.238921 0.242535,0.02363 0.438542,-0.0761 0.435571,-0.221622 z m 3.180402,-0.373546 c 0,-0.156944 -0.251085,-0.593506 -0.557966,-0.970139 -0.51058,-0.626632 -0.54054,-0.629907 -0.352778,-0.03857 0.112854,0.355418 0.205188,0.791981 0.205188,0.970139 0,0.178159 0.15875,0.323925 0.352778,0.323925 0.194028,0 0.352778,-0.128408 0.352778,-0.285351 z m -2.327164,-0.508399 c -0.549337,-0.960759 -0.942936,-1.305781 -1.263567,-1.10762 -0.189244,0.116958 -0.07096,0.500159 0.271037,0.87806 0.678439,0.749667 1.383101,0.912647 0.99253,0.22956 z m 4.091053,0.307779 c 0,-0.07326 -0.277813,-0.351069 -0.617361,-0.617361 -0.559526,-0.43881 -0.572003,-0.426332 -0.133193,0.133193 0.460858,0.587639 0.750554,0.774516 0.750554,0.484168 z M 54.657263,5.5457685 c -0.09229,-0.4828081 -0.308834,-0.7906737 -0.4812,-0.6841461 -0.177466,0.10968 -0.154586,0.4904189 0.05275,0.8778328 0.49369,0.9224691 0.630033,0.8608335 0.428448,-0.1936867 z M 56.08359,5.0120034 c 0.101549,-0.3883233 0.04069,-0.6170792 -0.135244,-0.5083468 -0.175933,0.1087325 -0.319878,0.4264516 -0.319878,0.7060424 0,0.7301618 0.239711,0.6260359 0.455122,-0.1976956 z M 53.159023,2.5014061 c 0,-0.1940278 -0.15875,-0.254665 -0.352777,-0.1347492 -0.194028,0.1199159 -0.352778,0.3767787 -0.352778,0.5708065 0,0.1940278 0.15875,0.254665 0.352778,0.1347491 0.194027,-0.1199159 0.352777,-0.3767787 0.352777,-0.5708064 z M 55.730685,1.1319347 C 55.629206,0.74387921 55.503833,0.42637921 55.452079,0.42637921 c -0.05175,0 -0.177127,0.3175 -0.278606,0.70555549 -0.115311,0.4409486 -0.01082,0.7055556 0.278606,0.7055556 0.28943,0 0.393917,-0.264607 0.278606,-0.7055556 z m -1.967168,-1.24393389 c 0.152598,-0.00507 0.594951,-0.2110842 0.983006,-0.4578174 0.658977,-0.41898919 0.647332,-0.43299801 -0.176388,-0.2121951 -1.081681,0.2899498 -1.765667,0.8110756 -1.758487,1.3397812 0.003,0.2187769 0.15593,0.1596513 0.33991,-0.1313903 0.18398,-0.2910417 0.459361,-0.5333122 0.611959,-0.5383784 z m 1.689772,-2.57661511 c -0.108459,-0.1084587 -0.549976,0.1703084 -0.981148,0.6194827 l -0.783951,0.8166802 0.981149,-0.6194824 c 0.539631,-0.3407156 0.892409,-0.7082215 0.78395,-0.8166805 z M 102.19514,87.562489 c 0,-0.194028 0.15875,-0.352778 0.35278,-0.352778 0.19403,0 0.35278,0.15875 0.35278,0.352778 0,0.194028 -0.15875,0.352778 -0.35278,0.352778 -0.19403,0 -0.35278,-0.15875 -0.35278,-0.352778 z"
       style="fill:#000000;stroke-width:0.35277778" />
  </g>
</svg>
