<?xml version="1.0" encoding="UTF-8" standalone="no"?>
<svg
   xmlns:dc="http://purl.org/dc/elements/1.1/"
   xmlns:cc="http://creativecommons.org/ns#"
   xmlns:rdf="http://www.w3.org/1999/02/22-rdf-syntax-ns#"
   xmlns:svg="http://www.w3.org/2000/svg"
   xmlns="http://www.w3.org/2000/svg"
   id="svg8"
   version="1.1"
   viewBox="0 0 124.21666 85.033"
   height="85.033005mm"
   width="124.21667mm">
  <defs
     id="defs2" />
  <metadata
     id="metadata5">
    <rdf:RDF>
      <cc:Work
         rdf:about="">
        <dc:format>image/svg+xml</dc:format>
        <dc:type
           rdf:resource="http://purl.org/dc/dcmitype/StillImage" />
        <dc:title></dc:title>
      </cc:Work>
    </rdf:RDF>
  </metadata>
  <g
     transform="translate(-2.6742474,-3.2839152)"
     id="layer1">
    <path
       id="path6596"
       d="m 29.869951,88.106533 c -0.108254,-0.108257 -0.05515,-0.624195 0.118013,-1.146528 0.731353,-2.2061 1.725111,-5.822876 1.725111,-6.278531 0,-0.344473 -0.454459,-0.492005 -1.515589,-0.492005 -1.514989,0 -1.515832,7.05e-4 -2.131054,1.852083 -0.338507,1.018646 -0.88082,2.764896 -1.205141,3.880556 -0.324321,1.11566 -0.794097,2.028472 -1.043946,2.028472 -0.596132,0 -0.577111,-0.203821 0.213998,-2.293055 0.367351,-0.970139 0.91434,-2.597327 1.215529,-3.615973 0.511773,-1.730855 0.507726,-1.852083 -0.06181,-1.852083 -0.479462,0 -0.784896,0.733538 -1.432192,3.439583 -0.452519,1.891771 -0.879111,3.638021 -0.947983,3.880556 -0.06887,0.242535 -0.460932,0.440972 -0.871246,0.440972 -0.410315,0 -0.688015,-0.119062 -0.617114,-0.264583 0.80984,-1.662137 1.846535,-4.773496 2.218178,-6.657259 0.204505,-1.036581 0.128427,-1.136068 -1.300122,-1.700153 -2.3739,-0.937373 -7.053412,-2.90631 -12.629839,-5.314089 C 8.7913413,72.79973 5.8841103,71.592874 5.1442313,71.332598 4.4043523,71.072322 3.6629143,70.695397 3.4965903,70.494991 3.3302673,70.294585 3.0854123,67.909168 2.9524673,65.19407 c -0.132944,-2.715101 -0.257086,-5.015921 -0.27587,-5.112935 -0.01879,-0.09701 0.07719,-0.732014 0.213275,-1.411111 0.166033,-0.828545 0.682746,-1.582875 1.570733,-2.293056 l 1.323305,-1.058333 17.4625007,0.04081 c 9.604376,0.02244 27.756138,0.07611 40.337253,0.11926 22.335614,0.07661 22.892694,0.06205 23.636114,-0.617619 0.41875,-0.382841 1.11189,-0.80228 1.54031,-0.932085 0.73354,-0.222257 0.75049,-0.301727 0.29076,-1.363465 -0.83112,-1.919495 -1.65805,-4.597834 -1.81848,-5.889953 -0.0843,-0.679097 -0.31336,-2.739912 -0.50896,-4.579592 -0.37688,-3.544507 -0.58669,-4.028705 -2.983682,-6.885686 -2.438601,-2.90658 -2.394561,-3.992451 0.274392,-6.765773 1.33686,-1.389147 1.40787,-1.569527 1.23201,-3.129719 -0.13571,-1.20405 -0.46799,-1.936998 -1.21828,-2.687289 -0.921016,-0.921013 -1.306606,-1.043649 -3.594737,-1.143292 -2.228091,-0.09703 -2.538977,-0.03727 -2.378809,0.457228 1.210677,3.737822 1.989335,6.741413 1.989335,7.673657 0,0.629104 0.137665,1.228908 0.305922,1.332896 0.640744,0.396002 1.774483,5.092432 1.923137,7.966459 0.203503,3.934474 0.750831,5.69596 1.990992,6.407718 0.98768,0.56685 3.54106,4.862569 3.54106,5.957358 0,0.80366 -0.38899,1.096822 -0.89648,0.675637 -0.3075,-0.2552 -0.49828,-0.186602 -0.66111,0.237716 -0.19545,0.509351 -0.41524,0.420525 -1.50532,-0.608359 -0.917834,-0.866305 -1.200991,-1.006566 -1.007859,-0.499237 0.414689,1.089343 0.404319,1.674569 -0.03246,1.829538 -0.436742,0.154964 -2.95233,-4.517168 -2.95233,-5.483303 0,-0.329431 -0.222539,-0.916686 -0.494531,-1.30501 -0.271995,-0.388323 -0.909909,-1.892085 -1.417592,-3.341691 -2.959827,-8.451331 -3.392484,-9.934174 -3.263995,-11.186644 0.100968,-0.984229 -0.204061,-2.010433 -1.225279,-4.122183 -0.747843,-1.546445 -1.359715,-3.339457 -1.359715,-3.984471 0,-0.669614 -0.389911,-1.761947 -0.908829,-2.546089 -0.499858,-0.755335 -0.951121,-1.906303 -1.002806,-2.557706 -0.127194,-1.603026 -0.724151,-2.650146 -2.546728,-4.467181 -0.84637,-0.843801 -1.538859,-1.826619 -1.538859,-2.184041 0,-0.357422 -0.15875,-0.747971 -0.352778,-0.867886 -0.194028,-0.119916 -0.352778,-0.841541 -0.352778,-1.6036121 0,-1.463337 1.537843,-4.178227 2.38125,-4.203833 0.242535,-0.0074 0.440973,-0.168062 0.440973,-0.357107 0,-0.6470265 2.080697,-1.4201707 3.821987,-1.4201707 1.582964,0 1.855735,0.1277083 3.016131,1.4121277 0.701675,0.77667 1.275771,1.614472 1.275771,1.861782 0,0.247311 0.246828,0.802054 0.54851,1.232763 0.497473,0.710243 0.636975,0.739602 1.499305,0.315532 0.522937,-0.257167 2.474729,-0.841071 4.337312,-1.297566 3.31722,-0.813006 3.43575,-0.817841 5.79247,-0.236263 1.45789,0.359771 3.4091,1.218969 4.95175,2.180453 1.40018,0.8727 2.73247,1.5867271 2.96063,1.5867271 1.134,0 4.347142,1.973026 5.917932,3.633902 1.55972,1.649173 1.81022,2.131739 2.16542,4.171484 0.67998,3.904697 0.58977,4.372314 -1.18609,6.148164 l -1.58776,1.587761 1.03153,2.043431 c 0.56733,1.123887 1.20931,3.06428 1.42662,4.311984 0.50763,2.914658 1.22282,4.738723 2.47236,6.305657 0.80336,1.00742 1.67553,1.497347 4.42739,2.487005 3.01943,1.085886 3.54349,1.401819 4.40691,2.656766 2.01672,2.931199 5.5051,5.55546 7.36406,5.539889 0.50615,-0.0042 1.45156,0.315852 2.10092,0.71132 1.0333,0.629288 1.15401,0.852226 0.96721,1.786234 -0.11739,0.586962 -0.62504,1.606835 -1.1281,2.266389 -0.53624,0.703051 -1.0823,2.081276 -1.31985,3.331256 -0.31656,1.66576 -0.7558,2.567287 -2.00826,4.121944 -1.84293,2.287601 -3.0597,2.682995 -2.86669,0.931538 0.0641,-0.582084 0.32226,-1.479804 0.57359,-1.994931 0.5981,-1.225881 0.22371,-7.401817 -0.46258,-7.63058 -0.25132,-0.08377 -1.00128,-0.696644 -1.66657,-1.361937 -1.1257,-1.125696 -3.88374,-2.594497 -4.87183,-2.594497 -0.23729,0 -1.68679,-0.815912 -3.22112,-1.813137 -2.58781,-1.681925 -3.27314,-1.980371 -5.89573,-2.56746 -0.60897,-0.136321 -1.17873,-0.6359 -1.54781,-1.357154 -0.32124,-0.627779 -2.22913,-2.848529 -4.239752,-4.934998 -2.01061,-2.086469 -3.65645,-3.991469 -3.65742,-4.233332 -0.001,-0.241864 -0.35815,-0.864096 -0.79375,-1.382737 -0.62027,-0.738518 -0.95272,-0.879053 -1.53326,-0.648142 -0.93808,0.373118 -0.9017,2.338346 0.0701,3.785049 1.14203,1.7002 1.49412,2.504597 2.2218,5.075945 0.38965,1.376906 0.95423,2.878568 1.25462,3.337028 0.3004,0.458456 0.54618,1.085151 0.54618,1.392657 0,0.893149 1.03931,2.715422 2.31092,4.051836 0.64616,0.679098 1.34227,1.679582 1.546912,2.223301 0.32621,0.866765 0.25725,1.09498 -0.559682,1.852084 -0.51246,0.474927 -1.05697,0.863504 -1.21003,0.863504 -0.15307,0 -0.7252,0.18717 -1.27141,0.415929 -0.94483,0.395714 -0.8848,0.427503 1.23497,0.654008 2.338322,0.249851 3.536072,0.893191 4.790152,2.572893 0.60902,0.815717 0.7478,1.729577 0.96096,6.328202 0.55449,11.961714 0.59966,15.074233 0.22218,15.307532 -0.32779,0.202587 -8.573262,0.473157 -14.443162,0.473947 l -2.00847,2.68e-4 1.0336,2.557639 c 0.56848,1.406701 1.19448,2.833296 1.3911,3.170213 0.19663,0.336917 0.35751,0.852854 0.35751,1.146528 0,1.273171 -0.624,0.282557 -1.94437,-3.086721 -1.26386,-3.225109 -1.51591,-3.622958 -2.35704,-3.720561 l -0.94185,-0.10929 1.18074,3.28429 c 0.64941,1.80636 1.2905,3.562103 1.42465,3.901652 0.16158,0.408986 0.0783,0.617361 -0.24682,0.617361 -0.3114,0 -0.94619,-1.385887 -1.73706,-3.792361 l -1.24634,-3.792361 -26.081927,-0.08909 -26.081932,-0.08909 -0.795611,3.440476 c -0.437586,1.892261 -0.794774,3.718288 -0.79375,4.057837 0.0018,0.583872 -0.709136,0.847104 -1.135707,0.420536 z m 38.673736,-8.959297 35.243113,-0.0161 -0.25152,-9.613195 c -0.2781,-10.629019 -0.34944,-10.964789 -2.6608,-12.522412 -0.85887,-0.578792 -1.693032,-0.79495 -3.067732,-0.79495 -1.0911,0 -1.88811,-0.15736 -1.88811,-0.37278 0,-0.20895 -0.34459,-0.131427 -0.78405,0.176389 -0.43123,0.302041 -1.00904,0.549169 -1.28403,0.549169 -0.27498,0 -0.68976,0.259553 -0.92173,0.576785 -0.38686,0.529064 -0.47764,0.521769 -1.09723,-0.08819 -0.65419,-0.644038 -2.01414,-0.664979 -43.185189,-0.664979 -45.2195207,0 -43.5673477,-0.06176 -44.4904157,1.663012 -0.417059,0.779283 -0.491288,9.495713 -0.09434,11.077304 0.1223,0.487281 0.693624,0.989122 1.489491,1.308347 0.7101,0.284822 2.164216,0.915183 3.231369,1.400807 1.067152,0.485619 2.8927777,1.281987 4.0569437,1.769702 1.164167,0.487719 3.148542,1.364725 4.409723,1.9489 1.26118,0.584179 3.18465,1.395374 4.274376,1.802656 1.089727,0.407285 2.597852,1.054816 3.351389,1.438963 1.174319,0.598653 1.874104,0.675456 4.897847,0.537559 1.940278,-0.08849 19.387179,-0.168127 38.77089,-0.176982 z M 123.59995,58.493635 c 0.0811,-0.388056 0.23977,-1.282584 0.35256,-1.987836 0.11279,-0.705256 0.67467,-1.975256 1.24863,-2.822222 1.21848,-1.798077 1.29843,-2.446264 0.40185,-3.25766 -0.86353,-0.781487 -1.68669,-0.422666 -1.94039,0.845831 -0.13599,0.67994 -0.68193,1.339127 -1.62709,1.964605 -1.54209,1.020509 -1.77183,1.926968 -1.09049,4.302662 0.23239,0.810291 0.19153,1.623921 -0.13625,2.713041 -0.2575,0.855613 -0.36719,1.65754 -0.24374,1.782067 0.30566,0.308339 2.85111,-2.661147 3.03492,-3.540488 z M 90.946228,55.523683 c 0.0786,-0.01577 -0.12923,-0.329321 -0.46178,-0.696796 -0.56389,-0.62309 -0.67919,-0.630953 -1.71014,-0.116646 -0.90784,0.452889 -0.99553,0.590049 -0.49053,0.767197 0.49562,0.173852 1.90435,0.198321 2.66245,0.04624 z m 0.23592,-1.389468 c -0.80669,-1.559955 -0.65983,-1.791042 0.36824,-0.579469 l 0.89804,1.058333 -0.55795,-1.129009 c -0.30687,-0.620956 -0.55795,-1.197751 -0.55795,-1.281772 0,-0.404287 1.61265,-0.507305 2.06787,-0.132094 0.44552,0.367221 0.45855,0.316354 0.0941,-0.367542 -0.23262,-0.436562 -0.57611,-0.79375 -0.76331,-0.79375 -0.1872,0 -0.34037,-0.306197 -0.34037,-0.680437 0,-0.374241 -0.55563,-1.26957 -1.23472,-1.989625 -1.36037,-1.442406 -1.37919,-1.538104 -0.89003,-4.525133 0.35815,-2.187018 0.47262,-10.317161 0.19175,-13.618694 -0.0908,-1.067153 -0.23051,-4.099706 -0.31049,-6.739007 -0.08,-2.639302 -0.25362,-5.139614 -0.38585,-5.55625 -0.13224,-0.416637 -0.099,-0.757521 0.0739,-0.757521 0.17289,0 -0.0627,-1.150938 -0.52364,-2.557639 -0.81979,-2.502093 -1.30985,-3.159525 -3.8252,-5.1316241 -0.56829,-0.445553 -0.84837,-0.722377 -0.62241,-0.615164 0.22596,0.107214 0.47731,-0.0045 0.55856,-0.248236 0.26491,-0.794728 3.58605,-0.552543 4.80759,0.350579 0.59049,0.436563 1.38251,0.79375 1.76007,0.79375 0.37755,0 1.3515,0.5556251 2.16433,1.2347231 0.81282,0.679097 1.62159,1.234722 1.79726,1.234722 0.70304,0 0.26272,1.097348 -0.56687,1.412759 -0.48746,0.18533 -1.06804,0.735875 -1.29019,1.223433 -0.22215,0.487559 -1.00985,1.165434 -1.75045,1.506389 -0.99971,0.460244 -1.34889,0.834966 -1.35565,1.454814 -0.007,0.662962 0.1362,0.796899 0.69645,0.650388 0.38806,-0.101479 0.70556,-0.04062 0.70556,0.135244 0,0.175863 -0.3175,0.319751 -0.70556,0.319751 -0.48393,0 -0.70555,0.235185 -0.70555,0.748751 0,0.540915 0.1224,0.656579 0.44097,0.416691 0.24254,-0.182633 1.35715,-0.927164 2.47692,-1.654514 2.23049,-1.448819 2.88422,-2.259446 3.25518,-4.036423 0.31584,-1.512936 -0.0774,-3.641679 -0.64875,-3.511506 -0.24018,0.05472 -1.06547,-0.396834 -1.83398,-1.0034661 -0.76851,-0.606631 -2.34979,-1.378892 -3.51395,-1.716135 -1.16417,-0.337243 -2.48133,-0.753721 -2.92702,-0.925506 -0.44569,-0.171785 -1.39819,-0.301179 -2.11667,-0.287542 -1.0518,0.01996 -1.16885,0.08387 -0.60076,0.327983 0.64772,0.278337 0.63327,0.305655 -0.17639,0.333294 -0.48507,0.01656 -1.516944,0.251284 -2.293055,0.521613 -1.291717,0.44992 -1.336492,0.505555 -0.529167,0.657553 0.48507,0.09133 0.05317,0.105044 -0.959781,0.03048 -1.501998,-0.110557 -1.805397,-0.04088 -1.644763,0.377716 0.148145,0.386067 -0.01993,0.473949 -0.678152,0.354591 -0.576704,-0.104577 -0.947223,0.02923 -1.086588,0.392408 -0.19171,0.4995941 -0.284998,0.4995991 -0.998202,5.2e-5 -1.122557,-0.78627 -1.369004,-0.685642 -0.959386,0.3917351 0.392765,1.033046 0.217755,1.879443 -0.388606,1.879443 -0.236167,0 -0.293508,-0.296531 -0.146752,-0.758921 0.180315,-0.568121 0.115739,-0.710903 -0.256851,-0.567926 -0.313877,0.120446 -0.516491,-0.05812 -0.548527,-0.483426 -0.02794,-0.3709321 0.09834,-0.5822461 0.280624,-0.4695881 0.182284,0.112659 0.331428,0.03671 0.331428,-0.168764 0,-0.67028 -0.971098,-0.392513 -1.160551,0.331958 -0.103117,0.3943221 -0.481192,0.7055561 -0.857087,0.7055561 -0.858214,0 -2.775632,-1.9469971 -2.242129,-2.2767181 0.211307,-0.130596 0.481249,0.01547 0.59987,0.324593 0.138388,0.360639 0.453531,0.486547 0.879451,0.351365 0.451375,-0.143261 0.663779,-0.03887 0.663779,0.326229 0,0.383704 0.260707,0.276197 0.913674,-0.37677 0.714477,-0.714476 0.810616,-0.978994 0.440972,-1.213284 -0.259987,-0.164786 -0.610278,-0.302042 -0.778429,-0.305013 -0.168152,-0.003 -0.219421,-0.335442 -0.113933,-0.738824 0.144032,-0.550783 0.05924,-0.682557 -0.340487,-0.529166 -0.292753,0.11234 -0.846166,0.204254 -1.229801,0.204254 -0.383639,0 -0.603698,0.151817 -0.489017,0.337371 0.114677,0.185553 0.441547,0.247944 0.726376,0.138645 0.462192,-0.17736 0.576739,0.0167 0.491762,0.833127 -0.01436,0.137946 0.263454,0.364913 0.617361,0.504372 0.508413,0.200342 0.439847,0.258766 -0.326672,0.278357 -0.533577,0.01364 -0.970139,-0.116745 -0.970139,-0.289739 0,-0.172994 -0.396875,-0.414143 -0.881945,-0.535888 -0.886971,-0.222615 -1.185654,-1.036902 -0.529166,-1.442633 0.194027,-0.119916 0.347729,-0.407098 0.341559,-0.638182 -0.0062,-0.231083 -0.251375,-0.102652 -0.5449,0.285404 -0.293522,0.388055 -0.450963,1.035792 -0.349868,1.439416 0.135693,0.541745 -0.181335,1.049686 -1.211005,1.940278 -0.767147,0.663529 -1.398408,1.4200481 -1.4028,1.6811531 -0.01344,0.799776 1.134774,2.463663 1.824638,2.644067 0.358528,0.09376 0.822762,0.660694 1.031631,1.25986 0.430495,1.234918 1.191454,1.454158 1.273359,0.366866 0.03457,-0.45878 -0.264996,-0.868064 -0.820628,-1.121226 -1.056094,-0.481188 -0.979657,-1.462594 0.126202,-1.620367 0.638454,-0.09109 0.790145,0.05729 0.790145,0.77293 0,0.487114 0.137343,0.970544 0.305209,1.07429 0.167863,0.103746 0.261292,0.588681 0.207621,1.077635 -0.116255,1.059027 0.307784,1.427159 0.867314,0.752968 0.307923,-0.371026 0.277453,-0.531784 -0.130471,-0.688318 -0.557551,-0.213952 -0.374057,-1.289275 0.220003,-1.289275 0.184718,0 0.248856,0.140763 0.142529,0.312806 -0.106331,0.172043 0.03972,0.506213 0.324545,0.742599 0.386433,0.32071 0.426075,0.601315 0.156189,1.105597 -0.198921,0.371691 -0.265592,0.831271 -0.148156,1.021289 0.480339,0.777205 1.268568,0.246352 2.115309,-1.42461 0.691624,-1.364855 0.81413,-1.924896 0.535107,-2.446253 -0.512586,-0.957779 -0.448684,-1.233761 0.167301,-0.722539 0.291042,0.241543 0.529167,0.881085 0.529167,1.421203 0,0.912565 0.126376,0.999415 1.786474,1.227737 2.049304,0.281851 2.341107,0.13248 1.857678,-0.950927 -0.254455,-0.570251 -0.661567,-0.783251 -1.523573,-0.79713 -0.657532,-0.01059 -1.246971,-0.228531 -1.336495,-0.494167 -0.126467,-0.375254 -0.008,-0.393807 0.563019,-0.0882 1.520515,0.813757 1.578212,0.119809 0.06178,-0.743085 -0.58086,-0.330524 -1.056104,-0.8659 -1.056104,-1.189724 0,-0.483352 0.09475,-0.510138 0.529167,-0.149601 0.442866,0.367547 0.529166,0.313663 0.529166,-0.330401 0,-0.423265 0.15875,-0.671459 0.352778,-0.551543 0.194028,0.119916 0.352778,0.495818 0.352778,0.835338 0,0.33952 0.246345,0.925464 0.547433,1.302097 0.525805,0.657732 0.537831,0.649943 0.304367,-0.197157 -0.133686,-0.48507 -0.317642,-1.080382 -0.408789,-1.322917 -0.09115,-0.242535 -0.0072,-0.440972 0.186556,-0.440972 0.193753,0 0.453006,0.401334 0.576118,0.891853 0.123112,0.490519 0.842522,1.323956 1.598687,1.852083 0.756165,0.528127 1.545773,1.324888 1.754681,1.77058 0.590268,1.25928 0.457988,1.276938 -0.554231,0.07399 -0.939994,-1.11712 -1.524572,-0.982769 -1.524572,0.350388 0,0.47037 0.03799,0.47037 0.341972,0 0.255923,-0.396015 0.343334,-0.211081 0.347377,0.734953 0.007,1.641617 0.295099,1.884994 1.095791,0.925739 0.357516,-0.428311 0.655301,-0.589679 0.661761,-0.358595 0.007,0.231084 -0.16476,0.529237 -0.380491,0.662564 -0.725403,0.448323 -0.01221,3.668911 1.180171,5.32926 1.00304,1.396704 1.09515,1.750529 1.03533,3.977195 -0.04,1.489482 0.15697,3.099819 0.50432,4.122923 0.41471,1.221477 0.50523,2.251146 0.33229,3.779722 -0.24954,2.205596 0.42045,8.443056 0.87661,8.161131 0.4095,-0.253083 0.71698,1.361083 0.33251,1.745551 -0.42265,0.422653 -0.45301,3.264383 -0.0376,3.52111 0.16698,0.103202 0.58065,1.184134 0.91926,2.402071 0.33861,1.217938 1.03543,2.871404 1.54849,3.674368 1.06602,1.66841 1.43245,1.775954 0.60605,0.177867 z m -1.62381,-4.119658 c -0.59619,-0.718361 -0.31649,-0.92263 0.47293,-0.34539 0.35086,0.25655 0.48766,0.559322 0.304,0.672828 -0.18365,0.113503 -0.53327,-0.03383 -0.77693,-0.327438 z m -2.04636,-10.624023 c -0.19829,-0.929732 -0.23739,-1.910457 -0.0869,-2.179383 0.16827,-0.300692 0.36541,0.291874 0.51198,1.538979 0.2971,2.527857 0.0552,2.892294 -0.42508,0.640404 z m 1.93906,-4.23903 c -0.12935,-0.129351 -0.22087,-0.724664 -0.20337,-1.322916 l 0.0318,-1.087732 0.34108,1.185213 c 0.34086,1.184496 0.27386,1.668822 -0.16952,1.225435 z m -1.98353,-8.055092 c -0.009,-1.077674 0.38207,-2.293056 0.73788,-2.293056 0.33741,0 0.0575,1.57979 -0.43752,2.469445 -0.23604,0.424194 -0.29562,0.389204 -0.30036,-0.176389 z m -1.37394,-7.232364 c -0.20283,-0.581853 -0.24378,-1.057914 -0.091,-1.057914 0.42903,0 1.10942,1.714335 0.7649,1.927261 -0.16781,0.103713 -0.47107,-0.287493 -0.6739,-0.869347 z m 2.06395,0.817033 c 0,-0.210558 0.24653,-0.916995 0.54784,-1.569862 l 0.54784,-1.18703 -0.20167,1.223698 c -0.19284,1.170059 -0.89401,2.372545 -0.89401,1.533194 z m 3.53486,-3.470973 c 0.24544,-0.29573 0.51889,-0.465042 0.60769,-0.376248 0.24465,0.24465 -0.25243,0.91394 -0.67878,0.91394 -0.23393,0 -0.20716,-0.202417 0.0711,-0.537692 z m -6.682,-0.726428 c 0.0169,-0.410966 0.10052,-0.494559 0.21313,-0.213137 0.10191,0.254662 0.0894,0.558933 -0.0278,0.676158 -0.11723,0.117225 -0.2006,-0.09114 -0.18529,-0.463021 z m 8.08604,0.205787 c 0,-0.194028 0.15875,-0.352778 0.35277,-0.352778 0.19403,0 0.35278,0.15875 0.35278,0.352778 0,0.194028 -0.15875,0.352778 -0.35278,0.352778 -0.19402,0 -0.35277,-0.15875 -0.35277,-0.352778 z m 1.43069,0.176389 c -0.002,-0.194028 0.30655,-0.749653 0.68597,-1.234722 0.37943,-0.48507 0.6934,-0.701094 0.69771,-0.480055 0.004,0.22104 -0.30437,0.776665 -0.68597,1.234723 -0.3816,0.458057 -0.69557,0.674082 -0.69771,0.480054 z M 74.2228,14.925578 C 74.102884,14.73155 74.16352,14.5728 74.35755,14.5728 c 0.194028,0 0.450889,0.15875 0.570805,0.352778 0.119917,0.194028 0.05928,0.352778 -0.13475,0.352778 -0.194028,0 -0.450889,-0.15875 -0.570805,-0.352778 z m 10.759718,-0.37597 c 0,-1.012739 -0.63307,-2.093474 -1.226311,-2.093474 -0.692069,0 -1.046371,-0.690648 -0.588955,-1.148063 0.272856,-0.272855 0.445106,-0.214051 0.606728,0.207128 0.124132,0.323486 0.421358,0.588157 0.660488,0.588157 0.50519,0 1.25361,1.484201 1.25361,2.486044 0,0.378926 -0.15875,0.688956 -0.35278,0.688956 -0.19403,0 -0.35278,-0.327937 -0.35278,-0.728748 z M 82.54093,9.7809019 c 0.01693,-0.410966 0.10052,-0.494559 0.213134,-0.213137 0.101907,0.254662 0.08938,0.5589331 -0.02783,0.6761581 -0.117228,0.117225 -0.200604,-0.09113 -0.185286,-0.4630211 z M 93.978358,54.642949 c -1.22096,-0.978969 -1.2774,-0.97482 -1.0032,0.07373 0.14506,0.554715 0.47046,0.77784 1.13254,0.776591 l 0.92899,-0.0018 -1.05833,-0.848572 z m 3.91249,-1.087688 1.92699,-0.881426 -0.57882,-1.119322 c -0.49621,-0.959562 -0.62591,-1.035162 -0.9088,-0.529681 -0.18148,0.324298 -0.56021,0.589636 -0.84161,0.589636 -0.2814,0 -0.51164,0.175733 -0.51164,0.390522 0,0.214785 -0.23004,0.302245 -0.5112,0.194355 -0.34955,-0.134136 -0.44615,-0.02667 -0.3055,0.339888 0.17147,0.446824 -0.0224,0.494756 -1.16449,0.287955 l -1.3702,-0.248102 0.85524,0.9288 c 0.47039,0.510844 0.9965,0.928804 1.16914,0.928804 0.17264,0 1.18104,-0.396642 2.24089,-0.881429 z m -4.6727,-0.721286 c -0.11489,-0.29941 -0.28456,-0.468722 -0.37703,-0.376248 -0.0925,0.09247 -0.0635,0.337446 0.0644,0.544382 0.34786,0.562843 0.55117,0.453499 0.31263,-0.168134 z m 28.100492,0.21747 c 0,-0.1798 -0.27781,-0.384658 -0.61736,-0.455239 -0.50182,-0.104309 -0.46872,-0.169019 0.17687,-0.345743 0.4404,-0.120558 0.70617,-0.07491 0.59654,0.102461 -0.38107,0.616599 0.3988,0.312755 1.00027,-0.38971 0.73799,-0.861914 0.77955,-1.407079 0.10726,-1.407079 -0.27518,0 -0.75143,-0.09636 -1.05834,-0.214133 -0.30691,-0.117771 -0.55802,-0.0384 -0.55802,0.176389 0,0.214789 0.23813,0.390521 0.52917,0.390521 0.94463,0 0.55884,0.642977 -0.52917,0.881945 -1.16435,0.255732 -1.14852,0.236435 -0.8442,1.02948 0.22796,0.594039 1.19698,0.781138 1.19698,0.231108 z m -35.983342,-1.92295 c 0,-0.07325 -0.27781,-0.351066 -0.61736,-0.617361 -0.55953,-0.438809 -0.572,-0.426332 -0.13319,0.133195 0.46085,0.58764 0.75055,0.774517 0.75055,0.484166 z m 11.94057,-1.082262 c 0.14636,-0.760007 -0.83215,-1.650742 -1.52242,-1.385859 -0.24717,0.09485 -0.68224,-0.0604 -0.96683,-0.344992 -0.29689,-0.296884 -0.70741,-0.400036 -0.96312,-0.241999 -0.29153,0.180175 0.1061,0.463452 1.14963,0.819016 0.87741,0.298965 1.68722,0.451655 1.79957,0.339302 0.11235,-0.112349 0.20427,0.06031 0.20427,0.383692 0,0.681799 -0.39339,0.759015 -0.96333,0.189078 -0.36249,-0.36249 -0.3929,-0.102704 -0.12199,1.042113 0.10107,0.427118 1.27899,-0.253951 1.38422,-0.800351 z m 22.779902,-0.243007 c 0.63701,-1.078361 0.63671,-1.114693 -0.0121,-1.469994 -0.70847,-0.387953 -2.48914,-2.142327 -4.13955,-4.078428 -0.59042,-0.692609 -2.0898,-1.673197 -3.63552,-2.377606 -3.06251,-1.395631 -3.46492,-1.465919 -2.95679,-0.516477 0.44748,0.836136 0.45898,1.081525 0.0507,1.081525 -0.173,0 -0.41197,-0.388197 -0.53106,-0.862662 -0.11908,-0.474465 -0.83485,-1.577107 -1.59061,-2.450313 -1.35468,-1.565216 -2.52851,-4.441066 -3.03156,-7.427265 -0.19257,-1.143062 -1.62338,-4.519195 -2.1668,-5.112759 -0.0777,-0.08491 -0.81271,0.498008 -1.63326,1.295379 -1.469112,1.42762 -4.513022,3.26873 -5.404182,3.26873 -0.93496,0 -0.8524,0.744591 0.27321,2.463982 0.63707,0.973144 1.27947,1.769352 1.42754,1.769352 0.50704,0 3.08789,2.545859 2.89584,2.856593 -0.10548,0.170678 0.0366,0.222688 0.31573,0.115574 0.577962,-0.221785 1.483602,0.95063 2.677362,3.466027 0.4374,0.921632 0.90016,1.693796 1.02838,1.715919 0.12821,0.02212 0.68062,0.09283 1.22757,0.157123 0.94904,0.111559 6.39256,3.077927 6.77054,3.689502 0.0993,0.160712 0.69471,0.400533 1.32307,0.532942 1.4145,0.298061 3.23699,1.125724 4.80769,2.183369 0.65766,0.442846 1.29812,0.805173 1.42324,0.805173 0.12512,0 0.5214,-0.497561 0.88063,-1.105686 z m -4.68084,-3.126299 c -1.84875,-0.665075 -4.9924,-2.902194 -4.9924,-3.552744 0,-0.504688 0.12825,-0.428061 1.67769,1.002372 0.79327,0.732345 2.28812,1.627646 3.32189,1.989557 1.03377,0.361915 2.0304,0.794597 2.21472,0.961524 0.51804,0.469131 -0.12766,0.352683 -2.2219,-0.400709 z m -6.40351,-1.69738 c 0,-0.221386 -0.49101,-0.656424 -1.09112,-0.966756 -1.29261,-0.668433 -1.16953,-1.076198 0.14418,-0.477636 0.89026,0.405627 1.49699,1.296846 1.13163,1.662211 -0.10158,0.101582 -0.18469,0.0036 -0.18469,-0.217819 z m -4.93889,-2.537301 c 0,-0.194028 0.28575,-0.352778 0.635,-0.352778 0.34925,0 0.82285,-0.187854 1.05245,-0.417453 0.2296,-0.229602 0.53891,-0.295994 0.68736,-0.147546 0.34965,0.349653 -0.9091,1.270554 -1.73668,1.270554 -0.35098,0 -0.63813,-0.15875 -0.63813,-0.352777 z m -0.54155,-7.094554 c -0.31377,-0.988595 -2.54406,-3.438644 -3.868182,-4.249308 -0.80203,-0.491031 -0.89871,-0.648265 -0.39921,-0.649265 0.77426,-0.0015 5.161712,4.347863 5.161712,5.116961 0,0.786705 -0.62365,0.634412 -0.89432,-0.218388 z m -3.691792,-2.810235 c -1.62653,-1.098877 -2.58855,-2.354775 -1.02505,-1.338187 0.46676,0.303491 1.20279,0.771089 1.635602,1.039105 0.43282,0.268017 0.8644,0.689156 0.95907,0.935865 0.22519,0.586827 0.26614,0.603441 -1.569622,-0.636783 z M 83.837946,48.182501 c 0.486102,-0.432375 1.037702,-0.691032 1.225782,-0.574791 0.19113,0.118127 0.17486,-0.100888 -0.0369,-0.496556 -0.20837,-0.389347 -0.9034,-1.017394 -1.544513,-1.395656 -1.027804,-0.606422 -1.236257,-0.997081 -1.762661,-3.303422 -0.328355,-1.438614 -0.593351,-3.601381 -0.588882,-4.806146 0.01379,-3.71548 -1.657406,-8.278043 -2.911941,-7.949974 -0.353871,0.09254 -1.080244,-0.116039 -1.614163,-0.463507 -0.836834,-0.544601 -0.904331,-0.550697 -0.489253,-0.04419 0.334486,0.408167 0.411258,1.056028 0.251435,2.121808 -0.183741,1.22526 -0.02822,2.036599 0.772157,4.028756 0.551229,1.371986 1.231833,2.77259 1.512453,3.112449 0.389181,0.471336 0.406453,0.652858 0.07281,0.765161 -0.296238,0.09971 -0.125833,0.555727 0.527988,1.412931 0.610313,0.80016 0.813414,1.316363 0.552186,1.403439 -0.415428,0.138476 -0.161788,0.993616 1.143166,3.854143 0.278916,0.611406 0.507125,1.301288 0.507125,1.53307 0,0.713997 1.214568,2.534694 1.362674,2.042717 0.07519,-0.249756 0.534427,-0.807864 1.020527,-1.240236 z m -2.637064,-3.703257 c -0.406075,-0.51503 -0.907782,-2.389776 -0.639537,-2.389776 0.237205,0 1.2923,2.540917 1.124691,2.708525 -0.07191,0.07191 -0.29023,-0.07153 -0.485154,-0.318749 z m -1.792485,-7.915812 c -0.517409,-0.986574 -0.870483,-2.940631 -0.531336,-2.940631 0.289659,0 1.201201,3.228504 0.979671,3.469797 -0.05979,0.06512 -0.261543,-0.173 -0.448335,-0.529166 z M 78.632522,32.59332 c 0,-0.178158 -0.09234,-0.614721 -0.205189,-0.970139 -0.187759,-0.591333 -0.157801,-0.588057 0.352777,0.03857 0.638969,0.784198 0.715991,1.25549 0.20519,1.25549 -0.194028,0 -0.352778,-0.145766 -0.352778,-0.323925 z m 15.698616,16.904481 c 0.11991,-0.194027 0.0499,-0.352777 -0.15557,-0.352777 -0.20548,0 -0.3736,0.15875 -0.3736,0.352777 0,0.194028 0.07,0.352778 0.15557,0.352778 0.0856,0 0.25368,-0.15875 0.3736,-0.352778 z m -2.54515,-2.816648 c -0.86894,-1.332639 -0.99625,-1.415736 -1.10035,-0.718213 -0.0744,0.498446 0.24813,1.170654 0.87622,1.826231 1.32361,1.381559 1.44764,0.768418 0.22413,-1.108018 z m 4.24066,1.178503 c -0.23164,-0.09423 -0.34251,-0.376272 -0.24639,-0.626762 0.11456,-0.298528 -0.38191,-0.611294 -1.44104,-0.907831 -0.8887,-0.248818 -1.69615,-0.372065 -1.79434,-0.273876 -0.0982,0.09819 0.31376,0.276976 0.91544,0.397312 0.60168,0.120337 1.00385,0.364603 0.89371,0.542816 -0.11014,0.178209 0.15715,0.25769 0.59398,0.176618 0.43683,-0.08107 0.57784,-0.04705 0.31335,0.0756 -0.406,0.188278 -0.406,0.270454 0,0.527678 0.26449,0.16757 0.63964,0.29457 0.83367,0.282222 0.19402,-0.01235 0.16325,-0.09955 -0.0684,-0.193781 z m -2.57746,-0.831299 c 0,-0.194028 -0.16812,-0.352778 -0.3736,-0.352778 -0.20547,0 -0.27548,0.15875 -0.15556,0.352778 0.11991,0.194028 0.28803,0.352778 0.37359,0.352778 0.0856,0 0.15557,-0.15875 0.15557,-0.352778 z m 2.11667,-1.763889 c 0,-0.194028 -0.2475,-0.352778 -0.54999,-0.352778 -0.30249,0 -0.45187,0.15875 -0.33195,0.352778 0.11991,0.194028 0.36741,0.352778 0.54998,0.352778 0.18258,0 0.33196,-0.15875 0.33196,-0.352778 z m -1.75746,-0.639826 0.79015,-0.639826 -0.97565,-3.189708 c -0.53661,-1.754342 -1.27595,-3.569857 -1.64299,-4.034481 l -0.66735,-0.844771 0.0692,2.469445 c 0.0381,1.358194 -0.057,3.300547 -0.21116,4.316339 -0.26384,1.737868 -0.23089,1.866706 0.55812,2.182498 1.1595,0.464083 1.19092,0.460163 2.07966,-0.259496 z m -7.90822,-13.567137 c -0.31068,-0.961983 -0.56488,-1.976366 -0.56488,-2.254185 0,-0.820581 -1.643074,0.561871 -2.31719,1.949638 -0.685606,1.411429 -0.516234,1.89436 1.43525,4.092317 l 1.41111,1.589335 0.3003,-1.814023 c 0.22599,-1.365116 0.16051,-2.246853 -0.26459,-3.563082 z m 7.90179,-0.433981 c 1.36493,-0.253954 4.93889,-1.915707 4.93889,-2.29639 0,-0.615758 -2.38343,-0.202494 -4.22276,0.732185 -1.12097,0.569637 -2.29631,1.035704 -2.61185,1.035704 -0.31555,0 -0.57372,0.248823 -0.57372,0.55294 0,0.357642 0.21805,0.491545 0.61736,0.379115 0.33955,-0.0956 1.17298,-0.277203 1.85208,-0.403554 z m -0.35278,-1.830305 c 0.48507,-0.251756 1.06095,-0.458716 1.27973,-0.459912 0.21877,-0.0012 0.5954,-0.240298 0.83694,-0.53134 0.28909,-0.348339 1.0769,-0.529166 2.3054,-0.529166 1.72707,0 2.02638,-0.133813 4.013752,-1.794422 1.18114,-0.986931 2.14752,-1.999546 2.14752,-2.250256 0,-0.250709 -0.48272,-0.655783 -1.07271,-0.900163 -0.58998,-0.24438 -1.74092,-0.932501 -2.55763,-1.529158 -1.354672,-0.989662 -1.686102,-1.075017 -3.778002,-0.972972 -2.32501,0.113418 -3.37652,0.500798 -4.90355,1.806493 -1.06754,0.912805 -1.37884,3.51038 -0.73989,6.173817 0.47829,1.99375 0.50684,2.005167 2.46844,0.987079 z m 4.93889,-4.629076 c 0,-0.157539 0.47625,-0.638541 1.05834,-1.068894 1.248182,-0.922822 1.415952,-0.514735 0.24184,0.58828 -0.85256,0.800941 -1.30018,0.966404 -1.30018,0.480614 z m -6.35,-0.336153 c 0,-0.375085 0.75788,-1.141301 1.12889,-1.141301 0.54757,0 0.27338,0.685463 -0.42333,1.058334 -0.38806,0.207681 -0.70556,0.245016 -0.70556,0.08297 z m 1.76389,-1.141301 c 0,-0.194027 0.15875,-0.352777 0.35278,-0.352777 0.19403,0 0.35278,0.15875 0.35278,0.352777 0,0.194028 -0.15875,0.352778 -0.35278,0.352778 -0.19403,0 -0.35278,-0.15875 -0.35278,-0.352778 z m 3.35139,-1.790961 c -0.5015,-0.19626 -0.22093,-0.283286 0.97014,-0.30091 0.92163,-0.01364 1.67569,0.123337 1.67569,0.304388 0,0.390464 -1.64472,0.388302 -2.64583,-0.0035 z m -18.550621,7.814057 c 0.427814,-0.270799 0.414659,-0.661847 -0.0918,-2.728626 -0.325152,-1.326889 -0.978955,-3.200525 -1.452901,-4.163636 -0.940908,-1.912029 -0.933711,-2.180521 0.04496,-1.677139 0.356168,0.183195 1.806046,0.435991 3.221955,0.561768 l 2.574379,0.228686 -0.245753,-1.309963 c -0.3368,-1.795307 -0.770544,-2.193069 -1.918814,-1.759645 -0.696881,0.263043 -1.208264,0.209035 -2.064297,-0.218011 -1.190809,-0.594053 -1.922301,-0.459178 -3.410762,0.628885 -0.664799,0.485965 -0.829014,0.456145 -1.919824,-0.34863 -2.126523,-1.568899 -2.107191,0.464384 0.03401,3.576502 0.67583,0.982286 0.989418,1.727841 0.759047,1.804632 -0.280677,0.09356 -0.25684,0.581775 0.08365,1.713134 0.554676,1.843046 1.023899,2.481637 2.47566,3.369244 1.214001,0.742242 1.24072,0.746756 1.910493,0.322799 z m 24.628693,-8.000121 c -0.11723,-0.117225 -0.4215,-0.129758 -0.67616,-0.02785 -0.28142,0.112616 -0.19783,0.196209 0.21314,0.213137 0.37188,0.01532 0.58024,-0.06806 0.46302,-0.185287 z M 81.454745,16.735365 c 0,-0.386568 -4.118265,-1.216987 -4.589876,-0.925516 -0.675929,0.417748 -0.346537,0.955484 0.461116,0.752776 0.445572,-0.111831 1.27901,-0.06331 1.852083,0.107823 1.3895,0.414938 2.276677,0.440235 2.276677,0.06492 z m 10.641083,-1.979232 c -0.0771,-0.629601 0.0154,-0.885333 0.26459,-0.731313 0.21077,0.130264 0.38322,0.474967 0.38322,0.766009 0,0.291042 0.15182,0.435339 0.33737,0.32066 0.18555,-0.114678 0.24846,-0.440209 0.13978,-0.723402 -0.11047,-0.287889 0.0519,-0.610612 0.36819,-0.732001 0.31117,-0.119408 0.56577,-0.448944 0.56577,-0.732302 0,-0.354656 0.21986,-0.445416 0.70555,-0.291262 0.40475,0.128462 0.70556,0.06339 0.70556,-0.152615 0,-0.358212 -0.16974,-0.436708 -1.11939,-0.517662 -0.22761,-0.0194 -0.86973,-0.491176 -1.42694,-1.048384 -1.19361,-1.1936021 -1.56165,-1.0288041 -1.04059,0.465931 0.55423,1.589865 -0.12392,1.309036 -0.77632,-0.321484 -0.65974,-1.6488301 -2.03211,-2.4827301 -4.08591,-2.4827301 -1.57928,0 -1.91606,0.506731 -0.56255,0.84644 1.15519,0.289934 2.43384,2.0697691 3.19349,4.4452271 0.80839,2.527869 0.77512,2.485448 1.6843,2.147721 0.59662,-0.221626 0.75434,-0.520672 0.66388,-1.258833 z m -1.11068,0.631237 c 0.003,-0.156971 0.15929,-0.523528 0.34738,-0.81457 0.29471,-0.456031 0.34272,-0.446719 0.34737,0.06737 0.003,0.328098 -0.15335,0.694654 -0.34737,0.81457 -0.19403,0.119916 -0.35035,0.0896 -0.34738,-0.06737 z m 8.58884,0.420153 c 0.11168,-0.291042 0.0493,-0.529167 -0.13864,-0.529167 -0.18794,0 -0.34171,0.153768 -0.34171,0.341706 0,0.187938 -0.23813,0.250329 -0.52917,0.138645 -0.29104,-0.111683 -0.52917,-0.02733 -0.52917,0.187461 0,0.587198 1.30529,0.469583 1.53869,-0.138645 z M 67.584619,8.8622099 c -0.112614,-0.281423 -0.196208,-0.197829 -0.213135,0.213137 -0.01531,0.371886 0.06806,0.580245 0.185286,0.46302 0.117225,-0.117225 0.129756,-0.421496 0.02784,-0.676157 z m 1.763889,-1.411111 c -0.112614,-0.281423 -0.196208,-0.19783 -0.213135,0.213136 -0.01531,0.371887 0.06806,0.580246 0.185286,0.463021 0.117225,-0.117225 0.129756,-0.421496 0.02783,-0.676157 z M 68.88935,6.9697549 c 0.12047,-0.313946 0.06133,-0.455549 -0.138645,-0.331958 -0.191806,0.118543 -0.348739,0.364913 -0.348739,0.54749 0,0.507446 0.252861,0.395626 0.487384,-0.215532 z m 7.401303,-1.04001 c -0.111686,-0.291042 -0.265451,-0.529167 -0.341708,-0.529167 -0.07625,0 -0.138645,0.238125 -0.138645,0.529167 0,0.291041 0.153769,0.529166 0.341707,0.529166 0.187936,0 0.250328,-0.238125 0.138646,-0.529166 z m -5.846894,-1.282951 c -0.08807,-0.2642112 -0.247981,-0.1043 -0.372727,0.372728 -0.153448,0.586791 -0.107537,0.724527 0.154248,0.462742 0.205,-0.205 0.303315,-0.580962 0.218479,-0.83547 z m 2.897096,0.224617 c 0,-0.291041 0.185209,-0.5291664 0.411576,-0.5291664 0.226363,0 0.32846,-0.083112 0.226878,-0.1846928 -0.295377,-0.2953788 -1.271644,0.1928271 -1.482051,0.7411362 -0.112663,0.293599 0.02243,0.50189 0.325501,0.50189 0.284952,0 0.518096,-0.238125 0.518096,-0.529167 z m -1.058333,-0.937552 c 0,-0.1770967 -0.321945,-0.1496936 -0.715437,0.060896 -0.393488,0.2105892 -0.617481,0.541383 -0.497759,0.735098 0.241251,0.390353 1.213196,-0.247352 1.213196,-0.795994 z M 94.940838,87.417096 c -0.0378,-0.45714 -0.70643,-2.13601 -1.48577,-3.730816 -1.44821,-2.963545 -1.62277,-3.496811 -1.14467,-3.496811 0.14977,0 0.93958,1.416942 1.75512,3.14876 0.81554,1.731818 1.6455,3.249313 1.84435,3.37221 0.54491,0.336773 0.43584,0.822777 -0.26934,1.200182 -0.51789,0.277163 -0.64322,0.188761 -0.69969,-0.493525 z"
       style="fill:#000000;stroke-width:0.35277781" />
  </g>
</svg>
