<?xml version="1.0" encoding="UTF-8" standalone="no"?>
<svg
   xmlns:dc="http://purl.org/dc/elements/1.1/"
   xmlns:cc="http://creativecommons.org/ns#"
   xmlns:rdf="http://www.w3.org/1999/02/22-rdf-syntax-ns#"
   xmlns:svg="http://www.w3.org/2000/svg"
   xmlns="http://www.w3.org/2000/svg"
   id="svg8"
   version="1.1"
   viewBox="0 0 77.634223 150.58871"
   height="150.58873mm"
   width="77.634224mm">
  <defs
     id="defs2" />
  <metadata
     id="metadata5">
    <rdf:RDF>
      <cc:Work
         rdf:about="">
        <dc:format>image/svg+xml</dc:format>
        <dc:type
           rdf:resource="http://purl.org/dc/dcmitype/StillImage" />
        <dc:title></dc:title>
      </cc:Work>
    </rdf:RDF>
  </metadata>
  <g
     transform="translate(11.661631,-39.629673)"
     id="layer1">
    <path
       id="path2514"
       d="m 63.57055,189.86883 c -0.119916,-0.19403 -0.533375,-0.35278 -0.918799,-0.35278 -0.680128,0 -1.505426,-0.69503 -2.961757,-2.49425 -0.388055,-0.47943 -1.623497,-1.56636 -2.745429,-2.41541 -1.121932,-0.84905 -2.153807,-1.71891 -2.293056,-1.93301 -0.443685,-0.68218 -1.428718,-1.32498 -2.264808,-1.47795 -0.445827,-0.0816 -1.445596,-0.24598 -2.221707,-0.36537 -0.776111,-0.11938 -1.613256,-0.37951 -1.860324,-0.57807 -0.487493,-0.39177 -5.151663,-0.11856 -7.690958,0.45051 -0.811367,0.18183 -2.963005,0.42291 -4.781412,0.53573 -1.818407,0.11282 -4.556869,0.36496 -6.08547,0.56032 -1.5286,0.19536 -3.7511,0.24157 -4.938889,0.1027 -2.88871,-0.33774 -2.958634,-0.32905 -5.430418,0.67533 -2.457051,0.99839 -5.432922,1.19012 -6.09474,0.39268 -0.23223,-0.27982 -0.711445,-0.50876 -1.064923,-0.50876 -1.172392,0 -2.4593344,-1.5426 -3.3567954,-4.02365 -0.622753,-1.72161 -0.728527,-2.30943 -0.360627,-2.0041 0.286326,0.23763 0.626232,0.91303 0.755346,1.50088 0.153052,0.69684 0.354882,0.9487 0.579922,0.72365 0.4223584,-0.42235 -0.76826,-3.34861 -2.428803,-5.96942 -0.639508,-1.00932 -1.162742,-1.92596 -1.162742,-2.03698 0,-0.11101 -0.573204,-1.03145 -1.273786,-2.04542 -2.02922,-2.93693 -7.102273,-13.76206 -7.346135,-15.67554 -0.133543,-1.04785 -1.090793,-2.45797 -1.998265,-2.94363 -0.700773,-0.37504 -0.726953,-0.33321 -0.489038,0.78134 0.529142,2.47885 2.728579,8.45376 4.47505195,12.15674 0.194187,0.41173 1.60231005,2.31673 3.12916205,4.23334 1.526853,1.9166 3.155184,4.2099 3.618516,5.09622 0.463331,0.88632 1.121395,2.03725 1.462363,2.55764 0.340969,0.52038 0.464362,0.94615 0.274206,0.94615 -0.190155,0 -1.061463,-1.23031 -1.936239,-2.73403 -0.874776,-1.50371 -2.742556,-4.0834 -4.150621,-5.73264 -3.474824,-4.06998 -4.141647,-5.57087 -7.970551,-17.94007 -0.08131,-0.26267 -0.373014,-0.39117 -0.648234,-0.28555 -0.715307,0.27449 -1.240378,-0.51208 -1.400449,-2.09789 -0.07619,-0.75477 -0.402447,-2.08669 -0.725025,-2.95982 -0.872909,-2.36271 -1.4585786,-5.00064 -1.3314996,-5.99722 0.06185,-0.48507 0.1334236,-2.46944 0.1590466,-4.40972 0.03859,-2.92252 -0.1164286,-4.0548 -0.9035416,-6.59954 -0.971635,-3.14129 -1.097073,-4.85095 -0.447591,-6.10046 0.214715,-0.41308 0.323361,-2.53352 0.262093,-5.11528 -0.06212,-2.61787 0.05258,-4.8182 0.282293,-5.41499 0.212817,-0.5529 0.701977,-2.44872 1.0870206,-4.21293 0.460225,-2.10867 1.123405,-3.91829 1.935653,-5.28182 0.679563,-1.140794 1.23557,-2.148304 1.23557,-2.238914 0,-0.0906 0.793791,-0.99205 1.76398,-2.00319 0.970188,-1.01114 2.438626,-2.691219 3.263194,-3.733511 2.692905,-3.403956 5.493286,-5.960776 7.24824,-6.617825 3.084148,-1.154698 4.4413194,-2.088335 4.7462434,-3.265074 0.156545,-0.604129 0.438838,-1.098413 0.627318,-1.098413 0.450377,0 0.442575,0.954962 -0.01008,1.234722 -0.900088,0.556285 -0.271274,0.929654 1.146527,0.680773 1.306333,-0.229316 2.213197,-0.365372 3.165941,-0.474987 0.140538,-0.01616 0.519359,-0.545334 0.841824,-1.175925 0.322466,-0.63059 1.080605,-1.718158 1.684754,-2.416813 0.604149,-0.698659 1.654079,-2.014876 2.333176,-2.92493 0.679097,-0.910053 1.404454,-1.846548 1.611909,-2.081103 0.470693,-0.532182 0.875766,-2.013958 0.550554,-2.013958 -0.345482,0 -2.162464,2.87529 -2.162464,3.422004 0,0.252204 -0.3175,0.458551 -0.705555,0.458551 -0.388056,0 -0.705556,-0.15875 -0.705556,-0.352778 0,-0.194028 0.238125,-0.352778 0.529167,-0.352778 0.291041,0 0.547479,-0.277812 0.569859,-0.617361 0.02237,-0.339548 0.07758,-0.776111 0.122658,-0.970139 0.04508,-0.194027 0.10614,-0.63059 0.135696,-0.970138 0.03171,-0.364265 0.342984,-0.617361 0.759287,-0.617361 0.388055,0 0.705555,-0.141768 0.705555,-0.315034 0,-0.610489 -1.104812,-0.729111 -1.90536,-0.204573 -0.620311,0.406446 -1.132445,0.455129 -2.186377,0.20785 l -1.376318,-0.322926 1.675694,-0.03544 c 0.921632,-0.01951 1.675695,-0.177204 1.675695,-0.350471 0,-0.595087 0.971585,-0.68693 1.941833,-0.183559 0.901792,0.467856 1.033254,0.441937 1.837415,-0.362223 0.612239,-0.612237 0.806693,-1.104222 0.663367,-1.678352 -0.111524,-0.446721 -0.11163,-0.613783 -2.4e-4,-0.371248 0.343309,0.747489 0.793309,0.486932 0.609272,-0.352778 -0.106098,-0.484099 -0.05794,-0.633453 0.123458,-0.38285 0.220796,0.305042 0.478614,0.271891 1.000739,-0.128676 0.486068,-0.372903 0.567108,-0.590639 0.26235,-0.704882 -0.242535,-0.09092 -0.435924,-0.509263 -0.429754,-0.929657 0.01044,-0.710521 0.04422,-0.720873 0.479866,-0.146991 0.734568,0.967677 1.069876,0.722218 0.403246,-0.295191 -0.328859,-0.501904 -0.518555,-0.991928 -0.421541,-1.088942 0.09701,-0.09701 0.457937,0.253308 0.802054,0.778493 l 0.625662,0.954883 0.637248,-0.786967 c 0.958081,-1.183181 0.812235,-2.02542 -0.39671,-2.290949 -0.568677,-0.124902 -1.243365,-0.484739 -1.499305,-0.799637 -0.407882,-0.501837 -0.37822,-0.53644 0.240206,-0.280208 1.690656,0.700489 2.5712,0.638489 3.024971,-0.212991 0.55886,-1.048677 4.373337,-6.761703 6.677748,-10.001406 0.966089,-1.358195 1.956319,-2.761918 2.200515,-3.119385 1.936362,-2.83457 3.560632,-4.885552 4.00377,-5.0556 0.990639,-0.380144 0.88368,0.151466 -0.280239,1.392864 -1.259054,1.34286 -4.161487,5.359071 -4.161487,5.758412 0,0.135018 -0.532193,0.896837 -1.182649,1.692931 -0.650458,0.796095 -1.440868,1.949039 -1.756466,2.5621 -0.315602,0.61306 -0.696221,1.168685 -0.845824,1.234722 -0.310218,0.136934 -2.565061,3.30771 -2.565061,3.607007 0,0.108129 -0.474296,0.875927 -1.053987,1.706218 -0.898455,1.286852 -1.255861,2.196783 -1.389243,3.536898 -0.01443,0.144865 -1.064291,1.332566 -2.333053,2.639336 -1.268762,1.30677 -2.407059,2.775258 -2.529554,3.263307 -0.369493,1.472184 -4.267042,7.101176 -6.11188,8.827021 -1.266644,1.184945 -1.751727,2.364634 -1.751727,4.260088 0,1.12655 -0.15875,2.146384 -0.352778,2.266301 -0.215761,0.133346 -0.352778,-0.415636 -0.352778,-1.413464 v -1.631492 l -1.499306,0.167714 c -2.077469,0.232393 -3.434316,0.60222 -4.6743054,1.274043 -0.582083,0.315373 -2.121571,1.01787 -3.421083,1.561105 -2.523581,1.054933 -4.112541,2.505819 -7.00039805,6.392093 -0.86508295,1.16417 -2.17960395,2.77596 -2.92116095,3.58176 -3.860358,4.194804 -4.995739,6.777374 -6.2575196,14.233524 -0.34387,2.03201 -0.06426,8.46667 0.3679056,8.46667 0.137635,0 0.738735,-0.2437 1.335778,-0.54154 1.20369,-0.60048 6.295914,-1.28476 7.56204995,-1.01617 0.445185,0.0944 1.90452905,0.27043 3.24298505,0.39109 2.113643,0.19054 2.496245,0.13366 2.910417,-0.43276 0.460986,-0.63044 0.477786,-0.62935 0.50471,0.0326 0.01532,0.37664 0.104989,0.49516 0.199268,0.26338 0.327497,-0.80513 -0.582722,-1.8402 -1.822803,-2.07284 -1.973659,-0.37026 -1.724424,-0.75083 0.377562,-0.57652 1.532904,0.12713 1.923678,0.0538 1.923678,-0.36116 0,-0.36855 -0.693989,-0.6357 -2.374991,-0.91425 -2.461601,-0.4079 -3.47958605,-0.13255 -2.634454,0.71258 0.232834,0.23283 0.423334,0.55033 0.423334,0.70556 0,0.52089 -0.531745,0.28877 -0.978974,-0.42735 -1.04494605,-1.67323 1.804014,-3.35388 3.244125,-1.91377 0.303412,0.30341 0.698305,0.46103 0.877539,0.35025 0.179234,-0.11077 0.721093,-0.0511 1.204132,0.13251 0.790109,0.3004 1.06747,0.12837 2.763631,-1.71404 1.0369594,-1.12638 2.2670314,-2.66457 2.7334934,-3.41819 1.688889,-2.72863 3.208831,-5.71409 3.208831,-6.30276 0,-0.33088 0.315715,-0.68416 0.701588,-0.78506 0.385874,-0.10091 0.618558,-0.31782 0.517078,-0.48202 -0.101481,-0.1642 0.61468,-1.11473 1.591468,-2.112294 1.366727,-1.3958 1.777202,-2.06972 1.781289,-2.92455 0.0082,-1.7164 0.780046,-3.545014 2.127382,-5.040107 1.244999,-1.381531 1.644093,-2.361932 2.636111,-6.475783 0.561851,-2.329959 2.572219,-5.855564 4.223575,-7.406936 0.479284,-0.45026 1.18345,-1.417291 1.564813,-2.148956 0.381367,-0.731668 0.848074,-1.619761 1.037131,-1.973544 0.189058,-0.353784 0.690475,-1.551406 1.114267,-2.661385 0.465543,-1.219337 1.455716,-2.755309 2.501625,-3.880555 0.952104,-1.024327 1.981503,-2.576787 2.287552,-3.449912 0.306049,-0.873125 0.701128,-1.863158 0.877954,-2.200074 0.176827,-0.336916 0.321501,-0.876656 0.321501,-1.199422 0,-0.322766 0.603617,-1.634608 1.341374,-2.915203 0.737753,-1.280596 1.93174,-3.836481 2.653301,-5.679744 0.825582,-2.108982 1.628274,-3.580447 2.165266,-3.969272 1.192572,-0.863523 1.562819,-0.08377 0.396021,0.834038 -0.501336,0.394349 -0.911518,0.991226 -0.911518,1.326394 0,0.335167 -0.133995,0.760208 -0.297772,0.944534 -0.163774,0.184327 -0.667735,1.287639 -1.119918,2.451806 -0.45218,1.164166 -1.350056,3.167045 -1.995283,4.450841 -0.645227,1.283796 -1.173138,2.514108 -1.173138,2.734027 0,0.768682 1.043778,0.390973 1.81967,-0.65848 0.83184,-1.125123 1.708108,-1.401067 1.708108,-0.537898 0,0.407369 0.188891,0.448618 0.869456,0.189869 1.463213,-0.556313 1.398595,0.245688 -0.170822,2.120184 -1.345943,1.607579 -2.027266,1.962545 -3.424086,1.783926 -0.82931,-0.106049 -2.599969,1.070991 -3.02248,2.009188 -0.234124,0.519872 -1.162318,1.663173 -2.062653,2.54067 -1.304089,1.271013 -1.685618,1.918269 -1.876199,3.182949 -0.644581,4.277353 -2.828205,9.383557 -5.075954,11.869645 -3.035995,3.357919 -3.403377,3.907973 -3.516517,5.265028 -0.135325,1.623162 -0.890443,3.158761 -2.232473,4.539936 -0.876515,0.902081 -1.207502,1.775226 -1.047136,2.762326 0.163072,1.00375 -3.351032,6.322014 -5.119883,7.748464 -0.417247,0.33648 -0.865876,1.05086 -0.996952,1.5875 -0.131077,0.53664 -0.601077,1.53134 -1.044444,2.21044 -0.443368,0.6791 -1.419657,2.1857 -2.169532,3.34801 -0.749874,1.1623 -2.2027144,3.02624 -3.2285334,4.14207 -1.025819,1.11583 -1.865125,2.32782 -1.865125,2.69331 0,0.36549 -0.08826,1.12093 -0.196134,1.67876 -0.176478,0.91259 -0.02622,1.11728 1.499305,2.04242 2.2565894,1.36847 3.9884954,3.02006 3.9884954,3.80352 0,0.35 0.119063,0.63659 0.264584,0.63687 0.14552,2.8e-4 0.30832,0.6382 0.361776,1.41759 0.05501,0.802 0.725224,2.6459 1.54414,4.24823 l 1.446947,2.83116 -0.07298,5.71722 c -0.10518,8.23984 -0.121616,8.02935 0.834638,10.68959 0.777862,2.16396 1.327202,4.48297 2.164834,9.13875 0.139632,0.77611 0.22599,3.50898 0.191905,6.07304 -0.05375,4.04349 0.03471,4.87417 0.666853,6.26181 0.862303,1.89287 1.706187,2.05893 4.238969,0.83417 0.873125,-0.42221 1.968094,-0.93859 2.43326,-1.14751 1.532689,-0.68836 8.435079,-0.39549 10.665569,0.45254 1.598087,0.60759 8.839087,1.52687 10.125696,1.2855 1.91631,-0.35951 4.086684,-1.50421 4.472817,-2.35906 0.191671,-0.42433 0.824741,-0.92157 1.406825,-1.10496 0.582083,-0.18339 1.326141,-0.5664 1.653466,-0.85113 0.327321,-0.28473 0.75415,-0.41941 0.948513,-0.29929 0.771155,0.4766 2.496023,4.0414 3.078268,6.36189 0.428156,1.70638 0.946521,2.80462 1.701113,3.60411 3.26632,3.46066 6.315346,9.87138 5.457401,11.47447 -0.36286,0.67801 -1.892564,0.86959 -2.255428,0.28247 z m 1.5875,-1.59883 c 0,-0.29727 -0.238125,-1.11041 -0.529167,-1.80697 -0.291041,-0.69656 -0.529166,-1.5329 -0.529166,-1.85853 0,-0.32563 -0.759489,-1.45718 -1.687749,-2.51455 -3.59911,-4.09973 -5.015029,-6.65705 -5.015029,-9.05775 0,-0.45977 -0.396875,-1.20376 -0.881945,-1.65331 -0.485069,-0.44954 -0.881944,-1.01743 -0.881944,-1.26197 0,-0.30982 -0.334225,-0.37777 -1.102431,-0.22413 -0.606336,0.12127 -1.400086,0.22049 -1.763889,0.22049 -0.767767,0 -0.888047,0.89156 -0.176106,1.30538 0.266943,0.15516 0.922754,1.12353 1.457353,2.15193 1.050396,2.02061 1.334936,5.4184 0.519021,6.19785 -0.320347,0.30602 -0.359587,0.0419 -0.168385,-1.13336 0.275022,-1.69054 -0.313496,-4.37563 -1.102589,-5.03052 -0.266859,-0.22147 -0.485196,-0.70572 -0.485196,-1.07611 0,-0.37039 -0.244973,-0.76743 -0.544382,-0.88233 -0.794159,-0.30475 -1.042392,0.12167 -0.476028,0.81773 0.432685,0.53178 0.417654,0.57617 -0.126118,0.37238 -0.925848,-0.34698 -0.743024,0.35344 0.264583,1.01365 1.352399,0.88613 1.008885,2.96617 -0.489853,2.96617 -0.374272,0 -0.289652,-0.21938 0.294563,-0.76366 0.783325,-0.72978 0.791111,-0.78457 0.175485,-1.23472 -0.354319,-0.25908 -0.833483,-0.47106 -1.06481,-0.47106 -0.231327,0 -0.509439,-0.33974 -0.618024,-0.75498 -0.177239,-0.67776 -0.33479,-0.72371 -1.54045,-0.44934 -2.03405,0.46288 -8.149873,0.22582 -10.338855,-0.40075 -6.396077,-1.83082 -8.065033,-1.84321 -13.050093,-0.0969 -3.277532,1.14816 -5.270853,1.29518 -5.823518,0.42952 -1.074876,-1.68362 -1.211859,-1.69002 -0.728987,-0.0341 0.67295,2.30778 1.160227,2.82542 2.422137,2.57304 0.802132,-0.16043 0.984239,-0.0937 0.831384,0.30464 -0.455122,1.18603 5.529763,3.19598 6.704475,2.25162 0.257975,-0.20739 0.494753,-0.19142 0.63972,0.0431 0.955826,1.54656 -6.454613,0.27119 -7.475263,-1.28653 -0.293941,-0.44861 -0.888266,-0.8155 -1.321029,-0.8155 -1.421543,0 -1.95087,-1.00223 -2.515309,-4.7625 -0.116499,-0.77611 -0.373073,-1.60736 -0.570163,-1.84723 -0.197091,-0.23986 -0.293226,-0.99392 -0.213633,-1.67569 0.07959,-0.68177 0.04449,-1.23958 -0.078,-1.23958 -0.122494,0 -0.232982,-1.30969 -0.245529,-2.91042 -0.01531,-1.95358 -0.251244,-3.54831 -0.71763,-4.85069 -1.272119,-3.5524 -1.534258,-4.74696 -1.470893,-6.70278 0.03457,-1.06715 0.0271,-3.05153 -0.0166,-4.40972 l -0.07946,-2.46945 -2.848263,-1.13811 c -2.2937924,-0.91656 -2.9491514,-1.05439 -3.3665124,-0.70801 -0.285037,0.23656 -1.963617,0.55831 -3.730178,0.71499 -1.76656,0.15669 -3.608804,0.33143 -4.09387305,0.38831 -0.48507,0.0569 -1.169126,0.12823 -1.520126,0.15855 -0.35099895,0.0303 -0.54006795,0.21386 -0.42015195,0.40789 0.134248,0.21721 -0.459767,0.35277 -1.54586,0.35277 -0.970139,0 -1.863603,-0.16134 -1.985474,-0.35853 -0.343717,-0.55614 -0.88118,-0.0396 -0.853594,0.82033 0.02307,0.71913 0.04339,0.72545 0.291923,0.0908 0.183635,-0.46894 0.347788,-0.55163 0.525192,-0.26459 0.141935,0.22966 0.566195,0.41756 0.942799,0.41756 0.376605,0 0.684736,0.15875 0.684736,0.35278 0,0.7236 0.061,0.89445 0.503833,1.41111 0.565804,0.66013 1.292357,3.54288 1.008631,4.00196 -0.115702,0.18721 -0.02709,0.22711 0.196918,0.0887 0.225527,-0.13938 0.423711,-0.0456 0.444092,0.21007 0.02024,0.25399 0.08005,1.01742 0.13289195,1.69652 0.05285,0.6791 0.270479,1.67128 0.483628,2.20486 0.469824,1.17611 1.265265,1.32849 0.920756,0.17639 -0.2368,-0.79191 2.89397505,4.09677 4.12310305,6.43819 0.356492,0.6791 1.760462,2.40497 3.119935,3.83526 2.3595744,2.4825 2.9277564,3.6024 2.090282,4.11998 -0.234257,0.14478 -0.336957,-0.0271 -0.266107,-0.44528 0.0743,-0.43858 -0.623158,-1.48847 -1.959057,-2.94897 -1.979338,-2.16396 -4.801684,-6.11391 -4.801684,-6.7201 0,-0.1572 -0.4917,-1.0454 -1.092667,-1.97377 -0.66700405,-1.03039 -0.99375805,-1.34438 -0.83876905,-0.80601 0.139645,0.48507 0.37252105,1.0407 0.51750305,1.23473 0.144981,0.19402 0.369651,0.94159 0.499267,1.66125 0.232772,1.29242 3.09533,6.76169 3.751132,7.16699 0.186194,0.11508 0.338534,0.44858 0.338534,0.74111 0,0.54241 1.345205,2.52374 2.639176,3.8872 0.856241,0.90222 2.2997134,3.52904 2.2997134,4.18499 0,0.25583 0.419755,1.41074 0.932789,2.56647 1.20797,2.72122 2.288749,3.40557 4.924501,3.11816 3.946112,-0.43029 4.527475,-0.87899 2.432988,-1.87778 -1.875624,-0.89442 -1.47551,-1.24646 0.440972,-0.38799 1.443923,0.6468 2.334412,0.74999 6.438195,0.74608 5.191407,-0.005 10.099322,-0.33833 10.719685,-0.72815 0.216048,-0.13576 0.661829,-0.20262 0.990621,-0.14858 0.328796,0.054 1.281296,-0.10005 2.116667,-0.34241 3.217728,-0.93353 8.605107,-1.14419 11.570434,-0.45242 2.36221,0.55106 2.729251,0.71573 2.378082,1.0669 -0.116353,0.11635 -0.779195,0.0242 -1.472982,-0.20476 -0.69379,-0.22897 -1.458489,-0.34572 -1.699334,-0.25943 -0.240841,0.0863 0.276479,0.3527 1.149604,0.59203 0.873125,0.23933 1.785938,0.59782 2.028473,0.79663 0.324153,0.26572 0.443946,0.1865 0.45219,-0.29907 0.01058,-0.624 0.03716,-0.62639 0.479866,-0.0432 0.257754,0.33955 0.728955,0.61736 1.047112,0.61736 0.318159,0 0.57847,0.12613 0.57847,0.28029 0,0.48851 3.487205,2.96143 3.855283,2.73394 0.498553,-0.30812 1.789162,1.08023 1.789162,1.92466 0,0.38806 0.15875,0.70556 0.352778,0.70556 0.194027,0 0.352777,0.21386 0.352777,0.47526 0,0.47467 1.194771,1.21961 2.028473,1.26475 0.242534,0.0131 0.440972,-0.21935 0.440972,-0.51662 z m -5.964474,-5.48788 c -0.443022,-0.59922 -1.306315,-1.30738 -1.918427,-1.57369 -0.915013,-0.3981 -0.976242,-0.48666 -0.3443,-0.49801 0.80452,-0.0145 3.288312,2.0717 3.288312,2.76187 0,0.59892 -0.144332,0.50179 -1.025585,-0.69017 z m -44.604348,-3.1662 c -1.012653,-0.99155 -1.298793,-1.50931 -1.129279,-2.04341 0.170817,-0.53819 -0.104545,-1.01922 -1.111927,-1.94242 -0.736434,-0.67489 -1.253188,-1.31286 -1.148343,-1.4177 0.104845,-0.10485 0.876111,0.43596 1.713926,1.2018 1.190006,1.08777 1.479403,1.56733 1.322673,2.19179 -0.164117,0.6539 0.05339,0.94556 1.195295,1.60275 0.767757,0.44186 1.395921,1.03677 1.395921,1.32202 0,0.83119 -0.781165,0.51191 -2.238266,-0.91483 z m 21.111877,-1.20499 c 0.970139,-0.26079 1.825594,-0.41327 1.901011,-0.33884 0.248517,0.24528 -1.751517,0.86111 -2.717726,0.83682 -0.666578,-0.0168 -0.424632,-0.16428 0.816715,-0.49798 z m -7.849728,-1.6818 c 0.200303,-0.60091 2.425086,-0.93053 5.321642,-0.78844 1.415764,0.0695 3.090231,-0.0879 4.056944,-0.38131 1.790069,-0.54326 6.213927,-0.69559 5.909797,-0.2035 -0.103237,0.16704 -1.198428,0.38485 -2.433754,0.48401 -1.235325,0.0992 -2.647597,0.44339 -3.138382,0.76497 -0.765764,0.50175 -1.236641,0.53221 -3.319705,0.21474 -2.531213,-0.38577 -5.206552,-0.34057 -5.642455,0.0953 -0.412874,0.41287 -0.912605,0.28974 -0.754087,-0.18581 z m 11.583292,0.29932 c 0.08085,-0.0772 1.643796,-0.24413 3.473224,-0.37092 1.829428,-0.12679 3.456616,-0.31112 3.615973,-0.4096 0.159356,-0.0985 0.289739,-0.0279 0.289739,0.15678 0,0.18472 -0.251107,0.43222 -0.55802,0.54999 -0.607663,0.23318 -7.060911,0.30295 -6.820916,0.0737 z m -13.94648,-1.23306 c 0.184326,-0.17331 1.206196,-0.4972 2.270823,-0.71976 1.064631,-0.22256 2.294943,-0.64005 2.734028,-0.92775 0.828001,-0.54252 1.134738,-0.15044 0.357371,0.45681 -0.386422,0.30185 -4.731695,1.50581 -5.434725,1.50581 -0.144449,0 -0.111824,-0.1418 0.0725,-0.31511 z m 7.567083,-1.17343 c -1.973668,-0.58595 -0.75486,-0.66699 1.940278,-0.12902 2.275466,0.45421 2.344744,0.49303 0.881944,0.49426 -0.873125,7.1e-4 -2.143125,-0.16363 -2.822222,-0.36524 z m -20.23876,-12.00521 c -0.116994,-0.43656 -0.210057,-1.19063 -0.206807,-1.6757 0.0075,-1.11344 0.494781,-0.3585 0.853943,1.32292 0.27633,1.29364 -0.309422,1.61295 -0.647136,0.35278 z m -9.8588354,-6.75076 c -1.115981,-2.35699 -2.81515105,-7.85322 -2.60654805,-8.4313 0.08502,-0.2356 0.42722,0.52414 0.76044805,1.68831 0.824111,2.87912 1.817435,5.57423 2.67146,7.24825 0.391367,0.76715 0.568183,1.3948 0.392927,1.3948 -0.175257,0 -0.723486,-0.85503 -1.218287,-1.90006 z m 6.814262,-1.89083 c -1.962419,-4.16513 -1.888917,-3.97022 -1.497136,-3.97022 0.179053,0 0.494511,0.35719 0.70102,0.79375 2.0453324,4.32388 2.8441534,6.26248 2.6338474,6.39188 -0.137627,0.0847 -0.964606,-1.36225 -1.8377314,-3.21541 z m 51.8583334,34.12978 c 0,-0.19403 -0.16812,-0.35278 -0.373599,-0.35278 -0.205479,0 -0.275484,0.15875 -0.155568,0.35278 0.119917,0.19403 0.288036,0.35278 0.373599,0.35278 0.08556,0 0.155568,-0.15875 0.155568,-0.35278 z m -0.705555,-2.07552 c 0,-0.1714 -0.277813,-0.40492 -0.617362,-0.51893 -0.886269,-0.29758 -1.905857,-0.99 -2.802847,-1.90347 -0.821665,-0.83675 -1.304146,-1.03016 -1.107105,-0.4438 0.130757,0.38912 3.845486,3.14851 4.26273,3.16645 0.145521,0.006 0.264584,-0.12885 0.264584,-0.30025 z m -49.036112,-4.98003 c 0,-0.19403 -0.07001,-0.35278 -0.155569,-0.35278 -0.08556,0 -0.253681,0.15875 -0.373597,0.35278 -0.119916,0.19402 -0.04991,0.35277 0.155569,0.35277 0.205478,0 0.373597,-0.15875 0.373597,-0.35277 z m -1.108864,-1.44981 c -0.760954,-0.48216 -1.1342794,-0.36238 -0.658248,0.2112 0.23977,0.2889 0.593657,0.42781 0.786415,0.30868 0.212889,-0.13157 0.162575,-0.33566 -0.128167,-0.51988 z m 39.032476,0.0387 c 0.119916,-0.19402 0.04991,-0.35277 -0.155568,-0.35277 -0.205479,0 -0.373599,0.15875 -0.373599,0.35277 0,0.19403 0.07,0.35278 0.155568,0.35278 0.08556,0 0.253682,-0.15875 0.373599,-0.35278 z M 18.30861,167.96087 c -0.0989,-0.67387 -0.262068,-0.92986 -0.424829,-0.6665 -0.296121,0.47913 -0.05239,1.76057 0.334871,1.76057 0.137794,0 0.178275,-0.49233 0.08996,-1.09407 z m 0.100193,-4.1094 c -0.08214,-0.92163 -0.235453,-2.86632 -0.340705,-4.32153 -0.179381,-2.4801 -1.377299,-7.54167 -2.254271,-9.525 -0.312401,-0.70651 -0.36446,-0.26506 -0.261717,2.21926 0.07054,1.70566 0.227609,3.20056 0.349042,3.32199 0.121433,0.12144 0.221765,0.47214 0.22296,0.77936 0.0012,0.30721 0.246801,1.02769 0.54579,1.60106 0.298989,0.57338 0.628858,2.31963 0.733043,3.88056 0.215659,3.23106 0.321855,3.71999 0.807967,3.71999 0.200013,0 0.283913,-0.71045 0.197891,-1.67569 z M -3.3984324,148.77022 c 0,-0.29104 -0.211666,-0.52917 -0.47037,-0.52917 -0.500746,0 -0.624655,0.43369 -0.235185,0.82315 0.393932,0.39393 0.705555,0.26409 0.705555,-0.29398 z m -1.357177,-1.17416 c 0.07747,-0.52649 -0.07226,-0.76612 -0.478715,-0.76612 -0.380794,0 -0.519123,0.18848 -0.388386,0.52917 0.111684,0.29104 0.03992,0.52917 -0.159465,0.52917 -0.199389,0 -0.259234,0.16713 -0.132988,0.3714 0.355748,0.57561 1.034355,0.18724 1.159554,-0.66362 z m 1.121992,-0.45498 c 0,-0.19402 -0.15875,-0.25466 -0.352778,-0.13475 -0.194027,0.11992 -0.352777,0.37678 -0.352777,0.57081 0,0.19403 0.15875,0.25466 0.352777,0.13475 0.194028,-0.11992 0.352778,-0.37678 0.352778,-0.57081 z m -2.822222,-1.01669 c 0,-0.19403 -0.07001,-0.35278 -0.155569,-0.35278 -0.08556,0 -0.253682,0.15875 -0.373598,0.35278 -0.119916,0.19403 -0.04991,0.35278 0.155569,0.35278 0.205479,0 0.373598,-0.15875 0.373598,-0.35278 z m 0.199738,-1.32292 c -0.04983,-0.33955 -0.260684,-0.61736 -0.468553,-0.61736 -0.20787,0 -0.497007,-0.11906 -0.642528,-0.26458 -0.14552,-0.14552 -0.07379,-0.26459 0.159403,-0.26459 0.310246,0 0.325763,-0.18353 0.05784,-0.68414 -0.248466,-0.46427 -0.250403,-0.75568 -0.006,-0.90671 0.225405,-0.13931 0.115432,-0.57621 -0.29398,-1.16794 -1.076607,-1.55602 -1.276181,-1.9639 -0.824293,-1.68461 0.525042,0.32449 0.514825,0.2153 -0.133109,-1.42254 -0.485339,-1.22684 -0.485339,-1.29623 0,-0.68121 0.297217,0.37663 0.540394,0.8832 0.540394,1.1257 0,0.24251 0.181767,0.55326 0.403927,0.69057 0.278819,0.17231 0.348603,-0.0398 0.225308,-0.68474 -0.09824,-0.51391 -0.02337,-0.93438 0.166386,-0.93438 0.189751,0 0.25797,-0.33281 0.151597,-0.73958 -0.220773,-0.84423 0.03605,-1.72986 0.501636,-1.72986 0.173269,0 0.315035,0.31512 0.315035,0.70026 0,0.38514 0.47625,1.47426 1.058333,2.42026 1.220689,1.98387 1.262783,2.17115 0.488022,2.17115 -0.392172,0 -0.514,-0.21534 -0.390032,-0.68939 0.123528,-0.47237 -0.100809,-0.87357 -0.712624,-1.27445 -0.885695,-0.58033 -0.891037,-0.57761 -0.661581,0.33661 0.127228,0.50692 0.09156,0.92167 -0.07926,0.92167 -0.383057,0 -0.08952,1.70131 0.339259,1.96631 0.170861,0.1056 0.310656,0.66825 0.310656,1.25033 0,0.6773 0.139156,0.97233 0.386509,0.81946 0.388468,-0.24009 0.295437,-1.84041 -0.183358,-3.15415 -0.141428,-0.38806 0.151068,-0.0706 0.64999,0.70555 0.934108,1.45307 1.157451,2.13439 0.583368,1.77959 -0.524641,-0.32425 -0.832208,1.20111 -0.357516,1.77308 0.448505,0.54042 1.720699,0.36601 2.144759,-0.29403 0.123828,-0.19273 0.401641,-0.24134 0.617361,-0.10802 0.221602,0.13696 0.39222,0.0108 0.39222,-0.29005 0,-0.29285 0.270313,-0.68373 0.60069595,-0.86862 0.456404,-0.25542 0.50619,-0.4503 0.207261,-0.81128 -0.31386595,-0.37902 -0.171473,-0.49119 0.704063,-0.5546 0.603624,-0.0437 1.34379405,0.13894 1.64482205,0.40591 0.785853,0.69694 3.013591,1.23873 3.590582,0.87324 0.358385,-0.22702 0.277883,-0.30832 -0.30923,-0.31232 -0.436562,-0.003 -0.79375,-0.19061 -0.79375,-0.41697 0,-0.22637 -0.09827,-0.3133 -0.218386,-0.19319 -0.120112,0.12011 -0.442206,-0.005 -0.715765,-0.27899 -0.273558,-0.27356 -0.730909,-0.40777 -1.016336,-0.29824 -0.285426,0.10953 -0.518957,0.0165 -0.518957,-0.20684 0,-0.22329 -0.199314,-0.36022 -0.442919,-0.30428 -0.24360605,0.0559 -0.82338605,-0.27875 -1.28840005,-0.74377 -0.810558,-0.81055 -0.818621,-0.86511 -0.19521,-1.32096 0.357649,-0.26152 0.476041,-0.47549 0.263093,-0.47549 -0.213494,0 -0.304409,-0.31651 -0.20267,-0.70556 0.219899,-0.84089 0.565034,-0.89394 1.159085,-0.17815 0.35253605,0.42478 0.32662005,0.69693 -0.133194,1.3987 -0.542044,0.82726 -0.53153,0.89236 0.20804505,1.28817 0.428417,0.22928 1.02373,0.45227 1.322917,0.49552 1.071065,0.15486 2.131475,0.61129 2.131475,0.91746 0,0.1714 0.1905,0.31164 0.423333,0.31164 0.319714,0 0.323756,-0.0996 0.01651,-0.40683 -0.287276,-0.28727 -0.300253,-0.60594 -0.04416,-1.08445 0.296744,-0.55448 0.229623,-0.71243 -0.36929,-0.86905 -0.402571,-0.10527 -0.731947,-0.33164 -0.731947,-0.50304 0,-0.1714 -0.15875,-0.31163 -0.352778,-0.31163 -0.66364,0 -0.353856,0.72787 0.440972,1.03611 0.694911,0.26949 0.646341,0.30519 -0.390052,0.28666 -1.133726,-0.0202 -1.175988,-0.0693 -0.999073,-1.15951 0.101601,-0.62609 0.0072,-1.31584 -0.20967,-1.53275 -0.290681,-0.29068 -0.28016,-0.3944 0.04001,-0.3944 0.238922,0 0.525782,0.23812 0.637465,0.52916 0.111683,0.29104 0.353801,0.52917 0.53804,0.52917 0.560478,0 -0.875891,-2.11463 -1.456667,-2.14452 -0.387758,-0.0199 -0.411255,-0.08 -0.08284,-0.21162 0.361293,-0.14481 0.336626,-0.36971 -0.116383,-1.06108 -0.316165,-0.48253 -0.502465,-0.94971 -0.414001,-1.03817 0.160094,-0.1601 1.183765,1.39724 2.464844,3.74983 0.369795,0.6791 1.006717,1.49757 1.415383,1.81882 0.630658,0.49576 0.672435,0.66915 0.276249,1.14653 -0.310231,0.3738 -0.333978,0.56243 -0.07081,0.56243 0.217785,0 0.395973,-0.15875 0.395973,-0.35278 0,-0.81006 0.692031,-0.26388 1.101939,0.8697 0.243129,0.67236 0.640101,1.29847 0.882162,1.39136 0.502781,0.19294 -0.27826,-2.3628 -0.980761,-3.20926 -0.21908,-0.26398 -0.307003,-0.57128 -0.195385,-0.6829 0.111618,-0.11162 0.603126,0.58678 1.092239,1.552 0.489114,0.96522 1.134787,1.84915 1.43483,1.96429 0.733911,0.28162 0.694015,0.0999 -0.336413,-1.53241 -0.485069,-0.7684 -0.881944,-1.55899 -0.881944,-1.75688 0,-0.19788 -0.15875,-0.35978 -0.352778,-0.35978 -0.194028,0 -0.352778,-0.23813 -0.352778,-0.52917 0,-0.67419 0.331967,-0.66759 1.420811,0.0283 l 0.872245,0.55744 -0.801333,-0.70832 c -0.440733,-0.38957 -0.657158,-0.79742 -0.480945,-0.90632 0.176214,-0.10891 0.516565,0.0384 0.756335,0.32727 0.681761,0.82147 1.0917934,0.61788 0.832918,-0.41356 -0.241907,-0.96383 -2.189553,-2.92024 -3.356229,-3.37132 -0.692276,-0.26766 -0.917159,-1.33428 -0.281315,-1.33428 0.205478,0 0.27977,-0.15182 0.165091,-0.33738 -0.114678,-0.18555 -0.441548,-0.24794 -0.726375,-0.13864 -0.354328,0.13597 -0.517869,-0.036 -0.517869,-0.54457 0,-0.40882 -0.15875,-0.7433 -0.352778,-0.7433 -0.670386,0 -0.343978,-0.5307 0.594413,-0.96644 1.069466,-0.49661 1.457776,-0.33518 0.877015,0.36459 -0.293882,0.35411 -0.255985,0.66916 0.150256,1.24915 0.298792,0.42659 0.691146,0.68421 0.871898,0.5725 0.350719,-0.21675 0.452824,0.1989 0.388168,1.58018 -0.0379,0.80974 -0.0053,0.82479 0.56058,0.25888 0.446969,-0.44697 0.509634,-0.75745 0.244716,-1.21248 -0.374055,-0.64249 -0.281679,-2.20308 0.129851,-2.19367 0.492128,0.0113 1.8715594,3.35648 1.6359274,3.96726 -0.182231,0.47236 -0.103888,0.56924 0.326705,0.40401 0.31153,-0.11955 0.478586,-0.35948 0.371236,-0.53317 -0.327868,-0.5305 0.567083,-0.35114 1.148375,0.23015 0.710747,0.71075 0.979434,0.42093 0.478141,-0.51575 -0.261586,-0.48877 -0.27118,-0.73577 -0.02858,-0.73577 0.200854,0 0.36519,0.15875 0.36519,0.35278 0,0.19403 0.169447,0.35278 0.376551,0.35278 0.229566,0 0.278555,-0.30876 0.125502,-0.79099 -0.219629,-0.69198 -0.181078,-0.73291 0.308035,-0.32698 0.307496,0.2552 0.490813,0.65083 0.40737,0.87918 -0.189512,0.51862 0.425443,1.5357 0.738964,1.22218 0.126992,-0.12699 0.09837,-0.4399 -0.06361,-0.69534 -0.161979,-0.25544 -0.296938,-0.57836 -0.299909,-0.71759 -0.003,-0.13923 -0.270173,-0.56238 -0.593782,-0.94032 -0.323609,-0.37795 -0.482359,-0.80542 -0.352778,-0.94994 0.129581,-0.14452 0.03458,-0.14697 -0.211125,-0.005 -0.245699,0.14154 -0.366547,0.38706 -0.268551,0.54562 0.20751,0.33576 -1.207736,0.7736 -1.638999,0.50707 -0.160356,-0.0991 -0.291556,-0.4284 -0.291556,-0.73175 0,-0.43479 -0.105364,-0.4641 -0.49776,-0.13844 -0.340273,0.28241 -0.570091,0.29607 -0.7263754,0.0432 -0.125739,-0.20345 -0.07536,-0.36991 0.1119554,-0.36991 0.82612,0 -0.1684944,-1.54543 -1.3314914,-2.06887 -1.990576,-0.89591 -2.823632,-1.83581 -2.465591,-2.78182 0.430586,-1.13769 0.965759,-0.97848 1.094549,0.32561 0.06167,0.62442 0.344524,1.18224 0.639713,1.26158 0.412383,0.11083 0.427332,0.0705 0.06774,-0.18269 -0.496542,-0.34963 -0.233986,-2.19825 0.312213,-2.19825 0.166904,0 0.219457,-0.21891 0.116786,-0.48647 -0.116496,-0.30358 -0.60968,-0.45098 -1.311845,-0.39206 -0.871611,0.0731 -1.102874,0.24239 -1.026236,0.75106 0.07744,0.51395 -0.09897,0.43699 -0.811841,-0.35421 -0.500927,-0.55596 -0.814627,-1.10699 -0.697113,-1.2245 0.117514,-0.11752 0.375866,0.0199 0.574116,0.30528 0.282254,0.40637 0.400336,0.42009 0.544291,0.0633 0.124405,-0.30838 0.319132,-0.34341 0.602335,-0.10838 0.638202,0.52966 1.584338,-0.15142 1.009247,-0.72651 -0.569345,-0.56935 -0.567196,-1.12613 0.003,-0.76411 0.242535,0.154 0.599722,0.28417 0.79375,0.28926 0.194028,0.005 0.303112,0.36472 0.242409,0.79916 -0.08361,0.59839 0.06605,0.78989 0.617361,0.78989 0.752151,0 1.0101434,-0.55263 0.359277,-0.76958 -0.202648,-0.0676 -0.395475,-0.48156 -0.428504,-0.92003 -0.03848,-0.51086 -0.231209,-0.73153 -0.53656,-0.61435 -0.340728,0.13075 -0.412899,-0.0176 -0.253278,-0.52049 0.127808,-0.40273 0.06228,-0.70333 -0.153335,-0.70333 -0.207103,0 -0.336863,0.19844 -0.288356,0.44097 0.04851,0.24253 -0.149931,0.44097 -0.440973,0.44097 -0.308272,0 -0.485895,-0.25771 -0.425507,-0.61736 0.164549,-0.98001 -0.531625,-0.71583 -0.786161,0.29833 -0.130899,0.52154 -0.05284,1.12894 0.18134,1.41111 0.33044,0.39815 0.268248,0.49542 -0.316767,0.49542 -0.874988,0 -1.38337,-0.67898 -0.785189,-1.04868 0.314498,-0.19437 0.28123,-0.32039 -0.125811,-0.47659 -0.894376,-0.3432 -1.389682,0.97468 -0.911203,2.42449 0.220986,0.6696 0.565217,1.21745 0.764956,1.21745 0.199739,0 0.274887,0.23004 0.166996,0.5112 -0.139045,0.36235 -0.02163,0.44995 0.403229,0.30085 0.472884,-0.16594 0.511326,-0.11503 0.182136,0.2412 -0.229493,0.24835 -0.642773,0.36501 -0.918401,0.25924 -0.645413,-0.24767 -2.133791,-3.07638 -1.618693,-3.07638 0.233085,0 0.328673,-0.48858 0.241565,-1.23472 -0.134417,-1.15138 -0.07749,-1.23472 0.843348,-1.23472 0.715897,0 0.979835,-0.1698 0.959645,-0.61737 -0.0168,-0.37244 -0.09873,-0.44154 -0.20652,-0.17419 -0.222626,0.55221 -0.823963,0.21995 -0.823963,-0.45526 0,-0.39053 0.197566,-0.4245 0.904911,-0.15556 1.12615,0.42816 1.211756,0.42754 1.211756,-0.009 0,-0.19402 -0.3175,-0.35277 -0.705556,-0.35277 -0.388055,0 -0.705555,-0.14531 -0.705555,-0.32291 0,-0.17761 -0.651974,-0.2814 -1.448831,-0.23066 -0.796857,0.0507 -2.076326,-0.0225 -2.84326505,-0.16273 -1.109926,-0.20297 -1.356411,-0.15591 -1.208074,0.23065 0.13032,0.33961 -0.102037,0.48402 -0.77270795,0.48025 -0.729635,-0.004 -0.834843,-0.084 -0.439787,-0.33381 0.44081,-0.27877 0.422103,-0.36569 -0.123798,-0.57516 -0.353693,-0.13573 -0.746119,-0.10458 -0.872058,0.0692 -0.125938,0.1738 -0.943354,0.33384 -1.816479,0.35566 -2.698782,0.0675 -5.4850736,0.84843 -6.0800146,1.70419 -0.61562,0.88551 0.185351,6.03714 0.8726086,5.6124 0.215303,-0.13307 0.275419,-0.0681 0.1399,0.15116 -0.2896096,0.4686 0.430988,5.39282 0.867868,5.93059 0.172129,0.21188 0.235326,0.46288 0.14044,0.55776 -0.256481,0.25648 -0.652699,4.12405 -0.601405,5.87043 0.02545,0.86631 0.367399,2.0439 0.793922,2.73403 0.412074,0.66675 0.580097,1.21227 0.373383,1.21227 -0.225376,0 -0.14012,0.49431 0.212955,1.23472 0.616018,1.2918 1.88202,1.74722 1.716192,0.61736 z m 2.269706,-1.14653 c 0,-0.19402 0.168119,-0.35277 0.373598,-0.35277 0.205479,0 0.268242,-0.17047 0.139473,-0.37882 -0.128768,-0.20836 0.0994,-0.17054 0.507033,0.084 0.676992,0.42278 0.687823,0.48397 0.12511,0.7068 -0.889764,0.35233 -1.145214,0.33911 -1.145214,-0.0592 z m 1.598028,-1.45756 c 0.143527,-0.45952 0.433401,-0.94592 0.644165,-1.08089 0.210764,-0.13497 0.260111,-0.3685 0.109659,-0.51895 -0.150451,-0.15045 -0.415514,-0.0438 -0.589028,0.23691 -0.252113,0.40792 -0.38172,0.33501 -0.645255,-0.363 -0.361154,-0.95656 -0.186099,-1.47314 0.25652,-0.75697 0.152565,0.24686 0.699813,0.49387 1.216105,0.54892 1.23838495,0.13203 1.51482195,0.45053 0.63374195,0.73018 -0.39038495,0.1239 -0.75953595,0.56253 -0.82033495,0.97472 -0.0608,0.41219 -0.325641,0.82034 -0.588537,0.907 -0.356482,0.11751 -0.411655,-0.0548 -0.217036,-0.67792 z m -1.25052,-0.71384 c -0.482171,-0.39163 -0.678237,-0.60953 -0.435702,-0.48422 0.272627,0.14085 0.446364,-0.0158 0.455097,-0.41036 0.01035,-0.46786 0.158952,-0.37094 0.556774,0.36315 0.691405,1.27581 0.527012,1.42744 -0.576169,0.53143 z m -4.946246,-0.35602 c -0.403973,-0.7877 -0.394511,-0.79716 0.215002,-0.215 0.350665,0.33493 0.540821,0.70571 0.42257,0.82396 -0.118251,0.11825 -0.405159,-0.15578 -0.637572,-0.60896 z m 9.890405,-1.70591 c 0,-0.19403 0.15875,-0.35278 0.352778,-0.35278 0.194028,0 0.352778,0.15875 0.352778,0.35278 0,0.19403 -0.15875,0.35278 -0.352778,0.35278 -0.194028,0 -0.352778,-0.15875 -0.352778,-0.35278 z m -3.433042,-0.44486 c -0.744268,-0.96249 -0.756096,-1.60107 -0.03316,-1.79013 0.73719,-0.19278 0.73506,-1.08144 -0.0028,-1.16049 -0.226366,-0.0243 -0.573348,-0.064 -0.771073,-0.0882 -0.204024,-0.025 -0.263769,-0.42552 -0.138145,-0.92604 0.13639,-0.54342 0.07126,-0.88195 -0.169668,-0.88195 -0.215056,0 -0.391016,0.16812 -0.391016,0.3736 0,0.20548 -0.15875,0.27549 -0.352778,0.15557 -0.194027,-0.11991 -0.352777,-0.0499 -0.352777,0.15557 0,0.20548 0.185208,0.3736 0.411574,0.3736 0.226365,0 0.307118,0.10446 0.179449,0.23212 -0.127668,0.12767 -0.0645,0.4341 0.140371,0.68095 0.275006,0.33137 0.181876,0.55085 -0.355839,0.83862 -0.486214,0.26022 -0.728333,0.2684 -0.728333,0.0246 0,-0.20086 0.153768,-0.36519 0.341706,-0.36519 0.187938,0 0.250678,-0.23722 0.139423,-0.52714 -0.111256,-0.28993 -0.34258,-0.44044 -0.514054,-0.33446 -0.171474,0.10598 -0.207237,-0.0797 -0.07947,-0.41267 0.150894,-0.39322 0.09621,-0.52125 -0.156053,-0.36535 -0.213594,0.13201 -0.49381,0.0694 -0.622702,-0.13917 -0.134092,-0.21697 -0.662254,-0.2852 -1.234569,-0.1595 -0.792477,0.17406 -1.083946,0.0632 -1.403344,-0.53356 -0.395906,-0.73976 -0.386868,-0.74259 0.504637,-0.15846 0.777012,0.50912 0.907762,0.51865 0.907762,0.0662 0,-0.29072 -0.3175,-0.61162 -0.705555,-0.7131 -0.388056,-0.10148 -0.705556,-0.37756 -0.705556,-0.61351 0,-0.31888 0.121516,-0.32815 0.473431,-0.0361 0.853979,0.70874 0.939189,-0.0314 0.162677,-1.413 -0.418877,-0.74529 -0.675352,-1.44132 -0.569947,-1.54672 0.105407,-0.10541 0.391025,0.28969 0.634709,0.878 0.243684,0.5883 0.661927,1.08948 0.929429,1.11374 1.027797,0.0932 1.16999,0.14585 1.615257,0.59822 0.378871,0.38493 0.289931,0.42428 -0.511528,0.22634 -1.057136,-0.26108 -1.230281,0.10276 -0.604949,1.2712 0.43411,0.81114 1.576433,0.94882 1.271125,0.1532 -0.236771,-0.61702 0.169516,-0.6989 0.722757,-0.14566 0.276169,0.27618 0.45392,0.2696 0.635048,-0.0235 0.138343,-0.22384 0.02186,-0.59486 -0.25885,-0.82448 -0.796585,-0.65163 -2.13259,-3.06335 -1.696978,-3.06335 0.214655,0 0.562587,0.43656 0.773181,0.97014 0.355593,0.90096 0.402366,0.91982 0.655871,0.26458 0.188449,-0.48708 0.06718,-0.93106 -0.39163,-1.43384 -0.365532,-0.40057 -0.668133,-0.87682 -0.672447,-1.05834 -0.0043,-0.18152 -0.318285,-0.72691 -0.697711,-1.21198 -0.74873,-0.9572 -0.877978,-1.41111 -0.401801,-1.41111 0.167066,0 0.683003,0.75406 1.146528,1.67569 0.944363,1.87769 1.393124,2.32479 1.862404,1.85551 0.191447,-0.19145 0.07503,-0.69381 -0.289822,-1.25064 -0.335388,-0.51187 -0.53376,-1.00671 -0.440826,-1.09964 0.09293,-0.0929 0.531726,0.47647 0.975093,1.26533 0.789705,1.40509 1.381757,1.84261 1.381757,1.02111 0,-0.22726 -0.262729,-0.70351 -0.583843,-1.05834 -0.336245,-0.37154 -0.414497,-0.64513 -0.184522,-0.64513 0.219627,0 0.668242,0.41042 0.996921,0.91205 0.50847195,0.77603 0.52283895,0.95857 0.09633,1.22395 -0.402641,0.25054 -0.417615,0.44694 -0.0761,0.99815 0.34409495,0.55537 0.32259995,0.77136 -0.112721,1.13265 -0.295842,0.24552 -0.462344,0.73531 -0.370006,1.08841 0.250569,0.95818 -0.297787,0.77495 -0.767765,-0.25654 -0.554424,-1.21682 -0.515831,-1.3918 0.180939,-0.82034 0.530052,0.43472 0.566573,0.39409 0.357595,-0.39778 -0.128012,-0.48507 -0.234916,-1.08038 -0.237566,-1.32292 -0.0026,-0.24253 -0.259926,-0.44097 -0.571727,-0.44097 -0.367416,0 -0.492979,0.19266 -0.356818,0.54749 0.120472,0.31395 0.06133,0.45555 -0.138646,0.33196 -0.591931,-0.36584 -0.386401,0.93666 0.406146,2.57384 0.63126,1.30401 0.67459,1.61656 0.264584,1.90855 -0.379819,0.27048 -0.348179,0.30326 0.140415,0.14544 0.380641,-0.12294 0.710323,0.004 0.831493,0.3195 0.110428,0.28777 0.446523,0.52322 0.74687795,0.52322 0.483853,0 0.481074,0.0718 -0.02438,0.63037 -0.33016795,0.36483 -0.48885895,0.94248 -0.37672095,1.3713 0.226582,0.86645 -0.340412,1.36331 -0.831308,0.72847 z m 0.61082,-0.61347 c 0,-0.19403 -0.168119,-0.35278 -0.373598,-0.35278 -0.205478,0 -0.275485,0.15875 -0.155569,0.35278 0.119916,0.19403 0.288035,0.35278 0.373598,0.35278 0.08556,0 0.155569,-0.15875 0.155569,-0.35278 z m -2.465195,0.008 c -0.304601,-0.56916 -0.274406,-0.65965 0.163976,-0.49143 0.295531,0.11341 0.53733,0.42733 0.53733,0.69762 0,0.68908 -0.263654,0.61157 -0.701306,-0.20619 z m 5.640195,-0.38154 c 0,-0.20548 0.15875,-0.27549 0.352778,-0.15557 0.194027,0.11992 0.352777,0.28804 0.352777,0.3736 0,0.0856 -0.15875,0.15557 -0.352777,0.15557 -0.194028,0 -0.352778,-0.16812 -0.352778,-0.3736 z m -1.43677405,-2.36043 c -0.470955,-0.92163 -0.860478,-1.83444 -0.865606,-2.02847 -0.0051,-0.19403 -0.144529,-0.56897 -0.309779,-0.83319 -0.18514795,-0.29605 -0.13323395,-0.58376 0.13527,-0.74971 0.261829,-0.16182 0.340775,-0.56845 0.197812,-1.01889 -0.41195495,-1.29796 0.350967,-0.81413 1.182175,0.7497 0.71119905,1.33806 0.72092905,1.41312 0.09047,0.69798 -0.388543,-0.44074 -0.795547,-0.65716 -0.904453,-0.48095 -0.108906,0.17622 0.04588,0.5228 0.34397,0.7702 0.404877,0.33601 0.434686,0.51611 0.11784,0.71193 -0.315362,0.19491 -0.246626,0.5648 0.268011,1.44225 0.90959705,1.55087 1.22435205,2.41484 0.87974805,2.41484 -0.153546,0 -0.66450105,-0.75406 -1.13545605,-1.67569 z m 6.37566305,1.32292 c 0,-0.19403 0.3175,-0.35278 0.705555,-0.35278 0.388056,0 0.705556,0.15875 0.705556,0.35278 0,0.19402 -0.3175,0.35277 -0.705556,0.35277 -0.388055,0 -0.705555,-0.15875 -0.705555,-0.35277 z m -14.816667,-0.88195 c -0.204885,-0.53889 -0.293143,-1.05917 -0.196129,-1.15618 0.09701,-0.097 0.344022,0.26452 0.548907,0.8034 0.204885,0.53889 0.293143,1.05918 0.196129,1.15619 -0.09701,0.097 -0.344022,-0.26452 -0.548907,-0.80341 z m 13.503811,0.0884 c 0.188481,-0.52898 -1.858852,-4.49816 -2.320181,-4.49816 -0.177653,0 -0.228464,0.24637 -0.112914,0.54749 0.127857,0.33319 0.06417,0.45731 -0.162696,0.31709 -0.205033,-0.12671 -0.287572,-0.45246 -0.18342,-0.72387 0.104152,-0.27142 0.04058,-0.49349 -0.141267,-0.49349 -0.181848,0 -0.228692,-0.26565 -0.104097,-0.59034 0.188718,-0.4918 0.392999,-0.39095 1.223651,0.60403 0.548412,0.65691 0.997113,1.33003 0.997113,1.49583 0,0.1658 0.396875,0.82178 0.881945,1.45774 1.024929,1.34375 1.096912,1.81365 0.323299,2.11052 -0.356919,0.13696 -0.501876,0.055 -0.401433,-0.22684 z m 1.665634,-0.6176 c 0,-0.19403 0.238125,-0.35278 0.529166,-0.35278 0.291042,0 0.529167,0.15875 0.529167,0.35278 0,0.19402 -0.238125,0.35277 -0.529167,0.35277 -0.291041,0 -0.529166,-0.15875 -0.529166,-0.35277 z m -3.70244,-0.70277 c -0.118966,-0.19249 -0.06368,-0.62271 0.122862,-0.95603 0.27832,-0.49733 0.32921,-0.43459 0.283677,0.34973 -0.0616,1.06106 -0.09484,1.11064 -0.406539,0.6063 z m -12.121667,-4.14795 c -0.384952,-0.8996 -0.376244,-0.92035 0.119762,-0.28535 0.294195,0.37663 0.5349,0.8132 0.5349,0.97014 0,0.53619 -0.2393,0.28588 -0.654662,-0.68479 z m 1.795416,-0.22457 c -0.263622,-0.57859 -0.287378,-0.92196 -0.06378,-0.92196 0.429193,0 0.806139,0.87707 0.618666,1.43949 -0.07414,0.22244 -0.323842,-0.0104 -0.554881,-0.51753 z m 13.852302,0.48915 c -0.119916,-0.19402 0.04645,-0.35277 0.369701,-0.35277 0.344838,0 0.513135,-0.19439 0.407232,-0.47037 -0.09927,-0.25871 0.04932,-0.47037 0.330215,-0.47037 0.295417,0 0.429955,0.21045 0.319144,0.49922 -0.105364,0.27457 -0.19157,0.64499 -0.19157,0.82315 0,0.43615 -0.961215,0.41369 -1.234722,-0.0289 z m -4.909302,-1.36323 c -0.1196,-0.19352 -0.611746,-0.28035 -1.09365905,-0.19296 -0.481913,0.0874 -0.876206,0.0213 -0.876206,-0.14682 0,-0.16813 -0.3175,-0.67178 -0.705556,-1.11921 -0.65113095,-0.75076 -0.91222695,-1.41111 -0.55793795,-1.41111 0.08119,0 0.48386395,0.54406 0.89483295,1.20902 0.587233,0.95017 0.928461,1.17617 1.59371705,1.05553 0.784604,-0.14228 1.542255,0.3774 1.138651,0.781 -0.09701,0.097 -0.274243,0.0181 -0.393842,-0.17545 z m 1.281039,-0.94799 c -0.443322,-0.68429 -0.711766,-1.3967 -0.596541,-1.58313 0.115224,-0.18644 0.04138,-0.33898 -0.164099,-0.33898 -0.205478,0 -0.373597,0.14382 -0.373597,0.31959 0,0.17577 -0.373524,0.14331 -0.830054,-0.0721 -0.55712505,-0.26292 -0.77437605,-0.60463 -0.66072205,-1.03924 0.156123,-0.59702 0.218134,-0.60336 0.79503005,-0.0813 0.382962,0.34657 0.710398,0.4292 0.844024,0.21299 0.120078,-0.19429 0.9536,0.43282 1.852271,1.39357 0.898672,0.96075 1.517582,1.86319 1.375356,2.00541 -0.142226,0.14223 -0.500157,-0.0587 -0.795402,-0.44641 -0.526359,-0.69127 -0.532203,-0.68954 -0.300162,0.0888 0.353451,1.18552 -0.23273,0.95069 -1.146104,-0.45914 z m -9.535915,0.26583 c -0.321822,-0.43995 -0.491361,-0.48257 -0.634282,-0.15947 -0.298618,0.67509 -1.477964,0.52428 -1.887739,-0.24139 -0.200855,-0.3753 -0.36519,-1.07028 -0.36519,-1.54441 0,-0.47413 -0.246275,-1.45148 -0.547277,-2.17188 -0.3010016,-0.7204 -0.3906536,-1.21301 -0.1992266,-1.09471 0.5198166,0.32127 1.8489456,4.07826 1.5906426,4.4962 -0.14616,0.2365 0.01957,0.23179 0.478015,-0.0136 0.385959,-0.20656 0.801992,-0.27531 0.924517,-0.15279 0.411184,0.41119 0.227991,-0.27282 -0.378067,-1.41164 -0.330462,-0.62096 -0.564391,-1.31542 -0.519841,-1.54325 0.04455,-0.22783 -0.212062,-0.50725 -0.570249,-0.62093 -0.754595,-0.23951 -1.9585816,-2.5394 -1.6179176,-3.0906 0.1268416,-0.20524 0.4493766,0.14711 0.7167446,0.78299 0.551519,1.31168 1.498681,2.16271 2.151131,1.93281 0.251789,-0.0887 0.440972,0.12995 0.440972,0.5097 0,0.3658 0.198438,0.74516 0.440972,0.84302 0.263434,0.1063 0.192419,0.18915 -0.176388,0.20579 -0.763279,0.0344 -0.768398,-0.0505 0.117671,1.9526 0.768533,1.7374 0.784886,2.34596 0.03551,1.32153 z m 12.091338,-0.44752 c -0.127893,-0.20694 -0.156874,-0.45191 -0.0644,-0.54438 0.09247,-0.0925 0.262137,0.0768 0.377032,0.37625 0.238542,0.62163 0.03523,0.73097 -0.312632,0.16813 z m -8.782257,-1.63701 c -0.191447,-0.50278 -0.150926,-0.5433 0.197483,-0.19748 0.241095,0.2393 0.349487,0.52396 0.240871,0.63257 -0.108615,0.10862 -0.305875,-0.0872 -0.438354,-0.43509 z m -5.291667,-0.35278 c -0.191447,-0.50278 -0.150925,-0.5433 0.197484,-0.19748 0.241094,0.2393 0.349486,0.52396 0.240871,0.63258 -0.108616,0.10861 -0.305876,-0.0872 -0.438355,-0.4351 z m 2.876721,-0.85897 c -0.345607,-0.60714 -0.530379,-1.20145 -0.410605,-1.32069 0.284386,-0.28312 1.568148,1.30419 1.568148,1.93895 0,0.81346 -0.492195,0.55057 -1.157543,-0.61826 z m 4.68531995,-0.12638 c 0,-0.32338 0.170657,-0.53108 0.379237,-0.46155 0.208579,0.0695 0.379236,0.27722 0.379236,0.46155 0,0.18433 -0.170657,0.39202 -0.379236,0.46155 -0.20858,0.0695 -0.379237,-0.13817 -0.379237,-0.46155 z m -1.86140195,-0.62885 c -0.685691,-0.84507 -0.776465,-1.31143 -0.255264,-1.31143 0.194028,0 0.352778,0.23315 0.352778,0.5181 0,0.31559 0.206829,0.43872 0.529166,0.31503 0.329926,-0.1266 0.529167,0.002 0.529167,0.34303 0,0.88198 -0.502277,0.94076 -1.155847,0.13527 z m -4.232773,-2.10518 c -0.291567,-0.63059 -0.639444,-1.5434 -0.77306,-2.02847 -0.196874,-0.71472 -0.09792,-0.65297 0.521871,0.32564 0.977911,1.54405 1.475029,2.84936 1.085162,2.84936 -0.167118,0 -0.542405,-0.51594 -0.833973,-1.14653 z m 1.508064,0.26459 c 0,-0.29105 0.06239,-0.52917 0.138646,-0.52917 0.07626,0 0.230023,0.23812 0.341706,0.52917 0.111683,0.29104 0.04929,0.52916 -0.138646,0.52916 -0.187938,0 -0.341706,-0.23812 -0.341706,-0.52916 z m 7.306208,-0.52882 c -0.101428,-0.38786 -0.05855,-0.78299 0.09527,-0.87806 0.405543,-0.25064 1.16737,0.77975 0.898349,1.21503 -0.358207,0.57959 -0.792445,0.43233 -0.993621,-0.33697 z m -6.719372,-0.50645 c -0.151058,-0.39364 -0.09048,-0.50514 0.182711,-0.3363 0.276778,0.17106 0.332406,0.0538 0.172348,-0.3633 -0.129987,-0.33874 -0.23877,-0.72197 -0.241741,-0.85163 -0.003,-0.12965 -0.144658,-0.0158 -0.314859,0.25291 -0.244029,0.38532 -0.404272,0.31073 -0.75791,-0.35278 -0.408999,-0.76739 -0.396817,-0.79881 0.13847,-0.35725 0.497465,0.41038 0.588558,0.41038 0.597651,0 0.0073,-0.3283 0.12648,-0.28542 0.370307,0.1332 0.197769,0.33955 0.589817,0.61736 0.871217,0.61736 0.2814,0 0.499104,0.27781 0.483786,0.61736 -0.02027,0.44933 -0.08113,0.4828 -0.223589,0.12298 -0.144773,-0.36565 -0.307267,-0.28598 -0.624077,0.30598 -0.369737,0.69086 -0.459253,0.71979 -0.654314,0.21147 z m 2.72681,-0.4047 c 0.117773,-0.30691 0.214132,-0.62441 0.214132,-0.70555 0,-0.0811 0.3175,-0.14754 0.705556,-0.14754 0.86912495,0 0.89836395,0.30502 0.08819,0.92003 -0.838123,0.63622 -1.266786,0.60776 -1.007882,-0.0669 z m 2.57028195,0.30733 c -0.106111,-0.17169 -0.0645,-0.51997 0.09247,-0.77396 0.216838,-0.35085 0.347938,-0.3606 0.54570605,-0.0406 0.143167,0.23165 0.101553,0.57993 -0.09247,0.77396 -0.19736505,0.19736 -0.43777105,0.21526 -0.54570605,0.0406 z m -9.20003895,-0.66653 c -0.125551,-0.32718 -0.148899,-0.67425 -0.05188,-0.77126 0.09701,-0.097 0.279112,0.0913 0.404663,0.41848 0.125551,0.32718 0.148899,0.67425 0.05189,0.77127 -0.09701,0.097 -0.279112,-0.0913 -0.404663,-0.41849 z m 8.78416695,-1.19945 c -0.119916,-0.19402 -0.142269,-0.35277 -0.04967,-0.35277 0.0926,0 0.419465,-0.0964 0.726376,-0.21414 0.36617705,-0.14051 0.55801905,-0.0192 0.55801905,0.35278 0,0.62235 -0.88732205,0.77624 -1.23472205,0.21413 z M 14.113323,142.773 c -0.168565,-1.03875 -0.09505,-1.23914 0.463152,-1.26257 0.39251,-0.0165 0.478563,-0.10214 0.210686,-0.20974 -0.249058,-0.10004 -0.692349,0.0169 -0.98509,0.25984 -0.403152,0.33459 -0.631315,0.34267 -0.940639,0.0333 -0.22461,-0.2246 -0.55703,-0.40837 -0.738711,-0.40837 -0.18168,0 0.08819,0.41852 0.599723,0.93005 0.511527,0.51153 0.93005,1.14653 0.93005,1.41111 0,0.26458 0.14877,0.48106 0.330599,0.48106 0.181829,0 0.240433,-0.55562 0.13023,-1.23472 z m -11.3969404,0.48903 c 0,-0.20429 -0.195013,-0.30643 -0.433362,-0.22698 -0.238349,0.0795 -0.73864,-0.13996 -1.111759,-0.48757 -0.79370405,-0.73945 -1.28251905,-0.57696 -1.04113605,0.3461 0.119765,0.45798 0.525402,0.6624 1.37799205,0.69446 0.664546,0.025 1.208265,-0.12173 1.208265,-0.32601 z m 9.1658034,-0.40084 c -0.0035,-0.24253 -0.479781,-1.13955 -1.058333,-1.99336 -0.578553,-0.85382 -1.0519144,-1.42452 -1.0519144,-1.26824 0,0.15628 -0.3175,-0.003 -0.705556,-0.35437 -0.935707,-0.8468 -0.890003,-0.53787 0.219957,1.48679 1.1277034,2.05702 1.7277394,2.73875 1.3693994,1.55584 -0.173876,-0.57398 -0.130803,-0.76189 0.136739,-0.59654 0.214814,0.13276 0.390572,0.54952 0.390572,0.92612 0,0.37661 0.15875,0.68474 0.352778,0.68474 0.194027,0 0.349889,-0.19844 0.346358,-0.44098 z m -5.2073184,-0.83776 c -0.14771,-0.77269 -0.23036,-0.83062 -0.49934,-0.34998 -0.328878,0.58767 -0.116719,1.27594 0.39331,1.27594 0.155671,0 0.203384,-0.41668 0.10603,-0.92596 z m 6.5057094,-1.98446 c -0.09786,-0.24253 -0.177936,-0.0441 -0.177936,0.44097 0,0.48507 0.08007,0.68351 0.177936,0.44098 0.09787,-0.24254 0.09787,-0.63941 0,-0.88195 z m -20.3419724,-0.0674 c 0,-0.0856 -0.15875,-0.25368 -0.352777,-0.3736 -0.194028,-0.11992 -0.352778,-0.0499 -0.352778,0.15557 0,0.20548 0.15875,0.3736 0.352778,0.3736 0.194027,0 0.352777,-0.07 0.352777,-0.15557 z m 19.1775744,-0.3736 c 0.111683,-0.29104 0.06628,-0.52917 -0.100902,-0.52917 -0.16718,0 -0.39534,0.23813 -0.507023,0.52917 -0.111683,0.29104 -0.06628,0.52917 0.100902,0.52917 0.16718,0 0.39534,-0.23813 0.507023,-0.52917 z m 3.200969,-0.13942 c 0.107351,-0.1737 -0.04203,-0.40684 -0.331958,-0.5181 -0.320202,-0.12287 -0.52714,0.001 -0.52714,0.31581 0,0.57058 0.551259,0.70038 0.859098,0.20229 z m -1.446869,-1.5429 c -0.10364,-0.1677 0.09138,-0.50951 0.433375,-0.75958 0.403305,-0.29491 0.53653,-0.67692 0.379121,-1.08713 -0.231035,-0.60206 -0.273447,-0.60028 -0.883035,0.0372 -0.554109,0.57944 -0.687297,1.4044 -0.44984,2.78628 0.03334,0.19403 0.206465,0.12224 0.384719,-0.15954 0.178254,-0.28178 0.239301,-0.64953 0.13566,-0.81722 z m -1.645403,0.26845 c 0.116704,-0.3506 -1.242728,-1.40143 -1.491354,-1.15281 -0.07042,0.0704 -0.03444,0.48599 0.07997,0.92347 0.205972,0.78764 1.173228,0.94481 1.411388,0.22934 z m 0.591265,-1.66031 c 0.211973,-0.81059 -0.359683,-1.4483 -0.963665,-1.07502 -0.190413,0.11768 -0.03924,0.33417 0.335934,0.48109 0.375177,0.14692 0.483702,0.27829 0.241168,0.29192 -0.242535,0.0136 -0.440973,0.26293 -0.440973,0.55397 0,0.8105 0.59725,0.62865 0.827536,-0.25196 z m -3.0697164,-2.21724 c -0.04531,-0.78517 -0.538726,-1.28719 -0.607033,-0.61761 -0.01485,0.14552 -0.08017,0.5424 -0.145174,0.88195 -0.065,0.33955 0.0891,0.61736 0.34245,0.61736 0.269692,0 0.439544,-0.36548 0.409757,-0.8817 z m 4.3588474,0.52892 c 0,-0.19403 -0.15875,-0.35278 -0.352778,-0.35278 -0.194027,0 -0.352777,0.15875 -0.352777,0.35278 0,0.19403 0.15875,0.35278 0.352777,0.35278 0.194028,0 0.352778,-0.15875 0.352778,-0.35278 z m -6.7027784,-1.76389 c 0,-0.19403 -0.15875,-0.35278 -0.352777,-0.35278 -0.194028,0 -0.352778,0.15875 -0.352778,0.35278 0,0.19403 0.15875,0.35278 0.352778,0.35278 0.194027,0 0.352777,-0.15875 0.352777,-0.35278 z m 5.1770364,-2.68954 c 0.125582,-1.13959 0.07586,-1.24523 -0.400151,-0.85017 -0.593455,0.49252 -0.762975,1.60029 -0.190774,1.24666 0.194028,-0.11992 0.352778,-0.0499 0.352778,0.15556 0,0.20548 -0.168119,0.3736 -0.373597,0.3736 -0.205479,0 -0.268958,0.16931 -0.141064,0.37625 0.349825,0.56603 0.59338,0.14483 0.752808,-1.3019 z m -0.804817,-1.0441 c 0.131842,-0.34358 0.053,-0.50486 -0.204791,-0.41893 -0.527346,0.17579 -0.817702,0.97757 -0.354014,0.97757 0.189438,0 0.4409,-0.25139 0.558805,-0.55864 z m -1.197219,-0.44549 c 0,-0.67413 -1.1375184,-2.51635 -1.4387994,-2.33014 -0.508903,0.31452 -0.381074,1.21826 0.204077,1.44281 0.291042,0.11168 0.529167,0.4242 0.529167,0.69448 0,0.27028 0.15875,0.49143 0.3527784,0.49143 0.194027,0 0.352777,-0.13436 0.352777,-0.29858 z m 1.293519,-2.28846 c 0,-0.25871 -0.211667,-0.47037 -0.470371,-0.47037 -0.506346,0 -0.614945,0.3258 -0.235185,0.70555 0.37976,0.37976 0.705556,0.27117 0.705556,-0.23518 z m -1.8226854,-1.29352 c -0.119916,-0.19403 -0.36741,-0.35278 -0.549987,-0.35278 -0.182577,0 -0.331958,0.15875 -0.331958,0.35278 0,0.19403 0.247494,0.35278 0.549987,0.35278 0.302492,0 0.4518744,-0.15875 0.331958,-0.35278 z m -6.386339,-11.70046 c -0.09993,-0.16169 -0.331071,-0.29398 -0.513648,-0.29398 -0.182577,0 -0.331958,0.13229 -0.331958,0.29398 0,0.16169 0.231142,0.29398 0.513649,0.29398 0.282506,0 0.431887,-0.13229 0.331957,-0.29398 z M 30.165475,78.214667 c 1.925807,-3.91559 1.859252,-4.469458 -0.146572,-1.219765 -0.853052,1.382053 -1.487357,2.065761 -1.80383,1.944321 -0.285651,-0.109615 -0.392021,-0.03182 -0.256441,0.187544 0.127419,0.20617 -0.07567,0.720287 -0.451302,1.142488 -0.884075,0.993662 -2.21561,3.333834 -2.204611,3.874604 0.01662,0.816148 3.835136,-3.83982 4.862756,-5.929192 z m -8.75187,-4.7625 c 0,-0.194028 -0.15875,-0.352778 -0.352777,-0.352778 -0.194028,0 -0.352778,0.15875 -0.352778,0.352778 0,0.194028 0.15875,0.352778 0.352778,0.352778 0.194027,0 0.352777,-0.15875 0.352777,-0.352778 z M 39.052494,62.187052 c 0,-0.180953 0.299801,-0.424158 0.666225,-0.540456 0.885624,-0.281086 2.646955,-1.932176 2.36353,-2.215599 -0.123067,-0.123069 -0.468853,0.126154 -0.768407,0.553828 -0.299554,0.427674 -1.089653,1.005309 -1.755775,1.283632 -1.126638,0.470739 -1.661117,1.2476 -0.85835,1.2476 0.194027,0 0.352777,-0.148053 0.352777,-0.329005 z m 3.50907,-0.903572 c 0.474779,-0.47449 0.750951,-0.974994 0.613717,-1.11223 -0.137237,-0.137236 -0.453037,0.02881 -0.701777,0.368978 -0.248744,0.340174 -1.080541,0.925624 -1.848439,1.301001 l -1.396182,0.682502 1.234722,-0.188771 c 0.679098,-0.103824 1.62318,-0.57699 2.097959,-1.05148 z m -48.3100514,55.47216 c -0.750169,-1.14355 -1.412908,-2.72628 -1.412908,-3.37425 0,-0.84238 0.558298,-0.0832 1.033763,1.40575 0.227391,0.71209 0.643444,1.48559 0.92456,1.71889 0.281117,0.23331 0.511122,0.56351 0.511122,0.73378 0,0.56349 -0.527995,0.32154 -1.056537,-0.48417 z m 2.467648,-2.42958 c 0,-0.71384 1.758443,-4.185 2.120065,-4.185 0.16118595,0 -0.195432,0.99218 -0.792485,2.20486 -1.268471,2.57639 -1.32758,2.66455 -1.32758,1.98014 z m 4.07034295,-1.53917 c 0.139547,-0.38805 0.33344905,-1.07457 0.43089405,-1.52558 0.234927,-1.08734 1.620017,-1.5707 3.686507,-1.28648 1.441712,0.19828 1.606622,0.30004 1.179116,0.72754 -0.523777,0.52378 -1.056515,0.68283 -0.778532,0.23244 0.08981,-0.14552 -0.569506,-0.26459 -1.465159,-0.26459 -1.524844,0 -1.681847,0.0898 -2.467504,1.41112 -0.46147505,0.77611 -0.72486905,1.09361 -0.58532205,0.70555 z m -7.68632295,-1.96854 c -0.339553,-0.19777 -0.85549,-0.82006 -1.146528,-1.38286 -0.62321,-1.20516 -0.648952,-1.4111 -0.176381,-1.4111 0.194028,0 0.352778,0.21045 0.352778,0.46767 0,0.65729 1.510145,2.00178 2.248418,2.00178 0.338494,0 0.517331,0.15875 0.397415,0.35277 -0.274728,0.44452 -0.881559,0.43429 -1.675702,-0.0282 z m 2.925211,-0.90137 c -0.02551,-0.69086 0.937246,-2.70277 1.137949,-2.37803 0.105146,0.17014 -0.104551,0.8649 -0.465994,1.54392 -0.361442,0.67901 -0.663822,1.05436 -0.671955,0.83411 z m 12.567621,-1.42222 c -0.342241,-0.34224 -0.288043,-1.17592 0.07645,-1.17592 0.171397,0 0.394661,0.3175 0.496139,0.70555 0.181342,0.69346 -0.110094,0.93287 -0.572587,0.47037 z m -6.585572,-0.8352 c 0.0011,-0.52478 3.878573,-3.87939 5.02747,-4.3495 1.504725,-0.61573 1.841289,-0.0801 0.352778,0.56146 -1.512864,0.65202 -3.96875,2.38248 -3.96875,2.79645 0,0.21946 0.254693,0.26652 0.617361,0.11408 0.339548,-0.14273 1.014236,-0.32498 1.499305,-0.40501 0.81049,-0.13373 0.7962,-0.10131 -0.176388,0.40014 l -1.058334,0.54566 1.058334,-0.20336 c 0.803,-0.15429 0.960925,-0.10417 0.654585,0.20772 -0.395868,0.40305 -4.007121,0.70263 -4.006361,0.33236 z m -3.534466,-0.52564 c -0.566921,-0.6831 -0.349977,-0.90074 0.63984195,-0.64189 0.428089,0.11195 0.778344,0.42315 0.778344,0.69156 0,0.65157 -0.861239,0.62141 -1.41818595,-0.0497 z m 2.809218,-0.78522 c 0.186273,-0.33955 0.609499,-1.22725 0.940503,-1.97268 0.593517,-1.3366 1.351631,-1.95828 1.818602,-1.49131 0.131534,0.13154 0.07815,0.34959 -0.118622,0.48456 -0.196775,0.13497 -0.827178,0.99918 -1.400894,1.92046 -0.971014,1.55928 -1.99301605,2.43236 -1.239589,1.05897 z m -8.443835,0 c 0.0015,-0.14552 0.398389,-0.44809 0.881944,-0.67237 0.935383,-0.43384 1.155411,-0.18593 0.455859,0.51362 -0.468975,0.46897 -1.342108,0.57258 -1.337803,0.15875 z m 4.495164,-2.08907 c -1.135295,-0.30808 -0.633941,-0.77735 0.809215,-0.75744 0.89672095,0.0124 1.37781195,0.16795 1.29528395,0.41886 -0.144408,0.43905 -1.14251295,0.59963 -2.10449895,0.33858 z M 13.14338,101.5862 c 0.28465,-0.92604 0.447038,-1.14981 0.671511,-0.92534 0.269481,0.26948 -0.219677,1.71909 -0.580092,1.71909 -0.184936,0 -0.225948,-0.3561 -0.09142,-0.79375 z m -17.1297754,0.12644 c 0,-0.35975 1.752541,-0.87274 2.030832,-0.59446 0.101028,0.10103 -0.245539,0.34688 -0.770149,0.54634 -1.163219,0.44226 -1.260683,0.44598 -1.260683,0.0481 z m 6.851673,-1.31093 c 0.329206,-2.327954 0.536703,-2.960654 0.970955,-2.960654 0.201711,0 0.283159,0.21783 0.180995,0.48406 -0.102164,0.26624 -0.296217,1.22069 -0.431227,2.121014 -0.135011,0.90032 -0.407322,1.73696 -0.605135,1.85922 -0.237768,0.14695 -0.276942,-0.36265 -0.115588,-1.50364 z m 6.201105,0.42723 c 0,-0.0935 0.635,-0.903664 1.4111114,-1.800384 0.776111,-0.89673 1.411111,-1.96528 1.411111,-2.37457 0,-0.69923 1.537143,-4.503688 2.727169,-6.749785 0.415489,-0.784211 0.438139,-1.070553 0.101156,-1.278819 -0.31142,-0.192469 -0.323091,-0.337027 -0.04127,-0.5112 0.615835,-0.380608 0.877353,0.800753 0.470629,2.12598 -0.203179,0.662019 -0.294464,1.203671 -0.202856,1.203671 0.524677,0 1.836235,-0.923463 2.680983,-1.887668 0.582831,-0.665248 0.879811,-0.846801 0.740259,-0.452544 -0.210287,0.594096 -0.150299,0.615728 0.614193,0.221481 0.465982,-0.240308 1.283804,-0.844102 1.81738,-1.341765 0.702416,-0.65514 0.970139,-0.757566 0.970139,-0.371168 0,0.846684 -1.353982,1.849077 -4.657534,3.448113 -2.139693,1.035688 -3.135383,1.719859 -3.285675,2.257696 -0.724155,2.591458 -2.427653,5.822468 -3.53613,6.706952 -0.6713634,0.53569 -1.2206614,0.8975 -1.2206614,0.80401 z M 0.60511855,99.490346 c -0.003,-0.3281 0.153348,-0.69465 0.347375,-0.81457 0.44647505,-0.27594 0.44647505,0.19108 0,0.88194 -0.29471,0.456044 -0.34272,0.446724 -0.347375,-0.0674 z M 15.063605,97.861226 c 0,-0.43623 2.511505,-2.25959 2.764245,-2.00685 0.230167,0.23016 -0.667872,1.2339 -1.103968,1.2339 -0.203499,0 -0.660311,0.26273 -1.015137,0.58384 -0.363139,0.32864 -0.64514,0.4113 -0.64514,0.18911 z M 3.7825606,94.354246 c 0.0043,-0.14552 0.318284,-0.661455 0.697711,-1.146525 0.454128,-0.58057 0.688714,-0.701117 0.686492,-0.352777 -0.0019,0.291041 -0.214265,0.806979 -0.472019,1.146527 -0.486723,0.641175 -0.925769,0.810975 -0.912184,0.352775 z m 2.108822,-2.545225 c 0,-0.187202 0.3175,-0.510286 0.705556,-0.717966 0.77703,-0.415855 0.948121,-0.0309 0.282222,0.635 -0.510056,0.510056 -0.987778,0.550181 -0.987778,0.08297 z m -4.131489,-0.499632 c 0.16103,-0.489659 1.662045,-0.746143 1.662045,-0.283997 0,0.184905 -0.403167,0.413258 -0.895927,0.507457 -0.565407,0.108084 -0.848038,0.02565 -0.766118,-0.22346 z m 7.317709,-1.303369 c -0.0062,-0.305725 0.345968,-0.876378 0.78253,-1.268116 1.1135994,-0.999257 5.2074484,-3.404909 5.4246764,-3.187682 0.188673,0.188672 -0.227302,0.50868 -3.396204,2.612682 -1.067152,0.70854 -2.1336664,1.538168 -2.3700304,1.84362 -0.390966,0.505241 -0.430765,0.505196 -0.440972,-3.53e-4 z m 8.8082254,-2.435334 c 0,-0.44794 0.442798,-2.015938 1.042082,-3.690133 0.474176,-1.324684 0.631631,-7.06e-4 0.199298,1.675726 -0.439356,1.70375 -1.24138,3.005208 -1.24138,2.014407 z m 2.116666,-4.466022 c 0,-0.453955 1.702361,-2.070506 1.935209,-1.837662 0.09575,0.09575 -0.300496,0.628791 -0.880555,1.184522 -0.580058,0.555734 -1.054654,0.849644 -1.054654,0.65314 z m -7.9375,-0.73841 c 0.499483,-0.501385 2.645834,-0.857186 2.645834,-0.438601 0,0.189177 -0.277813,0.346124 -0.617361,0.348773 -0.339549,0.0028 -1.014237,0.103622 -1.499306,0.224385 -0.589742,0.146819 -0.765064,0.102238 -0.529167,-0.134557 z m -2.3797964,-1.68959 c -1.073552,-0.729499 -1.287922,-1.069195 -1.192408,-1.889531 0.06405,-0.550075 0.212404,-1.155396 0.329682,-1.345159 0.117278,-0.189759 0.308319,-0.887282 0.424534,-1.550052 0.116215,-0.662767 0.382839,-1.363783 0.592499,-1.557811 0.2673514,-0.247417 0.3258284,-0.122523 0.1958014,0.41819 -0.1230254,0.511595 0.0092,0.846448 0.392979,0.995334 0.527898,0.204784 0.524496,0.264048 -0.03899,0.679034 -0.339549,0.25007 -0.6173614,0.616169 -0.6173614,0.813555 0,0.197386 -0.228689,0.548679 -0.508197,0.780651 -0.650769,0.540089 -0.34775,1.333236 0.627627,1.642809 0.7410404,0.235197 1.6107454,1.107323 1.6332394,1.637788 0.01966,0.463536 -0.495068,0.288696 -1.8394104,-0.624808 z m 3.6145194,0.203479 c 0,-0.138497 0.806888,-0.62974 1.793084,-1.09165 1.155865,-0.54138 1.990972,-1.220996 2.349923,-1.912387 0.306261,-0.589904 0.620264,-0.884876 0.697786,-0.655493 0.352715,1.043661 -0.938994,2.474023 -2.879861,3.188988 -1.078513,0.397294 -1.960932,0.609039 -1.960932,0.470542 z m -1.411112,-0.725199 c 0,-0.194027 0.198438,-0.353755 0.440973,-0.35495 0.242534,-0.0011 0.901154,-0.242161 1.463597,-0.535478 1.494353,-0.779308 1.518839,-0.384161 0.03061,0.493917 -1.395855,0.823574 -1.935177,0.934081 -1.935177,0.396511 z m 11.288889,-0.910766 c 0,-0.112868 0.539186,-0.86693 1.198189,-1.675694 0.659003,-0.808768 1.797505,-2.581734 2.530006,-3.939928 1.570542,-2.912083 1.506742,-2.820157 1.772726,-2.554173 0.314737,0.314739 -2.303001,5.165049 -3.710856,6.8757 -1.117504,1.357853 -1.790065,1.844069 -1.790065,1.294095 z M 12.823093,74.155856 c -0.218365,-1.091826 0.0068,-2.1148 0.465446,-2.1148 0.525417,0 -0.0767,-1.729311 -0.643747,-1.848882 -0.463149,-0.09766 -0.411539,-0.214955 0.256524,-0.582996 0.499917,-0.275408 0.739872,-0.304676 0.596542,-0.07276 -0.144701,0.234131 0.04825,0.387974 0.486594,0.387974 1.016849,0 0.904818,-0.58007 -0.217713,-1.127278 -0.993566,-0.484341 -1.518974,-1.342167 -0.822062,-1.342167 0.586639,0 2.471706,1.965792 2.471706,2.577552 0,0.283337 -0.3175,0.598186 -0.705555,0.699665 -0.413914,0.108241 -0.705556,0.481195 -0.705556,0.902269 0,0.394768 -0.168044,0.821619 -0.373431,0.948555 -0.210079,0.129837 -0.278203,0.664369 -0.155736,1.221959 0.119733,0.54514 0.06898,1.083077 -0.112783,1.195412 -0.181763,0.112335 -0.424866,-0.267691 -0.540229,-0.844501 z M 9.7765506,73.875059 c -0.67656,-0.330856 -1.28302,-0.876296 -1.347689,-1.212095 -0.116893,-0.606978 2.8861584,-4.135308 3.2283884,-3.793078 0.09587,0.09587 -0.447853,0.88254 -1.208277,1.748152 -0.7604254,0.865613 -1.3825904,1.693069 -1.3825904,1.838795 0,0.372449 1.3682064,1.063491 1.6998294,0.858537 0.445864,-0.275561 1.233921,0.376492 0.970381,0.802912 -0.310864,0.502987 -0.476036,0.482491 -1.9600424,-0.243223 z m 4.9342774,-0.77567 c 0,-0.194027 0.168119,-0.352777 0.373597,-0.352777 0.205479,0 0.275485,0.15875 0.155569,0.352777 -0.119916,0.194028 -0.288034,0.352778 -0.373597,0.352778 -0.08556,0 -0.155569,-0.15875 -0.155569,-0.352778 z m 3.761231,-2.385361 c -0.129529,-0.625626 0.06696,-1.481859 0.557624,-2.429911 0.78137,-1.509756 2.522215,-2.87273 2.896226,-2.267566 0.114452,0.185184 -0.05566,0.484301 -0.378026,0.664704 -0.322361,0.180404 -0.475082,0.507661 -0.339376,0.727238 0.312685,0.505934 0.910654,0.51989 0.910654,0.02125 0,-0.207886 0.266478,-0.644449 0.592169,-0.970138 0.554376,-0.554368 0.548746,-0.599936 -0.08819,-0.71395 -0.374199,-0.06698 -1.156614,-0.574044 -1.738697,-1.126802 -0.582084,-0.552758 -1.693334,-1.152955 -2.469445,-1.33377 -0.776111,-0.180815 -1.569861,-0.377069 -1.763889,-0.43612 -0.651458,-0.198263 -2.627121,1.245099 -3.02918,2.213032 -0.218965,0.527144 -0.619163,1.141894 -0.889329,1.366113 -0.270167,0.224218 -0.491213,0.705731 -0.491213,1.070029 0,0.364298 -0.15875,0.66236 -0.352778,0.66236 -0.615313,0 -0.383313,-1.02357 0.581298,-2.564649 1.111019,-1.774986 3.656764,-4.490906 4.20951,-4.490906 0.215329,0 0.676031,-0.314395 1.023782,-0.698656 1.180304,-1.304221 3.95708,-1.232562 4.838357,0.124862 0.158687,0.244423 0.551935,0.09151 1.107927,-0.43082 0.91814,-0.862547 3.049658,-0.973829 3.31227,-0.172927 0.09333,0.284644 -0.28877,0.353198 -1.250012,0.224268 -0.912862,-0.12244 -1.478665,-0.03323 -1.661068,0.261909 -0.174001,0.281539 -0.134571,0.359802 0.106274,0.21095 0.210601,-0.130158 0.472341,-0.09195 0.581649,0.08492 0.248592,0.402231 -0.615117,0.748275 -1.867655,0.748275 -0.701509,0 -0.968491,0.18696 -1.007558,0.705556 -0.05427,0.720491 0.552821,0.938092 1.155365,0.414119 0.692736,-0.602402 3.306837,-1.202917 4.228952,-0.971481 0.775536,0.194647 0.917953,0.136258 0.747991,-0.306662 -0.249685,-0.650667 0.161456,-0.717995 0.755696,-0.123754 0.760226,0.760227 0.451408,0.987778 -1.340555,0.987778 -1.468699,0 -1.763889,0.107142 -1.763889,0.640217 0,0.384339 0.493486,0.875543 1.234722,1.229014 1.126458,0.537171 1.673588,1.305769 0.92952,1.305769 -0.309404,0 -1.789462,-1.074655 -3.008704,-2.184588 -0.502765,-0.457689 -0.832552,-0.520151 -1.332798,-0.252428 -0.860958,0.460771 -0.523064,1.004175 0.501918,0.807182 l 0.793397,-0.152486 -0.794318,0.416156 c -0.64898,0.340012 -0.912255,0.309425 -1.438888,-0.167173 -0.801984,-0.725786 -1.118183,-0.738633 -1.118183,-0.04543 0,0.712997 1.311364,1.176439 2.729964,0.964783 0.875316,-0.130598 1.199501,-0.02182 1.386385,0.465192 0.143133,0.372995 0.07218,0.692896 -0.171718,0.774195 -0.242503,0.08083 -0.331318,0.47451 -0.213215,0.945075 0.164595,0.6558 0.03602,0.838341 -0.687998,0.976745 -0.489733,0.09362 -1.04158,0.01906 -1.226323,-0.165681 -0.212675,-0.212678 -0.427605,-0.04695 -0.585897,0.451782 -0.19576,0.61679 -0.318166,0.681896 -0.564208,0.300095 -0.265641,-0.412212 -0.364818,-0.408922 -0.641572,0.02128 -0.225989,0.351283 -0.148632,0.639551 0.249806,0.930895 0.750573,0.548832 1.496215,0.252876 1.256725,-0.498812 -0.160723,-0.50445 -0.133213,-0.512847 0.193258,-0.059 0.58244,0.809678 0.466616,1.309168 -0.353293,1.523579 -0.925353,0.241985 -2.256603,-0.900705 -1.957475,-1.680218 0.265098,-0.690836 -0.08873,-1.668208 -0.509736,-1.408014 -0.428748,0.264979 -0.401242,1.822994 0.03696,2.09382 0.509154,0.314673 0.434869,0.970841 -0.08819,0.779051 -0.242535,-0.08893 -0.401285,-0.340284 -0.352778,-0.558565 0.04851,-0.218281 -0.162544,-0.396875 -0.469002,-0.396875 -0.43152,0 -0.506431,0.231135 -0.332124,1.024749 0.123789,0.563612 0.07518,1.117386 -0.108019,1.23061 -0.183201,0.113224 -0.423094,-0.22885 -0.533096,-0.760165 z m 6.469324,-3.414652 c 0,-0.08556 -0.15875,-0.253681 -0.352778,-0.373597 -0.194027,-0.119916 -0.352777,-0.04991 -0.352777,0.155569 0,0.205478 0.15875,0.373597 0.352777,0.373597 0.194028,0 0.352778,-0.07001 0.352778,-0.155569 z m 0,-2.004293 c 0,-0.39081 -0.38941,-0.387299 -1.015337,0.0092 -0.267391,0.169364 -0.372321,0.492142 -0.233175,0.717284 0.191696,0.310167 0.373599,0.309257 0.750753,-0.0038 0.273766,-0.227206 0.497759,-0.552415 0.497759,-0.722684 z m -3.527778,-2.700902 c 0,-0.06848 -0.164334,-0.431572 -0.365188,-0.806872 -0.287341,-0.536897 -0.249739,-0.682363 0.176389,-0.682363 0.297868,0 0.541577,-0.155726 0.541577,-0.346057 0,-0.43887 -1.504029,-0.827476 -2.353347,-0.608051 -0.519881,0.134314 -0.491028,0.174659 0.148486,0.20763 0.436563,0.02251 0.79375,0.220443 0.79375,0.439858 0,0.253451 -0.420116,0.330761 -1.152003,0.211992 -1.294976,-0.210146 -3.202827,0.895478 -2.205575,1.27816 0.282018,0.10822 0.606588,0.04495 0.721267,-0.140606 0.114678,-0.185554 0.74978,-0.337371 1.411337,-0.337371 0.903629,0 1.154196,0.126741 1.00731,0.509517 -0.135096,0.352057 0.03186,0.492389 0.540241,0.454094 0.404664,-0.03048 0.735756,-0.111451 0.735756,-0.179931 z m 9.769585,4.178056 c 0.17611,-0.673437 1.519304,-2.129974 1.519304,-1.647504 0,0.136721 -0.242203,0.71695 -0.538226,1.289398 -0.604153,1.168303 -1.255081,1.4059 -0.981078,0.358106 z m 2.22486,-3.371975 c 0,-0.128108 0.47625,-0.709173 1.058333,-1.291256 0.582084,-0.582084 1.058334,-1.284247 1.058334,-1.560364 0,-0.276116 0.151123,-0.50203 0.33583,-0.50203 0.184707,0 0.835007,-0.725531 1.445115,-1.612291 1.207798,-1.755474 1.727056,-1.929247 0.873372,-0.292278 -0.293317,0.562443 -0.534282,1.210365 -0.535478,1.439824 -0.0011,0.22946 -0.279985,0.516315 -0.619534,0.637456 -0.339548,0.121141 -1.093611,0.873907 -1.675694,1.672814 -0.967123,1.327372 -1.940278,2.083779 -1.940278,1.508125 z M 32.222142,61.98689 c 0.111685,-0.291042 0.364264,-0.529167 0.56129,-0.529167 0.206485,0 0.172198,0.224158 -0.08094,0.529167 -0.241543,0.291042 -0.494125,0.529167 -0.56129,0.529167 -0.06717,0 -0.03076,-0.238125 0.08094,-0.529167 z m 3.89999,-4.079022 c 0.35052,-0.594226 1.225006,-1.857389 1.943308,-2.807028 0.718298,-0.949639 1.555813,-2.209704 1.861142,-2.800144 0.30533,-0.59044 0.709814,-1.073527 0.898861,-1.073527 0.48322,0 0.444764,0.141469 -0.450032,1.655529 -0.436562,0.738695 -0.79375,1.72541 -0.79375,2.1927 0,0.46729 -0.238125,0.923696 -0.529167,1.014236 -0.427101,0.132866 -0.444112,0.07446 -0.08819,-0.302813 0.242535,-0.257087 0.440972,-0.603799 0.440972,-0.770473 0,-0.613299 -0.795771,0.218707 -1.980392,2.070566 -1.26933,1.984284 -2.414736,2.706085 -1.302748,0.820954 z M 47.254578,47.612344 c -0.630591,-0.202288 -1.146528,-0.503582 -1.146528,-0.669541 0,-0.377858 0.513701,-0.370342 2.252084,0.03295 0.753576,0.174823 1.626701,0.184381 1.940278,0.02124 1.176164,-0.611908 3.072997,-1.36819 4.029978,-1.606779 0.960737,-0.239527 2.303413,-1.746551 1.908196,-2.141767 -0.107576,-0.107576 -0.359717,0.111076 -0.560313,0.485894 -0.36642,0.684656 -3.450312,2.088666 -3.806148,1.73283 -0.365922,-0.36592 0.209215,-0.821949 1.626574,-1.289719 1.260591,-0.416032 1.428591,-0.599873 1.427042,-1.561608 l -0.0018,-1.090062 -0.792,0.930622 c -0.733175,0.861505 -2.999578,1.918278 -3.353971,1.563884 -0.332553,-0.332553 0.356785,-0.909601 1.413806,-1.183503 1.062874,-0.275418 2.483252,-2.027573 2.137195,-2.636411 -0.212235,-0.373398 0.84467,-0.731255 1.461093,-0.494711 0.389879,0.14961 0.437176,0.449019 0.201016,1.272466 -0.333245,1.161954 -0.01125,1.404981 0.710004,0.535904 0.564903,-0.680664 1.130953,-0.50976 1.270688,0.383651 0.139075,0.889182 -2.250218,4.389618 -2.999095,4.393823 -0.315919,0.0018 -1.368149,0.393685 -2.338288,0.870913 -1.866145,0.917987 -3.495898,1.054286 -5.379861,0.449926 z m -2.557639,-2.0088 c 0,-0.399506 0.15875,-0.726375 0.352778,-0.726375 0.194027,0 0.352777,0.228756 0.352777,0.508347 0,0.279591 -0.15875,0.606459 -0.352777,0.726375 -0.194028,0.119916 -0.352778,-0.10884 -0.352778,-0.508347 z m 1.763889,0.01844 c 0,-0.215622 0.357187,-0.394207 0.79375,-0.396856 0.436562,-0.0026 1.190625,-0.103621 1.675694,-0.224383 0.613347,-0.152695 0.774506,-0.105869 0.529167,0.153755 -0.529322,0.560143 -2.998611,0.945105 -2.998611,0.467484 z m -3.029935,-1.85383 c -0.233718,-0.378166 0.86607,-0.631552 3.030556,-0.698225 2.037782,-0.06277 3.527156,0.246003 3.527156,0.731244 0,0.351521 -6.33978,0.3196 -6.557712,-0.03302 z"
       style="fill:#000000;stroke-width:0.35277778" />
  </g>
</svg>
