<?xml version="1.0" encoding="UTF-8" standalone="no"?>
<svg
   xmlns:dc="http://purl.org/dc/elements/1.1/"
   xmlns:cc="http://creativecommons.org/ns#"
   xmlns:rdf="http://www.w3.org/1999/02/22-rdf-syntax-ns#"
   xmlns:svg="http://www.w3.org/2000/svg"
   xmlns="http://www.w3.org/2000/svg"
   id="svg8"
   version="1.1"
   viewBox="0 0 97.350674 125.92105"
   height="125.92105mm"
   width="97.35067mm">
  <defs
     id="defs2" />
  <metadata
     id="metadata5">
    <rdf:RDF>
      <cc:Work
         rdf:about="">
        <dc:format>image/svg+xml</dc:format>
        <dc:type
           rdf:resource="http://purl.org/dc/dcmitype/StillImage" />
        <dc:title></dc:title>
      </cc:Work>
    </rdf:RDF>
  </metadata>
  <g
     transform="translate(-22.020501,8.1143165)"
     id="layer1">
    <path
       id="path5408"
       d="m 109.99978,117.14714 c -0.77611,-0.34863 -1.66988,-0.93274 -1.98615,-1.298 -1.26526,-1.46126 -3.23544,-5.63439 -4.03138,-8.53904 -0.46304,-1.68981 -1.47694,-4.63311 -2.2531,-6.54067 -1.40735,-3.458822 -1.754023,-3.97229 -9.338283,-13.831145 -1.055212,-1.371681 -2.684258,-3.116463 -3.620107,-3.877288 -2.579854,-2.097381 -5.027426,-4.750005 -4.838087,-5.243411 0.0977,-0.254596 -1.435703,-1.633414 -3.63897,-3.272134 -2.0943,-1.557669 -4.54267,-3.607868 -5.440821,-4.556001 -4.181235,-4.413889 -4.893384,-5.227447 -4.893384,-5.590194 0,-0.213794 -0.459194,-0.562039 -1.020431,-0.773882 -0.747409,-0.282116 -1.08911,-0.703957 -1.277119,-1.576649 -0.238742,-1.10817 -1.998461,-3.064379 -2.817727,-3.132352 -0.436376,-0.0362 -1.621706,-1.876267 -2.27214,-3.527182 -0.26755,-0.679097 -0.857959,-1.740069 -1.312019,-2.357713 -0.454061,-0.617643 -0.825564,-1.297312 -0.825564,-1.510375 0,-0.213064 -0.244888,-0.481362 -0.544195,-0.596216 -0.299307,-0.114854 -0.869837,-0.863935 -1.267848,-1.664621 -0.398008,-0.800689 -1.72526,-2.422945 -2.949442,-3.605011 -1.224183,-1.182067 -2.645,-2.976489 -3.157371,-3.987603 -0.689202,-1.360074 -1.088177,-1.793391 -1.533447,-1.665439 -0.331025,0.09513 -5.205615,0.279471 -10.832421,0.409656 -5.626806,0.130186 -11.738681,0.351339 -13.581945,0.491455 -3.643128,0.276931 -4.233334,0.200956 -4.233334,-0.544932 0,-0.406361 1.480796,-0.492527 8.554862,-0.497794 4.705173,-0.0035 10.618611,-0.08928 13.140973,-0.19061 2.522361,-0.101332 10.601909,-0.327822 17.954549,-0.503315 7.823266,-0.186725 13.512133,-0.462774 13.714864,-0.665505 0.190539,-0.190538 0.237761,-0.779402 0.104944,-1.308593 l -0.24149,-0.962163 -5.535878,0.23833 c -4.940454,0.2127 -11.585536,0.41996 -35.345601,1.10243 -3.783542,0.108677 -8.018719,0.276077 -9.411504,0.372004 -1.544205,0.106352 -2.619763,0.03295 -2.756388,-0.188111 -0.123228,-0.19939 -0.01555,-0.427934 0.239281,-0.50788 0.254833,-0.07994 6.487968,-0.242937 13.851411,-0.362204 7.363443,-0.119271 13.451528,-0.2803 13.529077,-0.357851 0.07755,-0.07755 0.02842,-0.323145 -0.109165,-0.545769 -0.180506,-0.292064 -1.835699,-0.345133 -5.944355,-0.190581 -3.131805,0.117807 -8.817879,0.28345 -12.63572,0.368099 -3.817842,0.08465 -7.322121,0.249425 -7.787289,0.366176 -0.942189,0.236474 -2.125769,-0.746453 -1.424366,-1.182892 0.210102,-0.130732 2.422394,-0.158319 4.916205,-0.0613 4.775708,0.185783 21.908533,-0.147013 22.192601,-0.431084 0.09134,-0.09133 -0.250329,-1.26202 -0.759256,-2.601518 -1.737608,-4.573393 -2.243534,-6.966601 -2.27991,-10.784775 -0.0191,-2.004818 -0.07506,-4.359499 -0.124349,-5.232624 -0.04929,-0.873125 0.03582,-1.842141 0.18913,-2.153369 0.195067,-0.395994 -0.02295,-0.854924 -0.726216,-1.528695 -0.552732,-0.529551 -1.093937,-1.407666 -1.202678,-1.951367 -0.206458,-1.0322924 -1.577141,-1.7749066 -3.276041,-1.7749066 -0.984734,0 -1.517762,-1.4716104 -0.832221,-2.2976367 0.34075,-0.410579 0.342711,-0.6362291 0.009,-1.0382987 C 40.104475,5.2040478 40.001919,4.8283892 40.111061,4.6517932 40.220203,4.4751972 39.995745,4.0467638 39.612265,3.699719 38.772617,2.939848 38.728995,2.1895602 39.463495,1.1409145 c 0.301656,-0.43067501 0.607252,-1.37881041 0.679101,-2.10696741 0.375507,-3.80558639 1.560396,-5.62783669 4.313307,-6.63347069 2.142876,-0.782789 3.898342,-0.691635 7.754451,0.402656 3.195155,0.906724 4.804994,3.5746594 4.767854,7.90160519 -0.02021,2.35307151 -0.116375,2.71950431 -0.879613,3.35138891 -0.471316,0.3901997 -1.292526,1.5032045 -1.824913,2.4733434 -0.71546,1.3037396 -0.776415,1.5338143 -0.233659,0.8819444 l 0.734318,-0.8819444 0.0078,1.2375028 c 0.0072,1.13919 0.130379,1.2815658 1.550232,1.7921425 1.293992,0.4653168 1.645733,0.4790718 2.184093,0.085414 0.841594,-0.615387 3.781333,-0.5919731 5.886715,0.046886 1.459198,0.4427808 1.89219,0.4427808 3.351388,0 2.137911,-0.6487294 4.433672,-0.6517936 6.638749,-0.00886 0.956846,0.2789879 3.033522,0.4977168 4.614834,0.4860648 2.265786,-0.0167 3.073048,0.118786 3.809097,0.639277 0.880717,0.622792 0.919657,0.771131 0.682703,2.600741 -0.138208,1.067152 -0.276472,3.845277 -0.307252,6.17361 -0.03076,2.328334 -0.16069,4.550834 -0.288692,4.938889 -0.484572,1.469057 -1.248653,6.613776 -1.065636,7.175137 0.105071,0.322287 0.412627,1.087176 0.683454,1.699761 l 0.492411,1.113783 3.262179,-0.152661 c 9.944746,-0.465395 32.856554,-1.173131 33.010024,-1.019669 0.0987,0.09872 0.11333,0.237649 0.0325,0.30874 -0.0809,0.07109 -3.79825,0.235561 -8.26088,0.365482 -4.46264,0.129921 -9.62202,0.306278 -11.465285,0.391908 -1.843264,0.08563 -6.327952,0.255876 -9.965973,0.378326 -4.247081,0.142949 -6.614583,0.355331 -6.614583,0.593382 0,0.36455 13.440735,0.219121 29.809721,-0.322541 3.68653,-0.121987 6.58723,-0.09763 6.446,0.05414 -0.27448,0.294947 -1.11875,0.328592 -22.470365,0.895485 -12.420463,0.329766 -13.956549,0.433535 -14.364477,0.970382 -0.251227,0.33062 -0.461821,0.890362 -0.467995,1.243873 -0.0099,0.565376 0.21172,0.619721 1.840866,0.451475 1.018645,-0.105202 5.820833,-0.279118 10.671528,-0.386486 11.683473,-0.258611 19.573743,-0.513493 22.489583,-0.726493 1.33887,-0.0978 2.38125,-0.032 2.38125,0.150311 0,0.375631 -4.84494,0.610172 -23.529399,1.139049 -7.411378,0.209783 -13.624268,0.289317 -13.806421,0.176739 -0.182154,-0.112575 -0.419143,0.131649 -0.526638,0.542723 -0.128368,0.49088 -0.380421,0.676427 -0.734366,0.540604 -0.296404,-0.113739 -0.63124,-0.05741 -0.744083,0.125173 -0.323501,0.523434 -2.01688,0.274722 -3.079951,-0.452364 -0.766914,-0.524531 -1.485555,-0.641999 -3.439584,-0.562222 -1.358561,0.05546 -2.470115,0.211826 -2.470115,0.347469 0,1.282996 1.58948,2.226003 4.306687,2.555071 1.97932,0.239705 4.865536,1.522423 4.865536,2.162383 0,0.250176 0.572611,1.304254 1.272473,2.342398 0.699858,1.038144 1.338534,2.284409 1.419278,2.769479 0.505407,3.036245 0.937927,4.584291 1.38436,4.954795 0.351445,0.291674 0.467597,0.926762 0.374308,2.046605 -0.0892,1.070769 0.02417,1.746893 0.332924,1.985459 1.081429,0.835585 5.590088,6.836043 6.23594,8.299252 0.385392,0.873125 0.98704,2.738395 1.336992,4.145047 0.907542,3.647909 2.73146,5.939984 8.557319,10.753796 1.60189,1.323619 2.72252,3.570108 2.72252,5.457758 0,0.455478 0.71438,2.336648 1.5875,4.180381 0.87313,1.843733 1.5875,3.484894 1.5875,3.647024 0,0.594438 1.98195,2.277167 3.46041,2.93799 1.50928,0.674596 2.88566,2.346869 2.88827,3.509169 7.1e-4,0.32347 -0.32714,1.35438 -0.72858,2.29092 -0.88577,2.06641 -0.96452,5.64489 -0.17417,7.91454 0.90432,2.59693 0.55402,6.35444 -0.5865,6.29124 -0.24734,-0.0137 -1.08471,-0.31017 -1.86082,-0.6588 z m 2.15057,-2.37153 c 0.18162,-0.96811 0.0578,-1.6525 -0.49452,-2.73403 -1.1073,-2.16817 -1.20404,-3.94442 -0.41237,-7.57173 0.75159,-3.44363 0.65599,-4.791542 -0.37912,-5.345519 -0.92777,-0.496524 -1.04095,-0.440239 -1.04095,0.517652 0,0.473617 -0.15875,0.959237 -0.35278,1.079157 -0.19402,0.11991 -0.35277,0.66547 -0.35277,1.21234 0,0.54688 -0.25467,1.20567 -0.56592,1.46399 -0.31126,0.25832 -0.71004,0.84874 -0.88619,1.31205 -0.17615,0.46332 -0.63587,0.92492 -1.02159,1.02579 -0.894,0.23378 -0.88166,0.46065 0.14576,2.68059 0.46589,1.00663 0.95906,2.20702 1.09593,2.66754 0.7947,2.67376 2.30394,3.7857 2.84112,2.0932 0.13922,-0.43864 0.35028,-0.58306 0.55416,-0.37917 0.46726,0.46725 -0.0178,1.51769 -0.84154,1.82241 -0.65347,0.24173 -0.65982,0.29472 -0.10211,0.85242 0.94534,0.94535 1.54831,0.71362 1.81289,-0.69669 z m -3.30376,-0.0694 c -0.23496,-0.14522 -0.84149,-1.28752 -1.34784,-2.53846 -0.50635,-1.25094 -1.04524,-2.43318 -1.19754,-2.62721 -0.1523,-0.19403 -0.38722,-0.86872 -0.52206,-1.49931 -0.13483,-0.63059 -0.4039,-1.14652 -0.59793,-1.14652 -0.49453,0 -0.0516,1.79308 1.03279,4.18088 1.00597,2.21514 2.5384,4.41602 2.85461,4.09981 0.11284,-0.11284 0.013,-0.32398 -0.22203,-0.46919 z m -3.96209,-9.48873 c 0,-0.98065 -1.61142,-5.16354 -2.99037,-7.762354 -1.25027,-2.356287 -4.408446,-6.28705 -4.414712,-5.494676 -0.0018,0.226363 0.130468,0.464488 0.293907,0.529167 0.163435,0.06467 1.02647,1.113536 1.917855,2.330802 1.5565,2.125543 3.17994,5.796961 4.13011,9.340261 0.44242,1.64984 1.06321,2.26689 1.06321,1.0568 z m 1.76201,-1.43681 c -0.60054,-0.0931 -0.66415,-0.21268 -0.32829,-0.61736 0.22911,-0.27607 0.64023,-0.50193 0.91361,-0.50193 0.76345,0 0.93235,-0.88686 0.38026,-1.99664 -0.27415,-0.55108 -0.70252,-2.192601 -0.95193,-3.64781 -0.28398,-1.656923 -0.97049,-3.677158 -1.83677,-5.405148 -0.76082,-1.517625 -1.54976,-3.659741 -1.7532,-4.76026 -0.48807,-2.640217 -0.85395,-3.252174 -2.94819,-4.930958 -5.028464,-4.030931 -7.282918,-6.904123 -8.136429,-10.369487 -1.001575,-4.066512 -2.115083,-6.232208 -4.888315,-9.507442 -0.597503,-0.705662 -1.611725,-1.936518 -2.25383,-2.735238 -1.391811,-1.731285 -1.479109,-1.705674 -4.602025,1.350098 -2.237977,2.189861 -3.922029,3.229973 -6.830149,4.218471 l -1.671768,0.568254 2.064607,2.251929 c 1.310347,1.429233 2.220768,2.155419 2.492054,1.987755 0.300479,-0.185706 0.08494,-0.617559 -0.725625,-1.453847 -0.634192,-0.654318 -1.060365,-1.282379 -0.947053,-1.395688 0.113309,-0.113312 1.08512,0.895774 2.159579,2.242408 1.074459,1.346637 2.868665,3.222903 3.987126,4.169484 1.118464,0.946584 2.318615,1.99887 2.667004,2.338419 0.776767,0.757058 1.493534,0.857642 3.149653,0.441981 0.724923,-0.181945 0.953474,-0.08484 1.097608,0.46633 0.144413,0.552242 -0.0384,0.740216 -0.884453,0.909426 -0.597097,0.119419 -1.277168,0.03846 -1.545156,-0.183956 -0.263264,-0.218489 -0.478663,-0.247138 -0.478663,-0.06366 0,0.540127 3.574662,3.318527 5.222364,4.059075 0.922778,0.414736 1.680048,1.053066 1.930883,1.627614 0.629737,1.442445 3.710334,5.305863 7.769081,9.743303 1.170767,1.280005 4.042627,6.560312 5.192117,9.546417 1.10631,2.87394 1.41326,3.24016 2.02251,2.4131 0.42237,-0.57337 0.39122,-0.6627 -0.26661,-0.76464 z m -5.46023,-15.571418 c -0.95609,-1.886733 -1.086,-2.481171 -0.54228,-2.481171 0.35475,0 1.48849,2.024737 1.92596,3.439584 0.45582,1.474219 -0.47914,0.826611 -1.38368,-0.958413 z m -8.283815,-8.807979 c -0.200854,-0.375299 -0.365188,-1.098095 -0.365188,-1.606215 0,-0.50812 -0.39267,-1.501719 -0.8726,-2.208001 -0.479929,-0.706279 -0.793044,-1.363705 -0.695805,-1.460941 0.283397,-0.2834 2.460954,2.535481 2.346184,3.03717 -0.05729,0.250426 0.04897,1.009957 0.236146,1.687837 0.366558,1.32757 -0.04561,1.677102 -0.648737,0.55015 z m -3.892966,-1.849685 c -0.580718,-0.244058 -0.719498,-0.431143 -0.406326,-0.547751 0.261592,-0.0974 0.732172,0.07946 1.045735,0.393019 0.651348,0.651348 0.582108,0.668105 -0.639409,0.154732 z m 0.440972,-1.333062 c -0.63059,-0.734769 -1.146528,-1.522335 -1.146528,-1.750148 0,-0.96163 -1.932185,-6.298985 -2.681877,-7.408256 -0.827295,-1.2241 -0.809032,-2.141725 0.02879,-1.446396 0.705079,0.585163 1.797883,3.411269 2.515373,6.50501 0.559145,2.410968 0.843259,2.979071 2.068636,4.13632 0.807339,0.762451 1.192061,1.332413 0.891303,1.320454 -0.291041,-0.01157 -1.045104,-0.622215 -1.675694,-1.356984 z m -0.01168,-5.774807 c -1.158702,-2.898327 -1.359902,-3.768206 -0.870271,-3.762622 0.279206,0.0032 2.354365,6.315075 2.14503,6.52441 -0.06705,0.06705 -0.64069,-1.175755 -1.274759,-2.761788 z m -5.307264,-8.439944 c -0.568653,-1.881194 -0.714258,-2.734027 -0.466785,-2.734027 0.279718,0 0.980289,1.560833 1.306322,2.910416 0.335012,1.386752 -0.414634,1.229251 -0.839537,-0.176389 z m 24.829503,37.286573 c -0.12943,-0.689917 -0.56695,-1.586018 -0.97226,-1.991335 l -0.73694,-0.736939 0.23959,1.0212 c 0.64809,2.762256 1.95162,4.276416 1.46961,1.707074 z M 92.191367,84.68321 c -0.807229,-1.582297 -2.020242,-2.835684 -2.744339,-2.835684 -0.27825,0 0.01552,0.504581 0.683881,1.174686 0.644405,0.646074 1.45687,1.598574 1.805474,2.116667 0.934777,1.389235 1.071517,1.14487 0.254984,-0.455669 z M 71.199949,63.168348 c -0.143499,-0.452124 0.04861,-0.954324 0.561107,-1.466825 l 0.779315,-0.779315 -0.214556,0.849464 c -0.191947,0.759947 -0.166261,0.784984 0.243748,0.237586 0.25207,-0.336533 0.561675,-0.53497 0.688012,-0.440973 0.126333,0.094 0.164786,0.07953 0.08545,-0.03214 -0.158489,-0.223093 1.147851,-4.346878 1.556107,-4.912229 0.140112,-0.194028 0.359039,-0.78934 0.486501,-1.322917 0.127466,-0.533576 0.404467,-0.970139 0.615555,-0.970139 0.233582,0 0.277728,0.241632 0.112787,0.617361 -0.149059,0.339549 -0.593429,1.569862 -0.987489,2.734028 -0.394063,1.164167 -0.805028,2.196042 -0.913257,2.293056 -0.108232,0.09701 -0.246785,0.535555 -0.307897,0.974534 l -0.111115,0.798149 0.871912,-0.808062 c 0.479548,-0.444429 1.111913,-1.359221 1.405251,-2.032868 0.293339,-0.673643 0.546295,-1.017002 0.562124,-0.763016 0.01602,0.257158 0.209726,0.349959 0.437123,0.20942 0.28127,-0.173835 0.344802,-0.0093 0.204146,0.528507 -0.16787,0.641928 -0.115673,0.707407 0.29332,0.367968 0.273643,-0.2271 0.411657,-0.551854 0.306702,-0.721674 -0.104955,-0.16982 0.05554,-0.214224 0.356662,-0.09868 0.30112,0.115552 0.54749,0.05134 0.54749,-0.142685 0,-0.194028 0.238125,-0.444154 0.529166,-0.55584 0.755915,-0.290071 0.702956,-0.206788 -1.045587,1.644248 -0.896698,0.949258 -1.493305,1.879304 -1.385599,2.159988 0.107725,0.280719 -0.0876,0.585099 -0.453718,0.707019 -0.353582,0.11775 -1.039749,0.537944 -1.524818,0.933768 -0.836045,0.682223 -0.799328,0.679531 0.705555,-0.05173 0.873125,-0.424275 1.714451,-0.988878 1.869613,-1.254675 0.155163,-0.265797 0.530864,-0.483267 0.834895,-0.483267 0.387784,0 0.494986,-0.221015 0.359149,-0.740449 -0.106497,-0.40725 -0.09281,-0.639632 0.03041,-0.516407 0.123226,0.123222 0.570999,-0.350837 0.995052,-1.053468 0.450596,-0.746601 0.869333,-1.118422 1.007597,-0.894705 0.130126,0.210545 0.138476,0.541557 0.01856,0.735584 -0.41482,0.671195 0.05683,0.348869 0.903362,-0.617361 0.467476,-0.533576 0.622148,-0.771701 0.343715,-0.529166 -0.725145,0.631648 -1.031741,0.544636 -0.827874,-0.234954 0.138596,-0.529999 0.436114,-0.651824 1.378084,-0.564275 0.859236,0.07986 1.201325,-0.03217 1.201325,-0.393481 0,-0.27782 -0.237215,-0.596156 -0.527142,-0.707411 -0.28992,-0.111259 -0.44958,-0.327766 -0.354796,-0.481133 0.09479,-0.153367 -0.08135,-0.376195 -0.391407,-0.495173 -0.331643,-0.127264 -0.477714,-0.440514 -0.354792,-0.760846 0.375634,-0.978881 -0.472761,-0.149582 -1.218099,1.190685 -0.397637,0.715031 -0.623161,0.982556 -0.50116,0.594501 0.64745,-2.059436 0.598502,-2.516646 -0.334917,-3.128243 -0.508046,-0.332885 -1.077986,-0.509905 -1.266535,-0.393376 -0.189343,0.11702 -0.342812,-0.211613 -0.342812,-0.734091 0,-0.788208 0.08567,-0.874861 0.513715,-0.519614 0.590938,0.490435 1.250174,0.207183 1.250174,-0.537164 0,-0.27959 0.131254,-0.508346 0.29168,-0.508346 0.160422,0 0.243918,0.515938 0.185543,1.146528 l -0.106133,1.146528 0.394656,-1.146528 c 0.217057,-0.63059 0.530437,-1.146528 0.696398,-1.146528 0.165961,0 0.301745,-0.140243 0.301745,-0.311651 0,-0.478768 -1.906447,-0.734049 -2.179723,-0.291877 -0.308013,0.498372 -0.786475,-1.334657 -0.525737,-2.014132 0.119905,-0.312473 0.501258,-0.437847 1.008186,-0.33146 0.79696,0.167259 0.795461,0.159177 -0.06661,-0.358856 -0.877373,-0.527226 -0.885032,-0.520484 -1.477755,1.300808 -0.327695,1.006927 -0.605508,2.37132 -0.617361,3.031984 -0.02074,1.156607 -0.04639,1.178726 -0.69052,0.595796 -0.516428,-0.467363 -0.706519,-0.499939 -0.833646,-0.142871 -0.09058,0.254395 -0.278652,0.357071 -0.41795,0.228169 -0.139294,-0.128905 -0.0875,-0.544114 0.115112,-0.92269 0.202607,-0.378573 0.444979,-1.622481 0.538603,-2.76424 0.199461,-2.432434 0.520436,-3.663424 0.955217,-3.663424 0.394229,0 0.389368,0.06308 -0.217534,2.822222 -0.27741,1.261181 -0.505132,2.610556 -0.506045,2.998611 -0.0028,1.221292 0.566861,-0.160228 0.836549,-2.028472 0.133043,-0.921632 0.385935,-1.675694 0.561985,-1.675694 0.176051,0 0.228713,-0.238125 0.117031,-0.529167 -0.111686,-0.291042 -0.02734,-0.529167 0.187459,-0.529167 0.516802,0 0.503361,-1.299732 -0.01676,-1.621187 -0.27099,-0.167481 -0.310653,-0.09536 -0.118516,0.215519 0.20967,0.339256 0.127974,0.405533 -0.298273,0.241967 -0.911455,-0.349758 -1.64537,0.09818 -1.64537,1.004235 0,0.452861 -0.180079,0.934678 -0.400174,1.070702 -0.277692,0.171623 -0.349698,-0.09658 -0.235264,-0.876275 0.122774,-0.836504 0.04475,-1.077483 -0.305382,-0.943127 -0.258667,0.09926 -0.470298,0.03168 -0.470298,-0.150167 0,-0.18185 -0.229828,-0.24244 -0.510731,-0.134648 -0.280903,0.107791 -0.700493,1.043933 -0.932423,2.080313 -0.345589,1.544256 -0.504303,1.80172 -0.879426,1.426598 -0.472712,-0.472715 -0.319867,-1.786185 0.300062,-2.578513 0.31563,-0.403412 0.122806,-0.583152 -0.522425,-0.486982 -0.138539,0.02064 -0.152933,-0.238361 -0.032,-0.575585 0.120946,-0.33722 0.09015,-0.495441 -0.06843,-0.351606 -0.158584,0.143838 -0.513475,0.07467 -0.788652,-0.153702 -0.389403,-0.323176 -0.571366,-0.302948 -0.820805,0.09125 -0.428039,0.676448 -0.412341,1.03565 0.04526,1.03565 0.221467,0 0.284593,0.326912 0.153279,0.79375 -0.182715,0.649562 -0.14943,0.697625 0.183218,0.264583 0.327897,-0.426854 0.360962,-0.358644 0.171016,0.352778 -0.565922,2.119623 -0.597034,2.469444 -0.219636,2.469444 0.216648,0 0.393905,-0.264583 0.393905,-0.587964 0,-0.323377 0.114984,-0.47298 0.25552,-0.332444 0.303661,0.303665 0.365087,3.036616 0.06825,3.036888 -0.386817,3.53e-4 -0.943846,2.404971 -0.768995,3.319653 0.103604,0.541973 0.01439,0.913867 -0.219206,0.913867 -0.216648,0 -0.406798,-0.277812 -0.422557,-0.617361 -0.01856,-0.399732 -0.19093,-0.249188 -0.488996,0.427052 -0.309044,0.701156 -0.514876,0.875072 -0.626272,0.529166 -0.09126,-0.283386 -0.115073,-0.202533 -0.05291,0.179674 0.15978,0.982518 -0.229225,2.336094 -0.604686,2.104044 -0.17332,-0.107124 -0.315137,-0.02665 -0.315137,0.178827 0,0.983498 1.059551,0.204057 1.530252,-1.125707 0.416782,-1.177438 0.535658,-1.309973 0.553748,-0.617361 0.03704,1.418283 -0.350562,2.431563 -1.010218,2.640929 -0.337661,0.107171 -0.793369,0.588677 -1.01268,1.070018 -0.333245,0.731386 -0.306861,0.875164 0.160595,0.875164 0.307639,0 0.482878,-0.199274 0.389417,-0.442828 -0.09346,-0.243558 0.0483,-0.646691 0.315034,-0.895854 0.394917,-0.368907 0.490135,-0.368562 0.512815,0.0018 0.02113,0.345303 0.07392,0.339037 0.219093,-0.026 0.161459,-0.406002 0.239452,-0.406002 0.500821,0 0.204844,0.318191 0.265479,0.12283 0.179225,-0.577445 -0.0717,-0.582083 -0.05983,-0.859895 0.02635,-0.617361 0.08619,0.242535 0.313196,0.440972 0.504447,0.440972 0.191252,0 0.249792,-0.158471 0.130084,-0.35216 -0.119705,-0.193686 0.02967,-0.705259 0.33196,-1.136826 0.302281,-0.431571 0.549603,-0.617055 0.549603,-0.412193 0,0.204862 -0.109068,0.481542 -0.242372,0.614846 -0.133304,0.133308 -0.26554,0.516953 -0.293857,0.852547 -0.02833,0.335598 -0.174385,0.987242 -0.324591,1.448104 -0.200134,0.614048 -0.159343,0.767623 0.152665,0.574788 0.529724,-0.327389 -0.260784,1.282347 -0.803515,1.636225 -0.342742,0.223474 -0.06855,2.066336 0.307442,2.066336 0.106391,0 0.09525,-0.309379 -0.02477,-0.687511 z m 1.430426,-4.210854 c -0.230512,-0.372978 0.451548,-2.539066 0.95697,-3.039135 0.239744,-0.237204 0.266844,-0.121634 0.08272,0.352778 -0.150604,0.388055 -0.319489,1.023055 -0.375302,1.411111 -0.05581,0.388055 -0.133498,0.78493 -0.172646,0.881944 -0.03914,0.09701 -0.05237,0.295452 -0.02939,0.440972 0.05726,0.362614 -0.226882,0.333315 -0.462347,-0.04767 z m 4.737456,-1.451635 c 0,-0.194028 0.238125,-0.352778 0.529167,-0.352778 0.291042,0 0.529167,0.15875 0.529167,0.352778 0,0.194028 -0.238125,0.352778 -0.529167,0.352778 -0.291042,0 -0.529167,-0.15875 -0.529167,-0.352778 z m -0.69475,-0.176389 c 0,-0.194028 0.153886,-0.590903 0.341973,-0.881945 0.188087,-0.291041 0.341972,-0.370416 0.341972,-0.176388 0,0.194027 -0.153885,0.590902 -0.341972,0.881944 -0.188087,0.291042 -0.341973,0.370417 -0.341973,0.176389 z m 0.900579,-1.461604 c -0.12234,-0.318813 -0.139323,-0.662771 -0.03774,-0.76435 0.101582,-0.101582 0.184693,0.0099 0.184693,0.2477 0,0.237818 0.156933,0.335403 0.348739,0.216863 0.199975,-0.123593 0.259115,0.01803 0.138645,0.331957 -0.265261,0.69125 -0.358546,0.686519 -0.634333,-0.03217 z m -1.065093,-0.934861 c 0.132479,-0.347917 0.329738,-0.543709 0.438355,-0.435092 0.108616,0.108617 2.25e-4,0.393273 -0.24087,0.632577 -0.34841,0.345814 -0.388931,0.305293 -0.197485,-0.197485 z m 1.831255,-1.131313 c 0.09273,-0.485069 0.325822,-0.881944 0.517991,-0.881944 0.192165,0 0.253033,0.251107 0.135262,0.55802 -0.117775,0.30691 -0.214132,0.703785 -0.214132,0.881944 0,0.178157 -0.136737,0.323925 -0.303859,0.323925 -0.167121,0 -0.227989,-0.396875 -0.135262,-0.881945 z m -6.417366,-0.425757 c -0.191446,-0.502779 -0.150926,-0.543299 0.197485,-0.197485 0.241095,0.239303 0.349486,0.52396 0.240869,0.632577 -0.108617,0.108616 -0.305876,-0.08718 -0.438354,-0.435092 z m 4.045482,0.337563 c 0.0062,-0.145521 0.265653,-0.582084 0.57663,-0.970139 0.49688,-0.620046 0.538275,-0.627239 0.341556,-0.05934 -0.123116,0.355417 -0.223848,0.791979 -0.223848,0.970139 0,0.178156 -0.15875,0.323924 -0.352778,0.323924 -0.194028,0 -0.34773,-0.119063 -0.34156,-0.264584 z m -2.825277,-0.970139 c -0.03602,-0.397969 -0.141757,-0.512357 -0.242535,-0.262386 -0.09827,0.243745 -0.32386,0.353438 -0.501315,0.243763 -0.570646,-0.352679 -0.344163,-0.863322 0.382909,-0.863322 0.388056,0 0.705556,-0.175732 0.705556,-0.390521 0,-0.214785 -0.218282,-0.306758 -0.48507,-0.204382 -0.329247,0.126344 -0.485069,-0.08818 -0.485069,-0.667812 0,-0.887959 0.77852,-1.183121 1.089279,-0.412979 0.09786,0.242535 0.192899,0.123472 0.21119,-0.264583 0.02515,-0.53405 0.106973,-0.58921 0.336529,-0.226921 0.21142,0.33366 0.376372,0.360373 0.544587,0.08819 0.132718,-0.214743 0.383106,-0.39044 0.556418,-0.39044 0.173313,0 -0.05055,0.394561 -0.49748,0.876801 -0.446923,0.48224 -0.978764,1.395052 -1.181862,2.028472 -0.2638,0.822734 -0.387512,0.950154 -0.433137,0.446116 z m 2.461281,-0.09239 c 0,-0.21251 -0.218761,-0.605137 -0.486131,-0.872511 -0.391866,-0.391862 -0.400925,-0.602661 -0.04673,-1.087049 0.385932,-0.527798 0.465229,-0.44177 0.651648,0.706991 0.116734,0.719353 0.137763,1.382395 0.04673,1.473429 -0.09103,0.09103 -0.165517,-0.0084 -0.165517,-0.22086 z m 3.202852,-2.759226 c 0.01693,-0.410969 0.100521,-0.49456 0.213135,-0.213138 0.101907,0.254659 0.08938,0.55893 -0.02783,0.676158 -0.117228,0.117225 -0.200603,-0.09114 -0.185286,-0.46302 z m -4.558263,-1.910881 c 0,-0.48507 0.08007,-0.683507 0.177938,-0.440973 0.09786,0.242535 0.09786,0.63941 0,0.881945 -0.09786,0.242535 -0.177938,0.0441 -0.177938,-0.440972 z m -2.450645,-2.734028 c -0.356238,-1.188124 -0.344297,-1.253144 0.1172,-0.638129 0.44849,0.597679 0.724256,1.961046 0.396656,1.961046 -0.06446,0 -0.295694,-0.595313 -0.513856,-1.322917 z m 2.803423,0.264583 c 0,-0.485069 0.08007,-0.683507 0.177938,-0.440972 0.09786,0.242535 0.09786,0.63941 0,0.881944 -0.09786,0.242535 -0.177938,0.0441 -0.177938,-0.440972 z m 0.638549,16.537591 c 1.347798,-1.347801 1.151576,-1.799791 -0.226572,-0.521899 -0.5443,0.504705 -1.110318,0.917642 -1.257822,0.917642 -0.147503,0 -0.268188,0.15875 -0.268188,0.352778 0,0.640048 0.635381,0.368677 1.752582,-0.748521 z m -4.290159,-1.55387 c -0.108617,-0.108616 -0.305876,0.08717 -0.438355,0.435092 -0.191445,0.502779 -0.150925,0.543299 0.197485,0.197485 0.241096,-0.239303 0.349487,-0.52396 0.24087,-0.632577 z m -3.459646,-2.283721 c 0,-0.194027 -0.07,-0.352777 -0.155567,-0.352777 -0.08556,0 -0.253682,0.15875 -0.373599,0.352777 -0.119916,0.194028 -0.04991,0.352778 0.155568,0.352778 0.205479,0 0.373598,-0.15875 0.373598,-0.352778 z m -0.634734,-1.328709 c -0.232978,-0.07766 -0.423598,-0.375461 -0.423598,-0.661786 0,-0.286325 -0.148548,-0.428781 -0.330105,-0.316573 -0.204953,0.126669 -0.204953,-0.23236 0,-0.946989 0.418666,-1.459805 0.427785,-3.197952 0.01545,-2.943109 -0.415301,0.256671 0.238096,-2.634117 0.72911,-3.22575 0.272941,-0.328888 0.258678,-0.454862 -0.05151,-0.454862 -0.235952,0 -0.511563,0.315715 -0.612472,0.701587 -0.100908,0.385876 -0.348699,0.599472 -0.550647,0.474659 -0.212252,-0.131177 -0.261715,-0.05629 -0.117228,0.1775 0.302214,0.488989 -0.812356,4.643477 -1.245757,4.643477 -0.41614,0 -0.390187,-1.317618 0.03108,-1.577979 0.185554,-0.114677 0.249953,-0.481235 0.143107,-0.814571 -0.134031,-0.418158 -0.09644,-0.470937 0.121243,-0.170236 0.208386,0.287863 0.3155,0.01637 0.3155,-0.799631 0,-1.531489 -0.534526,-1.424735 -1.377866,0.275181 -0.671039,1.352613 -0.534984,3.84224 0.201782,3.692281 0.205035,-0.04173 0.483115,0.320996 0.617958,0.806066 l 0.245163,0.881944 0.263659,-1.058333 c 0.614337,-2.465994 0.833698,-3.144234 0.85574,-2.645833 0.01288,0.291041 -0.108931,1.098246 -0.270666,1.793786 -0.287767,1.237552 0.248702,2.736925 0.786751,2.198878 0.126334,-0.126336 0.229701,-0.03514 0.229701,0.202692 0,0.246624 0.181991,0.319917 0.423598,0.170597 0.329607,-0.203708 0.329607,-0.293127 0,-0.402996 z M 63.312212,53.09614 c -0.0011,-0.194028 0.212157,-0.908403 0.473675,-1.5875 0.261518,-0.679098 0.480406,-0.996598 0.486417,-0.705556 0.006,0.291042 -0.207144,1.005417 -0.473678,1.5875 -0.266531,0.582083 -0.485419,0.899583 -0.486414,0.705556 z m 4.883397,2.801401 c 0,-0.302493 -0.16134,-0.450272 -0.358532,-0.328401 -0.197192,0.121871 -0.267201,0.369365 -0.155568,0.549988 0.302412,0.489317 0.5141,0.398078 0.5141,-0.221587 z m -0.327981,-1.478488 c 0.02166,-0.539284 0.05851,-0.531269 0.291436,0.06339 0.214839,0.548496 0.381364,0.330003 0.857148,-1.12462 0.677097,-2.070111 0.738869,-2.688078 0.23773,-2.378357 -0.201478,0.12452 -0.363411,-0.206975 -0.377575,-0.772929 -0.02081,-0.832309 -0.06795,-0.880646 -0.294343,-0.301918 -0.227288,0.581018 -0.307012,0.501721 -0.508515,-0.505785 -0.160758,-0.803786 -0.09329,-1.287307 0.206152,-1.477391 0.321067,-0.203813 0.273061,-0.284067 -0.172247,-0.287965 -0.392701,-0.0035 -0.63476,0.283446 -0.665168,0.788349 -0.163943,2.721808 -0.142427,3.733546 0.07652,3.598227 0.136754,-0.08452 0.110652,0.440525 -0.058,1.16676 -0.395756,1.704121 -0.393453,1.849596 0.0293,1.849596 0.194028,0 0.363936,-0.277812 0.377575,-0.617361 z m 2.468996,-0.955089 c 0.178054,0.110042 0.290163,-0.205514 0.249135,-0.701238 -0.04102,-0.49572 -0.180202,-0.901312 -0.309283,-0.901312 -0.276017,0 -0.675891,1.356378 -0.624015,2.116667 0.02533,0.371274 0.08449,0.343673 0.198268,-0.09251 0.08919,-0.341927 0.307845,-0.531647 0.485895,-0.421605 z m 12.227331,-1.46291 c -0.117228,-0.117224 -0.421498,-0.129755 -0.676158,-0.02783 -0.281422,0.112614 -0.197831,0.196208 0.213138,0.213134 0.371884,0.01531 0.580245,-0.06806 0.46302,-0.185286 z M 70.95553,50.070446 c -0.197724,-0.567189 -0.59279,-1.031254 -0.877926,-1.031254 -0.362303,0 -0.457592,-0.239039 -0.31641,-0.79375 0.188472,-0.740505 0.172787,-0.736402 -0.233803,0.06113 -0.330027,0.647358 -0.335291,0.888393 -0.02166,0.992932 0.227778,0.07592 0.326704,0.365915 0.21983,0.644422 -0.23792,0.620018 0.45127,0.682647 0.71972,0.0654 0.105484,-0.242535 0.101053,-0.0025 -0.0098,0.533153 -0.160694,0.776344 -0.09187,0.932007 0.338988,0.766674 0.435229,-0.167015 0.470538,-0.408495 0.181123,-1.238712 z m -8.768481,0.217131 c 0.235306,-0.283527 0.770682,-0.624303 1.189725,-0.757279 0.983672,-0.312149 5.52439,-4.042139 5.52439,-4.538032 0,-0.208135 0.487186,-0.969472 1.082636,-1.691855 1.137719,-1.380246 1.159186,-2.199559 0.08575,-3.272987 -0.47855,-0.47855 -1.531716,-0.518686 -8.178973,-0.311694 -4.19633,0.130673 -7.683934,0.285627 -7.750226,0.344343 -0.179012,0.158553 0.499948,1.283871 0.763202,1.264941 0.124557,-0.009 0.770506,0.211032 1.435441,0.488859 0.664937,0.27783 1.977503,0.673629 2.91682,0.879559 2.467772,0.541017 2.942569,0.711666 2.942569,1.057611 0,0.169813 -0.357187,0.224913 -0.79375,0.122445 -0.436562,-0.102468 -1.373911,-0.307393 -2.082994,-0.455387 -0.709083,-0.147993 -1.939396,-0.590747 -2.734028,-0.9839 -1.639079,-0.810952 -1.716116,-0.723502 -0.753456,0.855313 0.475682,0.780147 0.538646,1.071915 0.203567,0.943331 -0.266818,-0.102386 -0.925694,-1.056929 -1.464169,-2.121207 -0.998477,-1.973456 -1.431148,-2.478507 -1.80394,-2.105713 -0.555646,0.555647 2.330373,4.367149 3.476865,4.591816 3.159644,0.619171 3.129683,0.603179 3.129683,1.670216 0,1.10261 1.573854,4.535124 2.079413,4.535124 0.167002,0 0.496164,-0.231976 0.731471,-0.515504 z m 0.359445,-3.382398 c -0.36782,-1.36598 -0.21741,-2.805461 0.293028,-2.804354 0.132443,2.9e-4 0.271695,0.95279 0.309446,2.116667 0.03775,1.163881 0.0042,2.116144 -0.0746,2.116144 -0.07878,0 -0.316322,-0.642803 -0.527876,-1.428457 z m -2.817552,2.134013 c -0.20768,-0.388056 -0.456977,-0.705556 -0.553991,-0.705556 -0.09701,0 -0.0065,0.3175 0.201214,0.705556 0.20768,0.388056 0.456977,0.705556 0.553991,0.705556 0.09701,0 0.0065,-0.3175 -0.201214,-0.705556 z m 20.81389,-0.881944 c 0,-0.0555 -0.238125,-0.192278 -0.529167,-0.303964 -0.319105,-0.122449 -0.529167,-0.0018 -0.529167,0.303964 0,0.305752 0.210062,0.426413 0.529167,0.303964 0.291042,-0.111686 0.529167,-0.248469 0.529167,-0.303964 z m -9.525001,-1.276361 c 0,-0.194028 -0.15875,-0.254667 -0.352778,-0.134751 -0.194028,0.119917 -0.352778,0.376778 -0.352778,0.570806 0,0.194027 0.15875,0.254666 0.352778,0.13475 0.194028,-0.119916 0.352778,-0.376777 0.352778,-0.570805 z m -12.347222,-0.09701 c 0,-0.270284 -0.241797,-0.58421 -0.53733,-0.697618 -0.438383,-0.168222 -0.468577,-0.07773 -0.163978,0.491427 0.437656,0.81776 0.701308,0.895276 0.701308,0.206191 z m 11.288889,-0.587731 c 0,-0.376605 0.185208,-0.684735 0.411575,-0.684735 0.226363,0 0.309577,-0.101998 0.184912,-0.226659 -0.315482,-0.315486 -1.338474,0.587861 -1.100949,0.972188 0.106327,0.172043 0.01584,0.312805 -0.201094,0.312805 -0.21693,0 -0.294704,0.161339 -0.172833,0.358531 0.323959,0.524175 0.878389,0.06206 0.878389,-0.73213 z M 74.18743,43.30655 c 0.003,-0.145521 -0.153349,-0.264583 -0.347377,-0.264583 -0.194027,0 -0.350347,0.357187 -0.347376,0.79375 0.0044,0.641858 0.07084,0.692488 0.347376,0.264583 0.188087,-0.291042 0.344407,-0.648229 0.347377,-0.79375 z m -1.869567,-0.397983 c -0.102609,-0.267398 -0.04078,-0.664841 0.137386,-0.883207 0.178174,-0.218362 0.06761,-0.173567 -0.245699,0.09955 -0.313306,0.273114 -0.462122,0.670557 -0.330698,0.883204 0.340826,0.551466 0.660972,0.478871 0.439011,-0.09955 z m 6.280941,-3.83535 c 0.215893,-0.672222 0.280169,-0.699227 0.419788,-0.176389 0.25745,0.964071 0.814581,0.726073 1.049457,-0.448314 0.117225,-0.586119 0.32845,-1.136942 0.469389,-1.224047 0.140934,-0.0871 0.181299,0.233701 0.0897,0.712897 -0.245272,1.283046 0.400808,1.059512 1.085081,-0.375423 0.796322,-1.669901 0.749116,-3.182359 -0.144445,-4.628172 -0.686813,-1.111286 -0.705711,-1.325785 -0.267857,-3.04025 0.259101,-1.014536 0.441406,-2.082733 0.405123,-2.373775 -0.03628,-0.291041 0.1804,-1.481666 0.481513,-2.645833 0.524419,-2.027512 0.642356,-5.099871 0.311461,-8.113889 -0.0852,-0.776111 -0.01683,-2.02597 0.151934,-2.777464 0.386747,-1.722127 0.188864,-2.226965 -1.142858,-2.915625 -0.805822,-0.416707 -1.599336,-0.494702 -3.242621,-0.318722 -1.563416,0.167428 -2.616228,0.07961 -3.741036,-0.312043 -1.925274,-0.670374 -3.757087,-0.6807729 -6.453706,-0.03664 -1.528038,0.365 -2.309011,0.395912 -2.99861,0.118687 -3.341879,-1.3434612 -5.654958,-0.8781286 -7.811118,1.571398 -0.809368,0.919488 -1.626202,1.671797 -1.815191,1.671797 -0.188989,0 -0.245504,-0.15875 -0.125588,-0.352777 0.119916,-0.194028 0.08025,-0.352778 -0.08814,-0.352778 -0.478674,0 -1.314287,0.788346 -1.989366,1.876838 -0.565061,0.911099 -0.57041,1.066045 -0.06351,1.839671 0.620809,0.947475 0.729209,1.927935 0.213153,1.927935 -1.094622,0 -1.404468,-3.027965 -0.461533,-4.510329 0.783965,-1.232449 1.141571,-1.47489 2.185232,-1.481491 0.934558,-0.0059 2.144445,-0.915997 2.144445,-1.613068 0,-0.588698 -1.864464,-1.2105836 -2.886363,-0.962735 -0.449792,0.109091 -1.166914,0.514018 -1.593604,0.899839 -0.42669,0.38582 -1.00636,0.613017 -1.288156,0.504882 -0.559996,-0.21489 -0.921757,0.684693 -0.929838,2.312207 -0.0036,0.733349 -0.177029,0.970139 -0.710373,0.970139 -0.388055,0 -0.692648,-0.198437 -0.676871,-0.440972 0.04991,-0.767287 1.888967,-3.906926 2.44076,-4.166867 0.291042,-0.137105 0.972086,-0.4566575 1.513432,-0.710116 L 54.11275,9.0409544 53.249168,8.516964 c -0.82651,-0.5014969 -0.839272,-0.5629751 -0.297286,-1.4321331 0.311462,-0.4994787 0.430511,-0.7904576 0.264553,-0.6466202 -0.165958,0.1438374 -0.495149,0.1010091 -0.731536,-0.095174 -0.320623,-0.2660943 -0.531775,0.048308 -0.831288,1.2377829 -0.250566,0.9950905 -0.598507,1.5944797 -0.925582,1.5944797 -0.611138,0 -0.679732,-0.4087999 -0.156404,-0.9321278 0.482878,-0.4828773 0.798341,-4.4677351 0.330817,-4.178789 -0.190148,0.117517 -0.345722,0.075891 -0.345722,-0.092504 0,-0.1683942 -0.2295,-0.6143258 -0.509999,-0.9909588 -0.488064,-0.6553345 -0.527768,-0.6346519 -0.923127,0.4808794 -0.310888,0.8771894 -0.592534,1.1391043 -1.138063,1.0583334 -0.398715,-0.059033 -0.79872,-0.3310679 -0.8889,-0.6045211 -0.112641,-0.3415623 0.01674,-0.427845 0.413341,-0.2756549 0.353998,0.1358417 0.577303,0.042278 0.577303,-0.2418867 0,-0.2548802 0.313757,-0.7473643 0.697237,-1.0944091 0.683081,-0.6181799 0.666341,-1.2422508 -0.03332,-1.2422508 -0.194028,0 -0.237992,0.1857276 -0.0977,0.4127284 0.180239,0.2916319 0.05697,0.3300748 -0.420152,0.1310231 -1.443892,-0.6023834 -2.262734,-0.63722651 -2.262734,-0.09628 0,0.537761 -1.688154,1.8625262 -1.989464,1.5612159 -0.0904,-0.090397 0.240876,-0.4831164 0.736164,-0.8727097 1.044229,-0.8213909 1.264595,-2.78229911 0.352027,-3.13248441 -0.303125,-0.11631999 -0.510413,-0.54535949 -0.463367,-0.95906689 0.04682,-0.4117241 -0.03697,-1.1133949 -0.186206,-1.5592686 -0.356655,-1.0655964 0.303063,-1.8351543 1.573222,-1.8351543 0.546875,0 1.092431,-0.15875 1.212347,-0.3527778 0.129889,-0.2101649 -0.294009,-0.3527778 -1.048586,-0.3527778 -0.834378,0 -1.340354,0.1921631 -1.482699,0.5631102 -0.154201,0.4018394 -0.495833,0.5071608 -1.192882,0.3677512 -1.131836,-0.2263675 -1.453736,0.1004965 -2.022155,2.0533416 -0.412535,1.4172964 -0.186062,1.9351805 0.852431,1.9492839 0.218777,0.00296 0.608153,0.25889019 0.86528,0.56870949 0.394404,0.4752273 0.37271,0.6163564 -0.138743,0.9025799 -0.548454,0.30693 -0.555273,0.4120486 -0.07153,1.10268811 0.731991,1.0450629 0.70435,1.1089022 -0.700005,1.6167237 -1.249661,0.4518829 -1.710658,1.4591454 -0.667813,1.4591454 0.358984,0 0.492434,-0.1940832 0.36385,-0.5291667 -0.111683,-0.2910417 -0.06628,-0.5291667 0.100902,-0.5291667 0.410884,0 0.733393,0.9128841 0.726825,2.0573249 -0.0042,0.7274102 -0.08099,0.8217207 -0.338088,0.4150685 -0.43605,-0.6897116 -1.185883,0.00106 -1.009206,0.9297179 0.09954,0.5231811 0.502724,0.6764948 2.005448,0.7625765 2.127865,0.1218921 3.580582,-0.5692031 3.580582,-1.7033759 0,-0.3835827 0.161774,-0.697423 0.359499,-0.697423 0.211644,0 0.266788,0.3990012 0.134077,0.9701389 -0.212601,0.9149592 -0.803875,1.6129837 -1.690131,1.9952745 -0.239992,0.1035216 -0.152568,0.3195263 0.226416,0.5594187 0.339548,0.2149303 0.617361,0.5545918 0.617361,0.7548034 0,0.2002113 -0.561822,0.016796 -1.248493,-0.4075906 L 44.179177,8.395181 44.911981,9.801096 c 0.403042,0.773254 1.044239,1.687761 1.424882,2.032237 0.380643,0.344478 0.692078,0.809495 0.692078,1.033372 0,0.223877 0.536464,1.297934 1.192141,2.386794 0.812892,1.34994 1.077293,2.094593 0.831127,2.340759 -0.246166,0.246166 -0.120393,0.29809 0.39536,0.163218 0.472445,-0.123548 0.758401,-0.48031 0.761775,-0.950401 0.003,-0.413933 0.175492,-0.99073 0.38338,-1.281772 0.2964,-0.414958 0.334343,-0.338819 0.175804,0.352778 -0.111196,0.485069 -0.204342,1.335491 -0.206991,1.889826 -0.0034,0.710184 -0.14842,0.952777 -0.490996,0.821318 -0.267399,-0.10261 -0.664274,-0.0085 -0.881945,0.209201 -0.553263,0.553263 -0.49491,4.326444 0.08468,5.475646 0.264246,0.523941 0.744849,2.301995 1.068008,3.951231 0.323158,1.649236 0.969518,3.792361 1.436354,4.7625 0.466837,0.970139 0.945753,2.160764 1.064258,2.645833 l 0.215464,0.881945 7.218531,-0.207973 c 3.970193,-0.114385 7.30863,-0.298069 7.418746,-0.408189 0.11012,-0.110119 -0.03186,-0.651531 -0.315467,-1.203138 -0.283626,-0.551607 -0.866496,-2.828547 -1.295269,-5.059867 -0.428773,-2.231319 -1.081546,-5.360887 -1.450608,-6.954595 -0.369059,-1.593707 -0.671019,-3.209854 -0.671019,-3.591436 0,-0.430843 -0.300831,-0.76216 -0.79375,-0.874193 -0.436563,-0.09922 0.238125,-0.07322 1.499306,0.0578 4.611708,0.479066 6.006513,0.331134 8.55486,-0.90732 1.961219,-0.95312 2.38125,-1.307253 2.38125,-2.007653 0,-0.467722 0.140596,-0.937297 0.312438,-1.043501 0.462897,-0.286086 0.744097,1.6655 0.314773,2.184596 -0.44741,0.540966 -0.153497,4.251775 0.59339,7.491862 0.290721,1.26118 0.531894,3.770418 0.535936,5.576086 l 0.0073,3.283032 -1.499305,0.667526 c -0.824619,0.367139 -1.708743,1.008672 -1.964722,1.425628 -0.554077,0.902518 -0.346749,1.272525 0.335223,0.598261 0.731295,-0.723028 1.654221,-0.98069 1.81392,-0.506409 0.195316,0.580045 1.305165,-0.346816 1.342736,-1.121346 0.01923,-0.396096 0.08515,-0.431073 0.212591,-0.112783 0.101607,0.253763 -0.05436,0.730013 -0.346601,1.058333 -0.619735,0.69626 -0.94011,3.368393 -0.423008,3.528187 0.194027,0.05996 0.456014,-0.257542 0.582196,-0.705555 0.168427,-0.598012 0.238767,-0.415971 0.264583,0.684734 0.03804,1.621914 0.503559,1.981521 0.91336,0.705556 z m 0.03302,-1.275571 c -0.151966,-0.245886 -0.181032,-0.542335 -0.06459,-0.65878 0.315725,-0.315722 0.659966,0.148625 0.48944,0.660206 -0.119493,0.358482 -0.20259,0.358203 -0.42485,-0.0014 z M 64.695691,35.584413 c -0.01531,-0.124086 -0.272543,-1.515515 -0.571606,-3.092062 -0.334042,-1.760904 -0.423609,-3.081136 -0.232238,-3.423098 0.356814,-0.637596 1.351348,5.431575 1.024845,6.254158 -0.106232,0.267638 -0.205684,0.385088 -0.221001,0.261002 z M 54.535876,31.087174 c 0.681469,-0.754306 1.347556,-1.865556 1.480193,-2.469445 0.248691,-1.132296 0.890651,-1.525566 0.890651,-0.545623 0,0.818956 -0.655112,1.950734 -1.875423,3.240003 -1.542545,1.629709 -1.988185,1.427377 -0.495421,-0.224935 z m -2.920823,-0.03965 c 0,-0.194028 0.15875,-0.352778 0.352778,-0.352778 0.194028,0 0.352778,0.15875 0.352778,0.352778 0,0.194028 -0.15875,0.352778 -0.352778,0.352778 -0.194028,0 -0.352778,-0.15875 -0.352778,-0.352778 z m 27.655732,-3.439583 c 0.533203,-2.337269 0.948309,-5.693003 0.905514,-7.320139 -0.0641,-2.437045 -0.03518,-2.645833 0.366533,-2.645833 0.537947,0 0.41681,4.845523 -0.176389,7.055555 -0.286435,1.067153 -0.522676,2.37684 -0.52498,2.910417 -0.0025,0.533576 -0.181444,0.970139 -0.398092,0.970139 -0.248179,0 -0.312028,-0.358899 -0.172586,-0.970139 z M 52.027377,27.462936 c 0.06426,-0.453824 0.354968,-0.825133 0.64601,-0.825133 0.765078,0 0.659686,1.376313 -0.116844,1.525859 -0.500967,0.09648 -0.619776,-0.06085 -0.529166,-0.700726 z m 12.315529,-0.501752 c 0.01693,-0.410969 0.10052,-0.494559 0.213134,-0.213138 0.101907,0.25466 0.08938,0.558931 -0.02783,0.676159 -0.117228,0.117224 -0.200604,-0.09114 -0.185286,-0.463021 z m 16.982383,-2.263659 c 0.0036,-0.485069 0.127762,-1.358194 0.275876,-1.940278 l 0.2693,-1.058333 0.0066,1.058333 c 0.0036,0.582084 -0.12053,1.455209 -0.275876,1.940278 l -0.282448,0.881945 0.0066,-0.881945 z M 57.612276,23.836401 c 0,-0.279591 0.169873,-0.613336 0.3775,-0.741655 0.207624,-0.128319 0.503912,-0.57425 0.658411,-0.990958 0.22831,-0.615774 0.108073,-0.831042 -0.642081,-1.149567 L 57.083109,20.562305 58.2167,19.896864 c 0.623479,-0.365992 1.317058,-1.008243 1.54129,-1.427224 0.449302,-0.839527 2.634774,-2.161998 2.98842,-1.80835 0.122706,0.122704 -0.307591,0.501856 -0.956212,0.842559 l -1.179311,0.61946 0.881944,0.281942 c 0.856319,0.27375 0.853395,0.27836 -0.100686,0.15864 -1.175565,-0.147511 -1.494741,0.333042 -1.847928,2.782245 -0.239765,1.662675 -0.967673,2.998611 -1.633841,2.998611 -0.163953,0 -0.2981,-0.228756 -0.2981,-0.508346 z m 1.234722,-3.372209 c 0.119916,-0.194028 0.05928,-0.352778 -0.134751,-0.352778 -0.194027,0 -0.450888,0.15875 -0.570805,0.352778 -0.119916,0.194028 -0.05928,0.352778 0.134751,0.352778 0.194028,0 0.450889,-0.15875 0.570805,-0.352778 z m 18.901142,1.71245 c 0.223686,-0.417967 0.331946,-1.518605 0.241727,-2.457553 -0.08987,-0.935308 -0.02847,-1.617166 0.136447,-1.515241 0.642207,0.396905 0.221485,4.729788 -0.459264,4.729788 -0.178223,0 -0.141735,-0.340647 0.08109,-0.756994 z M 60.659701,19.935025 c -0.111683,-0.291042 -0.04929,-0.529167 0.138645,-0.529167 0.187939,0 0.341708,0.238125 0.341708,0.529167 0,0.291042 -0.06239,0.529167 -0.138646,0.529167 -0.07626,0 -0.230021,-0.238125 -0.341707,-0.529167 z m -6.340018,-0.411574 c -0.500612,-0.500611 -0.190411,-0.748692 0.873752,-0.698776 1.44722,0.06788 1.599874,-0.491324 0.493157,-1.806581 -0.860296,-1.022403 -1.194401,-2.198347 -0.624587,-2.198347 0.363494,0 1.756228,2.750882 2.009321,3.96875 0.192303,0.925338 0.138854,0.970139 -1.157421,0.970139 -0.747471,0 -1.46487,-0.105833 -1.594222,-0.235185 z m 9.818982,-2.253852 c -0.466281,-0.213316 0.07209,-0.254103 1.5875,-0.120267 1.684062,0.148729 3.102235,0.0068 5.33988,-0.534369 3.949009,-0.955078 4.323567,-0.89313 1.010119,0.167061 -2.744717,0.878218 -6.569984,1.113192 -7.937499,0.487575 z M 56.90672,16.289142 c 0,-0.54855 2.118487,-1.150657 2.768547,-0.786865 0.468415,0.262138 0.380806,0.363768 -0.480476,0.557376 -0.579342,0.130231 -1.331161,0.312101 -1.67071,0.404156 -0.339548,0.09206 -0.617361,0.01346 -0.617361,-0.174667 z m 8.466667,-0.363486 c 0,-0.167862 0.332874,-0.728384 0.739719,-1.245604 0.631303,-0.802572 0.670084,-1.024773 0.264583,-1.516056 -0.40156,-0.486512 -0.397094,-0.549861 0.02882,-0.409093 1.083909,0.358235 1.214874,1.210215 0.363118,2.362277 -0.800792,1.083137 -1.396242,1.427923 -1.396242,0.808476 z m 15.225145,-0.400353 c 0,-0.48507 0.08007,-0.683507 0.177937,-0.440972 0.09786,0.242534 0.09786,0.639409 0,0.881944 -0.09786,0.242535 -0.177937,0.0441 -0.177937,-0.440972 z m -18.929312,0 c -0.282451,-0.457018 1.938648,-0.457018 2.645834,0 0.388175,0.250857 0.135234,0.343413 -0.949318,0.347376 -0.813167,0.003 -1.576599,-0.153348 -1.696516,-0.347376 z m 17.689217,-2.028472 c 0.143629,-0.768598 0.07657,-1.146528 -0.20344,-1.146528 -0.229733,0 -0.319582,-0.15875 -0.199666,-0.352778 0.119917,-0.194027 -0.06915,-0.36531 -0.420151,-0.380628 -0.351,-0.01532 -0.448546,-0.104989 -0.216768,-0.199268 0.654396,-0.266186 1.871642,0.534043 1.871642,1.230438 0,0.344144 -0.235321,0.933871 -0.522937,1.310504 -0.488012,0.639052 -0.508628,0.608213 -0.30868,-0.46174 z M 48.311348,13.108549 c -0.400291,-0.442317 -0.648508,-1.281244 -0.663015,-2.240867 -0.02542,-1.68131 1.008835,-5.2201566 1.525627,-5.2201566 0.423075,0 0.417085,0.044849 -0.20474,1.5330865 -0.618801,1.4809989 -0.703855,4.8538921 -0.136702,5.4210451 0.215856,0.215856 0.330859,0.577287 0.255561,0.803179 -0.08646,0.259371 -0.372672,0.150193 -0.776731,-0.296287 z m 3.303705,-0.122889 c 0,-0.585775 0.907513,-1.470405 1.852084,-1.805385 0.339548,-0.120417 0.617361,-0.06517 0.617361,0.122767 0,0.187938 -0.16633,0.341706 -0.369623,0.341706 -0.203292,0 -0.758917,0.420056 -1.234722,0.933458 -0.584487,0.630671 -0.8651,0.762837 -0.8651,0.407454 z M 43.506565,5.0509842 c 0.004,-0.9974856 0.09352,-1.207382 0.347376,-0.8145699 0.445861,0.6899215 0.445861,1.6647202 0,1.9402778 C 43.642037,6.3076562 43.50332,5.8581309 43.506565,5.0509842 Z m 3.875154,-2.5576389 c 0,-0.182577 0.158751,-0.4300707 0.352778,-0.5499866 0.194028,-0.1199159 0.352778,0.029464 0.352778,0.3319579 0,0.3024925 -0.15875,0.5499866 -0.352778,0.5499866 -0.194027,0 -0.352778,-0.149381 -0.352778,-0.3319579 z m 4.93889,33.8265107 c 0,-0.204664 -0.460083,-1.453293 -1.022406,-2.774735 -0.562323,-1.321438 -1.223929,-3.303118 -1.470236,-4.403732 -0.287213,-1.283405 -0.550262,-1.838173 -0.73343,-1.546796 -0.15708,0.249876 -0.2139,0.692446 -0.126267,0.983488 0.08763,0.291041 0.238061,1.339913 0.334285,2.330827 0.27723,2.854918 1.491724,5.783062 2.398615,5.783062 0.340691,0 0.619439,-0.167453 0.619439,-0.372114 z m 16.580555,-0.691007 c 0,-0.196659 -0.140141,-0.633222 -0.311421,-0.970139 -0.171281,-0.336917 -0.656686,-1.763511 -1.078679,-3.170213 -0.827598,-2.758799 -1.258495,-3.369324 -0.871437,-1.234722 0.415184,2.289719 1.570065,5.732639 1.922934,5.732639 0.186231,0 0.338603,-0.160905 0.338603,-0.357565 z m 3.724935,-0.200402 c 0.626632,-0.510579 0.629906,-0.540537 0.03857,-0.352778 -0.355417,0.112854 -1.188854,0.20519 -1.852084,0.20519 -0.663225,0 -1.205868,0.15875 -1.205868,0.352777 0,0.562145 2.266685,0.408108 3.019379,-0.205189 z m 1.802769,-1.614318 c 2.21397,-1.031505 2.35743,-1.34437 2.371316,-5.171423 0.0091,-2.515627 -0.193386,-4.11933 -0.768315,-6.08435 -0.429387,-1.467585 -0.780704,-3.332897 -0.780704,-4.145139 0,-0.812242 -0.03969,-1.474792 -0.08819,-1.472334 -0.04851,0.0025 -1.023377,0.478708 -2.16638,1.058333 -1.143004,0.579626 -2.264678,1.053865 -2.492612,1.053865 -0.45963,0 -1.711325,8.374937 -1.641305,10.981789 0.02279,0.848 0.04778,2.171798 0.05557,2.941768 0.0078,0.769969 0.202007,1.516041 0.431606,1.657939 0.640623,0.395926 3.438225,-0.05599 5.079016,-0.820448 z m -6.138524,-3.913132 c -0.09321,-1.567532 0.07488,-3.718454 0.434206,-5.55625 1.10902,-5.672183 1.125276,-5.290488 -0.225761,-5.300083 -0.65182,-0.0046 -1.801409,-0.15139 -2.554646,-0.326137 l -1.369522,-0.317721 0.190849,1.849139 c 0.155356,1.505248 3.307005,12.208691 3.594875,12.208691 0.04514,0 0.01365,-1.150937 -0.07,-2.557639 z m -0.772439,-4.350925 c 0.01693,-0.410966 0.10052,-0.49456 0.213134,-0.213137 0.101907,0.254661 0.08938,0.558932 -0.02783,0.676157 -0.117228,0.117225 -0.200604,-0.09113 -0.185286,-0.46302 z M 48.400823,24.444851 c -0.21392,-1.206124 -0.635854,-2.396749 -0.937633,-2.645833 -0.488501,-0.403203 -0.525813,-0.240041 -0.340138,1.487396 0.114703,1.067153 0.406012,2.813403 0.647353,3.880556 l 0.4388,1.940277 0.290281,-1.234722 c 0.171478,-0.729393 0.131099,-2.132224 -0.09866,-3.427674 z m -0.638746,-5.85808 c -0.453838,-0.453836 -0.532519,0.742526 -0.115774,1.760374 0.21716,0.530388 0.285334,0.464625 0.380357,-0.366902 0.06368,-0.557213 -0.05539,-1.184276 -0.264583,-1.393472 z m 0.01211,-2.457336 c -0.288102,-0.288102 -0.392466,-0.248624 -0.392466,0.14846 0,0.701272 0.474382,1.175653 0.6497,0.6497 0.07438,-0.223132 -0.04138,-0.582304 -0.257234,-0.79816 z M 53.73172,5.4503166 c 0,-0.3024924 -0.161339,-0.4502732 -0.358532,-0.3284015 -0.197193,0.121872 -0.267199,0.3693657 -0.155569,0.5499866 C 53.520034,6.16122 53.73172,6.06998 53.73172,5.4503166 Z M 53.0507,3.8836365 c 0.180533,0 0.328242,-0.15875 0.328242,-0.3527778 0,-0.418713 -0.366157,-0.4455643 -0.956874,-0.07017 -0.266148,0.1691337 -0.335509,0.6001773 -0.183624,1.1411257 0.240769,0.8575118 0.245715,0.8585384 0.36405,0.075572 0.06598,-0.4365625 0.267673,-0.79375 0.448206,-0.7937499 z M 55.685914,2.5579699 C 55.574253,2.2669847 55.308158,1.3349701 55.094593,0.48682639 54.881028,-0.36131701 54.549405,-1.0552524 54.357652,-1.0552524 c -0.193675,0 -0.235672,0.27440779 -0.09448,0.61736109 0.139786,0.3395486 0.329636,0.9348611 0.421888,1.3229167 0.09225,0.38805551 0.212779,0.86430551 0.267838,1.05833331 0.167274,0.5894726 0.03044,1.0639626 -0.277256,0.9613981 -0.159943,-0.053314 -0.194546,0.058815 -0.0769,0.2491761 0.333777,0.5400623 1.316406,0.00141 1.087174,-0.595963 z M 42.295193,2.3849769 C 42.539484,2.1406857 41.42279,0.35585869 41.025656,0.35585869 c -0.340223,0 -1.064966,1.98637911 -0.815692,2.23565301 0.224691,0.2246905 1.811135,0.067559 2.085229,-0.2065348 z M 53.091214,0.94991639 c -0.582458,-1.316741 -2.181716,-3.44524339 -2.181716,-2.90371249 0,0.4000249 0.844413,1.95687699 1.061381,1.95687699 0.133416,0 0.529649,0.6366186 0.880518,1.41470771 0.35087,0.7780892 0.705744,1.3469077 0.788611,1.2640413 0.08287,-0.082867 -0.164091,-0.8622274 -0.548794,-1.73191351 z M 51.286297,1.0951504 C 50.88503,0.53162179 50.55672,-0.10337821 50.55672,-0.31596071 c 0,-0.2125829 -0.277813,-0.68889069 -0.617361,-1.05846209 -0.339549,-0.3695714 -0.890231,-1.0675684 -1.223739,-1.551104 -0.463723,-0.6723291 -0.982429,-0.9090642 -2.204862,-1.0062883 -0.879166,-0.069923 -1.598484,-0.06953 -1.598484,8.727e-4 0,0.070403 0.403399,0.6074185 0.896443,1.1933675 0.493044,0.5859491 0.78881,1.1644909 0.657259,1.2856479 -0.131552,0.1211572 -0.310055,0.021848 -0.396675,-0.2206865 -0.188945,-0.5290482 -0.804249,-0.5907363 -0.804249,-0.080631 0,0.1981874 0.396875,0.5411692 0.881944,0.76218169 0.48507,0.2210125 0.881945,0.5444779 0.881945,0.7188123 0,0.1743343 -0.15875,0.2188587 -0.352778,0.098943 -0.194028,-0.1199158 -0.352778,-0.046885 -0.352778,0.1622902 0,0.232677 0.35339,0.2916234 0.910318,0.1518436 0.641265,-0.1609471 1.210513,-0.00653 1.925994,0.5224452 0.558622,0.41300651 1.25086,0.75092101 1.538307,0.75092101 0.287447,0 0.620744,0.15875 0.74066,0.3527778 0.119916,0.1940278 0.298845,0.3527778 0.39762,0.3527778 0.09878,0 -0.148719,-0.4610689 -0.549987,-1.0245977 z M 50.050234,0.45926769 c -0.191447,-0.5027781 -0.150926,-0.5432996 0.197483,-0.1974832 0.241095,0.2393012 0.349487,0.52396 0.240871,0.6325757 -0.108615,0.10861611 -0.305875,-0.087176 -0.438354,-0.4350925 z M 47.794528,-1.7941578 c -0.452053,-0.7914647 -0.914101,-1.34684 -1.026773,-1.2341677 -0.112673,0.1126723 0.05875,0.4961446 0.380941,0.8521605 0.322191,0.3560159 0.585801,0.8684468 0.585801,1.1387353 0,0.27028839 -0.379714,-0.059712 -0.843808,-0.7333337 -0.703577,-1.0212257 -0.759052,-1.2734145 -0.33381,-1.5174948 0.687062,-0.394359 2.078836,0.5531044 2.766836,1.8835505 0.50693,0.98029249 0.501204,1.05481859 -0.08085,1.05229369 -0.361718,-0.00155 -0.97373,-0.6107959 -1.448334,-1.44174379 z m 8.057154,0.3976179 c -0.165127,-0.5757637 -0.402941,-1.2130324 -0.528476,-1.4161523 -0.33874,-0.5480925 -2.878464,-1.7747146 -3.605904,-1.7415605 -0.408591,0.018623 -0.242384,0.1993653 0.470979,0.5121702 1.326917,0.5818441 3.307328,2.4922131 3.307328,3.19035569 0,0.2761163 0.147668,0.5020299 0.328152,0.5020299 0.196079,0 0.207315,-0.4213316 0.02792,-1.04684299 z m -2.883646,-1.2883053 c -0.50822,-0.5082205 -1.124858,-0.8570969 -1.370307,-0.7752807 -0.258574,0.086191 0.05925,0.472331 0.755666,0.918094 1.583618,1.0136452 1.735751,0.9782965 0.614641,-0.1428133 z M 49.468988,-4.357014 c -0.08085,-0.069719 -0.623241,-0.2219459 -1.205324,-0.3382825 l -1.058334,-0.2115213 1.058334,0.4820631 c 0.910424,0.4146913 1.656249,0.4566077 1.205324,0.067741 z m 5.141561,-0.5838352 c -0.997303,-1.6136704 -7.868899,-2.7108944 -10.017888,-1.5996094 -0.636386,0.3290884 -1.088708,0.6667001 -1.00516,0.7502484 0.08355,0.083548 0.668579,-0.1058443 1.300069,-0.4208727 0.811885,-0.4050217 1.577746,-0.5041457 2.614906,-0.3384427 0.806709,0.128886 2.154668,0.3287104 2.995464,0.4440557 1.079607,0.1481067 1.390528,0.3056958 1.058334,0.5364107 -0.336779,0.2338986 -0.269982,0.2744159 0.235168,0.1426468 0.388056,-0.1012248 1.102431,0.041501 1.5875,0.3171675 1.04833,0.5957705 1.537036,0.6625904 1.231607,0.1683957 z M 49.48817,-5.6551431 c -0.707719,-0.4475752 -1.400895,-0.4220812 -1.400895,0.051523 0,0.2147866 0.233041,0.3010948 0.517869,0.1917961 0.284828,-0.1092987 0.618225,-0.036346 0.740881,0.1621163 0.122657,0.1984629 0.321581,0.2622726 0.442054,0.1418001 0.120472,-0.1204726 -0.01449,-0.3667285 -0.299909,-0.5472355 z"
       style="fill:#000000;stroke-width:0.35277778" />
  </g>
</svg>
