<?xml version="1.0" encoding="UTF-8" standalone="no"?>
<!-- Created with Inkscape (http://www.inkscape.org/) -->

<svg
   xmlns:dc="http://purl.org/dc/elements/1.1/"
   xmlns:cc="http://creativecommons.org/ns#"
   xmlns:rdf="http://www.w3.org/1999/02/22-rdf-syntax-ns#"
   xmlns:svg="http://www.w3.org/2000/svg"
   xmlns="http://www.w3.org/2000/svg"
   xmlns:sodipodi="http://sodipodi.sourceforge.net/DTD/sodipodi-0.dtd"
   xmlns:inkscape="http://www.inkscape.org/namespaces/inkscape"
   width="135.69421mm"
   height="219.90547mm"
   viewBox="0 0 135.69422 219.90545"
   version="1.1"
   id="svg8"
   inkscape:version="0.92.2 5c3e80d, 2017-08-06"
   sodipodi:docname="Figure_116.svg">
  <defs
     id="defs2" />
  <sodipodi:namedview
     id="base"
     pagecolor="#ffffff"
     bordercolor="#666666"
     borderopacity="1.0"
     inkscape:pageopacity="0.0"
     inkscape:pageshadow="2"
     inkscape:zoom="0.49497475"
     inkscape:cx="426.81229"
     inkscape:cy="384.8567"
     inkscape:document-units="mm"
     inkscape:current-layer="layer1"
     showgrid="false"
     fit-margin-top="0"
     fit-margin-left="0"
     fit-margin-right="0"
     fit-margin-bottom="0"
     inkscape:window-width="1440"
     inkscape:window-height="807"
     inkscape:window-x="0"
     inkscape:window-y="1"
     inkscape:window-maximized="1" />
  <metadata
     id="metadata5">
    <rdf:RDF>
      <cc:Work
         rdf:about="">
        <dc:format>image/svg+xml</dc:format>
        <dc:type
           rdf:resource="http://purl.org/dc/dcmitype/StillImage" />
        <dc:title></dc:title>
      </cc:Work>
    </rdf:RDF>
  </metadata>
  <g
     inkscape:label="Layer 1"
     inkscape:groupmode="layer"
     id="layer1"
     transform="translate(81.409984,180.39068)">
    <path
       style="fill:#000000;stroke-width:0.35277778"
       d="m 35.512172,39.443457 c -0.10905,-0.109047 -0.57382,-0.242785 -1.03282,-0.297194 -0.459,-0.05441 -1.42476,-0.363809 -2.14613,-0.687557 -0.72137,-0.323744 -1.52835,-0.588627 -1.79329,-0.588627 -0.26493,0 -0.60082,-0.119063 -0.74642,-0.264583 -0.14559,-0.145521 -1.16424,-0.278645 -2.26365,-0.295836 -1.09942,-0.01718 -3.65896,-0.236199 -5.68787,-0.486689 -2.70317,-0.333735 -3.72417,-0.349701 -3.82082,-0.05976 -0.0935,0.28042 -0.33056,0.289352 -0.81393,0.03066 -0.38822,-0.207769 -1.24983,-0.257591 -2.00002,-0.115655 -1.30971,0.247802 -1.98692,0.26107 -6.4907995,0.127162 -4.40107,-0.130852 -5.66694,-1.720017 -5.54176,-6.957141 0.0429,-1.793846 -0.0363,-3.375832 -0.17602,-3.515522 -0.13969,-0.139689 -0.56211,-0.06155 -0.9387,0.173634 -0.93086,0.581335 -3.97663,0.539644 -5.44661,-0.07455 -0.76589,-0.320011 -1.6543,-1.183791 -2.44913,-2.38125 -1.13247,-1.706132 -1.252,-2.124766 -1.29869,-4.548547 -0.0358,-1.8556 0.12285,-3.006478 0.52018,-3.774842 0.31439,-0.607956 0.57161,-1.367673 0.57161,-1.68826 0,-0.320587 0.38026,-1.320659 0.84501,-2.22238 0.96438,-1.8711191 1.48796,-3.4907191 1.7845,-5.5200481 0.11341,-0.776111 0.4224,-2.125486 0.68664,-2.998611 1.06368,-3.51466497 1.39495,-4.775849 1.32646,-5.050063 -0.0395,-0.158158 0.21836,-0.713783 0.57302998,-1.234722 0.35467,-0.520937 0.85245,-1.793946 1.1062,-2.828904 0.411,-1.67639 0.39199,-2.042125 -0.17421,-3.351389 -0.34956,-0.808306 -0.86939,-1.7484299 -1.15516998,-2.0891679 -0.28579,-0.340737 -0.42664,-0.712498 -0.31301,-0.826131 0.11364,-0.113633 -0.11352,-0.946097 -0.50478,-1.849921 -0.84298,-1.947273 -2.36665,-6.890515 -2.57254,-8.346091 -0.29986,-2.119891 -1.12389,-4.762499 -1.48505,-4.762499 -0.24602,0 -1.60332,0.993856 -3.01622,2.208572 -1.4129005,1.214713 -3.3626605,2.83724 -4.3328005,3.605614 -0.97014,0.768379 -3.06967,2.659754 -4.66561,4.203065 -3.31529,3.205932 -6.73419,5.723717 -9.79828,7.2157489 -1.16417,0.566882 -2.98517,1.617348 -4.046676,2.334376 -3.352285,2.264396 -6.894887,3.349611 -11.651936,3.569363 -2.037292,0.09411 -4.815417,0.337573 -6.173612,0.541024 l -2.469444,0.369905 -3.868438,-1.62693 c -2.127642,-0.894814 -4.370229,-1.922995 -4.983526,-2.28485 -0.613301,-0.361855 -1.61707,-0.76817 -2.2306,-0.902924 -0.613526,-0.134761 -1.824556,-0.786243 -2.691172,-1.447747 -0.866617,-0.661501 -2.265716,-1.5270939 -3.109112,-1.9235389 -0.8434,-0.396441 -2.894517,-2.027826 -4.558043,-3.625296 -3.264837,-3.135199 -5.088357,-6.144909 -5.810713,-9.590556 -0.203383,-0.970139 -0.630626,-2.637014 -0.949428,-3.704167 -1.341806,-4.491528 -1.425395,-5.666112 -0.577573,-8.115963 0.405911,-1.172915 0.931668,-2.442651 1.168347,-2.821636 0.315372,-0.504988 0.331336,-0.951319 0.05976,-1.670798 -0.612186,-1.621868 0.02169,-6.509756 1.05686,-8.149572 0.805844,-1.276541 1.069639,-3.13689 0.90835,-6.405919 -0.05141,-1.042067 0.360183,-19.318361 0.538389,-23.906321 0.09998,-2.573962 0.357189,-5.431462 0.571579,-6.35 0.533361,-2.285142 2.019575,-7.065853 2.630346,-8.461039 0.276053,-0.630591 0.728454,-1.662466 1.005339,-2.293056 2.427386,-5.528268 3.377131,-7.818748 3.377131,-8.144568 0,-0.39991 2.87486,-6.80445 4.515937,-10.06049 0.523667,-1.03899 1.207082,-2.07087 1.518708,-2.29305 0.311623,-0.22219 0.927827,-1.11835 1.369339,-1.99147 2.39196,-4.73028 7.596085,-10.8292 10.557549,-12.3728 0.794622,-0.41418 1.536693,-0.9018 1.649049,-1.08359 0.112357,-0.18179 0.78625,-0.69905 1.497546,-1.14945 1.500706,-0.95026 3.438535,-2.56098 4.25342,-3.53542 0.312191,-0.37331 1.170979,-1.32581 1.908422,-2.11666 1.33627,-1.43306 1.340059,-1.44566 1.121753,-3.73097 -0.120474,-1.26118 -0.373049,-3.16618 -0.561273,-4.23333 -0.188225,-1.06716 -0.411343,-3.1589 -0.495819,-4.64831 -0.09815,-1.73061 -0.389206,-3.13123 -0.806394,-3.88055 -0.87274,-1.56758 -1.550532,-6.73875 -1.124698,-8.58086 1.119117,-4.8412 1.708845,-6.34175 3.209054,-8.16536 1.192103,-1.44908 1.775887,-1.88457 2.528778,-1.88642 0.694461,-0.002 1.068155,-0.23723 1.286168,-0.81064 0.473915,-1.2465 1.319439,-1.76305 3.333165,-2.03632 1.306756,-0.17733 2.462998,-0.66899 3.945918,-1.67791 1.15365,-0.78489 2.65317,-1.52496 3.33227,-1.6446 1.67741,-0.2955 7.08422,0.35098 7.41527,0.88664 0.14683,0.23757 0.4412,0.32425 0.65417,0.19263 0.62456,-0.386 4.9558,0.85654 6.82264,1.95727 0.94574,0.55763 2.0546505,1.01387 2.4642505,1.01387 0.45045,0 1.62919,0.90205 2.98308,2.28286 1.78116,1.81655 2.24627,2.51912 2.27705,3.43958 0.0743,2.22388 0.24566,3.28537 0.78447,4.8609 0.36074,1.05482 0.57336,3.21009 0.63366,6.42322 0.08,4.26505 0.0147,4.9197 -0.55327,5.54735 -0.72992,0.80656 -0.61211,2.71815 0.40445,6.56244 0.98141,3.71138 0.0331,5.80649 -2.38749,5.27484 -0.96761,-0.21253 -1.08444,-0.11997 -1.72002,1.36281 -0.37505,0.87495 -0.98359,1.75227 -1.3523,1.9496 -0.49105,0.2628 -0.62974,0.63576 -0.51843,1.39415 0.0836,0.56945 -0.0223,1.14307 -0.23532,1.27471 -0.25019,0.15463 -0.30865,0.90839 -0.16515,2.12934 0.19929,1.69567 0.13267,1.97943 -0.64799,2.76009 -1.0822205,1.08222 -4.0392305,1.58614 -5.5749005,0.95005 -0.90672,-0.37558 -1.16053,-0.32778 -2.15274,0.40545 -0.61866,0.45717 -1.80741,1.51973 -2.64168,2.36124 -1.69026,1.70495 -2.16839,3.41167 -1.77001,6.31819 0.24956,1.82072 1.76223,5.38096 2.28626,5.38096 0.54228,0 2.75088,3.20367 4.45724,6.46543 1.81414,3.46777 2.31386,5.93995 2.1516,10.64429 -0.10835,3.141479 -1.27497,7.790932 -2.5436,10.137274 -0.67256,1.243916 -0.47786,2.272492 1.67791,8.864304 0.94311,2.883782 1.71474,5.611886 1.71474,6.062451 0,0.450564 0.14665,1.204926 0.32589,1.676364 0.32087,0.843943 0.37934,0.854629 3.7923705,0.69305 1.90655,-0.09026 4.81584,-0.480095 6.46507,-0.866299 1.64923998,-0.3862 3.8051,-0.760257 4.7908,-0.831233 0.9857,-0.07098 2.42132,-0.270407 3.19025,-0.443177 1.39655,-0.313785 2.4077,-0.231531 7.7175695,0.62779 4.71058,0.762335 5.26767,0.96696 6.3757,2.341894 0.56794,0.704758 1.49218,1.698399 2.05386,2.208092 0.56168,0.50969 1.51418,1.45645 2.11667,2.103907 0.60249,0.647456 1.98213,2.076206 3.06588,3.175 2.63318,2.669734 3.19583,4.511029 2.12097,6.94092 -0.40701,0.920129 -0.74003,1.802836 -0.74003,1.961568 0,0.158732 0.75407,0.336987 1.6757,0.396127 1.46886,0.09425 1.69061,0.213152 1.79655,0.963309 0.0806,0.570685 -0.15446,1.080181 -0.70555,1.529341 l -0.82642,0.673552 0.83161,-0.183297 c 2.45901,-0.541993 3.49929,1.642121 1.28506,2.698017 -1.48825,0.709697 -1.54944,1.124902 -0.26375,1.789758 1.4209,0.734779 2.20966,1.741159 2.4204,3.088227 0.39608,2.531741 -4.62119,9.587039 -7.50389,10.551989 -0.99157,0.331918 -1.21544,0.271325 -2.03849,-0.551727 -0.50853,-0.508529 -1.11852,-0.860958 -1.35555,-0.783181 -0.23702,0.07778 -0.6164,0.88054 -0.84307,1.783916 -0.37826,1.507508 -0.7322,2.362712 -1.77982,4.300396 -0.99978,1.849202 -1.50397,3.765374 -1.67085,6.35 -0.10023,1.552223 -0.3502,4.727222 -0.55551,7.055556 -0.65471,7.4248079 -0.27616,14.02253893 1.26505,22.0486099 1.22289,6.3684331 1.68294,8.3507191 2.15075,9.2673741 0.60843,1.192209 2.89329,2.895166 4.64633,3.463018 1.55892,0.504977 7.85199,3.965995 10.64368,5.853744 0.67909,0.459207 1.75066,1.164438 2.38125,1.567183 0.63059,0.402742 1.14652,0.86401 1.14652,1.025035 0,0.384933 2.93133,0.202551 4.93889,-0.307287 5.5729,-1.415292 6.09917,-1.483381 6.77037,-0.875954 1.00422,0.908808 0.80749,2.469596 -0.45684,3.624386 -0.60214,0.549973 -1.27996,1.371331 -1.50626,1.825244 -0.2263,0.453912 -0.76442,1.001267 -1.19582,1.216346 -0.4314,0.215078 -1.06327,0.632622 -1.40416,0.927872 -0.34088,0.29525 -1.93286,0.953774 -3.53772,1.463386 -1.60487,0.509608 -3.58799,1.250294 -4.40694,1.645969 -0.81895,0.395676 -2.04588,0.689127 -2.72651,0.652113 -0.68063,-0.03701 -1.56649,0.03995 -1.96858,0.17102 -0.40209,0.131071 -0.8203,0.149091 -0.92934,0.04004 z m 5.54097,-2.278934 c 0.76115,-0.388055 1.58846,-0.705555 1.83848,-0.705555 0.25002,0 0.45457,-0.15875 0.45457,-0.352778 0,-0.584599 -1.06147,-0.398582 -2.15047,0.376851 -0.56357,0.401296 -1.42177,0.771966 -1.90711,0.823712 -1.19232,0.127123 -1.56829,0.563326 -0.48553,0.563326 0.47639,0 1.48891,-0.3175 2.25006,-0.705556 z m -1.58754,-2.172416 c 0.59389,-0.439085 1.25027,-0.651654 1.599,-0.517835 0.71785,0.275466 3.33993,-0.460509 3.33993,-0.937465 0,-0.33401 -1.33592,-0.183289 -2.55467,0.288223 -0.41883,0.162042 -0.69135,0.02956 -0.85621,-0.416267 -0.35398,-0.957259 -0.73328,-1.117695 -3.28061,-1.387612 -2.45502,-0.260135 -2.93404,-0.527467 -5.74373,-3.205466 -1.58361,-1.509385 -1.85237,-2.234495 -0.8282,-2.234495 0.24931,0 1.28019,0.792826 2.29085,1.76184 1.01066,0.96901 2.18637,1.832987 2.6127,1.91995 0.42633,0.08696 1.41015,0.260068 2.18626,0.38468 0.77611,0.124608 1.68731,0.474405 2.0249,0.777321 0.71345,0.640196 4.14871,1.079468 4.14871,0.530503 0,-0.503805 -0.88581,-0.788183 -2.4551,-0.788183 -0.75991,0 -1.52901,-0.228868 -1.77824,-0.529166 -0.24154,-0.291042 -0.64567,-0.529167 -0.89807,-0.529167 -0.2524,0 -0.97338,-0.436562 -1.60218,-0.970139 -1.27918,-1.085455 -3.42363,-2.382964 -6.31919,-3.823444 -1.06715,-0.530885 -2.30492,-1.246036 -2.75059,-1.589218 -0.44568,-0.343186 -1.25766,-0.722224 -1.80442,-0.84231 -0.54675,-0.120089 -1.36126,-0.567626 -1.81002,-0.99453 -0.44875,-0.426907 -1.28921,-1.014317 -1.86769,-1.305359 -0.57847,-0.291041 -1.22494,-0.832735 -1.43661,-1.203766 -0.21166,-0.37103 -0.65355,-0.957245 -0.98198,-1.302699 -0.70298,-0.739418 -1.068,-2.008349 -2.02689,-7.046058 -0.93118,-4.8921641 -1.25333,-10.47441307 -1.25046,-21.66831 0.002,-7.706536 0.10034,-9.490946 0.61551,-11.166795 0.72157,-2.347271 0.75848,-4.509156 0.20615,-12.075767 -0.31114,-4.262448 -0.31067,-5.761196 0.002,-6.261805 0.35118,-0.562568 0.30504,-0.658132 -0.31786,-0.658132 -0.40079,0 -1.40397,0.170032 -2.22929,0.37785 -1.32184,0.332842 -1.73882,0.272489 -3.50068,-0.506692 -1.10006,-0.486494 -2.07967,-0.755798 -2.17691,-0.598448 -0.0973,0.157349 -0.2493495,4.038843 -0.3380095,8.625543 -0.14664,7.586416 -0.2232,8.418273 -0.84777,9.212298 -0.37762,0.480063 -0.79912,1.628768 -0.93666,2.552675 -0.13755,0.923904 -0.36883,1.838579 -0.51396,2.032607 -0.14513,0.194028 -0.63435,1.940278 -1.08715,3.880555 -1.01414,4.345651 -1.89927,6.5263889 -2.64897,6.5263889 -0.46864,0 -0.52524,-0.281629 -0.33675,-1.6756939 0.12461,-0.921632 0.40672,-2.23132 0.6269,-2.910417 0.61508,-1.897055 0.55724,-15.031053 -0.0728,-16.524943 -0.40839,-0.968379 -0.41446,-1.230284 -0.034,-1.46545 0.3654,-0.225834 0.39136,-0.817823 0.12282,-2.801655 -0.25951,-1.917104 -0.23631,-2.601778 0.0976,-2.878857 0.31606,-0.262311 0.53861,-0.175616 0.79923,0.311344 0.54064,1.010207 1.28864,9.639056 1.18189,13.634205 -0.0515,1.927094 -0.001,3.411347 0.11184,3.298338 0.24758,-0.247576 1.22179,-3.96028 1.38008,-5.259451 0.0621,-0.509711 0.35764,-2.017836 0.65674,-3.351389 0.53232,-2.373284 0.66037,-5.237455 0.48634,-10.878351 l -0.0867,-2.809268 -1.21887,-0.249283 c -0.67038,-0.137107 -1.48626,-0.579501 -1.81307,-0.983096 -0.32682,-0.403596 -0.72751,-0.739518 -0.89043,-0.746496 -0.63134,-0.02706 -2.31367,-1.693732 -2.08428,-2.0649 0.38288,-0.619509 0.68995,-0.493839 3.06433,1.254083 1.22972,0.905266 2.64314,1.677977 3.14093,1.717139 0.49779,0.03916 1.4472595,0.351578 2.1099495,0.694266 1.36535,0.70605 2.52823,0.775067 6.47063,0.384034 2.05524,-0.203849 2.95094,-0.458174 3.48122,-0.988455 0.46494,-0.46494 0.79646,-0.580545 0.95042,-0.331428 0.13004,0.210408 1.15939,0.491032 2.28745,0.623613 1.89065,0.222211 2.04088,0.188658 1.92132,-0.429109 -0.11824,-0.610908 -0.48018,-0.670168 -4.0932,-0.670168 -3.48696,0 -3.96347,-0.07172 -3.96328,-0.59654 1.2e-4,-0.328098 -0.17236,-0.703203 -0.3833,-0.833568 -0.25606,-0.158253 -0.2661,-0.354443 -0.0302,-0.590331 0.23588,-0.235889 0.94524,-0.201595 2.13443,0.103187 1.41045,0.361488 2.25116,0.369884 4.03964,0.04034 1.24218,-0.228882 2.75614,-0.416147 3.36436,-0.416147 0.73248,0 1.10585,-0.173263 1.10585,-0.513182 0,-0.528317 -1.23778,-0.83946 -3.52778,-0.886785 -1.03311,-0.02134 -2.58515,-0.119384 -5.20347,-0.328672 -0.24254,-0.0194 -0.44097,-0.273375 -0.44097,-0.564417 0,-0.350417 0.35046,-0.529166 1.03751,-0.529166 0.57063,0 1.13599,-0.159332 1.25634,-0.354073 0.12036,-0.19474 0.56629,-0.271219 0.99096,-0.169954 1.35002,0.32192 6.24356,0.451203 6.41763,0.169549 0.20776,-0.336159 -2.87721,-0.734922 -6.96566,-0.900388 -3.23182,-0.130793 -4.63267,-0.520549 -3.77536,-1.050403 0.53152,-0.328496 6.22566,-0.649658 8.06656,-0.454971 0.82625,0.08738 1.79146,-0.11575 1.79146,-0.377017 0,-0.45479 -0.84423,-0.715483 -3.56813,-1.101803 -1.32426,-0.187811 -3.43234,-0.751653 -4.68464,-1.252981 -1.88678,-0.755329 -2.40994,-0.8403 -3.05342,-0.495918 -0.6678,0.357392 -0.90308,0.289038 -1.68028,-0.488163 -0.9862,-0.986197 -0.91751,-1.059491 1.3448,-1.43492 1.41472,-0.23477 3.91199,-1.650686 3.28955,-1.865122 -0.22804,-0.07856 -1.02179,0.162472 -1.76389,0.535629 -1.71937,0.864578 -3.92473,1.27144 -4.46433,0.823609 -0.28427,-0.235923 -1.14042,0.03557 -2.70729,0.85851 -1.2603395,0.661952 -2.6884095,1.399737 -3.1734795,1.639524 -0.48507,0.23979 -1.0089,0.637759 -1.16406,0.884379 -0.45187,0.718227 -2.0497,0.55276 -2.25533,-0.233553 -0.16268,-0.622103 -2.02245,-1.78749 -2.85253,-1.78749 -0.18946002,0 -0.54209002,-0.238125 -0.78364002,-0.529167 -0.24154,-0.291041 -0.69754,-0.529188 -1.01333,-0.529212 -0.74539998,-6.4e-5 -6.04221998,-3.391246 -6.04221998,-3.868413 0,-0.200681 -0.12463,-0.364875 -0.27696,-0.364875 -0.15233,0 -4.6043105,-4.305734 -9.8932805,-9.568296 -5.28898,-5.262562 -9.71847,-9.466146 -9.84332,-9.341298 -0.12485,0.124848 0.2648,0.66027 0.86589,1.189824 1.04109,0.917191 4.49853,5.155064 7.15322,8.767862 2.19866,2.992172 4.00675,4.770088 6.52639,6.417461 1.3582,0.888005 2.7771905,1.900904 3.1533305,2.250888 0.37613,0.349987 0.8127,0.636337 0.97014,0.636337 0.15744,0 0.28625,0.238125 0.28625,0.529167 0,0.739454 -0.13339,0.695438 -2.3981905,-0.791351 -1.10634,-0.726289 -2.2505,-1.42118 -2.54258,-1.544204 -1.35266,-0.569761 -4.47561,-3.906033 -7.80401,-8.337119 -4.15524,-5.531852 -6.48225,-8.151583 -7.62753,-8.587017 -1.02796,-0.390828 -1.05489,-1.175452 -0.0312,-0.90774 1.38304,0.361675 -0.0591,-0.639339 -2.17431,-1.509186 -2.161537,-0.888912 -4.059898,-2.45043 -3.572077,-2.938251 0.325508,-0.325508 2.992837,0.856096 3.392577,1.502883 0.48126,0.778697 0.79016,0.256187 1.19625,-2.023431 0.38689,-2.171909 0.2741,-9.304355 -0.15821,-10.00384 -0.0885,-0.143189 -0.31412,-1.068281 -0.50139,-2.055759 -0.18727,-0.987482 -0.72434,-2.626941 -1.19349,-3.643251 -1.050454,-2.2756 -1.802982,-4.53248 -1.695293,-5.0843 0.109697,-0.56212 -1.085917,-0.89994 -2.19758,-0.62093 -0.66736,0.1675 -0.968812,0.0713 -1.135175,-0.36224 -0.660576,-1.72143 2.335749,-1.51451 4.253018,0.29371 0.8714,0.82184 1.30021,1.59249 1.46721,2.63686 0.18004,1.1259 0.34043,1.38895 0.67671,1.10986 0.24242,-0.20119 0.53404,-0.83225 0.64807,-1.40237 0.11402,-0.57012 0.76455,-1.65337 1.44562,-2.40723 1.06908,-1.18334 1.2647,-1.67938 1.4315,-3.62981 0.4589,-5.36609 0.45747,-5.41472 -0.18079,-6.13972 -0.34163,-0.38806 -1.05293,-1.97556 -1.58068,-3.52778 -1.71818,-5.05359 -3.15668,-7.75103 -4.581946,-8.59196 -0.70534,-0.41616 -1.493016,-0.75665 -1.750388,-0.75665 -0.61317,0 -3.019496,-2.67163 -3.019496,-3.35241 0,-0.29048 -0.133519,-0.52815 -0.296711,-0.52815 -0.393322,0 -2.172733,-3.2894 -2.172733,-4.01649 0,-0.31329 -0.169447,-0.56962 -0.376552,-0.56962 -0.229567,0 -0.278553,0.30876 -0.125501,0.79098 0.214683,0.67641 0.173959,0.72701 -0.281149,0.3493 -0.446,-0.37014 -0.668504,-0.24153 -1.373802,0.79411 -0.462883,0.67968 -1.001247,1.23687 -1.196361,1.2382 -0.195114,0.001 -0.830114,0.59034 -1.411111,1.30891 -2.232265,2.76086 -5.674329,5.65135 -7.935525,6.66389 -0.672042,0.30094 -4.233333,4.08258 -4.233333,4.49526 0,0.17007 -0.470765,0.9036 -1.046145,1.63007 -0.575384,0.72648 -1.567572,2.27661 -2.204862,3.44473 -4.399608,8.06424 -5.21566,9.6784 -5.21566,10.31665 0,0.39484 -0.158751,0.7179 -0.352778,0.7179 -0.194028,0 -0.352778,0.22375 -0.352778,0.49723 0,0.27348 -0.794921,2.08511 -1.766489,4.02585 -0.971571,1.940744 -1.865521,4.05855 -1.986555,4.706243 -0.121038,0.647689 -0.504437,1.653868 -0.851997,2.235951 -1.534048,2.569154 -3.047312,8.006126 -3.338396,11.994444 -0.74566,10.216769 -0.839147,12.18443 -1.051922,22.140217 -0.09853,4.610033 -0.218313,8.578783 -0.266195,8.819444 -0.06563,0.329869 0.737776,0.409716 3.264331,0.324422 1.843264,-0.06223 4.14514,0.07456 5.115278,0.303971 0.970139,0.229411 2.557639,0.485856 3.527778,0.56988 0.970139,0.08402 2.430163,0.473262 3.244498,0.864976 1.85372,0.891682 3.070916,0.473248 2.717659,-0.934247 -0.16007,-0.637773 -0.07519,-0.86783 0.320202,-0.86783 0.295907,0 0.597923,0.179733 0.671149,0.399408 0.303523,0.910569 5.35116,-2.700923 5.491078,-3.928766 0.05355,-0.469925 0.442154,-1.221422 0.863569,-1.669997 0.770935,-0.820625 3.624693,-2.561756 4.198778,-2.561756 0.759344,0 0.174276,0.812853 -1.338304,1.859354 -4.437412,3.070081 -4.396338,3.891714 0.07565,1.513283 4.504817,-2.39589 9.119299,-4.103116 10.398728,-3.847232 0.901344,0.180269 1.050054,0.103843 1.050054,-0.539641 0,-0.514466 0.221351,-0.749653 0.705556,-0.749653 0.388055,0 0.705555,-0.15875 0.705555,-0.352777 0,-0.506438 -1.08881,-0.435194 -2.851002,0.186541 -1.899496,0.670183 -6.850387,0.489169 -6.850387,-0.250458 0,-0.343076 0.941896,-0.51157 3.586815,-0.641639 1.972748,-0.09701 3.704795,-0.294478 3.848993,-0.43881 0.322442,-0.322735 -0.853108,-1.677857 -1.455519,-1.677857 -0.24021,0 -0.528246,-0.238446 -0.64008,-0.529882 -0.111834,-0.291434 -1.199039,-1.173435 -2.416009,-1.959998 -1.216971,-0.786568 -2.341669,-1.660628 -2.499336,-1.94236 -0.546908,-0.977268 0.116107,-1.207247 1.437951,-0.498781 0.715955,0.38373 1.602842,0.697688 1.97086,0.697688 0.368021,0 1.164678,0.515938 1.770355,1.146528 1.271147,1.323439 4.344078,3.660253 6.390415,4.859602 0.77611,0.454875 1.82975,1.169254 2.34143,1.58751 0.51167,0.418257 2.41667,1.524815 4.23333,2.459024 1.81666,0.934205 3.39517,1.83818 3.50781,2.008833 0.3528,0.534518 6.28926,3.744062 7.2812,3.936576 0.34534,0.06702 1.10414,0.319331 1.68623,0.560688 2.21255,0.91742 7.5318705,2.596561 10.5833305,3.340834 2.71229998,0.661546 3.19142998,0.887416 3.28772998,1.549904 0.14638002,1.006937 -0.10988,0.987559 -4.34605998,-0.328633 -1.94028,-0.602852 -4.63903,-1.410872 -5.99723,-1.795604 -1.3581905,-0.384733 -2.6202505,-0.84218 -2.8045805,-1.016554 -0.18433,-0.174371 -0.6738,-0.317042 -1.08773,-0.317042 -0.41393,0 -0.87032,-0.117725 -1.01421,-0.261616 -0.14389,-0.143887 -1.16253,-0.585855 -2.26366,-0.982144 l -2.00204,-0.720531 -4.48641,2.216866 c -2.46753,1.219278 -4.60212,2.21687 -4.74354,2.21687 -1.0956,0 -6.661837,5.149751 -7.837384,7.250963 -0.682611,1.22012 -0.977583,1.43516 -2.008742,1.464387 -1.477465,0.04188 -1.619296,-0.706063 -0.326697,-1.722822 0.48507,-0.381557 0.881945,-0.868637 0.881945,-1.082403 0,-0.64885 -1.787423,1.233812 -2.510945,2.644736 -0.373119,0.727604 -0.824548,1.322917 -1.003184,1.322917 -0.648152,0 -0.736593,-0.706967 -0.214694,-1.716208 0.628485,-1.215354 5.09377,-5.339348 5.781221,-5.339348 0.26108,0 1.13641,-0.528397 1.945174,-1.174217 2.101346,-1.67798 4.331426,-2.886615 6.952006,-3.767773 3.03806,-1.021538 6.68053,-2.586757 6.6854,-2.872803 0.002,-0.126542 -0.47683,-0.397662 -1.0644,-0.602488 -0.58757,-0.20483 -2.64842,-1.410984 -4.57967,-2.680346 -1.93125,-1.269361 -3.73952,-2.307928 -4.01838,-2.307928 -0.27886,0 -0.98032,-0.271639 -1.55881,-0.603642 -0.972971,-0.558412 -1.140314,-0.561248 -2.233442,-0.03783 -0.649916,0.311196 -1.816665,0.722323 -2.592776,0.91362 -3.626362,0.893823 -8.870146,2.66373 -9.751671,3.291431 -0.537266,0.382566 -1.499806,0.873922 -2.138976,1.091903 -0.639174,0.217982 -1.540729,0.688418 -2.003457,1.045422 -0.462728,0.357001 -1.02187,0.649094 -1.242536,0.649094 -0.22067,0 -1.021931,0.511647 -1.780583,1.136992 -2.198119,1.811874 -7.014171,4.86023 -7.678607,4.86023 -0.334215,0 -1.50507,0.396875 -2.601898,0.881944 -1.096829,0.48507 -2.351967,0.881945 -2.789199,0.881945 -0.43723,0 -1.364876,0.238125 -2.06144,0.529167 -0.696559,0.291041 -1.927228,0.529166 -2.734821,0.529166 -1.311318,0 -1.674203,0.207504 -3.3932,1.940278 -1.058667,1.067153 -2.066658,1.940278 -2.239978,1.940278 -0.713865,0 -1.777756,2.900948 -1.78709,4.872916 -0.01195,2.524763 0.892231,7.488367 2.047714,11.24115 0.723994,2.351391 1.264212,3.329982 2.921185,5.291667 2.109019,2.496851 6.049021,6.110932 6.662026,6.110932 0.193177,0 0.404149,0.124898 0.468827,0.277552 0.286498,0.676226 4.320304,2.2730559 5.694141,2.2540949 0.801585,-0.01108 1.625963,0.119757 1.83195,0.290713 0.205991,0.170956 0.76647,0.386465 1.245514,0.478907 0.479044,0.09245 1.392061,0.433542 2.028931,0.757996 1.223694,0.623411 4.094452,0.485087 5.520686,-0.266012 0.374777,-0.197369 1.962278,-0.66583 3.527778,-1.041027 1.565505,-0.375196 3.438279,-1.0685599 4.161724,-1.5408089 0.723444,-0.47225 1.427603,-0.858637 1.564795,-0.858637 0.434992,0 3.749911,-2.908398 5.762907,-5.056184 1.067153,-1.138608 2.972146,-2.877163 4.233326,-3.863452 1.26118,-0.986293 2.34598,-1.922858 2.41065,-2.081255 0.0647,-0.158397 0.31051,-0.287997 0.5463,-0.287997 0.23578,0 1.06744,-0.595313 1.84813,-1.322917 0.78069,-0.727604 1.88423,-1.638889 2.45231,-2.025079 0.56809,-0.386189 2.22352,-1.832412 3.67873,-3.213826 1.4552,-1.381418 3.59833,-3.112226 4.7625,-3.846241 1.16416,-0.734017 2.75166,-1.838462 3.52777,-2.454317 0.77611,-0.615858 2.5223605,-1.768711 3.8805605,-2.561897 2.96061,-1.728995 3.62896,-2.422246 5.11002,-5.30045 1.10839998,-2.15397 1.76914998,-2.554584 1.76914998,-1.072646 0,0.406322 -0.47625,1.746751 -1.05833998,2.978736 -0.58208,1.231981 -1.05833,2.641695 -1.05833,3.132694 0,0.491004 -0.40302,1.688053 -0.8956,2.660114 -0.79259,1.564097 -0.90017,2.2286 -0.9353,5.777244 -0.0389,3.930794 0.15507,5.075251 1.8863,11.12914 0.59996,2.097994 3.14118,8.892903 4.08997,10.9361109 0.49556,1.067153 1.0158,2.257778 1.15611,2.645833 0.14031,0.388056 0.43363,1.149587 0.65182,1.692293 0.21818,0.542706 0.3967,1.344394 0.3967,1.781528 0,0.437134 0.14696,0.945603 0.32658,1.129929 0.17961,0.18432703 0.49734,1.44638903 0.70605,2.804583 0.37405,2.434174 0.76897,4.565255 1.52018,8.203304 0.85411,4.1363871 0.38305,10.6487741 -0.89279,12.3425411 -0.94726,1.257561 -1.70126,8.97872 -0.92373,9.45926 0.21093,0.130362 0.31106,0.51406 0.22252,0.85266 -0.24326,0.930211 0.38579,1.774179 1.32238,1.774179 0.45925,0 0.88793,0.144209 0.95261,0.320464 0.0647,0.176251 0.35571,0.36552 0.64676,0.420595 0.91932,0.173966 5.2755495,-0.429595 5.4792295,-0.759153 0.2753,-0.445442 2.36523,-0.954482 5.48305,-1.3355 2.1303,-0.260336 3.25289,-0.203941 5.53723,0.278158 1.57587,0.332578 3.10822,0.806366 3.40523,1.052862 0.29701,0.246493 1.72027,0.498733 3.16281,0.560529 1.54173,0.06605 3.03554,0.34303 3.62415,0.671992 1.26099,0.704741 3.32734,0.458763 4.70548,-0.560141 z M 9.8323025,27.84067 c 0,-0.742244 0.9433395,-1.699676 3.1812795,-3.228788 l 2.4999,-1.708107 -0.23572,-1.424489 c -0.12965,-0.783466 -0.36037,-1.662609 -0.51272,-1.953651 -0.15234,-0.291042 -0.3958,-1.321534 -0.54102,-2.289983 -0.14521,-0.968445 -0.47368,-2.238445 -0.72992,-2.822222 l -0.4659,-1.061406 0.10886,1.5875 c 0.0599,0.873125 -0.008,2.104284 -0.15011,2.735908 -0.14243,0.631624 -0.11675,1.236303 0.0571,1.343734 0.51407,0.317715 0.39472,3.41371 -0.12492,3.240497 -0.2527,-0.08423 -0.44097,-0.736914 -0.44097,-1.528703 0,-0.759943 -0.12865,-1.476382 -0.28589,-1.592086 -0.31991,-0.235416 -0.36552,-1.251123 -0.25192,-5.610461 0.043,-1.649236 0.23926,-3.195331 0.43619,-3.435763 0.2192,-0.2676141 0.26785,-1.4305631 0.12547,-2.9986111 -0.22546,-2.48285 -0.26373,-3.937346 -0.24687,-9.382019 0.007,-2.252796 0.0863,-2.572 0.61345,-2.469444 0.9057,0.176195 1.51285,2.316434 1.08405,3.82137303 -0.4262,1.495803 -0.36326,5.25385997 0.14671,8.76072497 0.3227,2.2190851 0.29691,2.6740801 -0.18156,3.2027771 -0.70081,0.77439 -0.70654,1.089851 -0.0198,1.089851 0.84944,0 1.48068,1.930403 2.4802,7.584722 0.30869,1.74625 0.80169,3.441001 1.09556,3.766114 1.11806,1.236948 0.54518,1.849875 -3.4081,3.646297 -1.36914,0.622155 -4.2333395,1.113515 -4.2333395,0.726235 z m -2.65218,-3.111563 c 0.12763,-0.824618 0.3655,-1.975556 0.5286,-2.557639 0.51352,-1.832744 0.75686,-10.879892 0.32587,-12.116209 -0.22039,-0.6322381 -0.26575,-1.3892771 -0.10393,-1.7347321 0.15792,-0.337121 0.31484,-2.756072 0.34872,-5.375447 0.0339,-2.61937497 0.17171,-6.429375 0.3063,-8.466667 0.13459,-2.037291 0.31507,-5.2916659 0.40107,-7.2319439 0.086,-1.940278 0.31764,-4.004028 0.51477,-4.586111 0.7371495,-2.176607 1.4234295,-6.272611 1.2121495,-7.234559 -0.12806,-0.583085 -0.027,-1.304723 0.24365,-1.739713 0.38988,-0.626625 0.37199,-0.901495 -0.11393,-1.750793 -0.36219,-0.633053 -0.46253,-1.187246 -0.26998,-1.491203 0.16853,-0.266054 0.30886,-1.872794 0.31183,-3.570537 0.003,-1.697744 0.14694,-3.086806 0.31993,-3.086806 0.49592,0 0.70066,1.323735 0.7708,4.98348 0.0358,1.867789 0.21927,4.290896 0.40772,5.38468 0.18844,1.093787 0.21971,2.264346 0.0695,2.601242 -0.15023,0.336899 -0.31747,0.930042 -0.37165,1.318098 -0.0542,0.388055 -0.25117,1.495742 -0.43776,2.461524 -0.19772,1.023387 -0.20991,1.997647 -0.0292,2.335266 0.2822,0.527311 -0.1589,4.628578 -0.56924,5.292509 -0.80309,1.299429 -1.5383895,14.3068889 -1.6083495,28.451672 -0.0242,4.899202 -0.17543,8.907639 -0.336,8.907639 -0.16056,0 -0.45374,-0.277813 -0.65151,-0.617361 -0.30741,-0.527794 -0.36113,-0.476613 -0.37031,0.352778 -0.007,0.646525 -0.19758,0.970139 -0.5709,0.970139 -0.46024,0 -0.51878,-0.267462 -0.32812,-1.499306 z m 19.2891295,0.666228 c -1.21519,-0.439967 -2.06943,-1.440741 -1.51976,-1.780455 0.59035,-0.364861 4.09597,1.000629 4.21908,1.643394 0.14108,0.736593 -0.89772,0.78934 -2.69932,0.137061 z m -82.748414,-43.306689 c -1.145265,-0.16407 -2.33589,-0.513524 -2.645834,-0.77657 -0.309943,-0.263048 -1.516034,-0.751286 -2.680201,-1.084978 -1.164166,-0.333693 -2.392323,-0.756155 -2.72924,-0.938809 -0.336917,-0.182654 -0.833417,-0.332098 -1.103334,-0.332098 -0.269914,0 -0.669953,-0.215917 -0.888972,-0.479816 -0.219015,-0.263903 -0.776291,-0.407547 -1.238384,-0.319211 -0.462097,0.08834 -1.185711,-0.02431 -1.608039,-0.250338 -0.61565,-0.329488 -0.684854,-0.510971 -0.349112,-0.915515 0.554697,-0.668373 3.520613,-0.65937 4.410071,0.01337 0.946736,0.716072 1.566732,0.665649 1.566732,-0.127427 0,-0.899908 0.814173,-1.152768 2.844529,-0.883429 2.688449,0.356633 6.088687,-1.484204 8.301726,-4.494432 1.402309,-1.907448 2.036004,-4.092652 1.080519,-3.725996 -0.735414,0.282204 -0.788536,-0.55644 -0.07287,-1.150391 0.733534,-0.608781 1.918169,-0.116035 2.174278,0.904385 0.569331,2.268396 -1.117441,5.150136 -4.423907,7.557967 -2.742816,1.997368 -4.278482,2.559036 -6.81747,2.493476 -2.344649,-0.06054 -2.588221,0.327695 -0.705555,1.124613 2.774276,1.17433 4.270085,1.441323 8.202083,1.464028 4.517214,0.02607 4.300647,0.093 12.523612,-3.869612 3.882983,-1.871194 8.995832,-5.174947 8.995832,-5.812808 0,-0.186369 0.5283,-0.55959 1.17399,-0.829381 0.6457,-0.269786 2.10736,-1.534047 3.24813,-2.809465 1.60328,-1.792524 2.17959,-2.231415 2.5387,-1.933381 0.25551,0.212058 0.51258,0.32325 0.57126,0.247092 0.0587,-0.07615 0.6096,-0.85284 1.22427,-1.725965 1.20652,-1.713822 3.43285,-3.742563 6.23671,-5.683186 0.97014,-0.671456 2.28991,-1.708076 2.93283,-2.303597 1.59503,-1.477437 4.2543105,-2.782464 4.7203205,-2.316459 0.24495,0.244952 0.11272,0.492492 -0.4135,0.774118 -0.42548,0.227711 -2.0201005,1.512419 -3.5436005,2.854904 -1.5235,1.342489 -2.91743,2.440887 -3.09762,2.440887 -0.1802,0 -1.26169,1.054033 -2.40331,2.342293 -4.33308,4.889651 -6.91504,7.223435 -7.42614,6.712338 -0.0957,-0.09568 0.0983,-0.589573 0.43117,-1.097531 1.03727,-1.583065 0.34393,-1.327125 -0.79956,0.295148 -1.29076,1.83122 -7.031423,6.920555 -9.274204,8.221969 -0.873125,0.506646 -2.20719,1.405485 -2.964589,1.997418 -1.440403,1.125724 -3.642152,2.036709 -6.913189,2.860368 -7.353784,1.851709 -8.192093,1.969456 -11.078133,1.556007 z m -5.323463,-13.933745 c -0.7747,-0.28902 -1.7272,-0.814627 -2.116667,-1.168015 -0.38947,-0.353388 -1.065315,-0.8267 -1.501877,-1.0518 -0.780962,-0.402682 -1.057254,-1.238289 -0.519356,-1.570729 0.150915,-0.09327 1.381227,0.318276 2.734028,0.914552 2.52688,1.113776 4.201301,1.297202 5.499474,0.602438 0.507594,-0.271653 0.854181,-0.281968 1.103313,-0.03284 0.249135,0.249136 0.791291,0.01926 1.72588,-0.731805 0.749452,-0.602277 1.307698,-1.149985 1.24055,-1.217133 -0.06715,-0.06715 -0.696986,0.118121 -1.399642,0.411709 -1.757648,0.734395 -2.71133,0.690118 -2.71133,-0.125878 0,-0.522563 0.338335,-0.697808 1.627801,-0.843153 1.775083,-0.200078 3.28936,-1.115257 3.836282,-2.318526 0.445788,-0.980761 1.092377,-0.767045 0.965035,0.318968 -0.09533,0.813008 -0.07533,0.808714 1.00245,-0.215276 1.311084,-1.245655 2.296255,-3.061755 2.632142,-4.852183 0.190623,-1.016124 0.617689,-1.57879 1.928798,-2.541231 0.926183,-0.679881 1.851766,-1.236144 2.056853,-1.236144 0.911927,0 0.675214,0.769468 -0.636114,2.067757 -0.906967,0.897947 -1.418802,1.724276 -1.418802,2.290572 0,1.578582 -2.956747,6.397685 -3.774574,6.152053 -0.155304,-0.04665 -0.980878,0.426936 -1.834607,1.052404 -1.67078,1.224064 -1.681385,1.45929 -0.02724,0.603888 0.870339,-0.45007 1.001145,-0.454639 0.837915,-0.02928 -0.308166,0.803063 -6.713341,3.816865 -8.368581,3.937638 -0.810267,0.05912 -2.107054,-0.128979 -2.88175,-0.417999 z m 72.298607,-5.523279 c -0.28074,-0.73158 -0.0814,-1.684718 0.37105,-1.773925 0.49179,-0.09697 0.67031,1.517904 0.21782,1.970394 -0.25959,0.259592 -0.43652,0.200561 -0.58887,-0.196469 z m -56.014603,-0.138395 c -0.417421,-0.417417 -0.250211,-2.573739 0.302077,-3.895548 0.688008,-1.64664 1.379033,-1.158515 0.870437,0.614856 -0.192151,0.669989 -0.349367,1.735152 -0.349367,2.367023 0,1.091392 -0.305893,1.430926 -0.823147,0.913669 z m 17.050923,-5.89523 c 0,-0.267282 0.23813,-0.683595 0.52917,-0.925139 0.29104,-0.241543 0.52917,-0.642419 0.52917,-0.890838 0,-0.759569 8.53469,-5.861501 9.01008,-5.386112 0.31748,0.317479 -1.86156,2.396497 -2.51516,2.399704 -1.17928,0.0058 -4.19404,1.992263 -5.56771,3.668649 -1.34895,1.646216 -1.98555,2.009708 -1.98555,1.133736 z m 38.92123,-5.062658 c -1.6902795,-0.153539 -2.7117795,-0.992314 -1.6872695,-1.385453 0.53911,-0.206876 4.6999395,0.426455 5.0465095,0.768142 0.32404,0.319472 -0.42744,0.867427 -1.11448,0.812641 -0.42511,-0.0339 -1.43525,-0.121797 -2.24476,-0.19533 z m -9.74866952,-0.674186 c -0.44023,-0.440231 0.16547002,-0.832739 1.28505002,-0.832739 0.62447,0 1.48823,-0.247128 1.91945,-0.549169 0.73276,-0.513242 0.78406,-0.502514 0.78406,0.163974 0,0.392233 -0.30707,0.877486 -0.68237,1.07834 -0.75227,0.402604 -2.95037,0.495413 -3.30619002,0.139594 z M -63.70904,-52.162022 c -0.420229,-1.340249 -0.178149,-3.040129 0.708851,-4.977599 0.773991,-1.690613 0.802685,-1.946003 0.362532,-3.226329 -0.810313,-2.357043 0.323067,-3.301316 1.418921,-1.182169 0.784613,1.517279 0.503474,5.09005 -0.617467,7.846794 -0.9395,2.310525 -1.489329,2.762436 -1.872837,1.539303 z m -9.135488,-6.450683 c -0.12362,-0.322146 0.316855,-1.042585 1.132357,-1.852083 0.734071,-0.728669 1.502854,-1.627191 1.708404,-1.996715 0.481401,-0.865431 1.519403,-0.502701 1.519403,0.530955 0,0.957848 -1.262348,3.035078 -2.125006,3.496758 -0.952063,0.509531 -2.003266,0.425383 -2.235158,-0.178915 z m 53.0435,-0.520904 c -0.6791,-0.566036 -1.58328,-1.118246 -2.00929,-1.227138 -1.11202,-0.28424 -5.93158,-3.994428 -8.44964,-6.504686 -1.984065,-1.977922 -2.593849,-3.117179 -2.593849,-4.846083 0,-1.042921 0.956963,-0.40434 1.706719,1.13889 0.43394,0.89318 1.08122,1.700382 1.43841,1.79379 0.35718,0.09341 0.81531,0.533926 1.01807,0.978934 0.53847,1.181805 3.28604,3.426996 7.30208,5.966936 2.43368,1.539177 3.56274,2.466276 3.64051,2.989315 0.15586,1.04828 -0.57056,0.945681 -2.05301,-0.289958 z m -28.398613,-3.708136 c -1.056756,-0.931104 -2.364951,-1.705553 -3.263194,-1.9318 -1.266748,-0.319066 -1.499306,-0.515373 -1.499306,-1.26558 0,-0.488368 0.246662,-0.982592 0.548139,-1.098278 1.204952,-0.462382 5.801862,2.577292 5.801862,3.836444 0,0.298641 0.236378,0.739158 0.525282,0.978927 0.494993,0.410806 0.4281,1.077651 -0.105131,1.048004 -0.13407,-0.0074 -1.037513,-0.712925 -2.007652,-1.567717 z m -20.325345,-2.034702 c -0.02233,-0.242535 -0.0086,-0.741045 0.03055,-1.107803 0.04957,-0.4644 -0.0909,-0.60463 -0.46275,-0.461941 -0.718065,0.275547 -1.36126,-0.563351 -1.061251,-1.384152 0.133097,-0.364141 0.690485,-1.182427 1.238646,-1.818411 0.548156,-0.635988 1.318348,-1.786925 1.711536,-2.557639 0.393192,-0.770717 0.949791,-1.401304 1.236889,-1.401304 0.692619,0 0.658213,0.427793 -0.147334,1.831919 -0.368131,0.641681 -0.771176,1.563567 -0.895654,2.048637 -0.124474,0.485069 0.182623,0.06165 0.682442,-0.940933 1.052421,-2.111039 2.967535,-3.962258 5.367796,-5.188701 2.686276,-1.372584 4.22783,-2.973172 4.985318,-5.176223 0.829882,-2.41359 1.90451,-4.549719 2.849588,-5.664366 0.394074,-0.464781 1.341053,-1.695175 2.104393,-2.734215 1.183534,-1.610984 1.340517,-2.026549 1.066126,-2.822222 -0.850751,-2.466986 -1.260214,-7.404103 -0.97149,-11.713739 0.327057,-4.88179 0.410486,-5.27071 1.130611,-5.27071 0.848871,0 0.95456,0.98723 0.523416,4.88923 -0.535873,4.849802 0.206954,10.23052 2.040093,14.777621 0.775261,1.923038 1.467566,4.566532 1.908133,7.286008 0.641495,3.959764 1.247997,6.589412 1.716645,7.442972 0.352975,0.642885 0.351677,2.625972 -0.0018,2.844472 -0.47407,0.292993 -1.374563,-0.507245 -1.79511,-1.59525 -0.190574,-0.493046 -0.338843,-1.724255 -0.329484,-2.736025 0.0093,-1.01177 -0.124982,-1.927341 -0.298534,-2.034603 -0.173553,-0.107262 -0.309806,-0.628823 -0.302783,-1.159031 0.01789,-1.351396 -1.108854,-6.520271 -1.533327,-7.033972 -0.193386,-0.234033 -0.277209,-0.551533 -0.18627,-0.705556 0.228977,-0.387819 -0.364201,-1.867535 -0.748644,-1.867535 -0.670991,0 -2.929679,4.281456 -3.299552,6.254468 -0.540643,2.883927 -0.559005,2.927657 -1.136227,2.706155 -0.352287,-0.135185 -0.753597,0.257355 -1.242162,1.215019 -0.397341,0.778853 -1.081162,1.52429 -1.521404,1.65849 -1.132699,0.345285 -2.034388,1.218357 -2.034388,1.969819 0,0.365527 -0.487006,0.89366 -1.131306,1.226841 -1.619878,0.837671 -7.31158,6.860198 -7.347098,7.774139 -0.01877,0.483295 -1.299221,1.889513 -1.720504,1.889513 -0.211434,0 -0.402707,-0.198437 -0.425048,-0.440972 z m 6.302428,-0.40289 c -0.92746,-0.704042 -0.753325,-1.459572 0.650671,-2.823114 0.743856,-0.722422 1.162663,-1.401985 1.013135,-1.643924 -0.310705,-0.502733 0.469685,-1.044342 1.136227,-0.788567 0.265518,0.101889 0.641191,0.481284 0.834827,0.843096 0.588628,1.099855 -1.734277,5.010408 -2.906113,4.892375 -0.06126,-0.0062 -0.389198,-0.222109 -0.728747,-0.479866 z m 20.97264,-4.165582 c -0.232833,-0.232833 -0.423333,-0.712107 -0.423333,-1.065054 0,-0.49882 0.186041,-0.59503 0.835437,-0.43204 1.05258,0.264182 2.339563,-1.228372 2.339563,-2.713259 0,-1.112132 0.156506,-1.221924 0.836443,-0.586765 0.300979,0.281157 0.375998,0.845668 0.22268,1.675694 -0.321906,1.74274 -1.044236,2.764991 -2.251025,3.185679 -1.244936,0.433987 -1.053642,0.441868 -1.559765,-0.06425 z m -23.001112,-5.495392 c 0,-0.424907 0.836189,-1.509187 2.590073,-3.358536 1.75871,-1.854437 2.817125,-4.260448 3.203829,-7.283027 0.296997,-2.321405 0.469678,-2.647826 1.116673,-2.110867 0.779706,0.647097 0.590123,2.494002 -0.567077,5.524391 -0.884615,2.316575 -1.459826,3.18741 -3.398682,5.145419 -2.182058,2.203609 -2.944816,2.743041 -2.944816,2.08262 z m 25.301047,-1.93058 c -1.037502,-2.840704 -2.647993,-12.067639 -2.406696,-13.788584 0.04994,-0.356185 -0.164052,-0.929227 -0.475548,-1.273425 -1.011005,-1.117149 -1.874852,-6.833556 -1.561423,-10.33253 0.458495,-5.11839 0.595126,-5.98866 1.004482,-6.39802 0.620751,-0.62075 1.127365,0.46729 0.882188,1.89464 -0.54494,3.1725 -0.599504,4.23334 -0.217749,4.23334 0.25618,0 0.383643,0.91625 0.366014,2.631069 -0.0345,3.354603 1.416294,9.44016 3.57782,15.007816 1.088577,2.803948 1.174055,3.175 0.731449,3.175 -0.218556,0 -0.832386,-0.904635 -1.364064,-2.010305 -0.531675,-1.105665 -1.147435,-2.065499 -1.368351,-2.132961 -0.551001,-0.168264 0.35839,4.564334 1.460482,7.600562 0.462933,1.275373 0.761901,2.447974 0.664372,2.605782 -0.372286,0.602368 -0.764497,0.234605 -1.292976,-1.212384 z m -33.857538,-5.750849 c -0.263868,-1.380335 1.210772,-8.144686 2.380121,-10.917901 1.924117,-4.563212 2.699946,-5.820833 3.590886,-5.820833 0.800982,0 0.872067,0.10366 0.657454,0.958741 -0.132344,0.527307 -0.613198,1.75762 -1.068563,2.734027 -1.563265,3.352 -3.252301,8.126942 -3.498092,9.889176 -0.350231,2.511009 -0.894782,4.056945 -1.429047,4.056945 -0.253375,0 -0.538116,-0.40507 -0.632759,-0.900155 z m 27.253714,-4.391512 c 0,-0.194028 0.15875,-0.352778 0.352778,-0.352778 0.194027,0 0.352777,0.15875 0.352777,0.352778 0,0.194028 -0.15875,0.352778 -0.352777,0.352778 -0.194028,0 -0.352778,-0.15875 -0.352778,-0.352778 z m -15.996254,-6.070011 c -0.111947,-0.428088 -0.134299,-0.847587 -0.04967,-0.932215 0.258971,-0.258974 1.229255,0.707626 1.229255,1.224587 0,0.790995 -0.958399,0.553445 -1.179587,-0.292372 z m 3.884218,-0.162397 c -0.459846,-0.459843 -0.225069,-2.708134 0.431888,-4.135896 0.366889,-0.797363 0.944502,-2.119733 1.283585,-2.938604 0.33908,-0.81886 0.908714,-1.75328 1.265848,-2.07649 0.606273,-0.54867 0.664598,-0.54787 0.879458,0.012 0.126566,0.32983 0.04732,1.00089 -0.176104,1.49125 -0.49893,1.095025 -1.627893,4.509222 -1.964376,5.940636 -0.371182,1.579012 -1.112619,2.314747 -1.720299,1.707063 z m 5.018705,-10.15074 c -0.09887,-0.0989 -0.805501,-0.27567 -1.570295,-0.39289 -1.63854,-0.25115 -2.459398,-0.92526 -2.140049,-1.75746 0.234734,-0.61172 0.373104,-0.60113 2.689786,0.20584 1.910951,0.66563 2.293055,0.90358 2.293055,1.42794 0,0.48299 -0.928966,0.8601 -1.272497,0.51657 z m -11.765697,-2.64325 c -0.277188,-0.44851 0.906304,-3.0637 1.903765,-4.2068 0.736212,-0.84371 1.798045,-0.82754 1.772084,0.027 -0.0075,0.24862 -0.534677,1.32514 -1.171388,2.39228 -1.125259,1.88593 -2.040096,2.53888 -2.504461,1.78753 z m 23.655137,-7.29517 c -0.174586,-0.45497 1.126265,-1.56794 2.347641,-2.00857 0.339549,-0.12249 0.617361,-0.39053 0.617361,-0.59563 0,-0.22467 -0.413741,-0.15895 -1.040814,0.16532 -1.285194,0.6646 -1.304728,0.6644 -1.565921,-0.0163 -0.120346,-0.31363 0.154125,-1.04152 0.631875,-1.67569 0.464555,-0.61667 0.900507,-1.4217 0.96878,-1.78896 0.06828,-0.36726 0.39768,-0.84 0.732007,-1.05054 1.045182,-0.65819 1.633848,0.61734 1.436931,3.11356 -0.143464,1.81859 -0.324217,2.27019 -1.22792,3.06786 -1.22954,1.08528 -2.639064,1.46873 -2.89994,0.78891 z m 13.19556,-0.75244 c 0,-1.34431 -1.75935,-3.96665 -3.23928,-4.82822 -2.079552,-1.21063 -3.845869,-2.78151 -3.507756,-3.11963 0.757298,-0.75729 5.027546,2.46728 6.350946,4.79577 1.15355,2.02964 1.52133,3.80072 0.83706,4.03096 -0.28579,0.0962 -0.44097,-0.21314 -0.44097,-0.87888 z m -21.327476,-1.6814 c -1.871052,-2.28338 -2.347962,-2.46071 -4.297952,-1.59814 -2.237803,0.98989 -3.386331,0.96499 -3.238694,-0.0702 0.242164,-1.69802 4.360715,-2.55608 7.152065,-1.49005 0.900349,0.34384 1.788263,0.90781 1.973139,1.25326 0.423725,0.79173 0.439332,3.03849 0.0229,3.29586 -0.172286,0.10648 -0.897439,-0.51934 -1.611454,-1.3907 z m 1.437337,-10.29416 c -0.107351,-0.35087 -0.156517,-0.88064 -0.109259,-1.17728 0.122904,-0.77149 1.96113,-3.41387 3.493576,-5.02188 1.046138,-1.09772 1.471778,-1.32494 2.116667,-1.12994 0.443964,0.13424 0.947258,0.37422 1.118429,0.53329 0.370297,0.34411 -1.072431,2.24976 -2.05352,2.71244 -0.376181,0.1774 -1.191299,1.26332 -1.811376,2.41316 -1.177078,2.18272 -2.375394,2.90932 -2.754517,1.67021 z M 45.503482,35.460684 c 0.46273,-0.355028 1.11914,-0.746922 1.45869,-0.870874 0.70321,-0.256702 0.84601,-1.309003 0.17639,-1.299746 -0.24254,0.0035 -0.81483,0.400226 -1.27175,0.881944 -0.45693,0.481715 -0.95588,0.875849 -1.10879,0.875849 -0.1529,0 -0.36938,0.238125 -0.48107,0.529166 -0.27333,0.712298 0.20575,0.666853 1.22653,-0.116339 z m -23.37748,-0.93672 c -0.26908,-0.269092 -3.45081,-0.3227 -3.71098,-0.06253 -0.1285,0.128507 0.6924,0.233645 1.82423,0.233645 1.13183,0 1.98087,-0.077 1.88675,-0.171115 z M -1.0967075,24.985139 c 0.44690998,-0.538491 2.9738,-0.551014 4.24548,-0.02103 0.45596,0.190017 0.6169,-0.293768 0.95464,-2.86954 0.39292,-2.996547 0.54331,-4.785914 0.47167,-5.611632 -0.0354,-0.408436 -1.00133,-0.56315 -3.28029,-0.525431 -1.04882002,0.01736 -1.44773002,-0.17804 -2.02847002,-0.993613 C -1.1312775,14.40551 -1.4565875,13.70472 -1.4565875,13.406577 c 0,-0.659582 0.78964998,-1.213404 0.96784998,-0.678801 0.0702,0.210439 0.43426,0.736265 0.80913,1.168502 0.57349,0.661236 0.76919002,0.713179 1.23390002,0.327505 0.45855,-0.380562 0.65075,-0.359943 1.13216,0.121469 0.53794,0.537943 0.62819,0.536091 1.24888,-0.02561 0.61891,-0.560112 0.70079,-0.562046 1.0929,-0.02579 0.25341,0.346555 0.38457,1.479659 0.32612,2.817537 -0.0674,1.544119 0.008,2.073818 0.24442,1.708693 0.79128,-1.223712 0.49085,-3.389753 -3.00925,-21.6958331 -0.0742,-0.388055 -0.35263,-1.003225 -0.61873,-1.367042 -0.50584,-0.691582 -0.82238,0.394656 -3.41379,11.714734 -0.4145,1.810674 -1.15495,4.1919241 -1.64545,5.2916671 -1.60339,3.594971 -2.44987,6.6343 -2.27556,8.170453 0.16396,1.444893 1.37597,3.474219 2.41006,4.035259 1.22663,0.665505 1.31741,0.666277 1.85724,0.0158 z m 0.69845998,-13.871494 c 0,-0.357984 0.31419,-0.935217 0.6982,-1.2827421 0.61607,-0.55754 0.72301002,-0.567214 0.90911002,-0.08224 0.27478,0.7160721 -0.42839002,2.0158641 -1.09056002,2.0158641 -0.28421,0 -0.51675,-0.292897 -0.51675,-0.650879 z M 1.5723825,6.9138299 c 0.29691,-1.645525 0.41389,-1.852084 1.0488,-1.852084 0.67724,0 0.65334,1.399893 -0.0408,2.390948 -0.84046,1.199914 -1.27939,0.96526 -1.00798,-0.538864 z M -45.745263,-6.5555431 c 0.359149,-0.58111 -0.320668,-0.682364 -1.224083,-0.182316 l -0.877517,0.485715 0.949318,0.01249 c 0.522125,0.0069 1.040652,-0.13528 1.152282,-0.315899 z m 7.41232,-0.789355 c 1.158071,-0.366321 2.46217,-0.899685 2.898002,-1.185252 0.435833,-0.28557 0.971406,-0.519215 1.190163,-0.519215 0.218758,0 0.801377,-0.3175 1.294709,-0.705555 0.493331,-0.3880559 1.173621,-0.7055559 1.511751,-0.7055559 0.33813,0 0.81241,-0.238125 1.05396,-0.529166 0.24154,-0.291042 0.7133,-0.529167 1.04836,-0.529167 0.80601,0 5.12891,-2.294802 6.813,-3.61666 1.41172,-1.108079 1.69672,-1.368506 6.10301,-5.576831 1.53592,-1.466903 3.5841,-3.213153 4.55153,-3.880555 0.96742,-0.6674 2.5164405,-1.798451 3.4422605,-2.513447 0.92582,-0.714999 2.01509,-1.405301 2.42062,-1.534008 0.66273,-0.210344 0.72871,-0.471357 0.65238,-2.580562 -0.14429,-3.986714 -0.0182,-4.843466 0.91544,-6.219233 0.49466,-0.728923 0.83401,-1.390678 0.75412,-1.470571 -0.27533,-0.275329 -4.51847,3.143345 -5.79119,4.66593 -0.7014905,0.839212 -1.4004705,1.448569 -1.5532905,1.354123 -0.30722,-0.189875 -5.01182,3.213002 -6.12708,4.431775 -2.57543,2.814475 -5.4978,5.441459 -6.70277,6.025285 -1.25992,0.61044 -4.4177,3.340432 -7.937505,6.862188 -0.679097,0.679474 -1.487689,1.23427 -1.79687,1.232877 -0.309182,-0.0014 -1.082139,0.75947 -1.717682,1.690811 -1.102428,1.615524 -2.732459,2.8927669 -3.691781,2.8927669 -0.245509,0 -0.907331,0.228311 -1.470717,0.507358 -0.563386,0.279047 -1.778402,0.829031 -2.700034,1.222184 -0.993719,0.423909 -1.675695,0.942421 -1.675695,1.27405 0,0.476751 0.325152,0.523332 2.204862,0.315846 1.212673,-0.133855 3.152373,-0.543091 4.310447,-0.909416 z M 20.879472,-30.051612 c 0.32697,-0.68568 0.59548,-1.519117 0.59667,-1.852083 0.001,-0.332966 0.20548,-1.002266 0.45396,-1.487336 0.24847,-0.485069 0.75616,-1.913819 1.12819,-3.175 0.37202,-1.26118 0.9609,-2.769305 1.30861,-3.351389 0.34772,-0.582083 0.63281,-1.198728 0.63353,-1.370319 0.002,-0.39437 -4.89684,-0.06321 -5.24939,0.354884 -0.33038,0.391798 -0.0568,12.127935 0.28274,12.127935 0.13815,0 0.51871,-0.561012 0.84569,-1.246692 z m 4.76551,-4.985879 c -0.17165,-0.885038 -0.99601,-1.006563 -0.99601,-0.146826 0,0.433328 0.22779,0.734953 0.55503,0.734953 0.32852,0 0.50849,-0.24002 0.44098,-0.588127 z m 3.61788,-0.695018 c 0.30632,-0.26441 0.7373,-0.480744 0.95773,-0.480744 0.22043,0 0.5707,-0.3175 0.77838,-0.705556 0.27258,-0.509315 0.26829,-0.705555 -0.0154,-0.705555 -0.50458,0 -3.51233,-2.997115 -3.51233,-3.499926 0,-0.402481 -0.79771,-0.523653 -1.14712,-0.174251 -0.28844,0.288445 0.43929,2.263066 0.83404,2.263066 0.38972,0 1.72102,2.112634 1.72288,2.734028 0.002,0.804527 -0.71586,0.456349 -1.0903,-0.528521 -0.39962,-1.051056 -1.32166,-2.205507 -1.76151,-2.205507 -0.61817,0 -0.66261,1.434084 -0.0857,2.765721 0.56538,1.305031 0.70294,1.404345 1.68897,1.219366 0.5904,-0.110758 1.32408,-0.417714 1.6304,-0.682121 z m 2.72465,-3.548341 c 0.0679,-0.457902 -0.29451,-1.056784 -0.99721,-1.648061 -1.13838,-0.95789 -1.63081,-1.089755 -2.63313,-0.705129 -0.46748,0.179388 -0.24627,0.525152 1.11768,1.746998 1.81485,1.625776 2.34269,1.753119 2.51266,0.606192 z m 1.12813,-0.460181 c 0,-0.194027 -0.16812,-0.352777 -0.3736,-0.352777 -0.20548,0 -0.27548,0.15875 -0.15557,0.352777 0.11992,0.194028 0.28804,0.352778 0.3736,0.352778 0.0856,0 0.15557,-0.15875 0.15557,-0.352778 z m 0.59949,-2.978682 c -0.302,-0.302003 -0.64624,-0.549095 -0.76497,-0.549095 -0.11873,0 -0.67423,-0.338882 -1.23445,-0.753072 -0.56022,-0.414189 -1.2637,-0.659013 -1.56328,-0.544053 -0.29958,0.114959 -1.01822,0.04395 -1.59699,-0.157816 -0.57877,-0.20176 -1.3373,-0.31006 -1.68564,-0.240665 -0.79878,0.159128 2.23101,1.695606 3.34357,1.695606 0.43588,0 1.15908,0.505759 1.7094,1.195458 0.93101,1.166802 0.97051,1.179964 1.64767,0.549098 0.62789,-0.584972 0.64164,-0.698517 0.14469,-1.195461 z m -5.34746,0.132948 c 0.11265,-0.182267 -0.11826,-0.282089 -0.51313,-0.221827 -0.98785,0.150756 -1.20362,0.439332 -0.37515,0.501738 0.3759,0.02833 0.77563,-0.09764 0.88828,-0.279911 z m 2.80769,-3.504266 c 0.11992,-0.194027 -0.0295,-0.352777 -0.33196,-0.352777 -0.30249,0 -0.54998,0.15875 -0.54998,0.352777 0,0.194028 0.14938,0.352778 0.33195,0.352778 0.18258,0 0.43007,-0.15875 0.54999,-0.352778 z m -0.88194,-5.997222 c 0,-0.194027 -0.15875,-0.352777 -0.35278,-0.352777 -0.19403,0 -0.35278,0.15875 -0.35278,0.352777 0,0.194028 0.15875,0.352778 0.35278,0.352778 0.19403,0 0.35278,-0.15875 0.35278,-0.352778 z m -2.52229,-2.38125 c 0.17862,-0.339548 0.53179,-1.551763 0.78484,-2.693814 l 0.46008,-2.076454 -1.56617,-1.457568 c -0.8614,-0.801663 -2.17213,-2.208823 -2.91272,-3.127019 -2.2426,-2.780393 -3.18092,-2.231365 -3.37094,1.972388 -0.0738,1.632327 -1.20149,1.0775 -1.67227,-0.822752 -0.30994,-1.251056 -0.29139,-1.78477 0.0882,-2.536984 0.76533,-1.516644 0.57944,-2.59662 -0.67606,-3.927845 -0.91751,-0.972841 -1.51949,-1.271968 -2.91042,-1.446188 -0.9645,-0.120809 -2.54739,-0.447664 -3.51753,-0.726352 -2.29644,-0.65968 -4.0636295,-0.72142 -6.8791695,-0.240326 -1.26118,0.215498 -2.84868,0.483658 -3.52778,0.595912 -0.67909,0.112251 -1.69721002,0.356186 -2.26248002,0.542079 -0.56527,0.185889 -2.86714998,0.432452 -5.11527998,0.54792 -2.24813,0.115468 -4.66969,0.355392 -5.3812405,0.533167 -0.86882,0.217068 -1.58024,0.192684 -2.16607,-0.07424 -0.75458,-0.343811 -0.84882,-0.572845 -0.69808,-1.696671 0.10805,-0.80555 -0.13138,-2.298749 -0.63012,-3.9298 -0.44241,-1.446826 -0.82517,-2.789343 -0.85058,-2.983371 -0.0254,-0.194028 -0.13714,-0.590903 -0.24829,-0.881944 -0.11115,-0.291042 -0.4815,-1.481667 -0.823,-2.645834 -1.10319,-3.760734 -1.55847,-4.357948 -2.28597,-2.998611 -0.20768,0.388056 -0.61211,0.705556 -0.89874,0.705556 -0.28662,0 -1.10132,0.912812 -1.81042,2.028472 -0.70911,1.11566 -1.42152,2.081389 -1.58312,2.146064 -0.55979,0.224035 -0.29019,0.999927 0.49992,1.438755 0.43656,0.242464 1.50812,1.314333 2.38125,2.381927 3.58133,4.379002 13.1926205,13.620548 16.0991605,15.479839 2.17459,1.39107 5.07642,2.794988 6.53244,3.160427 0.79271,0.198956 1.00589,0.06928 1.49376,-0.908682 0.313,-0.627419 0.56909,-1.336022 0.56909,-1.574676 0,-0.238654 0.635,-1.007601 1.41111,-1.708771 1.46676,-1.325132 1.91143,-2.268672 0.79375,-1.684267 -0.55741,0.291451 -5.2675,1.164907 -8.6366,1.601597 -1.386,0.179652 -1.97365,-0.175803 -1.2373,-0.748411 0.40251,-0.312999 1.69652,-0.584443 7.49247,-1.571678 1.16406,-0.198279 2.70434,-0.660403 3.42282,-1.02695 1.17433,-0.599094 1.33784,-0.610161 1.61803,-0.109481 0.2666195,0.476423 0.5314195,0.497794 1.8311995,0.147796 1.21189,-0.326326 1.57694,-0.316262 1.80312,0.04971 0.33483,0.541775 -0.24847,0.993549 -1.29276,1.001261 -2.2539895,0.01665 -8.2577295,6.675451 -7.1845995,7.968502 0.61676,0.743154 1.14066,0.625722 2.66428,-0.597204 1.90428,-1.528462 4.3240495,-2.523161 5.5454395,-2.279565 0.54946,0.109587 1.34038,0.01654 1.75759,-0.206731 1.53714,-0.82265 5.62702,-1.679466 6.29928,-1.319682 0.90027,0.48181 0.82077,0.790113 -0.58922,2.285143 -1.43321,1.519636 -1.48714,1.756138 -0.5187,2.274432 0.63113,0.337767 0.7781,0.234665 1.23946,-0.869533 0.28789,-0.689007 0.75602,-1.252739 1.0403,-1.252739 0.432,0 0.44688,0.159293 0.0906,0.970139 -0.23443,0.533576 -0.56886,1.071453 -0.74319,1.195282 -0.6496,0.461419 0.21601,1.010726 1.64634,1.044744 0.81316,0.01933 1.87536,0.162267 2.36043,0.317613 1.37835,0.441424 1.71514,0.398247 2.06382,-0.264584 z M 8.9503625,-63.377141 c 0.11992,-0.194028 0.0593,-0.352778 -0.13475,-0.352778 -0.19403,0 -0.45089,0.15875 -0.57081,0.352778 -0.11991,0.194027 -0.0593,0.352777 0.13475,0.352777 0.19403,0 0.45089,-0.15875 0.57081,-0.352777 z M -21.337498,-84.213668 c 1.21454,-2.218866 2.31936,-4.272431 2.45515,-4.563473 0.13579,-0.291041 0.48015,-0.801066 0.76523,-1.133387 0.28508,-0.332323 0.43171,-0.829938 0.32585,-1.10581 -0.10586,-0.275872 0.0508,-1.33163 0.34823,-2.346127 0.41672,-1.42155 0.44904,-2.017402 0.14094,-2.598357 -0.27134,-0.511633 -0.29951,-1.285532 -0.0877,-2.408812 0.17342,-0.919512 0.18119,-2.483296 0.0175,-3.518866 -0.3811,-2.41083 0.15703,-3.04435 0.9772,-1.15041 0.64687,1.49374 0.79679,5.99698 0.32507,9.763853 -0.30773,2.457344 0.20259,2.68407 0.79404,0.352777 0.89165,-3.514587 1.03442,-10.09051 0.28031,-12.91129 -1.40036,-5.23814 -2.05207,-6.26542 -1.86642,-2.94204 0.14787,2.6472 -0.42593,3.12085 -0.90391,0.74615 -0.43101,-2.14132 -0.97311,-3.24223 -1.68867,-3.42935 -0.47151,-0.1233 -0.64539,-0.48039 -0.62269,-1.27883 0.0286,-1.00782 -0.22884,-1.79618 -1.20289,-3.68269 -0.48859,-0.9463 -1.6958,-4.81119 -1.6958,-5.42911 0,-0.28866 -0.44279,-1.02915 -0.98398,-1.64553 -0.54119,-0.61638 -1.45101,-2.3439 -2.02181,-3.83893 -0.9607,-2.51622 -1.58033,-3.39474 -1.58033,-2.24059 0,0.26271 -0.39764,0.90672 -0.88365,1.43112 -0.99657,1.07533 -0.87226,1.57834 0.89228,3.61066 0.54185,0.62408 1.3873,2.44069 1.93195,4.15115 0.53264,1.67278 1.12202,3.13634 1.30972,3.25235 0.21105,0.13043 0.29544,-0.67981 0.22118,-2.12342 -0.11106,-2.15877 0.0726,-2.80987 0.56701,-2.00992 0.10977,0.17761 0.28532,2.78426 0.39012,5.79256 0.10479,3.0083 0.32467,5.93735 0.48862,6.509 0.16395,0.57164 0.17604,1.23684 0.0269,1.47819 -0.14917,0.24136 0.0552,1.81043 0.45411,3.48683 0.97378,4.092084 1.10416,13.71293 0.19977,14.740918 -0.3166,0.359865 -0.69449,1.051175 -0.83976,1.536245 -0.43239,1.44382 -2.18967,4.77025 -2.77793,5.258463 -0.48465,0.402219 -0.43784,0.568021 0.41218,1.459992 0.5274,0.55343 1.10854,0.964561 1.29141,0.913616 0.18287,-0.05094 1.32621,-1.908062 2.54076,-4.126932 z m -4.15521,-0.686022 c 0.60806,-1.359902 1.10557,-2.620828 1.10557,-2.802057 0,-0.181229 0.34549,-0.915077 0.76776,-1.630768 0.66815,-1.132431 0.78433,-1.941149 0.89542,-6.233227 0.10965,-4.236346 0.047,-4.990918 -0.44394,-5.349928 -0.38093,-0.27854 -0.69485,-1.38337 -0.94106,-3.31194 -0.25993,-2.03616 -0.51277,-2.89398 -0.85298,-2.89398 -0.26595,0 -0.48353,0.32105 -0.48353,0.71344 0,0.39239 -0.64719,1.41555 -1.4382,2.27369 l -1.43819,1.56025 0.43111,2.753396 c 0.51377,3.281335 0.50174,11.102993 -0.0221,14.382207 -0.40555,2.538694 -0.29926,3.011466 0.67709,3.011466 0.44903,0 0.96437,-0.731026 1.74307,-2.472549 z m -1.05582,-8.02259 c -0.28513,-0.727865 -0.26093,-1.316101 0.0969,-2.355483 0.63065,-1.831738 1.21139,-1.946546 1.9553,-0.386545 0.49584,1.039791 0.52845,1.393303 0.17332,1.879088 -0.24058,0.329096 -0.5307,0.87617 -0.64471,1.215718 -0.31209,0.929467 -1.15196,0.742043 -1.58084,-0.352778 z m 9.09521,6.422979 c 0.28568,-0.744481 -0.19115,-1.146422 -0.5976,-0.503735 -0.43187,0.68289 -0.42321,1.048117 0.0248,1.048117 0.20013,0 0.45786,-0.244972 0.57275,-0.544382 z m 1.18007,-2.983395 c 0,-0.194028 -0.07,-0.352778 -0.15557,-0.352778 -0.0856,0 -0.25368,0.15875 -0.3736,0.352778 -0.11992,0.194027 -0.0499,0.352777 0.15557,0.352777 0.20548,0 0.3736,-0.15875 0.3736,-0.352777 z m -5.29167,-38.438534 c 0,-0.41306 0.40963,-0.91351 0.99583,-1.21664 1.25315,-0.64803 1.85767,-1.36283 1.54163,-1.82284 -0.13442,-0.19566 -0.94808,-0.5825 -1.80813,-0.85965 -1.61574,-0.52066 -4.60988,-3.0224 -4.60988,-3.85175 0,-0.2587 -0.31015,-0.97219 -0.68922,-1.58553 -0.75102,-1.21518 -1.44292,-4.79284 -1.1573,-5.98419 0.1306,-0.54476 0.0706,-0.64515 -0.22332,-0.37345 -1.16972,1.08138 -0.13088,11.47975 1.33652,13.3781 0.15366,0.19879 0.7231,1.53908 1.26543,2.97843 l 0.98605,2.61701 1.1812,-1.28891 c 0.64965,-0.7089 1.18119,-1.60466 1.18119,-1.99058 z m -2.82222,-0.85209 c 0,-1.65298 0.44175,-3.04271 0.96718,-3.04271 0.37355,0 0.4645,0.23029 0.3135,0.79375 -0.11699,0.43656 -0.21488,1.30969 -0.21753,1.94028 -0.003,0.78181 -0.17315,1.14653 -0.53398,1.14653 -0.32184,0 -0.52917,-0.32828 -0.52917,-0.83785 z m -5.10614,-1.11848 c 0.0491,-0.76728 0.20721,-1.84487 0.35139,-2.39463 0.14418,-0.54977 0.0925,-1.58164 -0.11477,-2.29306 -1.61804,-5.55276 -1.99213,-9.7783 -0.94279,-10.64917 0.76495,-0.63485 0.97529,-0.2438 0.60273,1.12052 -0.35853,1.31289 -0.2325,4.84205 0.2311,6.47128 0.21892,0.76939 0.29367,0.19151 0.27379,-2.11667 -0.0271,-3.14151 0.0483,-3.44122 1.55308,-6.17361 l 0.67998,-1.23472 -0.88962,-0.29691 c -0.89188,-0.29765 -1.93042,-2.14317 -1.93042,-3.4304 0,-0.35339 -0.47645,-0.92397 -1.05878,-1.26797 -0.58234,-0.34399 -1.126112,-0.8689 -1.208391,-1.16647 -0.737789,-2.66826 -0.439631,-4.5425 0.823251,-5.17502 0.43998,-0.22037 1.54936,-1.56974 2.46531,-2.99861 2.36348,-3.68703 3.88721,-5.35532 4.45834,-4.88132 0.32416,0.26902 0.52447,0.26442 0.6978,-0.016 0.33931,-0.54902 0.10614,-0.69895 -1.45951,-0.93842 -0.75165,-0.11496 -1.63332,-0.44021 -1.95927,-0.72277 -0.53533,-0.46406 -0.75456,-0.30524 -2.267,1.64235 -2.30887,2.97316 -3.824497,5.66962 -3.186777,5.66962 0.271833,0 0.930667,-0.86257 1.464067,-1.91683 1.11764,-2.20897 3.51919,-4.93958 4.05376,-4.6092 0.20004,0.12363 0.24849,0.41225 0.10766,0.64138 -0.45966,0.74788 -3.91651,5.3252 -4.977021,6.59021 -0.569313,0.6791 -1.367875,1.89184 -1.774578,2.69498 -0.660862,1.30503 -0.705066,1.73628 -0.415834,4.05694 0.338096,2.71271 0.811724,4.90499 1.192971,5.52186 0.12324,0.1994 0.125762,0.61874 0.0056,0.93186 -0.165873,0.43225 -0.498475,0.51678 -1.381588,0.3511 -0.639716,-0.12001 -1.481151,-0.11726 -1.86986,0.006 -0.769944,0.24437 -1.471266,1.85559 -1.471266,3.38009 0,0.59742 -0.291395,1.15614 -0.768022,1.47261 -0.734907,0.48796 -0.750803,0.61385 -0.368678,2.91991 0.451489,2.72463 0.849517,3.36013 1.749118,2.79268 1.08015,-0.68134 3.208306,-4.15556 3.429406,-5.59851 0.119666,-0.78095 0.519356,-1.81575 0.888207,-2.29955 0.623284,-0.81754 0.688527,-0.83302 0.924013,-0.21936 0.139362,0.36316 0.07563,1.394 -0.141612,2.29076 -0.217248,0.89675 -0.499879,2.39577 -0.628072,3.33114 -0.320354,2.33752 -1.581714,3.81154 -3.170093,3.70457 -2.146734,-0.14458 -2.223974,-0.24934 3.709815,5.03165 0.861924,0.7671 1.717034,1.34477 1.900234,1.2837 0.1832,-0.0611 0.37325,-0.73881 0.42233,-1.50609 z m 18.86886,-2.45807 c 0.6426705,-0.68409 0.7373005,-0.98225 0.41427,-1.30527 -0.5937,-0.5937 -0.51891,-2.40428 0.12887,-3.12007 0.5029305,-0.55573 0.4454505,-0.66811 -0.70555,-1.37947 -1.96997,-1.21751 -1.45468,-2.58957 0.66926,-1.78205 0.6924805,0.26327 1.1192905,0.26388 1.4348005,0.002 0.63932,-0.53059 0.85781,-2.84663 0.28912,-3.06486 -0.24966,-0.0958 -0.68846,-0.64432 -0.97512,-1.21893 -0.7081705,-1.41958 -0.20939,-2.76698 1.02429,-2.76698 1.14218,0 1.19142,0.99068 0.0969,1.95007 l -0.79375,0.69576 1.76389,0.20779 c 0.97014,0.11428 2.01627,0.31995 2.32473,0.45702 0.3392,0.15074 0.74729,0.0246 1.03261,-0.3192 0.39364,-0.47431 0.39376,-0.78369 7.1e-4,-1.86814 -0.25908,-0.71483 -0.53358,-2.08713 -0.61001,-3.04956 -0.0764,-0.96243 -0.30531,-1.95033 -0.50864,-2.19533 -0.20332,-0.24507 -0.36968,-1.00544 -0.36968,-1.68979 0,-0.68434 -0.0571,-1.24426 -0.12683,-1.24426 -0.39359,0 -1.91928,2.03027 -1.91928,2.55404 0,0.34153 -0.24028,0.62096 -0.53395,0.62096 -0.29367,0 -0.85964,0.19844 -1.2577,0.44097 -0.63024,0.38401 -0.8119105,0.32703 -1.4062005,-0.44097 -1.40807,-1.81966 -1.41725,-1.82622 -1.9435,-1.38947 -0.27176,0.22554 -0.73425,0.31792 -1.02777,0.20529 -0.85371,-0.32761 -0.61757,-1.26327 0.43648,-1.7295 0.53358,-0.236 1.14513,-0.65459 1.359,-0.93018 0.27077,-0.34894 1.25311,-0.51981 3.2351705,-0.56274 1.92757,-0.0417 3.12438,-0.24384 3.70776,-0.62608 0.82318,-0.53937 0.84291,-0.63742 0.4442,-2.20769 -0.27161,-1.0697 -0.31799,-2.34005 -0.13288,-3.63963 0.23366,-1.64044 0.15179,-2.35805 -0.45919,-4.02486 -0.40895,-1.11566 -0.89813,-2.02847 -1.08705,-2.02847 -0.18893,0 -0.76489,0.29383 -1.27991,0.65295 -0.51502,0.35913 -2.26873,1.00803 -3.8971305,1.442 -2.7191,0.72466 -3.06459,0.74643 -4.23334,0.26673 -0.69993,-0.28727 -2.2251,-0.67315 -3.38927,-0.85751 -1.16416,-0.18436 -2.42052,-0.46645 -2.79189,-0.62686 -0.46791,-0.20211 -0.59987,-0.16971 -0.42978,0.10551 0.35172,0.56909 -1.0033,2.07805 -5.41653,6.03189 l -1.58264,1.4179 1.67084,0.73909 c 1.74548,0.77211 1.86012,0.91923 1.34734,1.7291 -0.2581,0.40765 -0.48013,0.36215 -1.27186,-0.26062 -0.68021,-0.53505 -1.22896,-0.69019 -1.88677,-0.53341 -1.43704,0.34249 -1.7352,0.73956 -1.70162,2.26609 0.0249,1.13155 0.33457,1.76965 1.54981,3.19333 0.83529,0.97857 1.61497,2.16275 1.73262,2.63151 0.26337,1.04935 0.69598,1.09977 0.95448,0.11125 0.10671,-0.40805 0.36299,-0.63649 0.57031,-0.50835 0.47636,0.2944 0.4929,1.84139 0.0228,2.13193 -0.23089,0.1427 -0.2352,0.4401 -0.0124,0.85638 0.18772,0.35077 0.24405,0.73503 0.12518,0.8539 -0.11888,0.11887 -0.19905,1.21886 -0.17817,2.44441 0.0389,2.2844 1.73634,7.3375 2.55662,7.61092 0.20881,0.0696 1.01034,0.74475 1.78117,1.50032 0.77083,0.75557 1.73387,1.37376 2.14008,1.37376 0.78022,0 3.16144,0.58672 4.34821,1.07138 2.36656,0.96647 3.72868,0.911 4.76688,-0.19411 z m -13.97168,-8.02102 c -0.37635,-1.16458 -0.26343,-6.28331 0.14768,-6.69441 0.71597,-0.71598 1.05284,0.0441 0.69899,1.57707 -0.19061,0.82575 -0.2489,2.49356 -0.12953,3.70623 0.21634,2.19795 -0.19886,3.01493 -0.71714,1.41111 z m 4.21103,-0.45675 c -0.28329,-0.73826 1.02281,-2.07286 3.30832,-3.38049 1.95521,-1.11866 3.36842,-1.22407 3.55109,-0.26488 0.0738,0.38769 -0.36233,0.76076 -1.35264,1.15701 -0.80388,0.32165 -2.32434,1.1367 -3.37879,1.81123 -1.59193,1.01834 -1.95296,1.13322 -2.12798,0.67713 z m 6.276,-6.98253 c -0.64354,-0.77542 -1.49454,-3.06512 -1.27264,-3.42417 0.40825,-0.66056 1.05782,-0.30163 1.6661,0.92066 0.67299,1.35232 0.79576,2.47075 0.30455,2.77434 -0.17204,0.10633 -0.48615,-0.0155 -0.69801,-0.27083 z m -12.50768,-3.819 c -0.62906,-0.99324 -0.39688,-3.11741 0.34074,-3.11741 0.71109,0 1.13732,1.39972 0.79244,2.60229 -0.40258,1.4037 -0.53289,1.46294 -1.13318,0.51512 z m -2.64155,-1.96396 c -1.43131,-2.01009 -0.68167,-3.73646 1.34338,-3.09373 1.06467,0.33791 0.92665,1.3667 -0.14719,1.09718 -1.0577,-0.26546 -1.34355,0.37499 -0.64679,1.44915 0.81303,1.25341 0.31012,1.75449 -0.5494,0.5474 z m 3.97943,-3.28595 c -0.0874,-0.14135 0.0681,-0.44535 0.34548,-0.67555 0.27737,-0.2302 0.42296,-0.63053 0.32354,-0.88962 -0.0994,-0.2591 0.62559,-1.31905 1.61114,-2.35546 0.98556,-1.03641 1.8873,-2.24156 2.00388,-2.67812 0.11658,-0.43657 0.43785,-0.79375 0.71395,-0.79375 0.70192,0 0.99679,0.96463 0.4838,1.58273 -0.33988,0.40954 -0.27912,0.95556 0.29583,2.65806 0.83401,2.46964 0.70283,3.1625 -0.60211,3.18016 -0.51281,0.007 -1.85135,0.0612 -2.97453,0.12059 -1.12318,0.0594 -2.11361,-0.008 -2.20098,-0.14904 z m 2.90341,-2.17004 c 0.63982,-0.62015 1.16332,-1.36674 1.16332,-1.6591 0,-0.3325 -0.52843,-0.0155 -1.41111,0.84636 -1.33705,1.30559 -1.71759,1.94028 -1.16333,1.94028 0.13629,0 0.77129,-0.5074 1.41112,-1.12754 z m 2.22165,0.98 c 0,-0.0811 -0.0979,-0.4027 -0.21758,-0.71456 -0.16842,-0.43888 -0.32787,-0.4755 -0.70556,-0.16205 -0.69721,0.57863 -0.60255,1.02415 0.21759,1.02415 0.38805,0 0.70555,-0.0664 0.70555,-0.14754 z m -6.35,-1.11492 c 0,-0.50935 4.32237,-5.42694 4.61247,-5.24764 0.65388,0.40411 0.28454,1.08519 -1.76075,3.2469 -1.83569,1.94019 -2.85172,2.65302 -2.85172,2.00074 z m -11.717908,14.41122 c 0.212785,-0.6263 0.25502,-1.22022 0.09385,-1.31983 -0.161163,-0.0996 -0.396998,0.37314 -0.524079,1.05054 -0.127082,0.6774 -0.382616,1.23164 -0.567849,1.23164 -0.185237,0 -0.336794,0.35282 -0.336794,0.78405 0,0.76645 0.01062,0.76843 0.473996,0.0882 0.260696,-0.38272 0.648092,-1.20828 0.860873,-1.83459 z m -0.987492,-2.65363 c 0.003,-0.33954 -0.153349,-0.61736 -0.347377,-0.61736 -0.194027,0 -0.350347,0.51594 -0.347376,1.14653 0.0041,0.87003 0.08787,1.01892 0.347376,0.61736 0.188087,-0.29104 0.344407,-0.80698 0.347377,-1.14653 z m 5.292253,-0.52916 c -0.0083,-1.06348 -0.415177,-2.20486 -0.785982,-2.20486 -0.207109,0 -0.267296,0.44217 -0.144064,1.05833 0.126009,0.63005 0.06405,1.05833 -0.153113,1.05833 -0.200628,0 -0.266664,0.15875 -0.146748,0.35278 0.361325,0.58464 1.235064,0.39668 1.229907,-0.26458 z m -2.511401,-2.79038 c -0.471187,-0.56775 -0.03636,-1.28576 0.624974,-1.03198 0.617203,0.23684 0.924656,-0.46318 0.771021,-1.75548 -0.109954,-0.92487 -0.160048,-0.89256 -1.261029,0.81323 -1.188258,1.84102 -1.407643,2.55975 -0.781339,2.55975 0.251735,0 0.251735,0.21199 0,0.68236 -0.62277,1.16366 -0.396939,1.31314 0.326291,0.21597 0.490784,-0.74454 0.58215,-1.16808 0.320082,-1.48385 z m -1.028453,-2.58948 c 0.009,-0.097 -0.380368,-0.19929 -0.865304,-0.22727 -0.657807,-0.0379 -0.881694,0.1247 -0.881694,0.64056 0,0.38028 -0.167545,1.00449 -0.372322,1.38711 -0.204776,0.38263 -0.26332,1.03913 -0.130093,1.45888 0.211518,0.66644 0.368413,0.5194 1.237622,-1.15985 0.547469,-1.05768 1.002774,-2.00242 1.011791,-2.09943 z m 0.364268,-0.97014 c -0.0028,-0.14552 -0.153092,-0.49811 -0.333597,-0.78354 -0.406446,-0.64268 -0.883285,-0.24074 -0.597599,0.50374 0.210989,0.54983 0.941187,0.76923 0.931196,0.2798 z m -1.780928,-1.6757 c 0,-0.19402 -0.233077,-0.0446 -0.517945,0.33201 -0.284872,0.37664 -0.517948,0.84354 -0.517948,1.03757 0,0.19403 0.233076,0.0446 0.517948,-0.33201 0.284868,-0.37663 0.517945,-0.84354 0.517945,-1.03757 z m 3.359534,-0.0882 c 0.676459,-0.7276 1.234222,-1.58129 1.239471,-1.89708 0.0053,-0.31579 0.249629,-0.77342 0.543063,-1.01695 0.388517,-0.32244 0.431002,-0.5663 0.156323,-0.89727 -0.276723,-0.33343 -0.130616,-0.94108 0.548534,-2.28133 0.509153,-1.00476 0.85011,-1.90245 0.757685,-1.99488 -0.19431,-0.19431 -0.801423,0.87912 -2.360944,4.17435 -0.73237,1.54748 -1.365899,2.41516 -1.857223,2.54364 -0.410129,0.10726 -0.63494,0.30576 -0.499576,0.44112 0.135364,0.13537 0.06931,0.45916 -0.146794,0.71955 -0.279743,0.33707 -0.28205,0.47343 -0.008,0.47343 0.211695,0 0.293525,0.23813 0.181843,0.52917 -0.333597,0.86934 0.142462,0.60795 1.44563,-0.79375 z m -5.459162,-3.01943 c 0.003,-0.15697 -0.153349,-0.18729 -0.347377,-0.0674 -0.194027,0.11992 -0.350347,0.48648 -0.347376,0.81457 0.0047,0.5141 0.05267,0.52341 0.347376,0.0674 0.188087,-0.29104 0.344407,-0.6576 0.347377,-0.81457 z m 4.974731,-0.86604 c 0.889247,-2.69622 5.834758,-10.31384 6.695958,-10.31384 0.59146,0 0.34336,0.86077 -0.55926,1.94028 -0.79727,0.95352 -1.933805,3.10125 -1.933805,3.65435 0,0.11923 0.548305,-0.57484 1.218445,-1.54239 2.26504,-3.27024 2.61117,-3.60003 3.10749,-2.96082 0.55103,0.70967 2.93656,1.19384 3.26486,0.66264 0.1368,-0.22134 0.6593,-0.29161 1.2324,-0.16573 0.71763,0.15762 1.86351,-0.15342 4.11155,-1.11604 3.17268,-1.35855 4.50644,-2.37581 5.07471,-3.87047 0.17464,-0.45933 0.50005,-0.83515 0.72313,-0.83515 0.39341,0 0.32703,0.72252 -0.25487,2.77406 -0.21911,0.7725 -0.17862,0.80281 0.55089,0.41239 1.22458,-0.65537 1.34585,-0.0766 0.184,0.87812 -1.51892,1.24816 -3.75849,2.28471 -4.94829,2.29025 -1.38139,0.006 -2.62265,0.35755 -2.62265,0.74188 0,0.89634 4.18886,-0.1764 8.04479,-2.06022 1.90495,-0.93066 2.6799405,-1.15564 2.9726305,-0.86295 0.76564,0.76564 -0.66066,1.80503 -5.3729705,3.9155 -0.83695,0.37483 -0.82313,0.38593 0.2708,0.2175 0.97831,-0.15063 3.46062,-1.26917 7.3175705,-3.29734 1.17373,-0.6172 1.70403,-1.65601 1.26457,-2.47715 -0.41334,-0.77233 -2.68998,-2.35932 -3.90485,-2.72198 -0.4800105,-0.14329 -1.6706305,-0.78288 -2.6458305,-1.42132 -2.07214,-1.35657 -3.19716,-1.67839 -8.60559,-2.4617 -4.30361,-0.62329 -6.20514,-0.50212 -8.13578,0.51845 -1.13658,0.60082 -1.16715,0.66249 -0.50424,1.01727 0.49842,0.26675 1.13665,0.26828 2.173,0.005 1.68747,-0.42832 4.16897,-0.13761 5.15987,0.6045 0.96428,0.72216 0.39421,1.07954 -0.95325,0.59759 -1.34974,-0.48276 -3.44377,-0.0978 -5.66692,1.04165 -1.80438,0.92486 -1.22968,1.21197 1.06471,0.53191 1.22939,-0.36438 2.28507,-0.42451 3.8096,-0.21697 1.93604,0.26355 2.2032,0.21521 3.25846,-0.58968 0.63223,-0.48223 1.31598,-1.18782 1.51944,-1.56799 0.48756,-0.91102 1.05066,-0.88156 1.05066,0.0549 0,0.93447 -1.95029,2.74756 -4.14661,3.8549 -1.80759,0.91135 -1.39354,1.35837 0.68721,0.74195 3.94323,-1.16819 5.04527,-1.7495 5.22675,-2.75705 0.21229,-1.17851 0.83368,-1.19502 0.98287,-0.0261 0.13318,1.04348 -2.17563,3.43735 -3.31522,3.43735 -0.4401,0 -1.21433,0.15746 -1.72051,0.34991 -0.50619,0.19245 -2.43524,0.44136 -4.28679,0.55312 -3.02996,0.1829 -3.35458,0.14386 -3.24777,-0.39059 0.0695,-0.34782 1.03204,-0.96809 2.32354,-1.49733 3.7638,-1.54238 2.31425,-2.02502 -2.43432,-0.81054 -3.46415,0.88598 -7.284633,3.05165 -7.335744,4.15833 -0.02766,0.59903 1.8476,-0.0913 2.64674,-0.97436 0.339951,-0.37564 0.752239,-0.68298 0.916196,-0.68298 0.638008,0 0.252278,1.33075 -0.621274,2.14336 -0.505654,0.47039 -1.057352,1.21243 -1.225991,1.649 -0.168638,0.43656 -0.555028,0.79375 -0.858643,0.79375 -0.724189,0 -3.233911,2.64577 -4.085968,4.30747 -0.721596,1.40728 -0.984698,3.49966 -0.2901,2.30711 0.505386,-0.86769 0.990244,-0.76806 1.390926,0.28581 0.42963,1.13001 0.874254,0.87571 1.43348,-0.81989 z m -3.558219,-3.81033 c 0,-0.62105 2.073621,-3.68128 2.494439,-3.68128 0.18028,0 0.327784,-0.29807 0.327784,-0.66236 0,-0.3643 0.233048,-0.85578 0.517888,-1.09217 0.28484,-0.2364 0.497329,-0.53365 0.4722,-0.66056 -0.22497,-1.1362 2.565457,-4.12674 4.918936,-5.2717 0.63059,-0.30678 1.14653,-0.68713 1.14653,-0.84522 0,-1.0053 -3.870355,0.83125 -5.783466,2.74436 -0.723963,0.72397 -1.644974,1.96517 -2.046693,2.75822 -0.401719,0.79306 -1.18552,2.0204 -1.741784,2.72741 -0.556264,0.70702 -1.017016,1.58015 -1.023892,1.94028 -0.0069,0.36014 -0.239374,1.05167 -0.516664,1.53674 -0.27729,0.48507 -0.509792,1.16341 -0.516664,1.50743 -0.01171,0.5862 0.04291,0.58919 0.869442,0.0476 0.485069,-0.31783 0.881944,-0.78979 0.881944,-1.04878 z m 15.345837,-1.56462 c 0.11991,-0.19402 0.0499,-0.35277 -0.15557,-0.35277 -0.20548,0 -0.3736,0.15875 -0.3736,0.35277 0,0.19403 0.07,0.35278 0.15557,0.35278 0.0856,0 0.25368,-0.15875 0.3736,-0.35278 z"
       id="path9170"
       inkscape:connector-curvature="0" />
  </g>
</svg>
