<?xml version="1.0" encoding="UTF-8" standalone="no"?>
<svg
   xmlns:dc="http://purl.org/dc/elements/1.1/"
   xmlns:cc="http://creativecommons.org/ns#"
   xmlns:rdf="http://www.w3.org/1999/02/22-rdf-syntax-ns#"
   xmlns:svg="http://www.w3.org/2000/svg"
   xmlns="http://www.w3.org/2000/svg"
   id="svg8"
   version="1.1"
   viewBox="0 0 216.96938 142.18692"
   height="142.18694mm"
   width="216.96939mm">
  <defs
     id="defs2" />
  <metadata
     id="metadata5">
    <rdf:RDF>
      <cc:Work
         rdf:about="">
        <dc:format>image/svg+xml</dc:format>
        <dc:type
           rdf:resource="http://purl.org/dc/dcmitype/StillImage" />
        <dc:title></dc:title>
      </cc:Work>
    </rdf:RDF>
  </metadata>
  <g
     transform="translate(48.48933,47.463103)"
     id="layer1">
    <path
       id="path7925"
       d="m 162.71237,94.135353 c -1.62891,-0.533069 -3.64871,-2.110296 -3.64871,-2.849217 0,-0.483648 -1.23466,-1.422806 -2.40841,-1.831975 -1.67911,-0.585343 -4.64714,-3.582554 -4.64714,-4.692827 0,-0.59509 -0.54667,-1.478181 -1.5875,-2.564451 -0.87313,-0.911243 -1.5875,-1.776081 -1.5875,-1.92186 0,-0.58354 -2.1335,-4.827968 -2.63677,-5.245647 -0.29603,-0.245678 -0.53823,-0.608587 -0.53823,-0.806464 0,-0.197873 -0.47288,-0.853122 -1.05084,-1.456108 -0.57796,-0.602985 -2.6814,-2.783692 -4.6743,-4.846017 -4.59131,-4.751222 -6.28982,-6.927109 -7.05346,-9.035888 -0.34014,-0.939275 -1.08807,-2.066685 -1.6985,-2.560267 -1.35334,-1.094285 -5.74244,-5.087518 -7.22674,-6.574939 -0.60751,-0.608789 -1.98913,-2.275664 -3.07027,-3.704167 -2.51906,-3.328409 -6.32756,-6.900824 -10.59761,-9.940679 -3.40085,-2.421068 -8.00909,-6.68075 -8.03263,-7.425073 -0.007,-0.220539 -0.37557,-0.844363 -0.8191,-1.386282 -0.71243,-0.870476 -0.91919,-0.942422 -1.774175,-0.617362 -1.99463,0.758363 -3.31837,0.470821 -4.80238,-1.043167 -1.16168,-1.185147 -1.61137,-1.411111 -2.80825,-1.411111 -1.25186,0 -1.42508,0.09863 -1.42508,0.811389 0,1.663351 -1.33671,2.114486 -2.82223,0.9525 -1.05459,-0.824915 -1.76388,-0.89922 -1.76388,-0.184782 0,0.620021 -4.232113,3.865295 -7.285267,5.586501 -1.754999,0.989376 -3.806794,1.880108 -5.061959,2.19752 -1.966366,0.497262 -10.153121,4.810891 -11.220446,5.912091 l -1.137666,1.173772 0.882826,1.565089 c 0.485556,0.860799 0.975709,1.803213 1.089233,2.094254 0.113521,0.291042 0.35336,0.767292 0.532973,1.058334 0.179614,0.291041 0.842846,1.561042 1.473853,2.822222 1.14422,2.286935 1.147036,2.305766 1.054516,7.055556 -0.09652,4.955033 0.58909,11.359033 1.567371,14.640279 0.289239,0.970139 0.737446,2.557639 0.996015,3.527778 0.637998,2.393763 1.29419,4.08771 2.001823,5.167701 0.979749,1.49528 1.108523,3.141885 0.354563,4.533689 -0.97863,1.80655 -1.919757,2.187906 -4.858787,1.968849 -2.666167,-0.19872 -2.481294,-0.257232 -6.92851,2.192902 -1.960206,1.079948 -2.132354,1.110068 -5.686216,0.994911 -2.015649,-0.06531 -3.849328,-0.232787 -4.074841,-0.372163 -0.608129,-0.375846 -0.101304,-2.727315 0.746658,-3.464176 0.392384,-0.340973 1.329397,-0.718449 2.082253,-0.838838 0.752856,-0.120386 1.368827,-0.361636 1.368827,-0.53611 0,-0.288473 0.87292,-1.322835 3.102839,-3.676692 0.445382,-0.470137 1.090669,-0.854795 1.433968,-0.854795 0.8142,0 1.815454,-2.109756 1.80547,-3.804331 -0.01019,-1.730643 -1.970447,-9.378672 -2.444312,-9.536625 -0.203602,-0.06787 -0.370187,-0.441677 -0.370187,-0.830689 0,-0.389012 -0.475718,-1.735078 -1.057145,-2.99126 -0.581431,-1.256181 -1.162452,-2.71061 -1.291159,-3.232062 -0.128708,-0.521447 -0.572248,-1.503715 -0.985644,-2.182812 -0.839914,-1.379749 -1.554822,-3.116496 -2.468672,-5.997223 -0.338529,-1.067153 -1.147635,-3.051528 -1.798009,-4.409722 -1.5575,-3.252569 -2.360517,-5.695877 -2.405144,-7.318005 -0.0332,-1.207037 0.228784,-1.586809 3.042095,-4.409723 2.950435,-2.960511 5.587209,-6.192464 7.181271,-8.802254 1.398873,-2.29023 6.388657,-6.810298 7.518008,-6.810298 0.160542,0 0.489522,-0.238125 0.731065,-0.529167 0.241543,-0.291041 0.664284,-0.529166 0.939426,-0.529166 0.604707,0 2.637673,-1.385122 3.089769,-2.10516 0.178766,-0.284712 1.085737,-1.310996 2.01549,-2.280627 1.673316,-1.745089 2.421981,-3.6104579 2.421981,-6.0345812 0,-1.2182652 -2.903967,-4.9065077 -4.310849,-5.4750797 -1.0766,-0.43509498 -2.076658,-1.01017218 -5.21415,-2.9983714 -0.788956,-0.4999532 -2.071409,-0.8616175 -3.552247,-1.001769 -1.274635,-0.1206359 -3.814635,-0.7087589 -5.644444,-1.3069395 -4.403816,-1.4396509 -6.173533,-1.3097123 -10.040944,0.7372457 -1.546038,0.8182928 -3.128476,1.7699709 -3.516531,2.1148464 -0.883225,0.7849412 -3.382278,1.90283412 -7.137224,3.1926744 -1.597137,0.5486259 -3.259649,1.2466815 -3.694468,1.5512416 -0.434817,0.3045566 -0.996534,0.5537412 -1.248259,0.5537412 -0.251724,0 -1.129213,0.4288614 -1.949975,0.9530222 C 27.125776,5.6809834 25.843615,6.1085113 24.47894,6.2699353 23.314774,6.4076386 21.012899,6.7897958 19.363663,7.1191773 14.62034,8.0664986 9.2391462,8.1693439 3.9796562,7.4132 -0.69506577,6.741123 -5.2184948,6.6691634 -7.7028158,7.2273566 c -1.698625,0.3816527 -4.6529102,-0.0091 -5.1830182,-0.6855425 -0.23985,-0.3060629 -1.162445,-0.5059045 -2.474433,-0.5359894 -1.4389,-0.032985 -2.21678,-0.218634 -2.491731,-0.5946528 -0.296517,-0.4055111 -0.803386,-0.500313 -1.962828,-0.3671077 -1.826889,0.2098816 -6.83403,1.3728066 -7.389835,1.7163134 -0.210398,0.1300304 -0.89141,0.2961958 -1.513358,0.3692525 -0.621949,0.07306 -1.845191,0.2986794 -2.718316,0.5013784 -0.873125,0.2027026 -2.143125,0.4681679 -2.822222,0.5899221 -0.679098,0.1217542 -1.484022,0.4368201 -1.788721,0.7001475 -0.310505,0.268344 -2.15298,0.6428603 -4.192016,0.8521033 -2.00091,0.205334 -4.239716,0.5806326 -4.975124,0.8340016 -0.735409,0.253372 -1.472758,0.364384 -1.638554,0.246697 -0.780979,-0.554355 -1.596419,-3.3078274 -1.632475,-5.5123253 -0.05275,-3.22507 0.370221,-3.548098 5.147428,-3.9311759 1.986274,-0.1592757 4.167031,-0.259902 4.846128,-0.2236118 0.679098,0.036287 1.790347,0.091532 2.469445,0.1227632 1.656455,0.076182 9.78783,-0.2821376 12.935979,-0.57003948 1.390969,-0.1272082 2.978469,-0.2720447 3.527778,-0.3218604 3.207837,-0.29092178 4.274834,-0.62075139 4.646425,-1.43630312 0.994396,-2.1824598 5.4488612,-2.2776393 9.3527242,-0.1998451 2.810189,1.49569672 5.75701603,1.52082862 10.064666,0.085838 6.7634508,-2.253086 7.0450278,-2.3072373 12.2127038,-2.3486111 2.716388,-0.021731 5.369644,-0.068061 5.896119,-0.102923 0.626675,-0.041494 1.723087,-0.7774587 3.175,-2.1312188 1.219775,-1.1373098 3.249644,-2.5797477 4.510825,-3.2054168 1.26118,-0.625669 2.68993,-1.3366684 3.175,-1.5799964 0.485069,-0.243328 1.803911,-0.723544 2.930757,-1.067146 1.677183,-0.511415 2.202681,-0.868476 2.897092,-1.968497 1.068614,-1.692794 2.62146,-2.882408 5.299534,-4.059907 3.379787,-1.486027 3.725203,-1.686926 4.097958,-2.383423 0.528722,-0.987925 0.176445,-1.091395 -2.154491,-0.632811 -2.55348,0.502366 -3.380532,0.178465 -3.739896,-1.464671 -0.331714,-1.516695 -2.512462,-3.624945 -3.17814,-3.072482 -0.260981,0.216597 -0.777811,0.297549 -1.148507,0.179894 -0.522739,-0.16591 -0.720435,-0.663886 -0.880935,-2.218957 -0.144914,-1.404083 -0.415477,-2.168154 -0.902709,-2.549256 -1.113423,-0.870894 -2.769835,-4.599852 -3.034263,-6.830819 -0.213614,-1.802256 -0.142847,-2.200889 0.578866,-3.260784 0.45223,-0.664134 1.020671,-1.2086 1.263206,-1.209926 0.567009,-0.0031 0.558563,0.07984 -0.161985,1.590845 -0.487317,1.021917 -0.521148,1.395414 -0.176389,1.94746 0.234611,0.375674 0.42896,1.201136 0.431881,1.834359 0.005,1.095857 0.698362,3.560082 1.120352,3.982071 0.108951,0.108952 0.733686,-0.0261 1.388296,-0.300117 2.141227,-0.896305 3.476932,-1.238784 3.662208,-0.939002 0.100097,0.161961 -0.131862,0.826419 -0.515462,1.476572 -0.915553,1.551753 -0.626678,2.477902 1.070392,3.431708 2.104869,1.183004 1.770115,1.832621 -0.469294,0.910697 -0.769683,-0.316865 -0.830234,0.456391 -0.111943,1.429599 0.405091,0.548858 0.594162,0.597255 0.9525,0.243815 0.688583,-0.679172 1.115476,-0.5238 0.893463,0.325184 -0.301287,1.152123 0.527649,3.467178 1.24147,3.467178 0.329364,0 0.691734,-0.150303 0.805269,-0.334006 0.286861,-0.464152 3.323879,-2.488217 3.733454,-2.488217 0.184301,0 0.335093,0.139491 0.335093,0.309979 0,0.561314 1.909148,1.090569 3.704166,1.02687 0.970139,-0.03443 2.081389,0.07854 2.469445,0.251035 0.388055,0.172496 -0.604132,-1.121738 -2.204861,-2.876077 -2.688795,-2.946819 -3.377392,-4.003474 -2.608965,-4.003474 0.165799,0 1.759059,1.42875 3.54058,3.175 1.781521,1.74625 3.51118,3.176693 3.843687,3.178763 0.684752,0.0043 3.955947,2.886661 3.955947,3.485765 0,0.60064 -0.528295,0.466065 -1.234722,-0.314527 -0.351187,-0.388056 -0.911976,-0.705556 -1.246201,-0.705556 -0.334229,0 -0.812504,-0.246792 -1.062839,-0.548427 -0.250334,-0.301635 -0.755653,-0.709249 -1.12293,-0.90581 -0.63579,-0.340264 -0.642147,-0.307824 -0.132747,0.677246 0.499742,0.966399 1.502855,1.622836 3.834599,2.509363 0.530663,0.201757 0.96484,0.520142 0.96484,0.707521 0,0.69459 -0.764201,0.777828 -1.673172,0.182245 -0.642016,-0.420665 -0.979251,-0.485706 -1.072218,-0.206796 -0.0746,0.223784 -0.521773,0.406881 -0.993729,0.406881 -0.471957,0 -1.462201,0.188537 -2.200543,0.418973 l -1.342436,0.418973 1.171603,1.028683 c 0.644384,0.565776 1.171607,1.218472 1.171607,1.450434 0,0.231966 0.527208,0.612394 1.171575,0.845401 1.842106,0.666115 2.291827,0.519123 1.223331,-0.399846 -1.158565,-0.996431 -1.872922,-2.661825 -1.361246,-3.1735 0.237243,-0.237244 0.432953,-0.130837 0.592292,0.32203 0.130884,0.371993 0.840691,1.311352 1.577354,2.087463 1.202828,1.267245 1.289368,1.478573 0.848801,2.072823 -0.370533,0.499784 -0.732116,0.602464 -1.477595,0.419594 -0.542858,-0.133163 -1.440226,-0.332334 -1.994151,-0.442598 -0.696499,-0.138645 -1.15015,-0.540089 -1.470808,-1.301539 -1.386547,-3.292589 -9.29315,-3.267831 -13.055716,0.04088 -0.83028,0.73013 -1.524554,1.428278 -1.542831,1.551443 -0.01827,0.123162 0.817986,0.330285 1.858359,0.460273 1.040374,0.129984 2.880251,0.703901 4.08862,1.275369 2.572569,1.2166325 2.486459,1.2004012 2.486459,0.468723 0,-0.428968 0.19672,-0.509486 0.79375,-0.324885 0.436563,0.134984 2.027421,0.33284 3.535239,0.439682 3.41962,0.242305 3.943608,0.8082914 0.748312,0.8082914 -3.240122,0 -2.601873,0.385766 1.170887,0.7076969 1.808741,0.1543438 3.94824,0.5982089 5.135432,1.0654137 1.119255,0.4404713 2.15102,0.6848405 2.292812,0.5430485 0.141792,-0.141792 -0.258025,-0.7186966 -0.888481,-1.2820086 -0.630456,-0.5633121 -1.146284,-1.2645674 -1.146284,-1.5583429 0,-0.79029 0.258427,-0.666151 1.458432,0.7005813 0.652177,0.7427877 1.40921,1.2347223 1.900104,1.2347223 0.4488,0 0.877912,0.1857304 0.953579,0.4127359 0.09877,0.2963122 0.654551,0.2268326 1.970313,-0.2463095 1.423924,-0.5120358 1.927021,-0.5647549 2.255432,-0.2363435 0.612433,0.6124329 0.01834,1.0561004 -2.026003,1.5130393 -3.212881,0.7181181 -4.984951,0.7572729 -7.05377,0.1558502 -2.282564,-0.6635574 -3.010821,-0.4570871 -1.141973,0.3237689 0.685669,0.2864908 1.652294,1.0029473 2.148056,1.5921321 0.495766,0.5891812 1.130325,1.071238 1.410138,1.071238 0.279809,0 0.686018,0.2136034 0.902688,0.4746731 0.216669,0.2610697 1.069544,0.7566273 1.89528,1.1012382 3.859968,1.610914 4.802258,2.19133932 6.54842,4.0336473 l 1.872086,1.9751641 -0.225806,-2.1598609 -0.225806,-2.15986446 2.31292,-2.65198594 2.312924,-2.6519895 -1.132261,-0.4690004 c -1.517139,-0.6284172 -2.704402,-2.0369708 -2.718051,-3.2246608 -0.01457,-1.2675057 0.53901,-1.2356077 1.214145,0.069959 0.4809,0.9299575 2.570653,2.8404575 3.106963,2.8404575 0.114791,0 0.564628,-0.6332715 0.999642,-1.4072695 0.43501,-0.7740015 1.065833,-1.494522 1.401826,-1.6011632 0.335992,-0.1066412 0.817675,-0.4430466 1.070409,-0.7475715 0.384545,-0.463348 0.354951,-0.630135 -0.181384,-1.022315 -0.792131,-0.579219 -0.601024,-1.292902 0.38657,-1.44362 0.572505,-0.08737 0.701142,0.03611 0.568,0.545236 -0.190937,0.730148 0.257623,1.176454 0.806785,0.802732 0.195019,-0.132719 0.814564,-0.876307 1.376764,-1.652418 0.56221,-0.776112 1.97415,-2.295183 3.13766,-3.375717 l 2.11547,-1.964605 -0.79908,-1.1222 c -0.46797,-0.657207 -1.11802,-1.128652 -1.5688,-1.13777 -2.53066,-0.05119 -7.533389,-2.068634 -9.25395,-3.73183 -1.139426,-1.101439 -1.890656,-1.51225 -3.095875,-1.692984 -1.758706,-0.263734 -2.833444,-1.100799 -1.882083,-1.46587 0.3036,-0.116504 0.707386,-0.115793 0.897297,0.0016 0.189914,0.117372 0.450755,0.04277 0.579646,-0.165782 0.213592,-0.345597 1.290499,-0.261485 3.073318,0.24004 0.337196,0.09486 0.74796,0.678318 0.912809,1.29658 0.221873,0.832134 0.47497,1.096602 0.974415,1.018199 0.952404,-0.149509 1.112576,-0.134336 3.673305,0.34798 1.261178,0.237544 3.682118,0.435169 5.379858,0.439166 4.18286,0.0098 4.11218,0.557317 -0.16061,1.24397 -1.47807,0.237533 -1.99205,0.189597 -2.46299,-0.229712 -0.64449,-0.573838 -1.34515,-0.357862 -1.34515,0.41463 0,0.720768 2.01525,1.213644 4.50689,1.102264 1.87807,-0.08395 2.37242,-0.250903 3.25951,-1.100791 1.07821,-1.032985 1.88302,-0.954948 1.13632,0.110181 -0.23151,0.330243 -0.98313,1.573875 -1.67027,2.763628 -0.68713,1.189753 -2.00022,2.866628 -2.91797,3.72639 -0.91776,0.859761 -2.75782,2.781451 -4.08903,4.270423 -1.331211,1.488971 -2.918711,3.015309 -3.527778,3.3918605 -0.609064,0.3765515 -1.969019,1.8470528 -3.022124,3.2677808 -1.053101,1.4207244 -2.395227,3.2095054 -2.982496,3.9750649 -1.000037,1.30363043 -1.061491,1.5604068 -0.968848,4.0480265 0.0544,1.4608564 0.234079,2.8976252 0.399278,3.1928191 0.174745,0.3122506 0.215011,-0.404548 0.09628,-1.7139357 -0.166434,-1.83545 -0.112903,-2.2199355 0.290163,-2.0841654 0.45775,0.1541921 0.54138,0.5042712 0.635871,2.6618567 0.01912,0.4365625 0.161636,0.79375 0.316703,0.79375 0.155067,0 0.217163,-0.5548595 0.137993,-1.2330184 -0.07917,-0.6781588 -0.03876,-1.5071479 0.08981,-1.8421986 0.368911,-0.9613618 0.88948,0.1373117 0.895964,1.8909455 0.0032,0.8638823 0.191555,1.5329959 0.460622,1.6362469 0.354602,0.1360735 0.404379,-0.2649502 0.225203,-1.8143397 -0.241579,-2.0890408 -0.142289,-2.6633031 0.402287,-2.3267354 0.180618,0.1116294 0.330831,0.8682814 0.333801,1.6814483 0.0056,1.5470118 0.477238,2.7009374 0.922038,2.2561375 0.143136,-0.143136 0.112081,-0.4082874 -0.06901,-0.5892271 -0.181091,-0.1809397 -0.275096,-1.1182245 -0.208901,-2.0828566 0.09718,-1.416043 0.356909,-2.014079 1.348405,-3.10472334 1.368079,-1.50487956 1.882627,-2.55869036 1.882627,-3.85566736 0,-1.3470961 0.997969,-2.6094374 2.069042,-2.6171597 0.51126,-0.00367 1.64394,-0.4788359 2.51707,-1.0558887 0.87312,-0.5770527 1.82562,-1.2030181 2.11666,-1.3910381 0.29105,-0.18802 1.87855,-0.9714548 3.52778,-1.7409686 3.08796,-1.440802 5.24234,-3.331652 8.685935,-7.623458 2.31573,-2.886139 2.44647,-3.468138 1.18949,-5.2951 -1.27502,-1.853181 -1.32405,-1.886945 -4.22492,-2.909516 -1.257865,-0.443399 -2.881645,-1.199689 -3.608415,-1.680644 -0.72677,-0.480955 -1.4949,-0.874463 -1.70695,-0.874463 -0.21204,0 -0.60731,-0.221773 -0.87836,-0.492829 -0.49944,-0.499438 -2.28723,-1.090902 -6.59943,-2.183325 -1.30908,-0.331634 -3.188253,-1.135169 -4.175932,-1.785631 -0.987676,-0.650463 -1.888483,-1.18266 -2.001788,-1.18266 -0.113309,0 -0.480364,-0.248283 -0.815679,-0.55174 -0.791376,-0.716184 -3.96796,-1.555407 -5.907634,-1.56074 -1.248713,-0.0034 -1.750353,0.210444 -2.786599,1.188082 -1.259596,1.188358 -1.26238,1.197676 -0.848758,2.840319 0.63773,2.532665 -0.08783,3.178437 -1.216459,1.08269 -0.365718,-0.679097 -0.768774,-1.234722 -0.895682,-1.234722 -0.381211,0 -1.286594,3.119218 -0.993521,3.422884 0.149306,0.154706 0.380866,0.876595 0.514569,1.6042 0.192066,1.04519 0.132838,1.322916 -0.282127,1.322916 -1.332294,0 -1.994958,-2.419825 -1.190149,-4.34601 0.298387,-0.714139 0.426364,-1.298435 0.284396,-1.298435 -0.282575,0 -4.14334,2.088921 -5.964456,3.227154 -1.120465,0.700312 -1.169685,0.701643 -2.463592,0.06663 -1.571195,-0.771091 -2.943313,-2.860699 -4.148981,-6.318502 -0.848346,-2.433024 -1.945509,-3.504222 -1.945509,-1.899469 0,0.747278 -0.02893,0.753042 -0.903457,0.180029 -0.496902,-0.325583 -1.086809,-0.53085 -1.310908,-0.45615 -0.224102,0.0747 0.359262,0.518735 1.29636,0.986743 0.937094,0.468009 1.851321,1.170956 2.031611,1.562105 0.48641,1.05529 1.145308,2.149099 1.689799,2.805172 0.374576,0.451337 0.388239,0.676308 0.06095,1.003602 -0.327297,0.327294 -0.616486,0.173172 -1.290098,-0.687541 -0.587685,-0.750922 -1.081821,-1.053545 -1.529239,-0.936543 -0.528524,0.138213 -0.708536,-0.08051 -0.898161,-1.0913 -0.130436,-0.695286 -0.395672,-1.264156 -0.589414,-1.264156 -0.193742,0 -0.305612,-0.261343 -0.248599,-0.580763 0.05701,-0.319419 -0.09478,-0.650148 -0.337312,-0.734953 -0.430065,-0.150377 -0.465297,0.03828 -0.631137,3.379439 -0.05736,1.15553 -0.59031,1.800601 -1.4966,1.811431 -0.711814,0.0085 -0.921159,-1.018323 -0.343214,-1.683432 0.547497,-0.630067 1.1095,-3.347385 0.763813,-3.693073 -0.109343,-0.109345 -0.665963,0.06466 -1.23693,0.386688 -0.91295,0.5149 -1.078079,0.522048 -1.369491,0.05928 -0.207701,-0.329833 -0.205193,-0.652393 0.0067,-0.864306 0.436086,-0.436067 0.437321,-1.25531 0.0019,-1.25531 -0.534533,0 -1.135504,2.566747 -0.668539,2.855347 0.498778,0.308262 0.06669,1.025209 -0.617869,1.025209 -0.787107,0 -2.614461,-1.462282 -3.174277,-2.540112 -0.441342,-0.849732 -0.428103,-0.995481 0.12258,-1.349554 0.552792,-0.355428 0.543567,-0.371522 -0.0882,-0.153892 -1.801329,0.620521 -1.940278,0.609877 -1.940278,-0.148631 0,-0.428549 0.225468,-0.746701 0.529167,-0.746701 0.291042,0 0.529167,-0.15875 0.529167,-0.352777 0,-0.194028 -0.07485,-0.352778 -0.166332,-0.352778 -0.475431,0 -4.0111,1.740813 -4.219049,2.077281 -0.133304,0.21569 -0.391752,0.392163 -0.574329,0.392163 -0.462037,0 -0.41717,-1.890342 0.0561,-2.363611 0.21343,-0.21343 0.388055,-0.959555 0.388055,-1.658055 0,-0.698501 0.116459,-1.270001 0.258801,-1.270001 0.142343,0 0.959905,-0.659052 1.816806,-1.46456 1.875254,-1.762785 5.745219,-3.540395 6.822895,-3.133997 0.402784,0.151891 1.481155,0.290304 2.396384,0.307585 2.155596,0.0407 4.332612,1.161603 5.08611,2.618739 0.325102,0.628687 0.87745,1.539942 1.227441,2.025011 0.388221,0.538054 0.796004,2.119949 1.045806,4.056945 0.245755,1.905651 0.736152,3.822371 1.226615,4.794257 0.841703,1.667884 3.00373,3.848799 3.815468,3.848799 0.252448,0 1.159736,-0.530896 2.016196,-1.179768 0.856459,-0.648872 2.112824,-1.391764 2.791922,-1.65087 1.101291,-0.420193 2.640693,-1.54819 4.762499,-3.489721 1.462504,-1.338245 2.617802,-1.81746 4.893984,-2.030013 2.063517,-0.192694 2.631013,-0.09962 4.722894,0.774601 1.307662,0.546486 2.850522,1.32366 3.428583,1.727052 2.689758,1.877023 3.620118,2.262948 7.389938,3.065415 1.73211,0.368708 3.39898,0.881516 3.70417,1.139574 0.30518,0.258057 1.1105,0.680236 1.7896,0.938174 0.67909,0.257939 1.47284,0.642639 1.76388,0.85489 0.29105,0.212251 1.0848,0.633827 1.76389,0.936835 3.836565,1.711845 4.920695,2.385827 6.442655,4.005253 1.42896,1.520478 1.65211,1.945966 1.49263,2.846079 -0.20902,1.179788 -1.75798,3.506793 -3.75719,5.644444 -0.72584,0.776112 -2.04222,2.186062 -2.92529,3.133225 -0.883065,0.947162 -1.605575,1.868396 -1.605575,2.047187 0,0.178791 0.39687,0.90913 0.88194,1.6229756 0.485075,0.7138423 0.881945,1.4950935 0.881945,1.7361113 0,0.2410213 0.51594,0.6995654 1.14653,1.0189916 1.72887,0.8757603 3.51672,3.0022026 4.46399,5.3093906 0.46641,1.13600091 1.04856,2.541704 1.29366,3.1237874 0.24511,0.5820834 0.65725,1.6785203 0.91588,2.4365269 0.47943,1.405174 1.16805,2.2445417 3.65417,4.4540949 1.88143,1.6721207 4.4858,4.8572277 4.26446,5.2153607 -0.0979,0.158493 0.28952,0.564399 0.86105,0.902011 0.57153,0.337612 1.04189,0.803303 1.04525,1.03487 0.003,0.231563 0.41581,0.809879 0.91658,1.285145 0.50077,0.475266 1.5106,1.745266 2.24407,2.822222 0.73347,1.076957 1.68968,2.275604 2.12492,2.66366 0.9958,0.88785 3.34685,4.326456 3.67833,5.379861 0.13737,0.436563 0.39782,0.79375 0.57878,0.79375 0.18095,0 0.329,0.174445 0.329,0.387657 0,0.405017 0.55268,1.755906 1.93418,4.727621 1.23159,2.649252 2.58197,6.169385 2.99422,7.805244 0.38708,1.535995 3.6005,6.793778 5.00323,8.186245 0.45545,0.452127 1.91005,1.709899 3.23243,2.795051 3.03258,2.488533 7.43675,7.708336 8.00702,9.489889 0.23889,0.746298 0.71642,1.912532 1.06118,2.591629 0.34475,0.679097 1.14273,2.663472 1.77327,4.409722 1.07108,2.966287 2.52306,6.236586 3.6808,8.290279 0.27346,0.485069 0.58029,1.159757 0.68186,1.499305 0.10156,0.339549 0.50075,0.617362 0.88707,0.617362 0.38633,0 1.25548,0.597757 1.93144,1.328349 0.67597,0.730589 2.60323,2.040276 4.2828,2.910417 2.90115,1.503003 4.03746,2.611783 4.04378,3.945798 0.001,0.25217 0.24913,0.932096 0.55095,1.510944 0.3949,0.757347 0.48359,1.526389 0.31631,2.742703 -0.19061,1.385881 -0.41372,1.78398 -1.23899,2.210742 -1.26294,0.653094 -2.1558,0.628692 -4.4484,-0.121567 z m 4.08188,-1.770352 c 0.4117,-0.769274 0.23277,-1.710986 -0.79492,-4.183585 -0.60468,-1.454852 -1.03568,-1.957871 -2.087,-2.435744 -0.72872,-0.331237 -1.50222,-0.815851 -1.71889,-1.076921 -0.21667,-0.26107 -0.56501,-0.474673 -0.77408,-0.474673 -0.24767,0 -0.23262,0.147525 0.0432,0.423333 0.56289,0.562886 0.53595,0.987778 -0.0626,0.987778 -0.69383,0 -1.41243,-0.933559 -0.94227,-1.224135 0.59275,-0.366339 0.4271,-0.892532 -0.28097,-0.892532 -0.75819,0 -1.63208,-0.896648 -1.977,-2.028472 -0.30273,-0.993419 -0.8999,-1.038747 -0.8999,-0.06831 0,0.398991 -0.51593,1.201765 -1.14652,1.783937 -0.89231,0.823796 -1.36721,1.015781 -2.14181,0.865851 -1.39878,-0.27075 -1.1443,0.793358 0.41501,1.735328 1.3571,0.819813 5.81493,4.421149 5.98953,4.83875 0.0647,0.154686 0.26627,0.281248 0.44798,0.281248 0.18171,0 0.93618,0.382418 1.6766,0.849821 1.19684,0.755537 2.06768,1.0607 3.47805,1.218805 0.23571,0.02642 0.58475,-0.243794 0.77564,-0.600481 z m -3.30182,-3.408218 c -0.91074,-1.111441 -1.2672,-1.862857 -1.18903,-2.506469 0.10237,-0.842751 0.2363,-0.737965 1.61096,1.260362 0.82462,1.198743 1.4993,2.326655 1.4993,2.506466 0,0.702521 -0.6764,0.25879 -1.92123,-1.260359 z M 59.359073,85.890562 c 2.095278,-1.67186 3.635153,-2.118519 7.179613,-2.082525 l 3.254192,0.03306 0.538169,-1.040705 c 0.706921,-1.367035 0.680018,-1.853329 -0.183487,-3.316866 l -0.721659,-1.22312 -0.851221,0.788885 c -0.468172,0.433889 -1.465559,0.991638 -2.216415,1.239443 -1.236405,0.408047 -1.642593,0.358542 -4.305706,-0.524792 l -2.940512,-0.975346 -0.912385,1.137906 c -0.501816,0.625845 -1.462723,1.723019 -2.135353,2.438163 -0.672628,0.715145 -1.228253,1.435245 -1.234723,1.600225 -0.0065,0.16498 -0.774915,0.589651 -1.707663,0.943716 -0.932748,0.354066 -1.946007,0.85132 -2.251685,1.10501 -0.495296,0.41106 -0.471614,0.481121 0.217608,0.643784 0.425361,0.10039 2.195904,0.179969 3.934537,0.176844 2.887913,-0.0052 3.262764,-0.08676 4.33669,-0.943667 z m 95.784017,-3.834466 c 0.79267,-1.072148 0.79367,-1.08869 0.14397,-2.38125 -0.35983,-0.715881 -1.09742,-2.049328 -1.63909,-2.963213 -0.9479,-1.599273 -1.78656,-3.610445 -2.9113,-6.981445 -0.29132,-0.873125 -0.82457,-2.2225 -1.185,-2.998611 -0.36043,-0.776111 -1.02594,-2.363611 -1.47893,-3.527778 -0.45298,-1.164167 -1.11361,-2.332091 -1.46806,-2.595387 -0.35445,-0.263295 -0.75212,-0.76327 -0.88371,-1.111059 -0.35135,-0.928628 -3.62827,-4.291655 -5.5915,-5.738432 -2.05232,-1.512436 -3.36829,-2.891303 -4.11671,-4.313456 -0.30633,-0.582084 -0.56331,-0.810864 -0.57108,-0.508399 -0.008,0.302464 0.20634,0.85144 0.4758,1.219944 0.26945,0.368505 0.41126,0.874974 0.31514,1.125485 -0.23592,0.614789 -1.51062,-1.00711 -1.51062,-1.922071 0,-0.37362 -0.11678,-0.796082 -0.2595,-0.938805 -0.14272,-0.14272 -0.28315,-0.729986 -0.31207,-1.305031 -0.0289,-0.575049 -0.36414,-1.318172 -0.74494,-1.651388 -0.38079,-0.333217 -1.3656,-2.193347 -2.18847,-4.133625 -0.82287,-1.940278 -1.64088,-3.67859 -1.8178,-3.862917 -0.17692,-0.184326 -0.32167,-0.5842 -0.32167,-0.888605 0,-0.304405 -0.65278,-1.820467 -1.45062,-3.369028 -0.79783,-1.54856 -1.63127,-3.171511 -1.85208,-3.60656 -0.22081,-0.435049 -0.52053,-0.792237 -0.66605,-0.79375 -0.14552,-0.0014 -0.26458,-0.213205 -0.26458,-0.470426 0,-0.257217 -0.39688,-0.840514 -0.88194,-1.296215 -0.48507,-0.455701 -0.88195,-1.081595 -0.88195,-1.390876 0,-0.581942 -1.54645,-2.560535 -4.15174,-5.311902 -0.82677,-0.873125 -1.92095,-2.301875 -2.43153,-3.175 -0.51057,-0.873125 -0.98162,-1.650806 -1.04677,-1.728178 -0.0651,-0.07737 -0.7166,0.521847 -1.44768,1.331599 -1.28464,1.422894 -3.00396,2.720136 -9.18335,6.928898 l -2.91523,1.985561 0.62218,1.073626 c 1.332,2.298492 5.28082,6.096106 8.64667,8.315569 2.7069,1.784957 4.31165,3.223278 7.51254,6.733449 9.20866,10.098416 11.57641,12.177713 15.94092,13.998904 2.21983,0.926271 3.01609,1.563003 2.59265,2.073211 -0.27959,0.336889 0.15758,0.968626 1.75358,2.534039 2.96871,2.911806 4.87493,5.458735 5.14651,6.876327 0.27942,1.45857 1.51157,4.204776 1.88656,4.204776 0.14841,0 0.36583,0.479997 0.48316,1.066659 0.11733,0.586662 0.49437,1.17214 0.83785,1.301055 0.34348,0.128919 0.8179,0.482357 1.05427,0.785425 0.26043,0.333929 0.43417,0.38645 0.44097,0.133307 0.0108,-0.403648 -1.48238,-4.236953 -2.13721,-5.48652 -0.17656,-0.336917 -0.32102,-0.852854 -0.32102,-1.146528 0,-0.293673 -0.31091,-0.844867 -0.69092,-1.224873 -0.38,-0.380005 -1.03612,-1.372192 -1.45805,-2.204861 -0.42193,-0.832668 -1.18258,-2.070195 -1.69033,-2.750058 -0.50776,-0.679863 -1.09796,-1.552988 -1.31156,-1.940278 -0.2136,-0.38729 -0.8116,-0.754655 -1.32889,-0.816367 -0.5173,-0.06171 -0.85113,-0.256868 -0.74186,-0.43368 0.64655,-1.046127 -2.80772,-4.472467 -4.83588,-4.796783 -1.53247,-0.24505 -3.29607,-1.507674 -3.64603,-2.610327 -0.14351,-0.452158 -0.53573,-0.690061 -1.13766,-0.690061 -1.079,0 -2.97006,-1.849621 -5.84885,-5.72068 -2.43524,-3.274632 -3.88546,-5.798796 -3.59843,-6.263217 0.29184,-0.472201 1.59402,-0.472617 1.59402,-3.53e-4 0,0.199549 0.5478,1.509236 1.21733,2.910417 1.2937,2.707418 3.88304,5.931271 5.60496,6.978428 0.95405,0.580196 1.11225,0.587082 1.88314,0.08197 0.96602,-0.632961 1.19356,-0.514682 1.25197,0.650797 0.0863,1.722766 2.71626,3.676594 4.38506,3.257752 0.7679,-0.19273 0.90319,-0.132948 0.72862,0.321976 -0.23809,0.620459 0.78256,2.029365 3.56111,4.915737 2.58247,2.682688 5.25378,6.99152 7.94889,12.821617 1.60981,3.482341 2.01065,5.092933 1.26754,5.092933 -0.20548,0 -0.25429,0.193048 -0.10846,0.428989 0.14582,0.235945 0.36346,0.990007 0.48363,1.675694 0.13828,0.788921 0.39293,1.207485 0.69351,1.139889 0.26124,-0.05875 0.59822,0.100002 0.74884,0.352778 0.68713,1.153174 2.63301,3.779601 2.81127,3.79446 0.10903,0.0091 0.55743,-0.469318 0.99646,-1.063124 z M 132.3334,47.439041 c 0.21804,-0.654128 0.97749,-0.762621 0.97749,-0.13964 0,0.307209 -0.25136,0.558563 -0.55857,0.558563 -0.30721,0 -0.49572,-0.188517 -0.41892,-0.418923 z m -2.35174,-4.318748 c -0.12888,-0.859469 -0.54378,-1.956072 -0.922,-2.436894 -0.74054,-0.941441 -0.89143,-1.64488 -0.35284,-1.64488 0.7014,0 2.08269,2.362998 2.31993,3.968751 0.20158,1.364357 0.14926,1.675694 -0.28158,1.675694 -0.35547,0 -0.60609,-0.512963 -0.76351,-1.562671 z m -16.42633,-9.300052 c -2.09623,-1.575252 -7.10636,-7.48409 -6.98681,-8.240085 0.16625,-1.051314 0.70943,-0.941578 1.1345,0.229196 0.38336,1.055864 4.12139,4.792638 6.6656,6.663352 0.76056,0.559226 1.29576,1.227769 1.23472,1.542355 -0.16756,0.863632 -0.7079,0.812228 -2.04801,-0.194818 z m 2.50661,-0.835244 c -1.35091,-1.585031 -1.80105,-2.202402 -1.80105,-2.470129 0,-0.165993 -1.27,-1.718257 -2.82223,-3.449472 -2.76958,-3.088954 -3.26187,-3.896692 -2.38125,-3.907081 0.5741,-0.0068 7.23044,6.931854 7.91546,8.251145 0.46258,0.890905 0.46371,1.07678 0.009,1.531196 -0.43061,0.430611 -0.58468,0.438034 -0.92022,0.04434 z M 65.57755,78.749454 c 0,-0.289465 0.414867,-0.55347 0.970139,-0.617362 1.726551,-0.198659 1.458158,-2.296774 -1.199353,-9.375754 -0.456014,-1.214716 -0.829119,-2.365654 -0.829119,-2.557639 0,-0.629201 0.652854,-0.365312 0.881944,0.356489 0.123166,0.388055 0.357618,0.705555 0.521011,0.705555 0.163389,0 0.0752,-0.833437 -0.195975,-1.852083 -0.293035,-1.100748 -0.49475,-3.605202 -0.497237,-6.173612 -0.004,-4.084948 -0.04281,-4.321528 -0.709743,-4.321528 -0.388056,0 -0.705556,0.15875 -0.705556,0.352778 0,0.735027 -0.918442,0.307016 -1.852083,-0.863106 -0.533576,-0.668726 -0.970139,-1.358491 -0.970139,-1.532812 0,-0.174326 -0.3175,-0.604284 -0.705555,-0.955471 -0.702529,-0.63578 -0.958057,-1.5875 -0.42623,-1.5875 0.153631,0 0.980433,0.714375 1.837341,1.5875 1.632585,1.663485 3.016355,2.075466 3.258527,0.970139 0.223164,-1.018575 -1.103478,-4.50432 -3.287653,-8.638269 -0.178008,-0.336917 -0.3287,-0.813167 -0.33487,-1.058333 -0.0062,-0.245167 -0.226406,-0.729446 -0.489409,-1.076174 -0.450906,-0.594444 -0.560959,-0.597295 -1.928964,-0.04993 -0.904879,0.36206 -1.815857,0.489367 -2.421012,0.338328 -1.411026,-0.352171 -3.263286,-1.576045 -3.263286,-2.156206 0,-0.663243 0.677567,-0.635074 1.445737,0.06011 1.108177,1.002891 2.987364,1.20534 4.417991,0.475965 0.704,-0.35892 1.502635,-0.970436 1.774744,-1.358925 0.69457,-0.991637 5.267903,-4.66374 7.226324,-5.802288 0.899597,-0.522993 2.664566,-1.166174 3.922151,-1.429294 4.540875,-0.950076 11.904719,-4.954425 11.904719,-6.47361 0,-0.192416 0.238312,-0.547627 0.529579,-0.789358 0.529093,-0.439109 0.0326,-0.868683 -3.52819,-3.052618 -1.160081,-0.711514 -7.817608,-4.002596 -8.096846,-4.002596 -0.142194,0 -0.662171,-0.3175 -1.155502,-0.705555 -1.161271,-0.913458 -1.260934,-0.900377 -2.688199,0.352777 -0.662954,0.582084 -1.313003,1.058334 -1.444551,1.058334 -0.329409,0 -3.01318,2.07186 -5.525801,4.265891 -2.257831,1.971556 -5.254378,5.956622 -5.254378,6.987731 0,0.350065 -0.392822,1.175897 -0.872938,1.835182 -1.497376,2.056159 -1.665884,2.70171 -0.984754,3.772624 0.333671,0.524619 0.711037,1.033226 0.838595,1.13024 0.127557,0.09701 0.291796,0.492065 0.364977,0.877894 0.196324,1.035065 1.299463,1.072265 2.364694,0.07974 1.300236,-1.211489 2.527211,-1.799848 2.924637,-1.402423 0.421982,0.421983 -1.214328,2.068898 -2.920288,2.939215 l -1.292937,0.659606 -1.809722,-1.472138 c -1.972049,-1.60419 -2.334359,-2.406703 -1.994708,-4.418239 l 0.222984,-1.320599 -1.939554,2.0358 c -1.85945,1.951711 -3.182271,3.795381 -2.357381,3.285571 0.206307,-0.127505 0.698394,0.09146 1.093529,0.486597 0.395133,0.395132 1.115297,0.718421 1.600366,0.718421 0.985291,0 1.182758,0.514636 0.323924,0.844201 -0.928881,0.356447 -1.646452,0.24402 -2.317263,-0.363054 -0.591904,-0.535668 -0.655038,-0.532222 -0.877651,0.0479 -0.151924,0.395904 0.230258,1.545233 1.042413,3.134825 0.705255,1.380357 1.851042,4.176618 2.546201,6.21391 0.695156,2.037292 1.893119,4.926595 2.662142,6.420676 2.113365,4.105899 3.405258,7.442987 4.616083,11.923769 1.170598,4.331932 1.768147,7.605407 1.545527,8.466668 -0.07523,0.291041 -0.239452,0.886354 -0.364935,1.322916 -0.17659,0.614356 -0.08325,0.795525 0.41298,0.801596 0.352626,0.0043 1.038009,0.318283 1.523079,0.69771 1.039922,0.813439 2.469444,0.929111 2.469444,0.199821 z M 61.317399,61.566187 c -0.70727,-1.321545 -1.739572,-5.374584 -1.420315,-5.576472 0.168949,-0.106839 0.365231,-0.498595 0.436185,-0.870571 0.18947,-0.993331 1.010948,-1.130953 1.010948,-0.169365 0,1.124913 1.073718,5.342904 1.493813,5.868279 0.453986,0.56776 0.08775,1.503796 -0.588384,1.503796 -0.290305,0 -0.709817,-0.340049 -0.932247,-0.755667 z M 53.972181,46.355145 c -0.741913,-1.730816 -1.442219,-4.036505 -1.44544,-4.758987 -0.0011,-0.242534 0.21849,-0.440972 0.487938,-0.440972 0.287172,0 0.59176,0.547455 0.736035,1.322917 0.135372,0.727604 0.573134,2.085509 0.972803,3.01757 0.532902,1.242762 0.622148,1.799177 0.334691,2.086634 -0.287454,0.287454 -0.577053,-0.03977 -1.086027,-1.227162 z m 88.830429,20.737218 c -0.47902,-1.019063 -2.38096,-3.304943 -4.94004,-5.937279 -4.0563,-4.172416 -5.55509,-5.146697 -3.77166,-2.451746 0.4858,0.734096 0.98522,1.650136 1.10981,2.035645 0.1246,0.385512 1.37308,1.732802 2.77441,2.993982 1.40133,1.261181 3.17522,2.966625 3.94198,3.789882 0.76676,0.823253 1.45492,1.43601 1.52925,1.361683 0.0743,-0.07433 -0.21536,-0.880805 -0.64375,-1.792167 z M 68.949707,34.646344 c 0.660661,-0.493596 0.656629,-0.504525 -0.114459,-0.310198 -0.439586,0.110787 -0.885518,0.341017 -0.99096,0.511624 -0.298386,0.482794 0.347017,0.365192 1.105419,-0.201426 z M 94.858105,23.163518 c 0,-0.194027 -0.07,-0.352778 -0.15557,-0.352778 -0.0856,0 -0.25368,0.158751 -0.3736,0.352778 -0.11991,0.194028 -0.0499,0.352778 0.15557,0.352778 0.20548,0 0.3736,-0.15875 0.3736,-0.352778 z m -2.46944,-4.586111 c -0.68396,-0.442002 -1.05834,-0.442002 -1.05834,0 0,0.194028 0.35719,0.350347 0.79375,0.347377 0.64186,-0.0044 0.69249,-0.07084 0.26459,-0.347377 z m -2.11667,-0.705556 c 0,-0.194028 -0.35719,-0.350347 -0.79375,-0.347376 -0.64186,0.0044 -0.69249,0.07084 -0.26458,0.347376 0.68395,0.442003 1.05833,0.442003 1.05833,0 z m 20.461115,0 c 0,-0.194028 -0.14938,-0.352778 -0.33196,-0.352778 -0.18257,0 -0.43007,0.15875 -0.54999,0.352778 -0.11991,0.194028 0.0295,0.352778 0.33196,0.352778 0.30249,0 0.54999,-0.15875 0.54999,-0.352778 z M 93.799775,16.46074 c 0,-0.194028 -0.15875,-0.352778 -0.35278,-0.352778 -0.19403,0 -0.35278,0.15875 -0.35278,0.352778 0,0.194028 0.15875,0.352778 0.35278,0.352778 0.19403,0 0.35278,-0.15875 0.35278,-0.352778 z m 16.580555,0 c 0,-0.194028 -0.15875,-0.352778 -0.35278,-0.352778 -0.19402,0 -0.35277,0.15875 -0.35277,0.352778 0,0.194028 0.15875,0.352778 0.35277,0.352778 0.19403,0 0.35278,-0.15875 0.35278,-0.352778 z M 86.588595,15.920355 c -0.783893,-0.592907 -1.25549,-0.664665 -1.25549,-0.191036 0,0.1798 0.277813,0.39951 0.61736,0.488241 1.15342,0.30142 1.32434,0.221812 0.63813,-0.297205 z m 14.035845,0.275802 c 0.0899,-0.145521 -0.17851,-0.285937 -0.59654,-0.312039 -0.418045,-0.02611 -1.156945,-0.155113 -1.642015,-0.286692 l -0.88195,-0.239237 0.88195,0.538773 c 0.95634,0.584225 1.977995,0.720775 2.238555,0.299195 z M 84.62755,15.049629 c 0,-0.194028 -0.07001,-0.352778 -0.155568,-0.352778 -0.08556,0 -0.253683,0.15875 -0.373599,0.352778 -0.119916,0.194028 -0.04991,0.352778 0.155568,0.352778 0.205479,0 0.373599,-0.15875 0.373599,-0.352778 z m 10.936115,-0.352778 c 0,-0.194028 -0.16812,-0.352778 -0.3736,-0.352778 -0.20548,0 -0.27549,0.15875 -0.15557,0.352778 0.11991,0.194028 0.28803,0.352778 0.3736,0.352778 0.0856,0 0.15557,-0.15875 0.15557,-0.352778 z m -1.05834,-0.352778 c 0,-0.194028 -0.16812,-0.352778 -0.3736,-0.352778 -0.20548,0 -0.27548,0.15875 -0.15556,0.352778 0.11991,0.194028 0.28803,0.352778 0.37359,0.352778 0.0856,0 0.15557,-0.15875 0.15557,-0.352778 z m 9.877785,-1.431932 c 0,-0.182577 -0.15875,-0.331957 -0.35278,-0.331957 -0.19403,0 -0.35278,0.247495 -0.35278,0.549988 0,0.302493 0.15875,0.451873 0.35278,0.331957 0.19403,-0.119916 0.35278,-0.367411 0.35278,-0.549988 z m -8.914995,-0.192317 c -0.11722,-0.117224 -0.4215,-0.129755 -0.67616,-0.02783 -0.28142,0.112614 -0.19783,0.196208 0.21314,0.213134 0.37189,0.01531 0.58025,-0.06806 0.46302,-0.185286 z m 3.9761,-0.492418 c 0,-0.194027 -0.15875,-0.352777 -0.35278,-0.352777 -0.19402,0 -0.35277,0.15875 -0.35277,0.352777 0,0.194028 0.15875,0.352778 0.35277,0.352778 0.19403,0 0.35278,-0.15875 0.35278,-0.352778 z m 6.337405,-0.133519 c -0.43957,-0.413808 -3.83655,-1.1286 -3.42961,-0.721653 0.24637,0.246366 2.88596,1.156932 3.42961,1.183094 0.45357,0.02184 0.45357,-0.03447 0,-0.461441 z m -4.03339,-2.3182086 c -0.12985,-0.2101 -0.40083,-0.280193 -0.60216,-0.155762 -0.23702,0.146488 -0.20094,0.328292 0.10235,0.5157396 0.56613,0.349882 0.82382,0.164285 0.49981,-0.3599776 z m 3.34366,-0.190221 c -0.23977,-0.288904 -0.5793,-0.4366859 -0.75451,-0.328401 -0.45031,0.278307 -0.0197,0.8536836 0.63891,0.8536836 0.44845,0 0.47006,-0.09818 0.1156,-0.5252826 z M 89.919215,9.2378554 c 0,-0.2122139 -1.98668,-1.2477332 -2.36373,-1.2320451 -0.48791,0.020299 1.35855,1.3993741 1.87365,1.3993741 0.26954,0 0.49008,-0.0753 0.49008,-0.167329 z M -38.491891,7.6782984 c 0.828829,-0.1831693 1.184322,-0.4370494 1.081404,-0.7722976 -0.08432,-0.2746869 -0.218709,-1.2534901 -0.298631,-2.1751221 -0.177077,-2.0419908 0.465819,-2.2705626 0.801296,-0.2848928 0.305521,1.8083637 0.931499,2.3364297 2.207973,1.8626139 0.533752,-0.1981236 2.161083,-0.5486753 3.616291,-0.779004 2.456033,-0.3887329 3.415968,-0.5936474 6.709294,-1.4321932 0.682682,-0.1738242 2.41353,-0.4823037 3.84633,-0.6855107 2.356064,-0.3341512 3.49722,-0.9147705 3.544267,-1.8033296 0.01232,-0.2327134 -3.332484,0.2328863 -3.814904,0.5310364 -0.16514,0.1020622 -2.835969,0.2634227 -5.935174,0.358574 -3.099206,0.095155 -6.397644,0.3439372 -7.329863,0.5528522 -1.361455,0.3051069 -1.846789,0.2803525 -2.466693,-0.1258253 -0.666147,-0.4364779 -1.27554,-0.4390884 -4.453475,-0.019085 -2.024949,0.2676137 -3.982153,0.4900119 -4.349342,0.494217 -0.605912,0.00695 -0.646879,0.2060505 -0.443244,2.1543223 0.123404,1.1806733 0.32568,2.3105959 0.449501,2.5109454 0.23333,0.3775358 4.457191,0.1382007 6.83497,-0.3872865 z m 118.53333,0.3157749 c 0,-0.1940278 -0.16812,-0.3527778 -0.373599,-0.3527778 -0.205479,0 -0.275484,0.15875 -0.155568,0.3527778 0.119916,0.1940278 0.288036,0.3527778 0.373599,0.3527778 0.08556,0 0.155568,-0.15875 0.155568,-0.3527778 z m 1.058333,-0.6847346 c 0,-0.4162284 -0.68804,-0.8614834 -0.940742,-0.6087851 -0.252698,0.2527018 0.192557,0.9407419 0.608785,0.9407419 0.182577,0 0.331957,-0.1493802 0.331957,-0.3319568 z M 104.58027,7.1009105 c -0.78198,-0.5914567 -1.25549,-0.664838 -1.25549,-0.1945675 0,0.3647052 0.62121,0.6710574 1.41111,0.6958824 0.39433,0.012382 0.35467,-0.1153513 -0.15562,-0.5013149 z M 19.010885,5.7562626 c 1.455208,-0.2942555 3.677708,-0.6422743 4.938889,-0.77337 1.549668,-0.1610819 2.636156,-0.4956917 3.351389,-1.0321326 1.594834,-1.1961637 3.626238,-2.125391 6.168065,-2.821471 2.760941,-0.75608408 4.538052,-1.57820447 8.42519,-3.8976338 5.777812,-3.4475811 6.079282,-3.5782464 8.38842,-3.6357845 1.347738,-0.033584 2.949163,0.2073981 4.233334,0.6370285 1.13605,0.3800758 2.572113,0.6949511 3.191252,0.6997207 0.619139,0.00476 1.212511,0.1491227 1.318599,0.3207773 0.246838,0.3993903 2.318194,0.7135566 2.318194,0.3516031 0,-0.2763979 -1.440388,-1.1674441 -2.545955,-1.5749624 -0.333124,-0.1227914 -0.689063,-0.4859832 -0.79098,-0.8070957 -0.158493,-0.499364 -0.858443,-0.5942894 -4.837353,-0.6560326 -3.918581,-0.060808 -4.892382,0.034114 -6.17638,0.6020929 -1.158328,0.5123851 -1.524331,0.5623631 -1.524331,0.2081495 0,-0.7407522 0.732599,-1.1465314 2.957942,-1.6383601 l 2.076002,-0.4588228 -1.333373,-0.4616239 c -0.733354,-0.2538941 -1.508806,-0.6000327 -1.72322,-0.7691967 -1.471225,-1.1607175 -6.36058,-1.5343515 -9.032907,-0.6902765 -4.352805,1.3748701 -6.69399,2.347676 -8.573452,3.5624311 -2.135695,1.3803666 -5.184881,4.2272517 -5.184881,4.840884 0,0.1783998 -0.725279,0.7494094 -1.611732,1.26890295 -1.491812,0.874261 -1.773978,0.92167434 -3.792361,0.63721901 -1.199345,-0.16902642 -3.73478,-0.29054074 -5.634302,-0.27003376 -2.399718,0.0258939 -3.413619,-0.0828816 -3.322415,-0.35648903 0.216461,-0.64938987 2.649199,-0.88367307 7.128866,-0.68654787 3.244892,0.1427903 4.37932,0.074866 4.858576,-0.2909112 0.532327,-0.4062836 -0.175402,-0.4619802 -4.7625,-0.3747841 -5.500261,0.1045528 -7.7054388,0.4896874 -10.7687848,1.88075724 -1.825914,0.82914778 -4.528217,1.36821698 -6.85876197,1.36821698 -1.18679703,0 -1.65963203,0.12446708 -1.49356603,0.39316378 0.162493,0.2629253 0.94113403,0.3141804 2.35049203,0.1547284 C 2.4099292,1.2984812 2.8224072,1.3459686 2.6961312,1.7106068 c -0.203521,0.5876996 -6.350148,0.5540305 -6.54678,-0.035863 -0.0703,-0.2108941 -0.323014,-0.3834483 -0.561583,-0.3834483 -0.238573,0 -0.890044,-0.47624998 -1.447716,-1.05833338 -0.557671,-0.58208341 -1.262058,-1.05350744 -1.565306,-1.04760547 -0.458999,0.008925 -0.447943,0.0709613 0.066,0.37030733 0.339548,0.19776724 0.617361,0.66919124 0.617361,1.04760544 0,0.3784142 0.219654,0.68802608 0.488117,0.68802608 0.646656,0 3.039661,2.6689299 3.039661,3.3901488 0,0.3306198 0.198349,0.4897791 0.477079,0.3828204 0.262396,-0.1006899 1.633181,0.037211 3.04619003,0.306451 C 1.7221632,5.6399522 2.9759182,5.8014398 3.0952692,5.7295754 3.2146212,5.6577114 4.9791482,5.8049644 7.0164402,6.056805 11.380425,6.5962587 15.348515,6.4968318 19.010885,5.7562626 Z M 11.316971,5.146652 c 0.08858,-0.2657369 0.749854,-0.6054972 1.469503,-0.7550186 0.719649,-0.1495178 1.771657,-0.5113867 2.337802,-0.8041534 1.194093,-0.6174882 2.12272,-0.6905379 2.12272,-0.1669804 0,0.4794745 -2.85382,1.6916543 -4.664177,1.9811437 C 11.462252,5.5808262 11.190494,5.5260857 11.316971,5.146652 Z M 22.891441,3.9077387 C 22.406371,3.6385834 21.74238,3.4160229 21.415909,3.4131619 20.830643,3.4080419 20.170935,2.1303207 20.555166,1.7460892 c 0.108673,-0.1086732 0.593831,0.06204 1.078131,0.3793631 0.484297,0.3173237 1.099648,0.576954 1.367445,0.576954 0.485997,0 1.654587,1.078537 1.654587,1.5270834 0,0.3638303 -0.787093,0.2202568 -1.763888,-0.321751 z m 3.880555,-2.0828531 c 0,-0.5419513 2.475399,-2.29747952 3.239586,-2.29747952 0.237261,0 -0.188679,0.63500005 -0.946531,1.41111124 C 27.638764,2.3991691 26.771996,2.7342128 26.771996,1.8248856 Z m 3.02775,-4.0142198 c -0.569704,-0.9217978 7.581445,-5.0949722 8.655308,-4.4312913 0.679792,0.4201372 0.219463,0.7724881 -1.813289,1.3879549 -1.168569,0.3538149 -3.033881,1.2475881 -4.145138,1.9861602 -2.161406,1.4365323 -2.403719,1.5315213 -2.696881,1.0571762 z m -0.911083,-1.4768936 c 0,-0.429193 0.877065,-0.8061396 1.439485,-0.6186665 0.222437,0.074143 -0.01044,0.3238395 -0.517529,0.5548807 -0.578587,0.2636203 -0.921956,0.2873763 -0.921956,0.063786 z M 39.47208,-6.7219891 c -1.51e-4,-0.7667555 1.272974,-1.1939624 2.344297,-0.7866452 0.538709,0.2048158 1.333122,0.2836299 1.765367,0.1751436 0.886848,-0.2225851 1.430277,0.3153093 0.7467,0.7390942 -0.753255,0.4669826 -4.856265,0.3591843 -4.856364,-0.1275926 z M 89.213665,6.2646966 c 0,-0.1750484 -0.43657,-0.47631 -0.97014,-0.6694735 -0.53358,-0.1931635 -1.24795,-0.463804 -1.5875,-0.6014227 -0.39579,-0.1604116 -0.61736,-0.088953 -0.61736,0.1991043 0,0.2471244 0.0879,0.3614173 0.19533,0.2539859 0.10743,-0.1074314 0.78212,0.097906 1.4993,0.4563146 1.55476,0.7769684 1.48037,0.7588039 1.48037,0.3614914 z M -4.7004588,5.0147449 c 0.635745,-0.5926738 0.18874,-1.5077935 -0.925248,-1.8942016 -0.794056,-0.2754348 -1.054138,-0.1871557 -1.677137,0.5692704 -0.976206,1.1852841 -1.908492,0.8511647 -1.908492,-0.6839726 0,-0.621404 0.262727,-1.4201353 0.583843,-1.7749627 0.321113,-0.35482748 0.425094,-0.64513888 0.231066,-0.64513888 -0.194027,0 -0.61336,0.2879408 -0.931848,0.63986488 -0.652113,0.7205768 -0.7089782,3.9429763 -0.07725,4.3775738 0.533548,0.3670512 4.167674,-0.087443 4.705064,-0.5884333 z m 97.1362738,0.28696 c -0.65316,-0.284981 -1.27152,-0.4341919 -1.37413,-0.3315794 -0.22577,0.2257637 1.29211,0.8651206 2.03253,0.8561424 0.29104,-0.00353 -0.005,-0.239582 -0.6584,-0.524563 z m 7.29578,0.1324046 c 0.516925,0.193548 0.531765,0.1453973 0.11362,-0.3687128 -0.55501,-0.6823993 -1.11929,-0.4774142 -1.0787,0.3918585 0.0156,0.3341512 0.10321,0.4112931 0.19918,0.175387 0.0942,-0.2316374 0.43888,-0.3209748 0.7659,-0.1985327 z m 3.935745,-0.2760381 c -0.66559,-0.4209309 -1.04812,-0.4253406 -1.04812,-0.012086 0,0.3351565 1.10226,0.7056861 1.4009,0.470916 0.0914,-0.07185 -0.0674,-0.2783241 -0.35278,-0.45883 z M 97.731835,4.0696073 c -0.73383,-0.2784052 -0.82632,-0.1942748 -0.55726,0.5068676 0.17053,0.4444083 0.31407,0.4738053 0.67717,0.1386875 0.3763,-0.3472956 0.35432,-0.465642 -0.11991,-0.6455551 z M 84.316294,3.5210378 c 0.97706,0.2555064 1.101739,-0.2627348 0.306447,-1.2737819 -0.38541,-0.4899731 -0.700747,-1.1668126 -0.700747,-1.50408928 0,-0.4954024 0.166229,-0.4338709 0.865099,0.32022698 1.145242,1.2357383 1.483142,1.1912036 0.580457,-0.076503 -0.395534,-0.5554769 -0.618013,-1.11110195 -0.494393,-1.23472234 0.397923,-0.39792278 0.726161,-0.24111305 0.901883,0.43085811 0.09547,0.36509323 0.595065,0.73660013 1.127415,0.83836593 0.74147,0.141739 1.24654,-0.084152 2.25095,-1.00671503 1.28647,-1.18163627 1.82414,-1.45035067 1.82414,-0.91164486 0,0.39997947 -2.49343,2.73227469 -3.43958,3.21729829 -0.43656,0.2237952 -0.79375,0.560063 -0.79375,0.7472645 0,1.271196 6.42945,-1.7242932 8.98439,-4.1858391 1.07345,-1.0342034 1.95172,-1.9910109 1.95172,-2.1262412 0,-0.1352268 0.47625,-0.7672952 1.05834,-1.4045954 0.58208,-0.6373002 1.05833,-1.344849 1.05833,-1.5723342 0,-0.2274852 -0.42967,-1.2342602 -0.95482,-2.237278 -0.92325,-1.7633983 -0.99612,-1.8173313 -2.20486,-1.6318473 -1.59136,0.2441958 -5.44723,1.9637654 -6.91669,3.0845757 -0.62109,0.4737277 -1.777,1.1204999 -2.56869,1.4372732 -1.440733,0.5764636 -1.568252,0.7607054 -1.994968,2.8823816 -0.125847,0.625722 -0.931447,2.04253406 -1.790224,3.1484713 -1.535328,1.9771957 -1.779478,2.672609 -1.340213,3.817313 0.194719,0.507432 0.305308,0.486156 0.923815,-0.177733 0.419781,-0.4505784 0.969642,-0.6843431 1.365949,-0.580704 z m 8.425141,-5.3692923 c 0,-0.5843411 -0.52936,-1.8095172 -1.23472,-2.857673 -1.23976,-1.8422762 -1.48051,-2.4694446 -0.94794,-2.4694446 0.34836,0 1.85563,1.6676547 2.40363,2.6594013 0.21854,0.3955169 0.51031,1.3877044 0.64837,2.2048613 0.20737,1.2274092 0.15361,1.48573778 -0.30916,1.48573778 -0.38292,0 -0.56018,-0.32367368 -0.56018,-1.02288278 z m -2.46944,6.3145498 c -0.68395,-0.4420023 -1.05833,-0.4420023 -1.05833,0 0,0.1940278 0.35718,0.3503472 0.79375,0.3473768 0.64185,-0.00437 0.69248,-0.070845 0.26458,-0.3473768 z M -16.266892,4.1135175 c 0,-0.1940278 -0.15875,-0.3527778 -0.352777,-0.3527778 -0.194028,0 -0.352778,0.15875 -0.352778,0.3527778 0,0.1940278 0.15875,0.3527778 0.352778,0.3527778 0.194027,0 0.352777,-0.15875 0.352777,-0.3527778 z M -13.268281,3.93794 c -0.388055,-0.2782535 -0.903993,-0.6763385 -1.146527,-0.8846327 -0.267081,-0.2293761 -0.440973,-0.2420091 -0.440973,-0.032032 0,0.4068692 1.404659,1.4500826 1.93058,1.4338054 0.199362,-0.00617 0.04498,-0.2388835 -0.34308,-0.517137 z m 2.432248,-2.97002568 c -0.265966,-0.2808641 -0.587068,0.30584068 -0.692362,1.26506118 -0.172833,1.5744544 0.338508,1.8261895 0.595249,0.2930419 0.129971,-0.7761111 0.173669,-1.477257 0.09711,-1.55810308 z M 92.212275,3.0551841 c 0.11991,-0.1940278 0.0499,-0.3527778 -0.15557,-0.3527778 -0.20548,0 -0.3736,0.15875 -0.3736,0.3527778 0,0.1940278 0.07,0.3527778 0.15557,0.3527778 0.0856,0 0.25368,-0.15875 0.3736,-0.3527778 z M 104.72881,2.8702686 c -0.24543,-0.2957301 -0.53808,-0.4458477 -0.65034,-0.3335938 -0.11225,0.1122504 0.0294,0.351783 0.31486,0.5322888 0.74682,0.4723025 0.8444,0.4145104 0.33548,-0.198695 z m -8.460395,-0.171196 c 3.5e-4,-0.098848 -0.31197,-0.3750558 -0.69425,-0.6137946 -0.58542,-0.3655978 -0.74998,-0.3314453 -1.04324,0.2165244 -0.30327,0.566667 -0.21371,0.645848 0.69424,0.6137946 0.57335,-0.020249 1.04281,-0.1176761 1.04325,-0.2165244 z M -15.384947,2.3496285 c 0.119916,-0.1940278 0.04991,-0.3527778 -0.155568,-0.3527778 -0.205479,0 -0.373599,0.15875 -0.373599,0.3527778 0,0.1940278 0.07001,0.3527778 0.155568,0.3527778 0.08556,0 0.253683,-0.15875 0.373599,-0.3527778 z m 2.293055,-0.7055556 c 0.242877,-0.4538204 0.251735,-0.70555558 0.02484,-0.70555558 -0.194028,0 -0.5227,0.31749998 -0.730381,0.70555558 -0.242877,0.4538204 -0.251735,0.7055556 -0.02484,0.7055556 0.194028,0 0.5227,-0.3175 0.730381,-0.7055556 z M 98.186645,1.6071089 c -0.30784,-0.4980976 -0.8591,-0.3682965 -0.8591,0.2022827 0,0.3147061 0.20694,0.4386828 0.52715,0.3158103 0.28992,-0.1112556 0.4393,-0.3443994 0.33195,-0.518093 z m 6.902015,-0.5526194 c 0,-0.49825638 -1.19499,-1.52708342 -1.77372,-1.52708342 -0.84451,0 -3.870725,-1.37567468 -3.870725,-1.75957808 0,-0.6534926 0.767185,-0.7506335 1.603025,-0.2029742 0.47653,0.3122366 0.86643,0.4018915 0.86643,0.1992313 0,-0.2026603 -0.39688,-0.5492998 -0.88195,-0.7703115 -1.238935,-0.5644974 -1.172965,-1.4238536 0.0882,-1.1487222 0.74702,0.1629693 0.84844,0.1251938 0.44097,-0.1642639 -0.88417,-0.6280926 -1.22878,-0.4527092 -2.413765,1.2284358 -0.91895,1.3037327 -1.00967,1.5742745 -0.47049,1.4031455 0.39196,-0.1244036 0.85217,0.00995 1.11375,0.3251271 0.245185,0.2954231 0.664465,0.53713238 0.931755,0.53713238 0.26728,0 0.48597,0.15875001 0.48597,0.3527778 0,0.19402779 0.3175,0.3527778 0.70556,0.3527778 0.38805,0 0.70555,0.1211051 0.70555,0.26912361 0,0.30129343 1.34897,1.03192451 2.02847,1.09867361 0.24254,0.023813 0.44097,-0.06325 0.44097,-0.1934916 z M 96.818915,0.19974062 c 0.13121,-0.21229817 0.61683,-0.31369004 1.07915,-0.22530862 1.13991,0.21790732 1.07362,-0.31205313 -0.0751,-0.60036079 -0.88965,-0.22328718 -1.90654,0.25785941 -1.90654,0.90208461 0,0.4373351 0.61727,0.3850675 0.90248,-0.076415 z M -9.9762328,-0.86148205 c 0.831325,-0.0318911 0.797045,-0.0716986 -0.2934372,-0.34073755 -1.39967,-0.34532 -2.274778,-0.1643873 -1.926953,0.39840613 0.128937,0.20862574 0.469484,0.28912258 0.756768,0.17887951 0.287285,-0.11023953 0.945914,-0.2166867 1.4636222,-0.23654809 z M 103.50116,-1.5309273 c 0.11992,-0.1940278 0.0499,-0.3527778 -0.15556,-0.3527778 -0.20548,0 -0.3736,0.15875 -0.3736,0.3527778 0,0.1940278 0.07,0.3527778 0.15557,0.3527778 0.0856,0 0.25368,-0.15875 0.37359,-0.3527778 z M 52.701162,-9.6448167 c -0.119916,-0.1940278 -0.367411,-0.3527778 -0.549988,-0.3527778 -0.182576,0 -0.331957,0.15875 -0.331957,0.3527778 0,0.1940278 0.247495,0.3527778 0.549988,0.3527778 0.302493,0 0.451873,-0.15875 0.331957,-0.3527778 z m -8.113889,-6.6058253 c 0.5923,-0.362834 0.535672,-0.373701 -0.352778,-0.0677 -1.224622,0.421784 -4.056944,3.061085 -4.056944,3.780466 0,0.268298 0.833438,-0.360067 1.852083,-1.396369 1.018646,-1.036299 2.169584,-2.078679 2.557639,-2.316396 z m 3.792361,-1.173836 c 0.727604,-0.202066 1.322917,-0.518681 1.322917,-0.703588 0,-0.510401 -0.748214,-0.379838 -2.116667,0.369359 -1.3967,0.764662 -1.142139,0.871852 0.79375,0.334229 z m 6.261805,-1.039784 c 0,-0.4602 -0.235186,-0.705556 -0.676306,-0.705556 -0.371973,0 -1.399195,-0.309865 -2.282723,-0.688589 -1.025236,-0.439468 -1.686747,-0.558606 -1.828461,-0.329307 -0.122128,0.197605 -0.166465,0.400527 -0.09853,0.450938 0.982229,0.728846 2.822801,1.633899 3.044349,1.496976 0.158323,-0.09785 0.518407,-0.03206 0.800184,0.146191 0.781865,0.494613 1.041488,0.402217 1.041487,-0.370653 z m 37.747226,-1.705093 c 0,-0.459343 -0.41938,-0.764834 -0.76052,-0.553996 -0.36485,0.225489 -0.0503,0.847978 0.42856,0.847978 0.18258,0 0.33196,-0.132292 0.33196,-0.293982 z m -35.540512,-0.801922 c -0.197919,-0.769015 -2.247752,-1.348216 -3.959084,-1.118678 -0.924077,0.123944 -1.827862,-0.01399 -2.650984,-0.404586 -0.686897,-0.325954 -1.426887,-0.482644 -1.644421,-0.3482 -0.222147,0.137294 0.282138,0.472546 1.150433,0.764819 0.850276,0.286207 1.625576,0.645981 1.722893,0.799498 0.291352,0.459613 2.545874,0.966464 4.086154,0.91863 1.136273,-0.03529 1.410035,-0.164553 1.295009,-0.611483 z m 28.643702,-2.054133 c -0.42122,-0.412016 -2.275417,-0.885467 -2.275417,-0.581006 0,0.271455 1.382036,0.855116 2.099028,0.886459 0.320174,0.014 0.386158,-0.100268 0.176389,-0.305453 z m -2.804583,-1.083297 c -0.119916,-0.194028 -0.367411,-0.352778 -0.549988,-0.352778 -0.182576,0 -0.331957,0.15875 -0.331957,0.352778 0,0.194028 0.247495,0.352778 0.549988,0.352778 0.302493,0 0.451873,-0.15875 0.331957,-0.352778 z m -42.509721,-2.998611 c 0.455701,-0.48507 0.642123,-0.881945 0.414271,-0.881945 -0.227849,0 -0.414271,-0.324716 -0.414271,-0.721591 0,-0.743383 -1.539385,-2.560321 -1.880341,-2.219366 -0.105202,0.105205 -0.0528,0.555511 0.116452,1.000679 0.169252,0.445169 0.228255,0.888874 0.131117,0.986012 -0.251816,0.251817 0.249231,2.718155 0.552207,2.718155 0.13861,0 0.624864,-0.396875 1.080565,-0.881944 z m 4.056944,-10.054168 c -0.119916,-0.194028 -0.367411,-0.352778 -0.549987,-0.352778 -0.182577,0 -0.331957,0.15875 -0.331957,0.352778 0,0.194028 0.247495,0.352778 0.549988,0.352778 0.302492,0 0.451873,-0.15875 0.331956,-0.352778 z m 0.529167,-1.017207 c 0,-0.171409 -0.396875,-0.38752 -0.881944,-0.480247 -0.85434,-0.163317 -1.129736,0.07374 -0.646758,0.556713 0.345729,0.345731 1.528702,0.286558 1.528702,-0.07647 z m 3.365895,-0.370433 c -0.127896,-0.206937 -0.401355,-0.376249 -0.607688,-0.376249 -0.233927,0 -0.207162,0.202418 0.07109,0.537692 0.483849,0.583003 0.91628,0.452899 0.536596,-0.161443 z m 1.925772,-0.376249 c -0.683952,-0.442003 -1.058334,-0.442003 -1.058334,0 0,0.194028 0.357188,0.350347 0.79375,0.347376 0.641858,-0.0044 0.692489,-0.07084 0.264584,-0.347376 z m -3.972948,-0.596362 c -0.328003,-0.328 -0.714608,-0.478118 -0.859131,-0.333596 -0.144522,0.144521 -0.02924,0.410453 0.256184,0.59096 0.858862,0.543162 1.24055,0.38024 0.602947,-0.257364 z m 7.147947,0.05612 c 0,-0.297131 -0.238125,-0.631616 -0.529166,-0.743299 -0.291042,-0.111683 -0.529167,-0.503576 -0.529167,-0.870873 0,-0.907328 -0.576421,-0.846951 -0.820374,0.08593 -0.133847,0.511837 0.05108,0.960951 0.576217,1.399375 0.9533,0.795891 1.30249,0.830439 1.30249,0.128867 z m -3.976098,-0.731232 c -0.117224,-0.117225 -0.421499,-0.129758 -0.676158,-0.02785 -0.281422,0.112616 -0.197831,0.196209 0.213137,0.213137 0.371885,0.01532 0.580246,-0.06806 0.463021,-0.185286 z m -7.136401,-0.492419 c 0.119916,-0.194028 -0.02946,-0.352778 -0.331957,-0.352778 -0.302493,0 -0.549988,0.15875 -0.549988,0.352778 0,0.194028 0.149381,0.352778 0.331957,0.352778 0.182577,0 0.430072,-0.15875 0.549988,-0.352778 z m 7.761111,-0.352778 c -0.119917,-0.194027 -0.376778,-0.352777 -0.570805,-0.352777 -0.194028,0 -0.254667,0.15875 -0.134751,0.352777 0.119916,0.194028 0.376777,0.352778 0.570805,0.352778 0.194028,0 0.254667,-0.15875 0.134751,-0.352778 z m -9.052317,-1.804542 c 0.770389,-1.233589 0.185501,-1.146731 -1.238232,0.183883 l -1.351118,1.262749 1.065604,-0.356511 c 0.586081,-0.196081 1.271768,-0.686636 1.523746,-1.090121 z m 6.25838,-0.357891 c 0.150248,-0.243105 0.05518,-0.331655 -0.243762,-0.227041 -0.269544,0.09433 -0.847267,0.03948 -1.283829,-0.121891 -0.453305,-0.167555 -0.79375,-0.156924 -0.79375,0.02479 0,0.299105 0.704056,0.589159 1.654873,0.681769 0.231084,0.02251 0.530994,-0.138422 0.666468,-0.357622 z m -4.247112,-1.036037 c 0.379684,-0.614343 -0.05275,-0.744447 -0.536597,-0.161444 -0.278253,0.335274 -0.305018,0.537692 -0.07109,0.537692 0.206332,0 0.479791,-0.169312 0.607687,-0.376248 z m 3.866049,-0.706492 c 1.164166,-0.172802 2.267479,-0.317377 2.451805,-0.321278 0.184327,-0.0039 0.161611,-0.180621 -0.05048,-0.392712 -0.486075,-0.486074 -4.18817,0.223278 -5.223548,1.000874 l -0.705556,0.529892 0.705556,-0.251296 c 0.388055,-0.138213 1.658055,-0.392679 2.822223,-0.56548 z m 34.395832,43.2286176 c 0,-0.5337845 0.930106,-1.1166934 1.258242,-0.7885607 0.09321,0.093214 0.06938,0.4303255 -0.05296,0.7491378 -0.280674,0.7314248 -1.205283,0.7616649 -1.205283,0.039423 z m -7.015057,-0.7410975 c -0.432135,-0.3026798 -0.746054,-0.9059863 -0.746054,-1.4338018 0,-0.5011844 -0.224928,-1.0874941 -0.499844,-1.3029143 -0.638256,-0.500126 -0.92196,-4.850741 -0.329424,-5.051743 0.252198,-0.08556 0.500864,0.5561861 0.657874,1.6977892 0.314858,2.2892951 1.103849,4.2187992 1.974452,4.8285932 0.366511,0.2567164 0.666386,0.6788962 0.666386,0.9381773 0,0.7323703 -0.89899,0.9013297 -1.72339,0.3238994 z m 8.86714,-4.4513009 c 0.08085,-0.2425347 0.358659,-0.4409722 0.617361,-0.4409722 0.258703,0 0.536515,0.1984375 0.617361,0.4409722 0.08744,0.2623221 -0.162669,0.4409723 -0.617361,0.4409723 -0.454691,0 -0.7048,-0.1786502 -0.617361,-0.4409723 z m 4.85069,-2.3159122 c 0,-0.1580903 0.51594,-0.547878 1.14653,-0.866193 3.40736,-1.720004 5.5027,-3.356092 9.53774,-7.447284 1.3167,-1.335017 2.479105,-2.342204 2.583115,-2.238191 0.57076,0.570762 -3.219015,4.877776 -5.210475,5.921618 -0.45373,0.237828 -1.30121,0.891448 -1.88329,1.452488 -1.05719,1.018978 -1.59792,1.370531 -4.21141,2.7380891 -1.50064,0.7852375 -1.96221,0.8886155 -1.96221,0.4394729 z m -16.266589,-2.63555 c -1.782,-0.855959 -3.841739,-2.476229 -3.841739,-3.022061 0,-0.757748 0.992223,-0.589418 3.28042,0.556525 1.42276,0.712526 2.786126,1.15594 3.351389,1.089988 0.781283,-0.09116 0.934011,0.01591 0.847958,0.59437 -0.279132,1.876476 -1.024527,2.036531 -3.638028,0.781178 z m 3.919372,-0.242952 c 0,-0.189046 0.456078,-0.579564 1.013505,-0.867822 1.364301,-0.705507 3.396989,-2.717229 4.079882,-4.037794 0.333231,-0.644401 0.748623,-1.002708 1.03504,-0.8928 0.317299,0.12176 0.552584,-0.187221 0.69863,-0.917464 0.248271,-1.241344 0.934053,-1.112085 0.934053,0.176053 0,0.779141 -0.804866,1.941597 -1.348115,1.947067 -0.13166,0.0013 -0.629204,0.574708 -1.105648,1.274183 -1.333951,1.958397 -5.307347,4.44288 -5.307347,3.318577 z m 6.159902,-1.210183 c -0.379907,-0.277791 -0.579318,-0.616496 -0.443139,-0.752679 0.383681,-0.383681 2.111534,0.164747 1.959166,0.621848 -0.211364,0.63409 -0.762709,0.681673 -1.516027,0.130831 z m -11.583861,-2.608081 c -0.09566,-0.154785 -0.02565,-0.511972 0.155568,-0.79375 0.288075,-0.447912 0.370929,-0.447912 0.659003,0 0.349847,0.543957 0.187047,1.075177 -0.329501,1.075177 -0.171126,0 -0.389407,-0.126642 -0.48507,-0.281427 z m -4.805291,-0.951904 c -0.454978,-0.484304 -0.725731,-0.982059 -0.60167,-1.10612 0.343172,-0.343171 2.011475,0.872421 2.011475,1.465639 0,0.760012 -0.470866,0.639934 -1.409805,-0.359519 z m 6.508238,0.239915 c -0.771084,-0.553881 -1.625727,-2.88714 -1.057522,-2.88714 0.382365,0 1.956312,1.841021 1.956312,2.288272 0,0.614636 -0.454886,0.917729 -0.89879,0.598868 z m 6.190456,-1.791063 c 0,-0.744714 0.913811,-1.262546 1.254686,-0.710998 0.33178,0.536832 -0.1045,1.37881 -0.714449,1.37881 -0.297131,0 -0.540237,-0.300515 -0.540237,-0.667812 z M 62.97441,-19.503878 c -0.674451,-1.407741 -3.170117,-4.163992 -5.018789,-5.542823 -1.321552,-0.985678 -0.869354,-1.43815 0.695268,-0.695688 0.666853,0.316442 1.318119,0.575349 1.447264,0.575349 0.129145,0 0.755135,0.396875 1.391094,0.881944 0.63596,0.485069 1.339745,0.881945 1.563963,0.881945 0.513429,0 0.530356,0.79454 0.02762,1.29726 -0.271533,0.271532 -0.113725,0.646352 0.552718,1.312793 0.564779,0.564783 0.888672,1.232025 0.821009,1.691358 -0.182037,1.235779 -0.772262,1.075423 -1.480164,-0.402138 z m -0.433818,-2.990053 c -0.105928,-0.276039 -0.42212,-0.589966 -0.702648,-0.697616 -0.409145,-0.157004 -0.436189,-0.05771 -0.136702,0.50189 0.425249,0.794582 1.132431,0.959488 0.83935,0.195726 z m 6.391903,2.271534 c -0.260191,-0.420996 0.07005,-1.064088 0.546432,-1.064088 0.42926,0 0.432043,0.954836 0.0036,1.219657 -0.180623,0.11163 -0.428117,0.04162 -0.549988,-0.155569 z m -4.766056,-2.29881 c 0,-0.485069 -0.171362,-0.881944 -0.380809,-0.881944 -0.528782,0 -0.07142,-1.907786 0.81928,-3.417405 0.487317,-0.825942 0.831145,-1.098534 1.076343,-0.853339 0.245194,0.245195 0.226801,0.521122 -0.05758,0.863778 -0.229824,0.276921 -0.515927,1.553649 -0.635787,2.837174 -0.207698,2.224193 -0.82145,3.308868 -0.82145,1.451736 z m 4.474397,0.652639 c -0.132585,-0.132586 -0.241064,-0.783461 -0.241064,-1.446389 0,-1.469171 0.823758,-1.411226 0.997719,0.07018 0.118294,1.007369 -0.322954,1.809909 -0.756655,1.376207 z m -24.360377,-2.328334 c -0.31284,-1.167352 -0.276761,-1.322916 0.306814,-1.322916 0.352778,0 0.529167,0.352778 0.529167,1.058333 0,1.241051 -0.529396,1.408602 -0.835981,0.264583 z m 27.999869,-0.440972 c 0,-0.291041 0.233144,-0.529166 0.518096,-0.529166 0.315592,0 0.438725,0.206829 0.315034,0.529166 -0.111686,0.291042 -0.344826,0.529167 -0.518096,0.529167 -0.173267,0 -0.315034,-0.238125 -0.315034,-0.529167 z m -22.793162,-2.644958 c 0.02275,-1.235155 0.185829,-2.068139 0.391774,-2.001304 0.430992,0.13987 0.658082,2.14432 0.37205,3.283966 -0.387848,1.5453 -0.803095,0.847989 -0.763824,-1.282662 z m 12.021632,0.440097 c 0.250176,-1.361431 0.725583,-2.137845 1.087448,-1.775981 0.112999,0.113001 0.03016,0.85648 -0.184107,1.652176 -0.499615,1.855424 -1.240201,1.956923 -0.903341,0.123805 z m -6.108886,-0.07056 c 0.151592,-0.454778 0.635462,-0.53647 0.679097,-0.114652 0.01453,0.14067 -0.164042,0.319264 -0.396875,0.396875 -0.232833,0.07761 -0.359833,-0.04939 -0.282222,-0.282223 z m 15.469305,-0.16816 c 0,-0.327249 0.301625,-0.555034 0.734952,-0.555034 0.859737,0 0.738212,0.824362 -0.146826,0.996006 -0.348107,0.06751 -0.588126,-0.112452 -0.588126,-0.440972 z m -16.876702,-1.119516 c -0.593644,-0.415802 -0.714801,-0.682344 -0.436619,-0.960527 0.278183,-0.278184 0.542534,-0.227522 0.95262,0.182567 0.866532,0.866531 0.468091,1.467246 -0.516001,0.77796 z m -4.289964,-2.463523 c 0,-0.307211 0.188514,-0.495727 0.418923,-0.418924 0.654128,0.218043 0.762621,0.977488 0.13964,0.977488 -0.307209,0 -0.558563,-0.251354 -0.558563,-0.558564 z m -2.979988,-3.291861 c -0.113588,-0.183785 -0.05615,-0.42709 0.127635,-0.540676 0.183786,-0.113585 0.42709,-0.05615 0.540674,0.127637 0.113588,0.183786 0.05615,0.42709 -0.127635,0.540676 -0.183787,0.113585 -0.42709,0.05615 -0.540674,-0.127637 z m 0.863321,-1.088464 c 0,-0.194028 0.15875,-0.352778 0.352778,-0.352778 0.194028,0 0.352778,0.15875 0.352778,0.352778 0,0.194028 -0.15875,0.352778 -0.352778,0.352778 -0.194028,0 -0.352778,-0.15875 -0.352778,-0.352778 z"
       style="fill:#000000;stroke-width:0.35277778" />
  </g>
</svg>
