<?xml version="1.0" encoding="UTF-8" standalone="no"?>
<svg
   xmlns:dc="http://purl.org/dc/elements/1.1/"
   xmlns:cc="http://creativecommons.org/ns#"
   xmlns:rdf="http://www.w3.org/1999/02/22-rdf-syntax-ns#"
   xmlns:svg="http://www.w3.org/2000/svg"
   xmlns="http://www.w3.org/2000/svg"
   id="svg8"
   version="1.1"
   viewBox="0 0 133.64677 174.52218"
   height="174.5222mm"
   width="133.64677mm">
  <defs
     id="defs2" />
  <metadata
     id="metadata5">
    <rdf:RDF>
      <cc:Work
         rdf:about="">
        <dc:format>image/svg+xml</dc:format>
        <dc:type
           rdf:resource="http://purl.org/dc/dcmitype/StillImage" />
        <dc:title></dc:title>
      </cc:Work>
    </rdf:RDF>
  </metadata>
  <g
     transform="translate(11.887634,58.08699)"
     id="layer1">
    <path
       id="path7842"
       d="m 97.879835,116.19077 c -0.095,-0.28496 -2.85892,-0.49896 -9.12369,-0.70643 -10.84239,-0.35905 -87.2596801,-0.0944 -92.2429721,0.31947 -4.141882,0.34398 -4.7625,0.14194 -4.7625,-1.55044 0,-0.66082 0.119063,-1.2734 0.264584,-1.36129 0.14552,-0.0879 1.693333,-0.0306 3.439583,0.12745 4.75226001,0.42996 20.1492591,0.67215 59.2666691,0.93225 19.402779,0.12902 35.595276,0.23413 35.983336,0.2336 4.26437,-0.006 11.766425,-0.86683 14.691205,-1.68593 1.93443,-0.54174 2.32043,-0.37705 2.43748,1.03996 0.23542,2.84989 0.45944,2.7078 -4.16411,2.64114 -2.27982,-0.0329 -4.484475,0.048 -4.899225,0.17963 -0.45411,0.14416 -0.8083,0.0768 -0.89036,-0.16941 z m 4.023105,-31.932416 c -1.81333,-1.22845 -3.613375,-3.509342 -3.613375,-4.578604 0,-0.357661 -0.34397,-0.536177 -1.03313,-0.536177 -1.38073,0 -2.25885,-0.914425 -2.02085,-2.104401 0.14894,-0.744689 -0.0383,-1.104035 -0.93759,-1.798965 -1.47941,-1.143279 -3.39062,-2.411755 -6.44035,-4.274475 -1.37194,-0.837953 -3.67381,-2.282197 -5.11528,-3.209435 C 78.114405,64.779322 73.803154,62.28742 72.178319,61.650285 68.828098,60.336583 65.851458,57.893844 61.945626,53.25296 59.959049,50.892527 59.67258,50.389258 58.776214,47.684991 L 57.995809,45.33058 55.300326,44.721548 c -4.091676,-0.924493 -5.041819,-0.889875 -11.33854,0.413113 -0.485069,0.100379 -1.913819,0.339665 -3.175,0.531749 -2.240096,0.341175 -3.310004,0.375327 -11.641667,0.371616 -2.231319,-0.0011 -5.565069,0.10516 -7.408333,0.235896 l -3.351389,0.237705 -0.204091,1.529292 c -0.112249,0.841114 -0.429749,1.672121 -0.705555,1.846682 -0.80927,0.512205 -3.447313,0.36358 -6.833595,-0.384997 -1.7364221,-0.383857 -3.6717401,-0.697921 -4.3007081,-0.697921 -0.628969,0 -1.236952,-0.151081 -1.351075,-0.335736 -0.114124,-0.184658 -1.224459,-0.836386 -2.467413,-1.44829 -1.242954,-0.611904 -2.74243699,-1.642809 -3.33218499,-2.290897 -0.58974801,-0.648091 -1.98909401,-1.80202 -3.10965701,-2.564292 -1.839689,-1.251462 -5.741556,-5.268779 -5.741556,-5.911438 0,-0.142525 -0.4262869,-0.818031 -0.9473049,-1.501119 -1.588895,-2.083149 -1.691456,-5.024406 -0.346507,-9.937119 0.292154,-1.067153 0.799804,-3.051528 1.1281119,-4.409722 0.909013,-3.760548 1.17545,-4.283813 2.692366,-5.287659 1.347633,-0.891823 1.400262,-0.997808 1.312894,-2.643911 -0.0535,-1.00807 0.09601,-1.940208 0.362769,-2.261627 0.249583,-0.3007288 0.497462,-1.3846598 0.550842,-2.4087349 0.112836,-2.1646975 0.356506,-3.2780713 1.278988,-5.8439406 0.368841,-1.02592334 0.670619,-2.12180334 0.670619,-2.43528134 0,-0.313479 0.47625,-1.57794696 1.058334,-2.80993196 0.582083,-1.231981 1.05833301,-2.385247 1.05833301,-2.562818 0,-0.177567 0.380963,-1.089956 0.846585,-2.02753 0.465622,-0.937574 1.11214599,-2.4984292 1.43671999,-3.4685682 0.324574,-0.970139 0.954504,-2.241726 1.399844,-2.82575 0.44534,-0.58402 0.925036,-1.586936 1.06599,-2.228698 0.140955,-0.64176 0.479437,-1.252471 0.752182,-1.357133 0.272746,-0.104662 0.500866,-0.530497 0.506934,-0.946302 0.007,-0.481538 0.983385,-1.652542 2.68931,-3.225451 1.473052,-1.358194 3.0952751,-2.891938 3.6049391,-3.40832 0.509665,-0.516382 3.199633,-2.113253 5.977707,-3.548602 6.796212,-3.511403 9.942012,-5.883159 9.942012,-7.495719 0,-0.496522 0.184147,-1.19763 0.409212,-1.558018 0.329304,-0.5273 0.273914,-0.853579 -0.283658,-1.670908 -1.617412,-2.370915 -2.006082,-3.857834 -1.778805,-6.805088 0.285073,-3.69674 1.32334,-6.635801 2.793605,-7.907938 2.041526,-1.766418 6.642743,-3.765131 8.667673,-3.765131 0.985601,0 1.890113,0.15875 2.010029,0.352778 0.119916,0.194028 0.504751,0.352778 0.85519,0.352778 0.350439,0 1.040797,0.3175 1.534128,0.705555 0.617386,0.485634 1.431142,0.705556 2.610718,0.705556 2.370343,0 3.861566,0.895074 5.015227,3.010282 1.704414,3.124997 2.233016,5.009632 2.355857,8.399343 0.06439,1.776859 0.227376,4.302216 0.362187,5.611903 l 0.24511,2.381251 H 50.7396 c -1.196537,0 -1.565204,0.178498 -2.194775,1.06265 -0.467427,0.65644 -0.726715,1.499273 -0.678296,2.204861 0.04311,0.628216 0.0553,1.412562 0.02709,1.74299 -0.05996,0.702432 -2.001132,1.334508 -4.108228,1.337705 -1.256714,0.0019 -1.579284,0.197421 -2.948139,1.786929 -0.845369,0.981633 -1.480369,1.827736 -1.411111,1.880228 0.228631,0.173291 4.673607,1.237585 6.828695,1.635046 3.095173,0.57084 4.244312,0.987453 4.984425,1.807069 0.920662,1.019556 4.284882,3.213015 4.61825,3.011078 0.371252,-0.224882 4.132171,0.371165 6.095936,0.96611 0.873125,0.264524 2.936875,0.845305 4.586112,1.290624 2.257957,0.609681 3.399257,1.144358 4.620665,2.164683 1.675631,1.39977 1.992027,1.47537 5.609891,1.340401 2.5918,-0.09669 6.05491,0.530803 8.64306,1.566058 8.52501,3.4099992 11.65401,4.4257912 13.633,4.4257912 1.763865,0 6.111425,1.065657 7.004495,1.716917 0.48507,0.35373 1.51695,0.850911 2.29306,1.104847 1.92512,0.629881 3.77294,1.376578 4.40972,1.781948 0.29104,0.185275 0.92605,0.496319 1.41112,0.691215 1.34217,0.539263 2.85529,1.440494 3.48831,2.07768096 1.27061,1.278954 2.10669,2.57632604 1.94009,3.01048964 -0.0973,0.2535026 0.12405,0.538921 0.49266,0.635314 0.78797,0.2060611 1.95987,3.4016988 1.60987,4.3899599 -0.71956,2.0317426 -3.58534,3.5828673 -6.20801,3.3601243 -0.92163,-0.07827 -1.6757,-0.269551 -1.6757,-0.4250624 0,-0.155508 -0.46264,-0.4440167 -1.02807,-0.6411313 -0.6147,-0.2142843 -1.25878,-0.8310034 -1.60186,-1.5338144 -0.50448,-1.0334696 -2.92426,-3.1091577 -3.63659,-3.119473 -0.14293,-0.00212 -0.99917,-0.6856765 -1.90276,-1.5191282 -1.9059,-1.7579552 -3.83432,-2.71274854 -5.6052,-2.77521854 -0.687965,-0.02427 -2.810815,0.17005 -4.717435,0.431821 -3.11021,0.42702034 -3.74321,0.41332904 -6.15747,-0.133148 -6.31972,-1.4305 -7.3661,-1.619991 -9.04089,-1.637235 -2.48951,-0.02565 -5.39982,-1.02959596 -7.24321,-2.49866496 -3.032347,-2.416602 -3.240902,-2.48743 -7.865766,-2.671206 -2.836655,-0.112719 -5.491004,-0.462826 -7.821588,-1.031667 -1.940278,-0.473572 -4.237183,-0.861211 -5.104236,-0.861416 l -1.576455,-3.53e-4 1.959674,2.028473 c 1.07782,1.115659 2.560415,2.869544 3.294655,3.897524 1.028778,1.44035296 1.87543,2.14121996 3.691273,3.05566596 2.538575,1.27840334 3.678766,2.25819784 5.790632,4.97602974 1.79275,2.3071492 5.554119,6.1894511 7.397588,7.6354341 1.914814,1.501941 3.247893,2.641784 4.807423,4.110567 0.69239,0.652099 2.00005,1.649963 2.9059,2.217473 0.91188,0.571278 2.12547,1.774144 2.71895,2.694919 0.58957,0.914696 2.34873,2.929358 3.90924,4.477029 l 2.8373,2.813946 v 4.091923 c 0,3.787976 -0.059,4.14715 -0.79375,4.835469 -1.78968,1.676495 -3.87367,1.898463 -5.7662,0.614161 -0.71479,-0.485069 -1.57114,-0.881944 -1.90301,-0.881944 -0.66481,0 -3.37177,-1.800712 -4.29254,-2.855458 -1.02333,-1.172224 0.10926,-2.801172 1.7312,-2.489906 0.5344,0.102556 0.59101,-0.870267 0.0694,-1.192639 -0.42197,-0.260819 -2.09787,-3.907201 -2.09787,-4.564532 0,-0.237261 -1.15094,-1.031741 -2.557646,-1.765508 -1.406698,-0.733768 -2.954511,-1.608656 -3.43958,-1.944201 -1.935078,-1.338573 -4.837014,-2.743941 -6.165671,-2.98595 C 62.081011,20.315822 52.598775,11.976917 51.323486,9.0939219 50.447835,7.1143622 47.950137,4.8908814 44.031622,2.6026094 42.226765,1.5486398 39.802042,-0.20191784 38.643351,-1.2875138 l -2.106719,-1.973813 -2.751663,2.66147596 c -1.513417,1.463812 -3.514249,3.13853334 -4.446302,3.72160444 -1.511194,0.945374 -1.803735,1.3463412 -2.702518,3.7041669 -0.573263,1.5038741 -1.386522,2.9482875 -1.885946,3.3495935 -0.482932,0.388055 -1.318828,1.045834 -1.857545,1.461728 -0.538716,0.415896 -1.290316,1.343607 -1.670226,2.06158 -0.64519,1.219317 -0.651006,1.327641 -0.08819,1.642604 0.426829,0.238866 0.602548,0.793087 0.602548,1.900453 0,1.33531 0.115735,1.588174 0.79375,1.734196 0.663758,0.142952 7.569394,0.93189 12.735599,1.454989 3.243584,0.328426 14.910379,3.072956 16.490517,3.879275 2.10995,1.076675 7.065835,2.555495 9.923508,2.961143 3.356297,0.476427 3.487802,0.55838 6.270516,3.907871 1.760707,2.119324 6.759555,7.214751 8.079595,8.235693 0.46621,0.360575 2.13308,1.499895 3.70416,2.531823 2.96028,1.944381 5.28198,3.722437 10.86755,8.322794 3.10043,2.553568 5.72548,4.272174 8.29876,5.433166 0.68982,0.311228 1.227585,0.862076 1.361155,1.394284 0.12145,0.483884 0.38087,0.879792 0.5765,0.879792 0.19562,0 0.27265,0.3175 0.17117,0.705556 -0.23494,0.898401 0.71949,0.961132 1.35707,0.08919 0.3137,-0.42901 0.34025,-0.749431 0.0874,-1.054157 -0.25718,-0.309887 -0.22289,-0.477351 0.11737,-0.573176 0.26439,-0.07445 1.35383,-0.383589 2.42098,-0.686967 1.06715,-0.303375 2.70246,-0.660453 3.63401,-0.793503 1.7829,-0.254646 2.47449,-0.705602 5.22977,-3.410095 1.85157,-1.817437 3.08231,-2.31418 4.50313,-1.817508 0.76493,0.267395 0.93878,0.570869 1.02811,1.794736 0.0618,0.846198 -0.12587,1.924226 -0.44097,2.533569 -0.30167,0.583357 -0.54848,1.378144 -0.54848,1.766193 0,0.388048 -0.21496,0.832495 -0.47767,0.987657 -0.26272,0.155163 -0.66518,0.639301 -0.89436,1.075863 -0.22918,0.436563 -0.70093,0.79375 -1.04834,0.79375 -0.34741,0 -1.01651,0.412324 -1.48689,0.916277 -0.47039,0.50395 -1.43592,1.214082 -2.14563,1.578067 -0.70971,0.363986 -1.34471,0.787816 -1.41111,0.941846 -0.0664,0.15403 -0.87642,0.8931 -1.80002,1.642375 -0.98645,0.800248 -1.96072,1.998543 -2.36142,2.904377 -0.37517,0.848131 -0.87626,1.542059 -1.11354,1.542059 -0.23727,0 -0.33997,0.09144 -0.22822,0.203189 0.17797,0.177966 2.58355,-0.747885 6.61258,-2.545027 0.67656,-0.301777 1.72741,-1.128631 2.33521,-1.837454 0.6078,-0.708818 1.72762,-1.637453 2.48848,-2.063626 1.17832,-0.659998 1.51199,-0.711073 2.25091,-0.34453 0.68011,0.337372 0.89078,0.748944 0.9752,1.905184 0.14051,1.924353 -0.79091,4.627093 -1.9829,5.753834 -0.52085,0.49235 -1.69977,1.781813 -2.61983,2.865476 -0.92004,1.083663 -2.51698,2.551688 -3.54873,3.262281 -1.37666,0.94814 -2.04879,1.711205 -2.52549,2.867166 -0.35726,0.866345 -0.77828,1.575174 -0.93559,1.575174 -0.15731,0 -0.457,0.635 -0.66599,1.411111 -0.27363,1.016198 -0.56706,1.411112 -1.0485,1.411112 -0.46705,0 -0.70216,0.292368 -0.78015,0.970139 -0.17438,1.515512 -1.76602,1.48094 -4.08297,-0.08869 z m 2.83982,-1.851981 c 0.54183,-0.533362 1.75314,-2.160369 2.6918,-3.615578 0.93866,-1.455208 2.54348,-3.439583 3.56626,-4.409722 5.11242,-4.849291 5.47888,-5.285444 6.31143,-7.511666 0.45512,-1.216985 0.74158,-2.298608 0.63658,-2.403613 -0.32679,-0.326792 -2.24707,0.844148 -3.15617,1.924558 -1.03285,1.22747 -5.9745,3.298335 -9.60119,4.023516 -1.61173,0.322273 -2.57486,0.706899 -2.82222,1.127047 -0.27733,0.47104 -0.26022,0.679764 0.0654,0.798245 0.63967,0.23272 0.53961,1.170245 -0.2659,2.491412 -0.38733,0.635278 -0.70424,1.389341 -0.70424,1.675694 0,0.286354 -0.21869,0.52064 -0.48597,0.52064 -0.26728,0 -0.6836,0.238125 -0.92514,0.529167 -0.241535,0.291042 -0.578475,0.529167 -0.748745,0.529167 -0.47398,0 -0.3679,-1.338746 0.13139,-1.658165 0.39575,-0.253185 1.427235,-1.611525 2.176205,-2.865794 0.2292,-0.383837 0.15066,-0.386948 -0.44095,-0.0175 -0.3959,0.247244 -0.79571,0.739771 -0.88848,1.094504 -0.0928,0.354732 -0.363995,0.600724 -0.602735,0.546647 -0.23875,-0.05407 -0.57243,0.409804 -0.74152,1.030841 -0.16909,0.621037 -0.45034,1.217475 -0.625,1.325418 -0.17465,0.107943 0.10567,0.638355 0.62295,1.178694 0.51728,0.540343 1.209025,1.488401 1.537225,2.106803 0.4957,0.934018 2.46014,2.545101 3.10744,2.548488 0.097,3.53e-4 0.6197,-0.435462 1.16153,-0.968819 z m -7.188645,-5.323608 c 0.19124,-0.357332 0.4415,-1.428895 0.55614,-2.38125 l 0.20843,-1.731553 -0.90931,1.004697 c -0.59687,0.659483 -0.83613,1.235251 -0.69634,1.675694 0.11851,0.373401 0.046,0.670998 -0.16358,0.670998 -0.20711,0 -0.37656,0.3175 -0.37656,0.705555 0,0.885406 0.91741,0.922507 1.38122,0.05586 z m -0.9033,-3.671831 c 0.26807,-0.63059 1.15067,-1.893613 1.96135,-2.806718 l 1.473955,-1.660193 -1.503395,-0.766978 c -1.74743,-0.89147 -4.52582,-2.898475 -7.5251,-5.435854 -1.16417,-0.984878 -2.51355,-2.048592 -2.99861,-2.363806 -0.48507,-0.315214 -1.3582,-1.035949 -1.94028,-1.601632 -1.0793,-1.048893 -1.21124,-1.20511 -3.35624,-3.973848 -1.33647,-1.725094 -1.82895,-2.226359 -5.49338,-5.591316 C 69.728623,42.28633 65.481232,37.438302 65.481232,35.755746 c 0,-0.313722 -0.497618,-1.247056 -1.105818,-2.07408 -0.722728,-0.982757 -0.985961,-1.62354 -0.759841,-1.84966 0.368039,-0.368038 1.882955,1.381577 3.012187,3.478855 0.339548,0.630629 0.897427,1.669719 1.239731,2.309086 0.57264,1.069601 5.08913,5.605392 5.904019,5.929253 0.194028,0.07711 2.379375,2.28333 4.856335,4.902705 5.46934,5.783813 11.47652,11.912607 12.63522,12.891012 4.26887,3.60462 4.45253,3.664832 5.06682,1.661072 0.17712,-0.577765 0.0998,-0.79375 -0.2842,-0.79375 -0.82546,0 -6.96482,-4.690745 -6.6073,-5.048268 0.51987,-0.519868 1.56334,0.01958 4.30236,2.224253 1.4347,1.154801 2.72679,2.103872 2.87132,2.109047 0.14453,0.0052 0.59952,-0.706988 1.0111,-1.582586 0.41158,-0.875598 0.88865,-1.678718 1.06014,-1.78471 0.69829,-0.431563 0.15844,-0.869766 -3.08026,-2.500281 -3.0958,-1.558568 -4.67184,-2.745168 -10.36626,-7.804764 -1.83354,-1.629138 -5.53222,-4.453537 -7.75121,-5.919005 -1.26662,-0.836506 -3.103717,-2.206466 -4.082429,-3.044352 -2.289439,-1.960012 -7.569136,-7.560928 -7.569136,-8.029642 0,-0.910725 -2.791859,-2.162948 -5.967431,-2.676561 C 58.071289,27.863006 56.121617,27.3768 55.53397,27.072918 52.137867,25.316723 44.210978,23.087149 39.552064,22.577735 l -1.763889,-0.192871 1.763889,0.518414 c 0.970139,0.285129 3.430764,1.007724 5.468056,1.605771 2.037292,0.598046 5.450417,1.933049 7.584722,2.966674 2.134306,1.033625 5.229931,2.21894 6.879167,2.634029 3.189739,0.802813 3.898004,1.179703 3.31415,1.763558 -0.237797,0.237797 -0.871594,0.195357 -1.922639,-0.128743 -0.862344,-0.265913 -2.758525,-0.836634 -4.213733,-1.268264 -1.455208,-0.431635 -3.677709,-1.309328 -4.938889,-1.950431 -4.614376,-2.345659 -9.111206,-3.831883 -15.657111,-5.174757 -0.992964,-0.203704 -2.44039,-0.515687 -3.216501,-0.693293 -1.28053,-0.293042 -9.863304,-1.695114 -10.495139,-1.714478 -0.145521,-0.0044 -0.264584,0.306309 -0.264584,0.690597 0,0.384288 -0.555625,1.56729 -1.234722,2.62889 -0.679097,1.0616 -1.234722,2.027012 -1.234722,2.145362 0,0.44904 -1.826116,4.052079 -2.054092,4.052848 -0.533419,0.0018 -0.299212,2.104973 0.253023,2.272129 2.571506,0.778376 7.877479,1.701702 10.719976,1.865447 1.897969,0.109336 3.53471,0.334476 3.637202,0.500313 0.831438,1.345293 -7.669378,0.790723 -12.84201,-0.83778 -1.224398,-0.385481 -2.335648,-0.591023 -2.469444,-0.456763 -0.364313,0.365577 -0.233746,10.7434 0.139661,11.100658 0.184524,0.176544 1.153182,0.161491 2.262906,-0.03517 1.067153,-0.189114 6.226528,-0.398039 11.465278,-0.46428 7.977089,-0.10087 10.04097,-0.236495 12.700001,-0.834563 5.471234,-1.230595 8.099365,-1.280351 12.255285,-0.232026 4.121429,1.039626 7.231902,2.34605 7.548199,3.170305 0.368022,0.959055 -0.176205,1.04122 -1.599212,0.241445 -0.75185,-0.422561 -1.529419,-0.768294 -1.72793,-0.768294 -1.011964,0 3.633234,7.255013 6.345837,9.911127 2.706311,2.649946 7.304025,5.540421 8.064875,5.070189 0.642821,-0.397284 2.837701,0.585668 3.151661,1.411432 0.25559,0.672268 4.65088,3.600274 6.70712,4.468079 0.29104,0.12283 1.39867,0.797518 2.4614,1.499306 1.06273,0.701788 2.08296,1.27598 2.26719,1.27598 0.53884,0 4.94684,3.088615 5.78694,4.054821 1.01194,1.163828 1.37099,1.11567 1.95683,-0.26246 z m -4.89223,-6.886777 c -3.9907,-3.764142 -7.51435,-6.864096 -9.34402,-8.22046 -2.11736,-1.569631 -5.99722,-5.254367 -5.99722,-5.695611 0,-0.707136 1.0277,-0.113785 2.81199,1.623526 1.07278,1.044529 2.75779,2.456042 3.74448,3.136695 0.98668,0.68065 2.64874,2.008847 3.69346,2.951544 4.55029,4.105931 7.57361,7.03761 7.67941,7.446638 0.23431,0.905881 -0.87527,0.373264 -2.5881,-1.242332 z M 75.317365,57.341136 C 73.063139,55.45949 70.721577,53.649532 70.113892,53.319007 69.506208,52.988483 69.00901,52.472545 69.00901,52.172479 c 0,-0.660417 0.492171,-0.694235 1.522497,-0.104602 0.423806,0.242535 1.484933,0.681891 2.358058,0.976344 1.216893,0.41039 1.572553,0.698642 1.523468,1.234723 -0.04364,0.476617 0.474682,1.067869 1.627452,1.856436 3.08997,2.113729 5.21791,4.703844 3.81644,4.64534 -0.24253,-0.01013 -2.28534,-1.557938 -4.53956,-3.439584 z M 62.835398,41.592031 c -3.841087,-1.471655 -4.056944,-1.58484 -4.056944,-2.127229 0,-0.295843 0.04193,-0.537898 0.09318,-0.537898 0.106289,0 3.26795,1.183619 4.286222,1.604621 0.457468,0.189134 0.597828,0.153924 0.435219,-0.109182 -0.132006,-0.213596 -0.05689,-0.50153 0.166924,-0.639854 0.483252,-0.298669 1.702061,1.16302 1.713392,2.054832 0.0096,0.758666 -0.02635,0.755322 -2.637988,-0.24529 z M 30.203453,38.008006 c -2.074708,-0.37773 -2.469445,-0.52959 -2.469445,-0.95002 0,-0.341524 1.081797,-0.414101 4.674306,-0.313595 2.570868,0.07193 5.783982,-0.02057 7.140254,-0.205535 1.463576,-0.199605 3.542859,-0.21336 5.115278,-0.03383 1.457131,0.166359 4.065415,0.422155 5.796181,0.568427 2.210277,0.186803 3.195726,0.413688 3.31106,0.762325 0.138765,0.41947 -0.567341,0.452113 -4.557963,0.210714 -5.3052,-0.320919 -6.611836,-0.327145 -13.365227,-0.06369 -2.619375,0.102182 -5.159375,0.113527 -5.644444,0.02522 z m 25.987965,-1.080177 c -0.129353,-0.12935 -0.235187,-0.375056 -0.235187,-0.546012 0,-0.386472 1.757631,-2.041024 2.16818,-2.041024 0.60682,0 0.278539,1.309472 -0.515222,2.055174 -0.880649,0.827324 -1.056386,0.893251 -1.417771,0.531862 z m 42.585537,35.318254 c 0.12047,-0.313944 0.0613,-0.455549 -0.13865,-0.331957 -0.19181,0.11854 -0.34874,0.364913 -0.34874,0.54749 0,0.507446 0.25286,0.395626 0.48739,-0.215533 z m 5.978075,-5.098846 c 0.53771,-1.34886 1.11621,-2.137265 1.93483,-2.636841 0.64228,-0.391961 2.48297,-1.837436 4.09042,-3.212169 1.60745,-1.374729 3.22496,-2.724792 3.59445,-3.000139 1.26613,-0.943536 2.40798,-2.963651 2.62312,-4.640739 0.11838,-0.922715 0.11068,-1.677666 -0.0171,-1.677666 -0.12778,0 -0.93275,0.722848 -1.78883,1.606328 -1.95969,2.022401 -3.36661,3.057458 -4.33121,3.186416 -2.03543,0.272115 -5.05947,0.959979 -5.69025,1.294327 -1.04452,0.55365 -1.80951,1.682694 -3.87903,5.724956 -0.69366,1.354878 -1.414715,2.616941 -1.602355,2.804583 -0.18765,0.187643 -0.34117,0.442687 -0.34117,0.566763 0,0.396451 1.761215,1.044405 2.838815,1.044405 0.71517,0 1.04173,0.175102 1.04173,0.558564 0,1.093636 0.77137,0.275671 1.52658,-1.618788 z m -6.465465,-1.056442 c 0,-0.194028 -0.15875,-0.352778 -0.35278,-0.352778 -0.19402,0 -0.35277,0.15875 -0.35277,0.352778 0,0.194027 0.15875,0.352777 0.35277,0.352777 0.19403,0 0.35278,-0.15875 0.35278,-0.352777 z m 1.57895,-2.80325 c 0.360955,-0.800467 0.521825,-1.662589 0.378495,-2.028473 -0.20078,-0.512586 -0.338885,-0.378417 -0.710145,0.689928 -0.2535,0.729442 -0.63646,1.537797 -0.85104,1.796348 -0.37032,0.4462 -0.206,0.934335 0.31451,0.934335 0.13223,0 0.52291,-0.626462 0.86818,-1.392138 z M 7.9784519,47.040794 c -0.695013,-0.449154 -1.512314,-0.449154 -1.234723,0 0.119916,0.194027 0.565848,0.350347 0.990959,0.347376 0.62838,-0.0044 0.673968,-0.06936 0.243764,-0.347376 z m 2.4694441,-1.133828 c 0,-0.175408 -0.15875,-0.220811 -0.352778,-0.100895 -0.1940271,0.119916 -0.3527771,0.04991 -0.3527771,-0.155568 0,-0.205479 -0.132292,-0.373598 -0.293982,-0.373598 -0.16169,0 -0.293981,0.476909 -0.293981,1.059801 0,1.005339 0.03323,1.029719 0.646759,0.474489 0.3557181,-0.32192 0.6467591,-0.728825 0.6467591,-0.904229 z m 2.235495,-0.0781 c 0.106873,-0.278507 0.0048,-0.575264 -0.22684,-0.659465 -0.322615,-0.11727 -0.317279,-0.328955 0.02281,-0.904737 0.53718,-0.909469 0.0625,-0.983601 -0.859877,-0.134285 -0.368758,0.339548 -0.607554,0.587216 -0.530659,0.550372 0.0769,-0.03684 0.345099,0.121906 0.596008,0.352778 0.31721,0.291877 0.346337,0.554115 0.0956,0.860739 -0.259561,0.317419 -0.210803,0.440972 0.174025,0.440972 0.29404,0 0.622061,-0.22787 0.728933,-0.506374 z M 7.1367039,45.095833 c 0.467887,0.639872 0.512969,0.634294 1.368343,-0.169288 0.486484,-0.457027 0.884516,-0.714544 0.884516,-0.572258 0,0.142289 0.159968,0.15984 0.355484,0.039 0.22038,-0.136204 0.153343,-0.421841 -0.176389,-0.751576 -0.726587,-0.726584 -0.667255,-1.217679 0.173683,-1.43759 0.8151701,-0.213173 0.9495271,-1.344221 0.194114,-1.634102 -0.325748,-0.125 -0.788179,0.251516 -1.273645,1.037015 -0.419212,0.6783 -0.943126,1.171374 -1.164254,1.095721 -0.406265,-0.138995 -1.726534,1.151953 -2.387636,2.334616 -0.345452,0.617986 -0.322967,0.61873 0.591427,0.01958 0.91335,-0.598449 0.969456,-0.596932 1.434357,0.03886 z m 6.3744021,-0.23785 c -0.112616,-0.281421 -0.196209,-0.197831 -0.213137,0.213138 -0.01532,0.371884 0.06806,0.580245 0.185286,0.463021 0.117225,-0.117225 0.129758,-0.421499 0.02785,-0.676159 z M 4.2592189,44.595728 c 0.11163,-0.180622 0.05826,-0.417834 -0.118603,-0.527142 -0.176861,-0.109304 -0.412593,0.03847 -0.523849,0.328401 -0.219322,0.571546 0.310712,0.735506 0.642452,0.198741 z m -0.818563,-1.655604 c 0.736787,-0.666782 0.898399,-1.382765 0.216268,-0.958116 -0.242535,0.150985 -0.837848,0.241141 -1.322917,0.200349 l -0.881944,-0.07417 0.844967,0.357216 c 1.049028,0.443487 0.80623,0.730186 -0.653522,0.77169 -0.66047599,0.01877 -0.93943499,0.140685 -0.68365999,0.298764 0.60302399,0.372689 1.70244499,0.108677 2.48080799,-0.595733 z m 1.578059,0.283016 c -0.09854,-0.159434 0.05369,-0.738678 0.338267,-1.287209 0.747769,-1.441326 0.365576,-1.497559 -0.51329,-0.07553 -0.891306,1.442167 -0.916241,1.652613 -0.195809,1.652613 0.302492,0 0.469367,-0.130447 0.370832,-0.289878 z m 9.3097371,-1.118683 c 0,-0.58076 -1.39301,-0.607275 -1.909689,-0.03635 -0.497025,0.549208 -0.444035,0.584168 0.685512,0.4523 0.673297,-0.0786 1.224177,-0.265783 1.224177,-0.41595 z m -6.7653041,-1.04738 c 0.319844,-0.722577 0.636866,-0.976196 1.053751,-0.843008 0.433343,0.138451 0.472515,0.101409 0.143354,-0.135562 -0.268471,-0.193276 -0.351806,-0.589562 -0.204633,-0.973092 0.457867,-1.193182 -0.487944,-0.230222 -1.430813,1.456754 -1.047774,1.874672 -1.062583,1.92883 -0.46469,1.699398 0.245055,-0.09404 0.651418,-0.636059 0.903031,-1.20449 z m -3.483089,-0.65914 c -0.281231,-0.08986 -0.638281,-0.378224 -0.793443,-0.640814 -0.155162,-0.26259 -0.540022,-0.477439 -0.855244,-0.477439 -0.465427,0 -0.421928,0.160948 0.231473,0.856463 0.492705,0.524457 1.022448,0.772866 1.366574,0.640811 0.468278,-0.179695 0.476721,-0.242884 0.05064,-0.379021 z m -5.314144,-0.437616 c -0.566124,-0.349882 -0.823814,-0.164285 -0.499802,0.359978 0.12985,0.2101 0.40082,0.280194 0.602156,0.155762 0.23702101,-0.146488 0.20093901,-0.328292 -0.102354,-0.51574 z m 2.15157901,-0.416056 c -0.0044,-0.641858 -0.07084,-0.692488 -0.347376,-0.264583 -0.442003,0.683952 -0.442003,1.058333 0,1.058333 0.194028,0 0.350347,-0.357187 0.347376,-0.79375 z m 5.77052599,0.282551 c 0.131112,-0.341673 0.02664,-0.446148 -0.315035,-0.315034 -0.557999,0.214122 -0.703327,0.826233 -0.196166,0.826233 0.173269,0 0.40331,-0.230039 0.511201,-0.511199 z M 5.3326179,39.63246 c -0.119916,-0.194028 -0.531745,-0.352778 -0.915176,-0.352778 -0.571478,0 -0.633555,-0.118823 -0.34437,-0.659172 0.432201,-0.807576 0.202854,-1.085219 -0.701159,-0.848815 -0.923514,0.241504 -0.862479,0.61172 0.244392,1.482382 0.956751,0.752581 2.103881,1.005481 1.716313,0.378383 z M 0.05826591,38.848827 c 0.502447,-0.310529 0.612899,-2.391367 0.126935,-2.391367 -0.220892,0 -0.298707,0.253866 -0.175907,0.573881 0.121121,0.315634 0.03929,0.791884 -0.181841,1.058333 -0.461116,0.555611 -1.17437001,0.664874 -0.84329501,0.129184 0.31911801,-0.516343 -0.858352,-0.869308 -1.329209,-0.398452 -0.778635,0.778637 1.340335,1.685382 2.40331701,1.028421 z M 13.622896,38.174232 c 0,-0.126595 -0.248187,-0.325413 -0.551526,-0.441816 -0.308714,-0.118463 -0.440029,-0.392045 -0.298271,-0.621418 0.153979,-0.249142 0.09952,-0.314759 -0.138926,-0.167393 -0.2157,0.133311 -0.359291,0.689783 -0.319091,1.236606 0.06265,0.85223 0.161264,0.939239 0.690453,0.609212 0.339549,-0.211758 0.617361,-0.488594 0.617361,-0.615191 z M 11.50623,38.065781 c 0,-0.08556 -0.15875,-0.253683 -0.352778,-0.373599 -0.194028,-0.119916 -0.352778,-0.04991 -0.352778,0.155568 0,0.205479 0.15875,0.373599 0.352778,0.373599 0.194028,0 0.352778,-0.07001 0.352778,-0.155568 z m 76.518815,-1.899458 c -0.0461,-1.130262 0.008,-2.2032 0.11964,-2.384302 0.11193,-0.181105 0.0829,-0.988886 -0.0645,-1.795067 -0.2066,-1.129824 -0.76213,-1.978128 -2.42377,-3.701112 -1.18565,-1.229431 -2.80347,-3.106142 -3.59515,-4.170472 -0.81336,-1.093474 -2.3154,-2.495251 -3.45346,-3.222929 -1.10775,-0.708282 -2.33901,-1.663093 -2.73615,-2.121803 -0.39714,-0.458706 -1.24163,-1.230888 -1.876639,-1.715957 C 73.360002,16.569611 71.938685,15.33291 70.836533,14.306457 69.734381,13.280004 67.704201,11.663171 66.32502,10.713497 64.945839,9.7638258 62.884653,7.9243859 61.744606,6.6258567 60.604559,5.3273275 58.796107,3.6856936 57.725818,2.977785 56.228791,1.9876189 55.674358,1.3697074 55.322611,0.29942216 55.071133,-0.46576684 54.748147,-1.1760538 54.60486,-1.2789938 c -0.143288,-0.102937 -0.834697,-1.063608 -1.536464,-2.134825 -2.264809,-3.45713 -8.72544,-8.7099112 -12.833855,-10.4344972 -1.539529,-0.646246 -3.057518,-1.180574 -3.373311,-1.18739 -0.315789,-0.0068 -0.77023,-0.248641 -1.009868,-0.537386 -0.963938,-1.161472 0.781332,-0.970559 4.07991,0.446292 3.854023,1.655431 3.997473,1.536439 2.282564,-1.893425 -1.942793,-3.885643 -5.722165,-7.573995 -8.246072,-8.047483 -1.303411,-0.244521 -1.812328,-0.916502 -0.694104,-0.916502 0.441794,0 0.255094,-0.353995 -0.705556,-1.337791 -1.132145,-1.159422 -1.306318,-1.55923 -1.306318,-2.998612 0,-0.913451 0.163731,-1.66082 0.363848,-1.66082 0.423884,0 0.597277,0.432991 0.830612,2.074176 0.118268,0.831847 0.62557,1.604964 1.678266,2.557639 0.829814,0.750974 1.644421,1.365408 1.810237,1.365408 0.165812,0 0.68489,-0.45566 1.153502,-1.012576 0.468616,-0.556917 1.291805,-1.200706 1.829308,-1.430643 0.537507,-0.229938 1.408924,-1.039485 1.936486,-1.798994 l 0.959202,-1.380927 -1.470621,-0.395997 c -0.882787,-0.23771 -1.915188,-0.881353 -2.582834,-1.610252 l -1.112213,-1.214256 -0.738068,1.775989 c -0.405938,0.976794 -0.905616,1.775989 -1.110396,1.775989 -0.602192,0 -0.429031,-0.75252 0.67335,-2.926185 0.570209,-1.124332 0.95425,-2.259212 0.853426,-2.521956 -0.100824,-0.262743 -0.0169,-0.580556 0.186464,-0.706252 0.213547,-0.131979 0.77572,0.660346 1.330572,1.875306 0.928847,2.033892 1.01412,2.111711 2.564688,2.340489 0.882142,0.130155 2.115658,0.55058 2.74115,0.934276 0.690729,0.423714 1.591067,0.653954 2.293056,0.586392 1.104949,-0.106343 1.152151,-0.17145 1.072857,-1.479873 -0.04562,-0.752749 -0.266679,-1.590023 -0.491243,-1.860608 -0.463303,-0.558246 -0.482744,-0.53354 0.882329,-1.121332 0.953386,-0.410522 0.979117,-0.474704 0.432467,-1.078746 -0.324919,-0.359031 -0.483055,-0.898105 -0.358595,-1.222438 0.235857,-0.614635 1.066239,-0.792176 1.264281,-0.270311 0.06468,0.170431 0.655363,0.425965 1.312641,0.567854 1.173053,0.253231 1.190769,0.239412 0.962497,-0.750847 -0.127903,-0.554854 -0.385427,-2.755076 -0.572272,-4.889381 -0.400396,-4.573655 -0.765701,-6.051327 -1.44888,-5.860808 -1.597607,0.445524 -2.257026,0.418579 -3.502667,-0.143126 -2.34388,-1.056944 -7.746228,-0.305508 -7.746228,1.077457 0,0.316019 0.342594,0.516754 0.881945,0.516754 1.039714,0 1.052308,0.06352 0.319049,1.608749 -0.534688,1.126774 -0.524733,1.239806 0.198698,2.255769 0.900024,1.263967 0.698811,1.779927 -0.694136,1.779927 -1.337903,0 -1.681021,-0.626463 -0.714072,-1.303742 0.53642,-0.375722 0.660863,-0.654467 0.405974,-0.909356 -0.25489,-0.254888 -0.534342,-0.229133 -0.911674,0.08402 -0.45153,0.374737 -0.544117,0.356068 -0.544117,-0.109713 0,-0.353989 -0.195439,-0.486294 -0.529167,-0.35823 -0.291041,0.111683 -0.529166,0.434898 -0.529166,0.718256 0,0.345105 -0.220666,0.44516 -0.668384,0.30306 -1.138763,-0.36143 -2.421766,1.503224 -1.448283,2.104869 0.200081,0.123656 0.352778,-0.172726 0.352778,-0.684736 0,-0.560471 0.197294,-0.902764 0.520347,-0.902764 0.387491,0 0.467459,0.264443 0.313203,1.035726 -0.293885,1.469425 0.54991,3.253929 1.409591,2.981077 0.458798,-0.145617 0.614101,-0.06329 0.504991,0.267705 -0.260753,0.791024 -1.599611,0.776511 -2.026949,-0.02197 -0.391015,-0.730619 -2.034092,-2.498648 -2.322061,-2.498648 -0.08673,0 -0.119203,0.754062 -0.07216,1.675694 0.07944,1.5563 0.02815,1.669557 -0.720073,1.589558 -1.067216,-0.114108 -1.313455,0.657379 -0.631024,1.977055 0.305079,0.58996 0.55469,1.318664 0.55469,1.619341 0,0.805246 -0.885313,0.664754 -1.556889,-0.247065 -0.56695,-0.769765 -0.578256,-0.743116 -0.374192,0.881945 0.202837,1.615271 -0.0266,2.037691 -0.732391,1.348374 -0.452117,-0.441569 -2.03066,0.343256 -4.215695,2.095974 -0.970139,0.778194 -2.429722,1.740349 -3.243516,2.138122 -0.813796,0.397774 -1.845671,1.00187 -2.293056,1.342436 -0.447386,0.340567 -1.361909,0.839681 -2.032274,1.109143 -2.207122,0.887183 -8.8353211,6.942349 -8.8353211,8.071474 0,0.212761 -0.121301,0.386839 -0.269558,0.386839 -0.148256,0 -0.548912,0.595312 -0.890346,1.322917 -0.341434,0.727604 -0.986331,1.957916 -1.433104,2.734028 -1.781461,3.094658 -3.671448,6.7498452 -3.921832,7.5847222 -0.14547499,0.48507 -0.61852899,1.834445 -1.05123099,2.998611 C -2.2115921,2.8805116 -4.1817861,10.456799 -3.9564021,12.213308 l 0.116798,0.910254 1.763889,-0.835389 c 3.79038,-1.795148 9.901442,-2.090988 13.3906911,-0.648247 2.692565,1.113321 7.796731,2.94531 8.206038,2.94531 0.170579,0 0.509173,-0.550404 0.752429,-1.223116 0.243257,-0.672715 1.297174,-1.985066 2.342038,-2.916336 1.746349,-1.5564979 3.694215,-4.7225552 3.703969,-6.0204282 0.0082,-1.0883371 1.116006,-2.485376 2.371143,-2.9901587 1.986979,-0.79911194 6.804526,-4.6328329 6.804526,-5.4149239 0,-0.986656 -2.848405,-2.933157 -5.528927,-3.778286 l -2.753875,-0.868253 -1.414847,0.719296 c -0.778168,0.395609 -2.287976,1.306848 -3.355129,2.024973 -1.067153,0.718122 -2.69434,1.590471 -3.615972,1.93855 -1.512794,0.571348 -2.22742,1.242571 -1.322917,1.242571 0.194028,0 0.352778,0.15875 0.352778,0.352778 0,0.194028 -0.40796,0.352778 -0.906577,0.352778 -1.128515,0 -3.317746,1.50286496 -5.604221,3.8471863 C 10.237913,2.9874053 9.1878079,3.7211831 8.4803309,3.8539087 7.8660899,3.96914 6.2185119,4.93579 4.8190479,6.002015 3.4195829,7.0682436 2.1790099,7.8450532 2.0622179,7.7282626 1.6064059,7.272449 2.5419629,5.5869155 3.3120189,5.4765701 3.7451019,5.4145131 4.2716249,5.0420149 4.4820689,4.6487947 4.6925139,4.255578 6.0018529,3.4128765 7.3917119,2.7761266 9.0235999,2.0284988 10.043692,1.3282948 10.271507,0.79940016 c 0.194028,-0.450452 1.404865,-1.541354 2.690748,-2.42422196 1.285884,-0.882873 2.873384,-2.029422 3.527778,-2.547892 0.654395,-0.518471 1.666058,-1.058616 2.248141,-1.200323 0.582084,-0.141707 1.455209,-0.570629 1.940278,-0.953156 0.731778,-0.577085 0.76181,-0.661226 0.176389,-0.494182 -0.388055,0.11073 -1.340556,0.310628 -2.116667,0.444221 -0.776111,0.13359 -2.000099,0.538928 -2.719974,0.900751 -1.563857,0.786025 -1.689748,0.799187 -1.689748,0.176671 0,-0.629112 2.250274,-2.172811 4.134626,-2.836379 1.507371,-0.530814 3.463749,-0.583046 4.212012,-0.112455 0.43712,0.274913 1.53114,-0.01692 1.53114,-0.408428 0,-0.244454 -4.28206,-2.5115492 -4.743777,-2.5115492 -0.144421,0 -0.730231,-0.332994 -1.301801,-0.739987 -0.807803,-0.575207 -0.951269,-0.845961 -0.644265,-1.215877 0.449412,-0.54151 1.440594,-0.170596 4.985313,1.865563 1.333976,0.766262 2.464643,1.148634 3.396502,1.148634 0.768276,0 1.98665,0.2464302 2.707502,0.5476212 2.1512,0.898828 2.222832,0.381356 0.158334,-1.1437802 -1.064782,-0.786599 -2.466365,-2.034272 -3.114629,-2.772604 -1.194679,-1.360664 -2.340885,-3.612233 -2.008227,-3.944892 0.387294,-0.387293 1.209122,0.253132 1.670054,1.301415 0.26537,0.603532 1.491333,2.004748 2.724358,3.113814 5.257934,4.7293432 12.275725,11.2205292 12.937988,11.9671372 0.840454,0.94749396 4.36813,3.2785123 4.961583,3.2785123 0.225323,0 0.610486,0.2419597 0.855921,0.5376933 0.245434,0.2957301 0.522929,0.461003 0.616655,0.367277 0.09373,-0.093726 -0.730532,-0.993828 -1.831689,-2.0002256 -2.174378,-1.98725404 -3.141038,-3.484517 -2.808746,-4.350452 0.348632,-0.908526 0.815181,-0.632083 1.400009,0.82955 0.34042,0.850798 1.387877,2.10372296 2.728062,3.26319396 3.273263,2.83189604 3.965053,3.53579364 4.75089,4.83402294 0.687861,1.1363714 3.38121,3.594199 4.729128,4.3155799 0.351543,0.18814 0.63917,0.495237 0.63917,0.682438 0,0.656756 -1.24805,0.310653 -2.618165,-0.7260516 -1.437616,-1.0877833 -2.076098,-1.150486 -1.224467,-0.1202549 0.270182,0.3268485 1.761243,1.6968015 3.313465,3.0443455 1.552222,1.347544 3.235657,2.821838 3.740969,3.276212 2.678917,2.408873 4.222334,3.332784 5.5675,3.332784 0.839763,0 1.551136,0.22461 1.849032,0.583811 0.266291,0.321099 0.960416,0.808578 1.5425,1.083286 0.582083,0.274711 1.852083,0.937768 2.822222,1.473461 4.580034,2.529007 5.276584,2.856664 6.072954,2.856664 1.55103,0 2.28848,0.636824 2.0412,1.762668 -0.22562,1.027268 0.42438,2.73424 1.51441,3.976981 0.49869,0.568565 0.47444,0.757759 -0.27134,2.116667 -0.45045,0.820762 -1.0467,1.757475 -1.32501,2.081583 -0.44614,0.519536 -0.42159,0.634474 0.20739,0.971091 0.82057,0.439159 0.93341,0.311245 1.24326,-1.409333 0.1248,-0.693032 0.61949,-1.792171 1.09931,-2.442528 l 0.8724,-1.182469 -0.1196,1.597459 c -0.0658,0.878601 -0.38331,2.1261 -0.70564,2.772224 -0.36053,0.722686 -0.46003,1.300794 -0.25857,1.502254 0.4456,0.445598 1.09451,-0.0073 1.09451,-0.76388 0,-0.33952 0.23308,-0.925463 0.51795,-1.302096 0.28487,-0.376632 0.523,-1.11198 0.52917,-1.634105 0.0126,-1.061583 0.493,-1.523679 1.15732,-1.113102 0.2423,0.14975 0.75824,0.278183 1.14653,0.285404 0.65522,0.01217 0.69702,0.209695 0.58138,2.747155 -0.0879,1.928287 -0.002,2.734028 0.28954,2.734028 0.2792,0 0.38681,-0.669597 0.33026,-2.055026 z M 67.159142,18.511886 c -2.312222,-1.178839 -7.675133,-5.905246 -7.675133,-6.764204 0,-0.745888 1.444329,-0.297744 1.840132,0.570957 0.227644,0.499618 0.833095,1.125174 1.345448,1.390124 0.512354,0.264947 1.791134,1.181372 2.841738,2.036498 1.050601,0.855123 2.42612,1.821145 3.05671,2.14671 0.630591,0.325568 1.146528,0.746612 1.146528,0.935658 0,0.543797 -1.147611,0.402001 -2.555423,-0.315743 z M 66.97199,13.865527 C 66.530728,13.688309 65.076172,12.670814 63.739645,11.604419 61.720134,9.9930855 60.952203,9.1770293 59.642982,7.2510319 59.461308,6.9837709 55.703233,5.7657915 55.060275,5.7657915 c -0.401239,0 -1.26836,-0.5559355 -1.926933,-1.2354102 -0.927428,-0.9568639 -1.102511,-1.3303004 -0.776531,-1.6562812 0.325981,-0.3259808 0.669333,-0.1667475 1.52284,0.70624 0.636457,0.6509808 1.4611,1.127118 1.95211,1.127118 1.369339,0 4.825647,1.9507201 5.445291,3.0732908 0.550654,0.9975886 3.775749,3.5888611 5.923792,4.7596071 0.606435,0.330525 1.10261,0.846462 1.10261,1.146528 0,0.613925 -0.18561,0.638828 -1.331464,0.178643 z M 16.797896,11.29534 c 0,-0.70545 1.401952,-1.8225771 3.12392,-2.489253 1.715691,-0.6642453 2.973594,-0.4713747 2.800758,0.4294293 -0.08299,0.4325233 -0.693509,0.6651873 -2.317502,0.8831867 -1.610849,0.216231 -2.302033,0.477587 -2.565638,0.970139 -0.414152,0.773849 -1.041538,0.898239 -1.041538,0.206498 z M 7.7138679,8.4445568 C 5.7402339,8.084293 5.5384089,7.8844515 6.4141759,7.1576269 c 0.436771,-0.3624863 0.792753,-0.3715279 1.700741,-0.043194 0.631593,0.2283848 1.586871,0.4152477 2.1228401,0.4152477 0.57981,0 0.919507,0.1649553 0.838731,0.4072819 C 10.848817,8.6199756 9.6588889,8.799596 7.7138679,8.4445568 Z M 18.914563,7.9484595 c 0,-1.1086819 2.463627,-3.0128953 4.850695,-3.7492484 0.622229,-0.1919429 0.793154,-0.1063131 0.790998,0.3962788 -0.0025,0.6014333 -1.401067,1.5230794 -2.311089,1.5230794 -0.225108,0 -0.947523,0.5539352 -1.605363,1.2309652 -1.351475,1.3909005 -1.725241,1.5206557 -1.725241,0.598925 z M 10.591799,5.3604498 c -0.47027,-0.7609135 0.989573,-1.4237477 2.777072,-1.2609196 0.927439,0.084487 1.770246,0.01771 1.872903,-0.1483995 0.236923,-0.383346 1.203345,-0.3967233 1.203345,-0.016655 0,0.8822725 -1.035198,1.5653774 -2.402438,1.5853164 -0.807142,0.011783 -1.570161,-0.081227 -1.695597,-0.2066643 -0.125437,-0.1254372 -0.51506,-0.074475 -0.865829,0.1132522 -0.435751,0.2332073 -0.717486,0.2123229 -0.889456,-0.06593 z m 41.483877,0.052564 c 0,-0.1940278 0.238125,-0.3527778 0.529166,-0.3527778 0.291042,0 0.529167,0.15875 0.529167,0.3527778 0,0.1940278 -0.238125,0.3527778 -0.529167,0.3527778 -0.291041,0 -0.529166,-0.15875 -0.529166,-0.3527778 z M 20.187123,1.593679 c -0.370858,-0.60006084 0.25127,-1.83995884 1.020023,-2.03290284 1.264246,-0.317306 2.807395,-0.01757 2.917945,0.566755 C 24.323299,1.1751822 20.750567,2.5053485 20.187123,1.593679 Z m 6.135774,-1.11656684 c 0,-0.192383 0.3175,-0.548068 0.705555,-0.790412 0.388056,-0.242345 0.705556,-0.80164896 0.705556,-1.24289996 0,-0.921311 1.933787,-2.308945 2.889991,-2.07378 0.350693,0.08625 1.11469,-0.370946 1.852083,-1.108339 l 1.255148,-1.255148 v 1.031377 c 0,1.231071 -1.366297,2.598336 -4.496869,4.50005796 -2.170031,1.318225 -2.911464,1.55738704 -2.911464,0.939144 z m 25.87872,-1.077411 c -0.968696,-0.366494 -1.88983,-1.68048896 -1.88983,-2.69582596 0,-0.43507 -0.3175,-0.96096 -0.705556,-1.16864 -0.721385,-0.386073 -1.011625,-2.116667 -0.35499,-2.116667 0.480078,0 2.471657,2.798594 2.471657,3.473211 0,0.299818 0.409892,0.972961 0.910872,1.495873 0.980109,1.02301296 0.787718,1.47357396 -0.432153,1.01204896 z M 11.153452,-4.2503218 c 0,-0.371119 -0.840391,-0.54447 -3.4395841,-0.709489 -1.891771,-0.12011 -3.751001,-0.176921 -4.131622,-0.126248 -1.060427,0.141171 -1.06856,-0.950472 -0.01067,-1.432479 1.466101,-0.667999 6.092337,-0.3161 7.4393661,0.565883 0.533654,0.34942 0.955695,2.193446 0.502011,2.193446 -0.197725,0 -0.359499,-0.221001 -0.359499,-0.491113 z m 29.280557,-4.683827 c -0.291042,-0.113591 -0.846667,-0.482918 -1.234723,-0.820727 -0.388055,-0.3378092 -1.492095,-0.7158922 -2.453421,-0.8401862 -1.774423,-0.229422 -3.72019,-1.578191 -3.72019,-2.57876 0,-0.632418 0.167904,-0.593266 1.683258,0.392483 0.723445,0.470605 2.028271,1.042642 2.899618,1.271196 0.871347,0.22855 2.042767,0.742033 2.603158,1.141063 0.824004,0.5867442 1.144221,0.6472452 1.674142,0.316304 0.770672,-0.481291 2.075935,-0.543934 2.075935,-0.09963 0,0.8413542 -2.384051,1.6646462 -3.527777,1.2182552 z M 29.850675,-16.652659 c -0.873125,-0.239057 -2.658004,-0.683641 -3.966397,-0.987972 -1.747326,-0.406425 -2.660495,-0.8414 -3.439584,-1.638395 -0.583378,-0.596784 -1.060686,-1.238342 -1.060686,-1.425681 0,-0.589365 1.275126,-0.370043 1.906824,0.327974 0.350096,0.386856 2.119838,1.076014 4.199812,1.635463 1.977115,0.531781 3.826073,1.182282 4.1088,1.44556 0.850727,0.792198 -0.02621,1.114669 -1.748769,0.643051 z M 18.801828,-18.10065 c -0.134765,-0.134764 -1.52615,-0.277315 -3.091967,-0.31678 -1.640577,-0.04135 -3.022268,-0.249672 -3.260703,-0.491628 -1.334798,-1.354511 4.366364,-1.950081 6.462838,-0.675139 0.611964,0.372156 1.051406,0.860415 0.976538,1.085021 -0.169352,0.508057 -0.760417,0.724817 -1.086706,0.398526 z m 17.512784,-1.728159 c -1.767551,-1.80327 -6.255534,-4.3611 -8.668798,-4.940597 -1.363846,-0.327501 -1.207545,0.08764 0.264583,0.702737 1.178549,0.492428 1.482545,0.892041 1.025952,1.348634 -0.114822,0.114822 -0.921731,-0.09684 -1.793134,-0.470369 -0.871404,-0.373528 -2.038089,-0.67914 -2.592635,-0.67914 -1.194315,0 -1.545477,-0.441378 -1.259064,-1.582529 0.197305,-0.786123 0.345638,-0.83022 2.44614,-0.727213 2.916435,0.14302 3.406966,0.31194 6.780022,2.334804 3.217838,1.929775 6.152442,4.49568 6.152442,5.379455 0,0.883585 -0.349092,0.681175 -2.355508,-1.365782 z m -5.052826,-13.57201 c 0,-0.582025 2.176434,-3.171428 2.49839,-2.972448 0.446969,0.276242 0.05467,1.603878 -0.633783,2.144881 -1.199695,0.942748 -1.864607,1.237856 -1.864607,0.827567 z m 10.230556,-3.659347 c 0,-0.797305 2.489168,-2.803766 2.930624,-2.362309 0.264234,0.264233 -0.03429,0.735544 -1.013446,1.600062 -1.526487,1.347762 -1.917178,1.503096 -1.917178,0.762247 z m 4.321528,-4.795179 c -0.63059,-0.384478 -1.146528,-0.851133 -1.146528,-1.037011 0,-1.165329 4.276813,-2.045607 4.691257,-0.965581 0.210478,0.548496 -1.371389,2.704904 -1.982798,2.702963 -0.228473,-7.41e-4 -0.931341,-0.315892 -1.561931,-0.700371 z m -11.024306,-0.0039 c 0,-0.194028 0.15875,-0.352778 0.352778,-0.352778 0.194027,0 0.352777,0.15875 0.352777,0.352778 0,0.194027 -0.15875,0.352777 -0.352777,0.352777 -0.194028,0 -0.352778,-0.15875 -0.352778,-0.352777 z m 5.730441,-0.227845 c -0.745832,-0.311674 -0.107033,-0.830489 1.022555,-0.830489 0.695798,0 1.016395,0.153388 0.921688,0.440973 -0.156619,0.475567 -1.225758,0.689762 -1.944243,0.389516 z M 12.086502,34.417921 c 1.268793,-1.419755 1.537123,-1.574028 2.028473,-1.166241 0.453453,0.376332 0.671668,0.382464 1.095421,0.03076 0.720895,-0.59829 0.668806,-0.938534 -0.304357,-1.988044 l -0.833525,-0.89892 -1.318619,1.355287 c -0.72524,0.745427 -1.645822,1.355306 -2.045736,1.355306 -0.399914,0 -0.8014201,0.220535 -0.8922341,0.490078 -0.10033,0.297784 -0.0087,0.393429 0.2334271,0.243763 0.219199,-0.135474 0.398544,-0.07604 0.398544,0.132069 0,0.37048 -0.180551,0.801046 -1.0032551,2.392497 -0.680703,1.316764 -0.432205,1.743862 0.398585,0.685059 0.4295831,-0.547483 1.4390571,-1.731712 2.2432761,-2.631616 z m 1.60401,-2.220253 c 0.06953,-0.20858 0.277225,-0.379236 0.461551,-0.379236 0.184326,0 0.392024,0.170656 0.461551,0.379236 0.06953,0.20858 -0.138171,0.379236 -0.461551,0.379236 -0.32338,0 -0.531078,-0.170656 -0.461551,-0.379236 z m 71.473643,4.385458 c -0.10281,-0.485006 -0.19152,-0.396296 -0.34206,0.342054 -0.13125,0.643755 -0.0821,0.875721 0.13881,0.654833 0.18813,-0.18813 0.27959,-0.636729 0.20325,-0.996887 z M -2.2521041,36.26025 c 0,-0.279591 0.15875,-0.508346 0.352778,-0.508346 0.194027,0 0.352777,-0.3175 0.352777,-0.705556 0,-0.388055 -0.153767,-0.705555 -0.341706,-0.705555 -0.187938,0 -0.25649,0.222066 -0.152339,0.493483 0.104152,0.271417 0.01867,0.598978 -0.189952,0.727915 -0.208625,0.128936 -0.469847,-0.0014 -0.580493,-0.289818 -0.168276,-0.43852 -0.314193,-0.411229 -0.89232,0.166896 -0.793035,0.793037 -0.555348,1.658793 0.267845,0.975607 0.284715,-0.236294 0.489908,-0.28369 0.455983,-0.105326 -0.119716,0.629423 0.02591,0.892609 0.374649,0.677076 0.194028,-0.119916 0.352778,-0.446786 0.352778,-0.726376 z m 17.5624311,0.708716 c -0.106727,-0.106729 -0.07078,-0.740611 0.07988,-1.408624 0.326277,-1.446671 -0.01777,-1.322253 -1.014348,0.366826 l -0.729168,1.235847 h 0.928843 c 0.510864,0 0.84152,-0.08732 0.734793,-0.194049 z M 3.3923399,36.45746 c 0,-0.194028 -0.238125,-0.352778 -0.529166,-0.352778 -0.291042,0 -0.529167,0.15875 -0.529167,0.352778 0,0.194027 0.238125,0.352777 0.529167,0.352777 0.291041,0 0.529166,-0.15875 0.529166,-0.352777 z m -3.66192599,-1.120585 c -0.03784,-0.687747 0.123285,-0.762698 1.54525999,-0.718841 0.873125,0.02692 2.187392,0.15222 2.920594,0.278423 1.092061,0.18797 1.258907,0.318851 0.922782,0.723857 -0.329571,0.397108 -0.279509,0.473305 0.254406,0.387227 0.365595,-0.05894 0.982218,-0.306906 1.370273,-0.551025 0.678306,-0.426716 0.6749,-0.435476 -0.08819,-0.22685 -0.637167,0.174198 -0.79375,0.07313 -0.79375,-0.512322 0,-0.413106 -0.229436,-0.729329 -0.529167,-0.729329 -0.291041,0 -0.529166,-0.262728 -0.529166,-0.583844 0,-0.532278 -0.06008,-0.52947 -0.680275,0.03179 -0.428199,0.387512 -0.946147,0.531251 -1.397786,0.387907 -0.394631,-0.12525 -1.073107,-0.03742 -1.507724,0.195181 -0.58643099,0.313849 -0.82488599,0.318887 -0.92466799,0.01954 -0.252857,-0.758574 -0.979994,-0.404703 -1.056022,0.513927 -0.06817,0.823641 0.131808,1.552152 0.426062,1.552152 0.06029,0 0.09061,-0.345514 0.06738,-0.767807 z m -4.80474101,0.06225 c 0,-0.194028 -0.07001,-0.352778 -0.155569,-0.352778 -0.08556,0 -0.253681,0.15875 -0.373597,0.352778 -0.119916,0.194028 -0.04991,0.352778 0.155569,0.352778 0.205478,0 0.373597,-0.15875 0.373597,-0.352778 z m 1.217856,-1.543191 c 0.567451,-0.487599 0.822788,-0.931598 0.611013,-1.062482 -0.200093,-0.123666 -0.704255,0.253273 -1.12036,0.837636 -0.91212,1.280953 -0.785021,1.337063 0.509347,0.224846 z m -1.936236,-0.02886 c 0.234489,-0.28254 0.33401,-0.66311 0.221157,-0.845711 -0.350242,-0.566702 0.206139,-2.52113 0.71771,-2.52113 0.266788,0 0.485069,-0.153769 0.485069,-0.341708 0,-0.506758 -1.145625,0.0247 -1.840347,0.853719 -0.701703,0.837364 -0.804251,1.807542 -0.22866,2.16328 0.258573,0.159804 0.102347,0.412714 -0.440972,0.713874 -0.809192,0.448532 -0.812671,0.466869 -0.09086,0.478888 0.412805,0.0069 0.942409,-0.218669 1.176899,-0.501212 z m 13.075354,-0.0272 c 0.246906,-0.297505 0.623532,-0.478893 0.836946,-0.403081 0.213414,0.07581 0.823505,-0.167065 1.355757,-0.539725 0.5322521,-0.37266 1.1275651,-0.578781 1.3229171,-0.458047 0.195351,0.120735 0.355185,-0.07945 0.355185,-0.44486 0,-0.365407 1.27,-1.990174 2.822222,-3.610596 1.552222,-1.620421 2.822222,-3.248 2.822222,-3.616843 0,-0.536942 -0.193218,-0.436679 -0.96929,0.502969 -2.65403,3.213442 -3.106533,3.454467 -1.845762,0.983153 0.814031,-1.595632 0.772137,-1.673352 -0.368669,-0.683938 -0.635467,0.551138 -0.889751,0.611237 -1.119479,0.264584 -0.225233,-0.339873 -0.458932,-0.256043 -0.964649,0.346033 -0.446326,0.531368 -0.873242,0.715581 -1.288801,0.556115 -0.4628751,-0.177624 -0.5685621,-0.100771 -0.4142911,0.301255 0.2574481,0.670898 -2.675317,3.530039 -3.353855,3.269657 -0.257835,-0.09894 -0.846031,0.221664 -1.307103,0.712452 -0.805981,0.857928 -0.59973,1.266385 0.272455,0.539563 0.307878,-0.256564 0.327121,-0.237324 0.07056,0.07056 -0.496619,0.595944 -0.438321,0.987778 0.146965,0.987778 0.274859,0 0.817545,-0.436273 1.20597,-0.969493 0.388424,-0.533221 0.826654,-0.849066 0.973844,-0.701877 0.14719,0.14719 -0.157371,0.711211 -0.676803,1.253381 -0.91252,0.952465 -1.270229,2.181878 -0.634838,2.181878 0.17027,0 0.511596,-0.243413 0.758502,-0.540914 z m 1.40136,-1.414685 c 0,-0.417026 3.8602611,-4.17951 4.0714491,-3.968324 0.124092,0.124094 -0.613435,1.110866 -1.63895,2.192828 -1.6805471,1.773051 -2.4324991,2.321906 -2.4324991,1.775496 z m -0.352778,-2.147143 c 0,-0.472236 3.3612911,-3.65837 3.8594891,-3.65837 0.297834,0 -0.30533,0.841919 -1.390044,1.940278 -1.7707171,1.79299 -2.4694451,2.279121 -2.4694451,1.718092 z m -5.379861,2.600028 c 0.436563,-0.209218 0.794011,-0.552012 0.79433,-0.76176 3.19e-4,-0.209747 0.635319,-0.978598 1.411111,-1.708552 0.775793,-0.729957 1.410532,-1.494 1.410532,-1.69787 0,-0.203874 0.357187,-0.32101 0.79375,-0.260308 0.664775,0.09243 0.773617,-0.03157 0.669846,-0.76327 -0.09379,-0.661314 0.206292,-1.153033 1.234722,-2.023226 0.7472441,-0.63227 1.1656621,-1.151943 0.9298171,-1.154829 -0.2358451,-0.0028 -0.8708451,0.460453 -1.4111111,1.029642 -1.190373,1.254104 -1.185347,1.249105 -4.889724,4.862379 -1.63446,1.594262 -2.97174499,2.978344 -2.97174499,3.075735 0,0.207384 0.90426099,-0.05917 2.02847199,-0.597941 z m -11.980536,-0.04775 c -0.469273,-0.50771 -0.9840479,-0.423915 -0.9840479,0.160183 0,0.182576 0.3237589,0.331956 0.7194649,0.331956 0.59766,0 0.642454,-0.08332 0.264583,-0.492139 z m 7.835397,-0.241448 c 0,-0.245417 0.40762901,-0.292456 1.14652801,-0.132309 L 1.0992849,32.665064 0.39748891,31.827237 c -0.385988,-0.460805 -0.714765,-0.875566 -0.730615,-0.921684 -0.01585,-0.04612 -0.379482,0.39044 -0.80807101,0.970138 -0.428588,0.579696 -0.615749,1.053995 -0.415913,1.053995 0.199836,0 0.363339,-0.171362 0.363339,-0.38081 z m 0.24532501,-2.079999 c 0.306722,-0.437907 0.75364,-0.677086 1.051556,-0.562765 0.284966,0.10935 0.832921,0.03034 1.21767699,-0.175571 1.201577,-0.643064 1.459307,-0.179564 0.48483,0.871912 -0.663539,0.715973 -0.82391599,1.116037 -0.555138,1.384815 0.268778,0.268778 0.377972,0.259225 0.377972,-0.03307 0,-0.226074 0.751289,-1.130949 1.669531,-2.010833 0.918241,-0.879888 1.526054,-1.599795 1.350694,-1.599795 -0.175359,0 -0.610121,0.26361 -0.966137,0.585802 -0.356016,0.322188 -0.757747,0.475354 -0.892734,0.340367 -0.321596,-0.321596 1.666285,-2.156065 2.359456,-2.177369 0.294875,-0.0091 0.494304,-0.213928 0.443177,-0.455264 -0.134934,-0.636919 0.601587,-1.875645 0.977195,-1.643507 0.175819,0.108663 0.216568,0.470296 0.09055,0.803632 -0.33653,0.890189 2.027226,-1.22343 3.209458,-2.869826 0.9247511,-1.287823 1.0346401,-2.23689 0.1574341,-1.359684 -0.2984051,0.298408 -0.5353891,0.304218 -0.8760651,0.02148 -0.344419,-0.285845 -0.467005,-0.273734 -0.467005,0.04613 0,0.240591 -0.235629,0.343299 -0.529166,0.230657 -0.322337,-0.123691 -0.529167,-7.06e-4 -0.529167,0.315034 0,0.66802 -0.499073,0.662799 -1.058333,-0.01108 -0.241544,-0.291035 -0.657857,-0.52916 -0.925141,-0.52916 -0.267284,0 -0.485971,-0.3175 -0.485971,-0.705555 0,-0.388056 -0.153164,-0.705556 -0.340365,-0.705556 -0.364696,0 -1.110863,1.199229 -1.033733,1.661403 0.204913,1.227872 -0.799671,1.626514 -1.39919,0.555234 -0.299384,-0.53497 -0.444727,-0.548951 -1.246406,-0.119906 -0.49912699,0.267124 -1.00020699,0.777762 -1.11351099,1.134752 -0.113304,0.35699 -0.433435,0.649073 -0.711401,0.649073 -0.68660001,0 -0.63873501,-0.595874 0.08018,-0.998203 0.523685,-0.293066 0.505042,-0.370804 -0.176389,-0.735496 -0.66335801,-0.355017 -0.76196601,-0.315983 -0.76196601,0.30165 0,0.39019 -0.316906,1.229216 -0.704237,1.864494 -0.38733,0.635279 -0.70483,1.360421 -0.705555,1.611422 -7.41e-4,0.251005 -0.392609,0.878361 -0.870853,1.394125 -1.061499,1.144778 -0.90563,1.452436 0.286464,0.565425 1.240967,-0.923371 2.132913,-2.477879 1.555363,-2.710727 -0.243719,-0.09826 -0.01979,-0.191187 0.497615,-0.206505 0.51740701,-0.01531 0.99365701,-0.174696 1.05833301,-0.354171 0.185047,-0.513507 1.137234,-0.604182 1.203988,-0.114653 0.12513,0.917624 0.167639,0.956684 0.48865999,0.44903 0.22135,-0.350037 0.16631,-0.701464 -0.167658,-1.070494 -0.43142199,-0.476716 -0.40848599,-0.604781 0.173398,-0.968174 0.582267,-0.363633 0.739461,-0.280723 1.193551,0.629521 0.489122,0.980469 0.479055,1.048311 -0.155552,1.048311 -0.648227,0 -0.923147,0.696112 -0.458446,1.160812 0.402481,0.402481 2.978338,-1.17645 3.300161,-2.022909 0.506395,-1.33192 0.970096,-1.342411 0.743323,-0.01683 -0.138544,0.809854 -0.582477,1.484203 -1.347533,2.046954 -0.627508,0.461578 -1.475341,1.264373 -1.884074,1.783994 -0.408733,0.519617 -0.927193,0.922299 -1.152133,0.894845 -1.07140999,-0.130767 -1.61338299,0.141521 -2.985195,1.499754 -0.814402,0.806348 -1.480731,1.609101 -1.480731,1.783902 0,0.444828 1.366736,-0.560179 2.00921401,-1.477444 z m -8.71199201,0.873309 c 0,-0.291042 -0.15875,-0.529167 -0.3527779,-0.529167 -0.194027,0 -0.352777,0.238125 -0.352777,0.529167 0,0.291041 0.15875,0.529166 0.352777,0.529166 0.1940279,0 0.3527779,-0.238125 0.3527779,-0.529166 z M 17.472207,27.891867 c 1.444771,-2.615107 0.610067,-2.602174 -1.050507,0.01626 -0.557021,0.878332 -0.919591,1.747728 -0.80571,1.931991 0.267059,0.43211 0.919396,-0.252575 1.856217,-1.948272 z m -22.6877701,0.716287 c -0.07297,-0.630591 -0.150418,-1.344966 -0.172107,-1.5875 -0.02169,-0.242535 -0.200706,-0.440973 -0.397816,-0.440973 -0.437743,0 -0.351391,2.122379 0.111238,2.734028 0.512742,0.677905 0.602753,0.539447 0.458685,-0.705555 z m -1.446264,-0.617361 c 0.119916,-0.194028 -0.02946,-0.352778 -0.331958,-0.352778 -0.302492,0 -0.549986,0.15875 -0.549986,0.352778 0,0.194027 0.149381,0.352777 0.331958,0.352777 0.182577,0 0.43007,-0.15875 0.549986,-0.352777 z m -1.322916,-3.350807 c 0.436562,-0.673975 0.79375,-1.369403 0.79375,-1.545393 0,-0.17599 0.224987,-0.406315 0.499971,-0.511838 0.714008,-0.273989 0.952619,0.634636 0.368963,1.404997 -0.604138,0.797395 -0.670781,1.996712 -0.100388,1.806579 0.228673,-0.07622 0.585861,-0.439935 0.79375,-0.808249 0.20789,-0.368311 0.576419,-0.886139 0.818954,-1.15073 0.242534,-0.264587 0.440972,-0.628477 0.440972,-0.808648 0,-0.180167 0.358688,-0.327578 0.797085,-0.327578 0.438396,0 0.992597,-0.313066 1.231556,-0.695699 0.238959,-0.382634 0.657963,-0.609936 0.93112,-0.505118 0.273157,0.104821 0.60145101,0.02102 0.72954201,-0.186246 0.128091,-0.207253 0.06477,-0.376826 -0.140705,-0.376826 -0.20547901,0 -0.37359801,-0.221143 -0.37359801,-0.491423 0,-0.446716 -0.711416,-0.919688 -1.383338,-0.919688 -0.147014,0 -0.448127,0.396875 -0.669139,0.881944 -0.413087,0.906625 -1.409019,1.159894 -2.048081,0.520831 -0.246299,-0.246299 -0.55968,-0.141701 -0.985646,0.328986 -0.343492,0.379557 -0.847741,0.604446 -1.120553,0.499759 -0.470743,-0.18064 -0.671307,0.424568 -0.520268,1.569928 0.03264,0.247534 -0.276858,0.922221 -0.687779,1.499306 -0.410921,0.577084 -0.617257,1.047281 -0.458524,1.044878 0.158733,-0.0025 0.645793,-0.555801 1.082356,-1.229772 z m 5.027083,-3.331151 c 0,-0.182576 0.156932,-0.428949 0.348737,-0.54749 0.199976,-0.123592 0.259118,0.01803 0.138646,0.331957 -0.234524,0.611159 -0.487383,0.722979 -0.487383,0.215533 z m 23.2833341,1.141208 c 0,-0.711112 -0.399662,-0.549437 -1.658899,0.671065 -0.639828,0.620144 -1.163323,1.427282 -1.163323,1.793639 0,0.541108 0.264796,0.41518 1.411111,-0.671061 0.776111,-0.735443 1.411111,-1.542581 1.411111,-1.793643 z m -4.410856,-0.398812 c -0.261983,-0.261983 -2.644699,1.807634 -2.644699,2.297177 0,0.300242 0.565881,-0.03865 1.386807,-0.830528 0.762744,-0.735753 1.328796,-1.395744 1.257892,-1.466649 z m 0.315563,1.502562 c 0.234883,-0.612094 -0.195743,-0.655852 -0.77304,-0.07856 -0.232833,0.232833 -0.423333,0.545352 -0.423333,0.694485 0,0.439191 0.986347,-0.06861 1.196373,-0.615929 z m -5.253318,0.203666 c 0.119916,-0.194028 -0.02946,-0.352778 -0.331958,-0.352778 -0.302492,0 -0.549987,0.15875 -0.549987,0.352778 0,0.194028 0.149381,0.352778 0.331958,0.352778 0.182577,0 0.430071,-0.15875 0.549987,-0.352778 z m 2.528805,-1.176489 c 0.129041,-0.129043 0.01766,-0.234622 -0.247509,-0.234622 -0.374989,0 -0.388055,-0.09408 -0.0588,-0.423334 0.232833,-0.232833 0.410801,-0.669395 0.395483,-0.970138 -0.01851,-0.363358 -0.08755,-0.398865 -0.205788,-0.105834 -0.09786,0.242535 -0.37735,0.440972 -0.621078,0.440972 -0.243729,0 -0.618611,0.38511 -0.833072,0.8558 -0.358487,0.786797 -0.320338,0.848385 0.473105,0.763789 0.474669,-0.05061 0.968614,-0.197594 1.097655,-0.326633 z m 4.174554,-1.733928 c 0.673974,-0.436562 1.227372,-0.912812 1.229774,-1.058333 0.0092,-0.555989 -0.750165,-0.223915 -1.815055,0.79375 -1.316893,1.258492 -1.1003,1.356406 0.585281,0.264583 z M 8.6422359,19.851087 c -0.535096,-0.330708 -1.112763,-0.06247 -0.83463,0.387562 0.106392,0.172148 0.439793,0.218461 0.740889,0.102919 0.427626,-0.164094 0.448144,-0.271448 0.093741,-0.490481 z m -5.33809,-0.05875 c 0.242535,-0.19503 0.440972,-0.635455 0.440972,-0.978718 0,-0.351371 0.346875,-0.713603 0.79375,-0.828887 0.436563,-0.112628 1.05892,-0.6763 1.383016,-1.252605 l 0.589266,-1.047827 -0.942044,0.41318 c -0.518124,0.227249 -1.068994,0.614959 -1.224156,0.861579 -0.155162,0.246619 -0.521719,0.448401 -0.81457,0.448401 -0.292852,0 -0.443494,0.143944 -0.334762,0.319878 0.108733,0.175934 -0.109038,0.239667 -0.483935,0.14163 -0.374898,-0.09804 -0.604118,-0.380248 -0.50938,-0.627133 0.263611,-0.686957 -0.836016,-0.932924 -1.44558699,-0.323353 -0.767671,0.76767 -0.713711,1.932761 0.07798,1.68383 0.52713199,-0.165746 0.51727699,-0.112568 -0.06743,0.363848 -0.376633,0.306881 -0.822565,0.557968 -0.990959,0.557968 -0.168394,0 -0.221437,0.137103 -0.117873,0.304673 0.262051,0.424007 3.10847699,0.395541 3.64570299,-0.03646 z m -1.146528,-0.973765 c 0.119916,-0.194028 0.288035,-0.352778 0.373598,-0.352778 0.08556,0 0.155569,0.15875 0.155569,0.352778 0,0.194028 -0.168119,0.352778 -0.373598,0.352778 -0.205478,0 -0.275485,-0.15875 -0.155569,-0.352778 z m 4.056945,-0.352778 c 0,-0.194028 -0.07001,-0.352778 -0.155569,-0.352778 -0.08556,0 -0.253682,0.15875 -0.373598,0.352778 -0.119916,0.194028 -0.04991,0.352778 0.155569,0.352778 0.205479,0 0.373598,-0.15875 0.373598,-0.352778 z m -6.53593999,-0.721007 c -0.125169,-0.20253 -0.03572,-0.599405 0.198765,-0.881945 0.549736,-0.662393 0.0933,-0.670235 -0.567191,-0.0097 -0.66299901,0.66299 -0.64119701,1.259911 0.04602,1.259911 0.302492,0 0.447576,-0.165703 0.322407,-0.36823 z m 9.02255599,-0.0538 c 0.300486,0.04924 0.905242,-0.292502 1.3439011,-0.759435 l 0.797564,-0.848967 -1.0793181,-0.158412 c -0.700603,-0.102824 -1.079319,-0.0074 -1.079319,0.271914 0,0.500387 -1.005241,1.009001 -1.744917,0.882869 -0.42539,-0.07254 -0.433406,0.0055 -0.04822,0.469643 0.254085,0.306154 0.642424,0.443293 0.862974,0.30475 0.22055,-0.138543 0.646852,-0.211606 0.947338,-0.162362 z m -10.721891,-0.81545 c 0.321056,-0.69221 0.311485,-0.879192 -0.045,-0.879192 -0.62436,0 -1.355427,0.946591 -1.077889,1.395659 0.359118,0.581064 0.682913,0.432135 1.122889,-0.516467 z m 14.9380531,0.334709 c 0,-0.302493 -0.15875,-0.451873 -0.352778,-0.331957 -0.194028,0.119916 -0.352778,0.367411 -0.352778,0.549988 0,0.182576 0.15875,0.331957 0.352778,0.331957 0.194028,0 0.352778,-0.247495 0.352778,-0.549988 z M -3.5018921,16.72628 c 0.11163,-0.180622 0.04162,-0.428117 -0.155569,-0.549988 -0.197193,-0.12187 -0.358532,0.02591 -0.358532,0.328401 0,0.619665 0.211686,0.710904 0.514101,0.221587 z M 14.152063,16.7019 c 0.119916,-0.194028 0.04991,-0.352778 -0.155569,-0.352778 -0.205479,0 -0.373598,0.15875 -0.373598,0.352778 0,0.194028 0.07001,0.352778 0.155569,0.352778 0.08556,0 0.253682,-0.15875 0.373598,-0.352778 z M 4.8622479,15.479683 c 0.129352,-0.0069 0.367477,-0.157018 0.529167,-0.333646 0.168674,-0.184256 0.118864,-0.220913 -0.11686,-0.08599 -0.225963,0.129328 -0.480582,0.03572 -0.565821,-0.208026 -0.112055,-0.320429 -0.364669,-0.257038 -0.912075,0.228868 -0.993859,0.882198 -0.971075,1.411915 0.036654,0.85218 0.436562,-0.242485 0.899583,-0.446511 1.028935,-0.453383 z m -5.52685199,0.163887 c -0.119916,-0.194028 -0.40709701,-0.350347 -0.63818101,-0.347377 -0.252454,0.0032 -0.208942,0.141898 0.109014,0.347377 0.67773001,0.437984 0.79985501,0.437984 0.52916701,0 z M -4.0159931,14.938014 c 0,-0.194028 -0.07001,-0.352778 -0.155569,-0.352778 -0.08556,0 -0.253682,0.15875 -0.373598,0.352778 -0.119916,0.194028 -0.04991,0.352778 0.155569,0.352778 0.205479,0 0.373598,-0.15875 0.373598,-0.352778 z m 2.984255,-1.035106 C -0.91971809,13.721657 -0.30415409,13.65838 0.33618191,13.76229 1.3056559,13.919615 1.5988219,13.80106 2.0885639,13.053616 l 0.588133,-0.897604 -0.965095,0.291511 c -0.530802,0.160334 -1.63978299,0.494192 -2.46440099,0.741913 -0.82461801,0.247717 -1.49930501,0.583738 -1.49930501,0.74671 0,0.403056 0.966999,0.376721 1.220366,-0.03323 z M 12.917341,13.474074 c 0,-0.300414 -1.47391,-1.005504 -2.101889,-1.005504 -0.160638,0 -0.390229,0.255799 -0.510202,0.568445 -0.156086,0.406752 -0.06648,0.51025 0.315034,0.363851 0.293243,-0.112529 0.533168,-0.07067 0.533168,0.09301 0,0.163685 0.396875,0.29761 0.881944,0.29761 0.48507,0 0.881945,-0.142836 0.881945,-0.317412 z M 4.4506739,12.383709 c 0,-0.402654 -0.509943,-0.322418 -0.987778,0.155416 -0.674463,0.674462 -0.490233,1.035537 0.282222,0.553131 0.388056,-0.242344 0.705556,-0.561192 0.705556,-0.708547 z m 0.860414,0.46143 c 0.339343,-0.374971 0.82414,-0.602273 1.077325,-0.505118 0.253186,0.09716 0.565139,0.0071 0.69323,-0.20018 0.145784,-0.235882 -0.170741,-0.376827 -0.84626,-0.376827 -0.70763,0 -1.079154,0.176142 -1.079154,0.511637 0,0.2814 -0.277812,0.673449 -0.617361,0.871217 -0.339548,0.19777 -0.443528,0.364409 -0.231065,0.370307 0.212463,0.0059 0.663941,-0.296065 1.003285,-0.671036 z m 3.913389,-0.814723 c -0.418906,-0.234431 -0.735256,-0.203045 -1.015441,0.100739 -0.316665,0.343341 -0.269979,0.393051 0.210388,0.224018 0.339549,-0.119479 0.617361,-0.0541 0.617361,0.145288 0,0.19939 0.179136,0.251812 0.39808,0.116498 0.269213,-0.166381 0.201106,-0.356257 -0.210388,-0.586543 z M 63.064323,5.7262345 C 62.477565,4.928364 61.640032,4.0251929 61.203141,3.7191793 60.42309,3.1728112 60.418634,3.1768434 60.955449,3.9432567 c 0.761573,1.0872965 2.737806,3.233646 2.977356,3.233646 0.109093,0 -0.281721,-0.6528012 -0.868482,-1.4506682 z m 51.805807,0.077862 c 0,-0.1729599 -0.635,-0.5685508 -1.41112,-0.879087 -0.77611,-0.3105397 -1.41111,-0.7280558 -1.41111,-0.9278127 0,-0.1997604 -0.39688,-0.5440257 -0.88195,-0.7650374 -1.09367,-0.4983128 -1.12389,-1.2083769 -0.0882,-2.0723902 0.96819,-0.80769904 1.53451,-0.85684104 1.80327,-0.156478 0.25038,0.6524912 0.60707,0.6672443 1.43824,0.05948 0.58886,-0.43058604 0.48436,-0.55813304 -1.2555,-1.53236804 -1.0438,-0.58447796 -2.40917,-1.16198596 -3.03416,-1.28335196 -0.62499,-0.121363 -1.77277,-0.622424 -2.55063,-1.113462 -0.77786,-0.491042 -1.64768,-0.892803 -1.93293,-0.892803 -0.28526,0 -0.66726,-0.265547 -0.84889,-0.590102 -0.20766,-0.371063 -0.88994,-0.634379 -1.83807,-0.70938 -0.82931,-0.0656 -1.68078,-0.257492 -1.89215,-0.426424 -0.21138,-0.168931 -0.969755,-0.372307 -1.685285,-0.451943 -1.02835,-0.114452 -1.33561,-0.01231 -1.46628,0.487359 -0.21503,0.822279 -0.93692,0.820088 -0.93692,-0.0028 0,-0.905633 -0.69644,-1.481666 -1.79136,-1.481666 -0.91447,0 -2.05385,-0.39781 -5.15665,-1.800434 -0.81397,-0.367954 -1.64981,-0.669011 -1.85742,-0.669011 -0.20762,0 -1.25013,-0.492492 -2.3167,-1.0944302 -1.06658,-0.601937 -2.17542,-1.003794 -2.4641,-0.893018 -0.28869,0.110779 -0.52488,0.07311 -0.52488,-0.0837 0,-0.502479 -4.8223,-1.214593 -6.82517,-1.007876 -1.669541,0.172311 -2.218865,0.05771 -3.993521,-0.833131 -1.131736,-0.568106 -2.562038,-1.404768 -3.178454,-1.859244 -0.616415,-0.454481 -2.28329,-1.175333 -3.704167,-1.601901 -1.420876,-0.426565 -3.104144,-0.938459 -3.740598,-1.137546 -1.19381,-0.373429 -1.79088,-0.421594 -10.131704,-0.81734 -6.270145,-0.297498 -7.453881,-0.468764 -6.92126,-1.001385 0.250874,-0.250874 1.862988,-0.407776 4.278055,-0.416366 2.131512,-0.0076 3.876026,-0.114003 3.8767,-0.236495 0.0028,-0.529855 -2.764977,-2.263165 -4.564694,-2.858502 -3.04974,-1.008839 -9.592575,-2.444143 -10.156014,-2.227933 -0.355872,0.13656 0.269388,0.963426 2.097567,2.773899 2.711023,2.684755 4.585392,5.537274 5.027108,7.650526 0.423489,2.026045 1.573174,4.02655 2.769489,4.819037 0.806648,0.5343562 1.943231,0.8077302 4.029178,0.9691052 1.598062,0.123631 3.423687,0.30486 4.056944,0.402735 1.070519,0.165452 1.090327,0.151352 0.28206,-0.200826 -0.478123,-0.208326 -2.133501,-0.574947 -3.678622,-0.814716 -1.569974,-0.2436252 -2.873453,-0.6283822 -2.954711,-0.8721622 -0.194536,-0.583604 3.159005,-0.203567 6.267923,0.710308 1.26118,0.3707272 3.086805,0.8347142 4.056944,1.0310852 0.970139,0.19637 2.081389,0.560846 2.469445,0.809942 1.124842,0.722052 9.531735,0.937161 10.853621,0.277717 1.02731,-0.512487 2.882881,-0.487376 7.138051,0.0966 l 1.41111,0.193661 -1.5258,-0.709412 c -1.08434,-0.504165 -1.49071,-0.888964 -1.40456,-1.329993 0.13913,-0.7122272 1.73584,-0.6870282 2.93036,0.04625 1.27676,0.783759 3.8405,1.589193 6.35,1.994933 3.92039,0.633861 4.05694,0.675108 4.05694,1.225519 0,0.287344 0.20638,0.522446 0.45861,0.522446 0.80188,0 1.33742,0.770925 0.90091,1.296885 -0.44593,0.537313 -2.11619,0.625024 -2.61188,0.137153 -0.18433,-0.181416 -1.1494,-0.421742 -2.14462,-0.534056 -0.99521,-0.112314 -4.01146,-0.598205 -6.70278,-1.079761 -5.65064,-1.011065 -7.539128,-1.10804 -7.539128,-0.387131 0,0.595827 -0.861949,0.972904 -1.587501,0.694485 -1.050632,-0.403169 -0.493335,0.142014 1.258165,1.230803 0.983034,0.611089 1.975214,1.110474 2.204864,1.109747 0.22964,-7.05e-4 -0.11961,-0.328782 -0.7761,-0.729012 -1.546814,-0.943013 -1.027448,-1.734368 0.67536,-1.029042 0.87933,0.364229 1.07652,0.626357 0.95387,1.267975 -0.20816,1.08893 0.74601,1.429777 1.39773,0.499301 0.42346,-0.604563 0.88705,-0.712724 3.03736,-0.708643 3.0082,0.0057 4.12514,0.25435 4.12514,0.918274 0,0.499117 -0.37925,0.622406 -1.53787,0.499939 -0.39154,-0.04139 -0.56089,0.08443 -0.42015,0.312152 0.12968,0.209818 0.58359,0.383536 1.0087,0.386038 0.42511,0.0025 1.74103,0.308105 2.92426,0.679111 1.97386,0.61891696 2.53483,0.64141696 6.80036,0.272757 4.36324,-0.377105 4.64304,-0.44596 4.55145,-1.120083 -0.0785,-0.577505 0.12713,-0.739948 1.04895,-0.828827 0.644005,-0.06209 1.146515,0.05387 1.146515,0.264583 0,0.206322 0.3721,0.37513 0.82688,0.37513 0.5135,0 1.5352,0.679129 2.69585,1.79195196 1.35076,1.295097 2.06483,1.74074004 2.57533,1.60723804 0.49499,-0.12944104 0.5951,-0.07346 0.33457,0.1870753 -0.41493,0.4149232 1.12662,2.4109576 1.86199,2.4109576 0.22928,0 0.79835,0.337432 1.2646,0.7498504 1.48181,1.3107212 4.19913,2.2199954 4.19913,1.405121 z M 67.950676,-10.974196 c -2.091492,-0.753794 -5.944059,-1.679956 -13.052778,-3.137899 -2.874342,-0.589505 -5.106519,-1.409354 -5.479256,-2.012463 -0.383336,-0.620247 0.12876,-0.835752 0.981872,-0.413198 0.43627,0.216087 1.745717,0.577123 2.909884,0.802298 1.164167,0.225174 4.086098,0.879232 6.493179,1.453462 2.40708,0.574227 5.185205,1.131916 6.173611,1.239308 0.988406,0.10739 2.148702,0.414483 2.578439,0.682421 0.429736,0.267942 0.989725,0.487168 1.24442,0.487168 0.254695,0 0.832076,0.258452 1.283063,0.574337 0.642476,0.450007 0.716742,0.639755 0.34308,0.876543 -0.660933,0.418825 -0.877235,0.384472 -3.475514,-0.551977 z m 16.675469,3.8085862 c -0.23885,-0.09663 -0.7151,-0.102514 -1.05834,-0.01309 -0.34324,0.08944 -0.14782,0.168508 0.43426,0.175698 0.58208,0.0072 0.86292,-0.06599 0.62408,-0.162627 z M 31.967342,-43.160276 c 0,-0.756801 -0.522482,-0.530979 -1.344768,0.581224 -1.046967,1.416097 -0.97051,1.593357 0.286434,0.664059 0.582084,-0.430353 1.058334,-0.990731 1.058334,-1.245283 z m 0.843943,-1.489483 c 0.329604,-0.273621 0.513799,-0.720239 0.409331,-0.992486 -0.104471,-0.272246 0.06519,-1.000875 0.377025,-1.619174 0.63755,-1.264115 0.366426,-1.030696 -1.050354,0.904291 -0.532747,0.727604 -1.198675,1.322916 -1.479843,1.322916 -0.281167,0 -0.511214,0.205815 -0.511214,0.457365 0,0.604846 1.496932,0.556446 2.255055,-0.07291 z m 2.331057,-1.090008 c 0.20768,-0.388056 0.298227,-0.705556 0.201214,-0.705556 -0.09701,0 -0.346312,0.3175 -0.553992,0.705556 -0.20768,0.388055 -0.298228,0.705555 -0.201214,0.705555 0.09701,0 0.346311,-0.3175 0.553992,-0.705555 z m -2.958861,-2.018118 c -0.150604,-0.150606 -0.498972,0.03408 -0.774149,0.410404 -0.777138,1.062801 -0.589139,1.50054 0.273826,0.637575 0.425785,-0.425783 0.650931,-0.897374 0.500323,-1.047979 z m 1.166499,-1.298965 c 0.31272,-0.376802 0.311753,-0.527843 -0.0041,-0.63311 -0.622586,-0.207529 0.601006,-1.299724 1.732887,-1.546798 1.585782,-0.346154 1.827421,-0.46254 1.827421,-0.880181 0,-0.569984 -1.533264,-0.127267 -3.1973,0.923194 -0.756136,0.477326 -1.553679,0.867867 -1.772323,0.867867 -0.218642,0 -0.30117,0.251108 -0.183399,0.558019 0.117775,0.306911 0.214133,0.703786 0.214133,0.881944 0,0.497994 0.922087,0.383997 1.382638,-0.170935 z m 1.792362,-0.605113 c 0,-0.194027 -0.15875,-0.254665 -0.352778,-0.134749 -0.194028,0.119916 -0.352778,0.376779 -0.352778,0.570807 0,0.194027 0.15875,0.254665 0.352778,0.134749 0.194028,-0.119916 0.352778,-0.376779 0.352778,-0.570807 z m 7.408333,-1.858544 c 0.873125,-0.01094 2.2225,0.105236 2.998612,0.258181 l 1.411111,0.278081 -0.971529,-0.889815 c -1.155023,-1.057872 -3.271594,-1.547803 -4.19511,-0.971058 -0.354542,0.221415 -1.058845,0.402573 -1.565117,0.402573 -0.906025,0 -2.969634,0.996829 -2.969634,1.434487 0,0.123217 0.833438,0.0628 1.852084,-0.134259 1.018646,-0.19706 2.566458,-0.367245 3.439583,-0.37819 z m -7.982613,-1.416073 c 0.7513,-0.310364 2.060988,-0.564299 2.910417,-0.564299 0.849432,0 1.544418,-0.15875 1.544418,-0.352777 0,-0.194028 -0.734737,-0.352778 -1.632751,-0.352778 -1.176588,0 -2.162192,0.302915 -3.527777,1.084224 -1.042265,0.596323 -1.895027,1.255927 -1.895027,1.465787 0,0.209891 0.277763,0.134688 0.617361,-0.167148 0.339548,-0.301791 1.232062,-0.802645 1.983359,-1.113009 z m -0.717638,-1.419592 c 0.95819,-0.54721 2.006282,-0.896329 2.38979,-0.796039 0.375702,0.09825 1.274565,0.01039 1.997471,-0.195248 1.297982,-0.369217 1.302744,-0.377129 0.38168,-0.634239 -0.512984,-0.143197 -1.624234,-0.126757 -2.469444,0.03653 -0.84521,0.163291 -1.643627,0.303806 -1.774261,0.312256 -0.130637,0.0084 -0.722697,0.423616 -1.315695,0.922591 -0.592998,0.498975 -1.247133,0.802809 -1.453632,0.675185 -0.206502,-0.127623 -0.608584,-0.03856 -0.893519,0.197912 -0.398318,0.330577 -0.423823,0.543503 -0.110352,0.921215 0.343651,0.414076 0.49676,0.4161 0.974489,0.01288 0.311728,-0.263108 1.334791,-0.91698 2.273473,-1.45305 z"
       style="fill:#000000;stroke-width:0.35277781" />
  </g>
</svg>
