<?xml version="1.0" encoding="UTF-8" standalone="no"?>
<svg
   xmlns:dc="http://purl.org/dc/elements/1.1/"
   xmlns:cc="http://creativecommons.org/ns#"
   xmlns:rdf="http://www.w3.org/1999/02/22-rdf-syntax-ns#"
   xmlns:svg="http://www.w3.org/2000/svg"
   xmlns="http://www.w3.org/2000/svg"
   id="svg8"
   version="1.1"
   viewBox="0 0 238.05503 142.9428"
   height="142.94281mm"
   width="238.05502mm">
  <defs
     id="defs2" />
  <metadata
     id="metadata5">
    <rdf:RDF>
      <cc:Work
         rdf:about="">
        <dc:format>image/svg+xml</dc:format>
        <dc:type
           rdf:resource="http://purl.org/dc/dcmitype/StillImage" />
        <dc:title></dc:title>
      </cc:Work>
    </rdf:RDF>
  </metadata>
  <g
     transform="translate(79.425069,-4.2290876)"
     id="layer1">
    <path
       id="path3261"
       d="m -52.573009,147.06066 c -1.644935,-0.16779 -2.512416,-0.66077 -2.532146,-1.439 -0.003,-0.11718 0.39467,-0.64475 0.883647,-1.17237 0.61843,-0.66729 1.182189,-0.93196 1.852084,-0.86949 0.529668,0.0494 1.33512,-0.0338 1.789895,-0.18483 1.13569,-0.37721 3.935638,-2.29845 3.935638,-2.70051 0,-0.18028 0.313842,-0.32778 0.697424,-0.32778 1.128631,0 1.886536,-1.48696 1.470321,-2.88466 -0.191999,-0.64476 -0.669286,-2.28648 -1.060637,-3.64827 -1.079708,-3.75707 -2.979049,-7.5633 -5.718012,-11.45874 -0.886761,-1.26118 -2.046912,-3.32493 -2.578114,-4.58611 -2.069941,-4.91447 -2.296428,-5.50198 -2.515937,-6.52639 -0.124728,-0.58209 -0.888799,-1.93146 -1.697935,-2.99861 -2.088496,-2.75448 -2.348789,-3.68807 -1.785785,-6.40508 0.25506,-1.23089 0.502281,-4.085863 0.549383,-6.344393 l 0.08564,-4.10642 0.767266,0.57864 c 0.676591,0.51025 0.745563,0.81805 0.583623,2.60449 -0.211549,2.33371 0.47862,6.073213 1.266246,6.860843 0.482162,0.48216 0.470601,0.5249 -0.111366,0.41177 -0.699046,-0.1359 -1.491822,-1.927803 -1.616613,-3.654023 -0.08949,-1.23782 -0.561526,1.58018 -0.831172,4.961943 -0.167574,2.10163 -0.143355,2.17295 1.360467,4.00622 1.794753,2.18793 1.922949,2.44262 3.21011,6.37767 1.131869,3.46031 2.578247,6.50698 3.785168,7.97313 1.533003,1.86227 3.047535,4.26658 3.560791,5.65273 0.278433,0.75196 1.252989,3.27004 2.165678,5.59575 1.263343,3.21923 1.65414,4.67176 1.637256,6.08541 -0.01909,1.598 0.07143,1.85687 0.649245,1.85687 0.369284,0 0.755421,0.13591 0.858076,0.30201 0.102658,0.16611 1.02484,0.22649 2.049293,0.1342 3.464031,-0.31208 4.118694,-1.98928 1.981623,-5.07678 -0.356482,-0.51502 -0.648148,-1.1897 -0.648148,-1.4993 0,-0.3096 -0.133269,-0.5629 -0.29615,-0.5629 -0.759446,0 -3.254333,-7.53311 -3.446674,-10.40695 -0.561195,-8.38496 -0.991874,-9.8557 -3.703271,-12.64641 -2.793961,-2.8757 -3.842794,-4.91732 -3.842794,-7.48027 0,-2.36595 -0.349507,-2.31604 -0.722454,0.10316 -0.177433,1.15098 -0.09774,2.15765 0.253373,3.2007 0.281721,0.8369 0.451096,1.7894 0.376392,2.11667 -0.169718,0.74354 -1.318422,-2.89736 -1.318422,-4.17885 0,-1.59367 1.41798,-4.874023 2.125193,-4.916423 0.101706,-0.006 0.181081,1.388253 0.176389,3.098553 -0.0078,2.83196 0.08088,3.24499 0.992756,4.6256 0.602696,0.91251 1.515508,1.73672 2.293055,2.07049 0.719191,0.30871 1.995442,1.41515 2.879274,2.49616 0.873125,1.06791 3.505097,3.85655 5.848826,6.19697 3.958639,3.95306 6.986683,8.02128 6.758965,9.08079 -0.0463,0.21541 0.450006,0.53675 1.102903,0.7141 1.011513,0.27476 1.262306,0.21506 1.695697,-0.4037 0.483866,-0.69082 1.785073,-1.07644 1.370887,-0.40627 -0.108733,0.17593 0.100355,0.24194 0.464637,0.14667 0.364282,-0.0953 0.872451,-0.56581 1.129263,-1.04567 0.445745,-0.83288 0.366867,-0.96161 -1.738129,-2.83668 -1.85897,-1.65592 -4.991383,-5.6541 -4.991383,-6.37095 0,-0.11652 -0.228265,-0.46409 -0.507255,-0.77237 -0.278988,-0.30828 -1.177223,-1.90828 -1.996077,-3.55556 -2.231792,-4.48966 -3.29783,-5.88242 -5.265794,-6.87966 -0.952828,-0.48284 -1.998211,-0.87788 -2.32307,-0.87788 -0.324859,0 -1.266832,-0.69573 -2.093274,-1.54606 -1.463601,-1.5059 -1.509113,-1.624 -1.752684,-4.548013 -0.137534,-1.65108 -0.19188,-3.73349 -0.120774,-4.62756 0.07111,-0.89408 0.0326,-1.6256 -0.08561,-1.6256 -0.275174,0 -2.318219,4.45459 -2.629214,5.73264 -0.129836,0.53358 -0.394818,0.97014 -0.588846,0.97014 -0.508953,0 -0.07331,-1.4558 1.304611,-4.35966 0.657546,-1.38573 1.360653,-3.15451 1.56246,-3.93062 0.20181,-0.77611 0.618144,-1.76852 0.925191,-2.20535 1.268632,-1.8049 0.874431,-2.52714 -2.250965,-4.12414 -1.772493,-0.9057 -2.469949,-1.03435 -5.168974,-0.9535 -2.523401,0.0756 -4.050237,0.72888 -4.275822,1.8295 -0.05801,0.28303 -0.429371,1.45206 -0.825243,2.59784 -0.395873,1.14578 -0.719769,2.29671 -0.719769,2.55764 0,0.26092 -0.15875,0.4744 -0.352778,0.4744 -0.514955,0 -0.449724,-0.4019 0.547289,-3.37195 0.768725,-2.28999 0.841943,-2.85736 0.501755,-3.88814 -0.283277,-0.85834 -0.670571,-1.27183 -1.341038,-1.43177 -0.5185,-0.12368 -1.141165,-0.38117 -1.3837,-0.5722 -0.500257,-0.39402 -0.531761,-0.27678 -0.451272,1.67934 0.103429,2.51361 0.36827,4.09204 0.900212,5.36515 0.617538,1.47798 0.62166,1.51402 0.173155,1.51402 -0.859728,0 -1.436741,-2.78431 -1.783919,-8.60808 -0.197781,-3.317714 -0.536042,-7.143452 -0.751691,-8.501646 -0.215648,-1.358195 -0.461218,-3.66007 -0.545711,-5.115278 -0.13495,-2.324259 -0.386088,-3.12142 -2.066295,-6.558834 -1.05197,-2.152153 -1.912673,-4.348858 -1.912673,-4.88157 0,-0.532712 -0.555625,-1.962115 -1.234723,-3.176457 -0.679097,-1.214339 -1.234722,-2.405719 -1.234722,-2.647509 0,-0.241791 -0.315327,-0.840497 -0.700727,-1.330452 -0.783847,-0.996499 -0.760042,-1.032948 -1.419287,2.173058 -0.237395,1.154486 -0.600345,2.369227 -0.806554,2.69942 -0.279698,0.447866 -0.232514,0.817704 0.185768,1.456084 0.972388,1.484051 1.631242,5.218109 1.821961,10.325982 0.247807,6.636756 0.353504,7.050448 2.11257,8.268494 0.798656,0.553022 1.848977,1.358092 2.334047,1.789042 0.485069,0.43095 1.22255,1.010758 1.638846,1.288461 0.416295,0.277703 0.837996,0.815023 0.937111,1.194044 0.14764,0.564571 -0.0015,0.689126 -0.82493,0.689126 -0.552828,0 -1.57581,-0.336701 -2.273293,-0.748227 -1.217726,-0.718475 -1.295679,-0.723315 -1.960443,-0.121712 -0.388886,0.351935 -0.692291,1.081165 -0.692291,1.663908 0,1.144366 1.201625,3.086586 1.909624,3.086586 0.562354,0 1.808168,1.33869 1.516887,1.62997 -0.117993,0.118 -1.141132,-0.59139 -2.273642,-1.57642 -2.255889,-1.96212 -2.717271,-3.28559 -1.691282,-4.851447 0.653578,-0.997486 0.68566,-1.324095 0.09744,-0.992 -0.337089,0.190313 -0.34474,0.144691 -0.03248,-0.193647 0.479716,-0.519779 2.688696,0.0522 3.736645,0.967542 0.561923,0.49082 0.617361,0.475887 0.617361,-0.16631 0,-0.908057 -0.73274,-1.539974 -3.389925,-2.923491 -2.112778,-1.100063 -2.163958,-1.161531 -2.600002,-3.122757 -0.244639,-1.100335 -0.677427,-2.529438 -0.961749,-3.175783 -0.284323,-0.646349 -0.417713,-1.274417 -0.296423,-1.395706 0.12129,-0.121292 0.320277,0.160913 0.442192,0.627119 0.469656,1.795968 0.741799,-0.496545 0.540859,-4.556153 -0.279074,-5.638102 -1.447617,-9.080871 -2.28404,-6.729251 -0.159988,0.44981 -0.224966,0.440546 -0.433279,-0.06177 -0.152857,-0.368596 0.244754,-1.563218 1.056748,-3.175 1.262048,-2.505128 1.303211,-2.707986 1.347544,-6.641007 0.05496,-4.875862 -0.255405,-6.765855 -1.060333,-6.456973 -0.446401,0.171298 -0.509426,0.04562 -0.317632,-0.633412 0.622779,-2.204879 1.596903,-3.194248 1.615584,-1.640865 0.01126,0.936152 1.905804,3.079566 3.267399,3.696603 0.64653,0.292989 0.956389,0.70255 0.956389,1.264119 0,1.526826 -0.443833,1.304675 -2.385179,-1.193832 -1.060494,-1.364851 -1.975704,-2.433408 -2.0338,-2.374568 -0.0581,0.05884 0.118406,1.297608 0.392228,2.752817 0.273822,1.455208 0.580662,3.219739 0.681866,3.921181 0.101205,0.701443 0.811158,2.151155 1.577675,3.221581 1.246892,1.741266 1.561948,1.971471 2.991549,2.185854 0.878836,0.131787 1.597883,0.388638 1.597883,0.570777 0,0.450663 -0.620695,0.394314 -2.293056,-0.208178 -0.776111,-0.279601 -1.459956,-0.510759 -1.519655,-0.51368 -0.0597,-0.0028 0.337175,0.809968 0.881944,1.806424 0.544769,0.996452 1.506427,2.123383 2.137017,2.504288 1.431602,0.864754 1.51986,1.539597 0.105713,0.808313 -1.397367,-0.722605 -1.480243,-0.692842 -1.202565,0.431913 0.494213,2.001848 1.641674,3.695365 2.844299,4.197854 1.241236,0.518623 1.280179,1.37872 0.04467,0.986586 -0.608944,-0.193273 -0.656068,-0.130553 -0.34235,0.455637 0.200088,0.373867 0.610588,0.884576 0.912223,1.134911 0.301635,0.250335 0.548427,0.649235 0.548427,0.886449 0,0.532871 1.140258,1.59898 1.710193,1.59898 0.255912,0 0.346588,-0.310011 0.232167,-0.79375 -0.103262,-0.436563 -0.04056,-1.27 0.139345,-1.852084 0.317961,-1.028781 0.329789,-1.033706 0.423574,-0.176388 0.05306,0.485069 0.106396,1.358194 0.118516,1.940277 0.01926,0.92462 0.155751,1.064451 1.080371,1.106753 1.324433,0.06059 4.054755,-0.893054 4.063408,-1.419264 0.02432,-1.479265 1.114768,-7.7889 1.45642,-8.427283 0.656273,-1.226256 0.753202,-0.146001 0.16471,1.835668 -0.547374,1.843211 -0.367017,2.323017 0.407203,1.083293 0.242345,-0.388056 0.625704,-0.705556 0.85191,-0.705556 0.226205,0 0.04745,0.387276 -0.397225,0.860616 -0.696577,0.741472 -2.336064,5.407618 -2.013385,5.730297 0.32624,0.326238 4.289332,-1.354498 5.641561,-2.392571 1.360022,-1.04406 1.519527,-1.303366 1.245341,-2.024532 -0.172957,-0.454907 -0.352574,-2.061672 -0.399147,-3.570595 -0.06245,-2.023014 -0.200491,-2.699477 -0.525657,-2.575888 -0.583925,0.221936 -0.563912,0.08464 0.271886,-1.865196 0.487313,-1.136855 0.643005,-2.03538 0.492083,-2.839872 -0.158599,-0.845404 0.0028,-1.638808 0.573292,-2.817167 0.772964,-1.596729 0.778637,-1.689283 0.213473,-3.482188 -0.671756,-2.131061 -0.71718,-2.661794 -0.227817,-2.661794 0.194028,0 0.352778,0.314971 0.352778,0.699936 0,1.449652 2.158291,5.107524 4.358135,7.386169 2.219297,2.298792 3.387623,4.201322 4.65673,7.583139 0.433963,1.156381 1.288119,2.332242 2.562624,3.527778 1.051437,0.986292 2.805695,2.682571 3.898357,3.769508 1.092658,1.08694 2.95293,2.623069 4.133934,3.413626 2.218182,1.484835 3.127827,2.537975 3.511067,4.064925 0.122199,0.486879 0.581678,1.222964 1.021062,1.635745 0.666518,0.626163 0.95763,0.690157 1.757007,0.386232 1.289318,-0.490199 1.631851,-0.458727 1.406239,0.129205 -0.104151,0.271417 -0.04109,0.585128 0.140151,0.697135 0.382105,0.236153 0.135474,1.903116 -0.323539,2.186802 -0.170861,0.105601 -0.307125,0.381067 -0.30281,0.612151 0.0043,0.231084 0.305357,0.03306 0.66899,-0.440034 0.363629,-0.4731 0.58124,-1.068412 0.483577,-1.322917 -0.09766,-0.254501 -0.0018,-0.462731 0.212954,-0.462731 0.214789,0 0.401267,0.357187 0.414398,0.79375 l 0.02388,0.79375 0.388666,-0.80687 c 0.327892,-0.680706 0.269,-0.890686 -0.376654,-1.342919 -0.965578,-0.676318 -0.977279,-1.416117 -0.03041,-1.922861 1.079208,-0.577575 2.45883,0.651552 3.383397,3.014317 l 0.414133,1.058333 0.02685,-1.431879 c 0.01475,-0.787534 -0.171598,-1.671768 -0.414133,-1.964962 -1.607428,-1.943188 -6.252242,-2.716216 -5.794107,-0.964301 0.110339,0.421933 -0.01475,0.656975 -0.349585,0.656975 -0.347398,0 -0.483997,-0.285316 -0.409342,-0.85501 0.07002,-0.534328 -0.208202,-1.195899 -0.741804,-1.763889 -1.021598,-1.087444 -0.699597,-1.230397 0.367602,-0.163198 0.625217,0.625217 1.010472,0.710558 2.384764,0.528249 1.266168,-0.167961 1.939265,-0.05654 2.958486,0.489726 0.976732,0.523512 1.319382,0.585527 1.319382,0.238803 0,-0.559531 -1.465429,-2.002459 -2.03368,-2.002459 -0.220387,0 -0.527656,-0.210569 -0.682819,-0.467931 -0.272535,-0.452043 -3.748426,-1.600268 -3.869665,-1.278305 -0.118427,0.314505 -1.978233,-1.638483 -3.040327,-3.192653 -0.596678,-0.873125 -1.618837,-2.219738 -2.271462,-2.992477 -0.652628,-0.772735 -1.826789,-2.739972 -2.609243,-4.371636 -1.251007,-2.60875 -4.465243,-6.746999 -5.240486,-6.746999 -0.811978,0 1.155813,6.642972 2.149757,7.257264 0.171496,0.105988 0.311814,0.36153 0.311814,0.567863 0,0.571958 -1.029773,-0.396604 -1.60563,-1.510186 -0.659733,-1.275782 -1.469852,-3.840995 -1.492976,-4.727441 -0.08656,-3.318722 -1.54057,-7.124323 -3.774373,-9.878731 -2.178629,-2.686374 -2.649294,-3.740164 -2.650702,-5.93472 -0.0011,-1.760644 -0.204809,-2.403539 -1.421472,-4.486753 -1.248005,-2.136878 -1.593639,-2.478353 -2.851323,-2.817012 -0.787143,-0.211955 -1.775263,-0.340939 -2.19582,-0.286631 -0.420556,0.05431 -0.957643,-0.02142 -1.193521,-0.168298 -0.236287,-0.147125 -1.107574,0.08083 -1.940278,0.507627 -1.701608,0.872155 -6.935241,1.447788 -6.481011,0.712829 0.13681,-0.221364 0.879475,-0.402479 1.650367,-0.402479 0.770893,0 1.9392,-0.224614 2.596241,-0.499143 0.65704,-0.274529 1.281851,-0.411911 1.388468,-0.305293 0.233303,0.233302 2.34033,-0.598212 2.31619,-0.914057 -0.0093,-0.121982 -0.886238,-0.772379 -1.9487,-1.445327 -2.572906,-1.629645 -4.096963,-1.688916 -5.611368,-0.218229 -0.619571,0.601686 -1.21022,1.330978 -1.312551,1.620651 -0.102332,0.289672 -0.300029,0.42121 -0.439327,0.292307 -0.334054,-0.309127 0.422489,-1.692619 1.354997,-2.477886 0.638828,-0.537957 0.668405,-0.674033 0.212789,-0.97901 -0.291042,-0.194816 -0.687917,-0.414432 -0.881945,-0.488037 -0.194028,-0.0736 -0.24336,-0.251748 -0.109628,-0.395875 0.133733,-0.144127 0.96953,0.01536 1.857328,0.354411 1.544828,0.589976 1.644392,0.589116 2.317469,-0.02001 0.64327,-0.582151 0.657876,-0.705783 0.171145,-1.448629 -0.695794,-1.061917 -0.673828,-1.189762 0.204417,-1.189762 0.667794,0 0.71357,-0.136096 0.490293,-1.457665 l -0.246271,-1.457664 1.273596,0.238927 c 1.164989,0.218554 1.272287,0.169879 1.258232,-0.570807 -0.0084,-0.445355 -0.145605,-1.482906 -0.304793,-2.30567 -0.203989,-1.054336 -0.162677,-1.601128 0.139947,-1.852285 0.468087,-0.388476 0.318096,-3.821315 -0.191039,-4.3723463 -0.414346,-0.448441 -3.431411,0.3848513 -4.719063,1.3033713 -0.595815,0.425012 -1.4008,0.77275 -1.788855,0.77275 -0.609719,0 -0.692707,0.203653 -0.61096,1.499305 0.09905,1.569938 -0.05127,1.690365 -1.593901,1.276955 -0.436563,-0.116994 -0.791319,-0.472014 -0.788348,-0.788933 0.0046,-0.492286 0.0532,-0.500627 0.333596,-0.05727 0.558055,0.882413 0.887394,0.04565 0.444182,-1.128552 -0.358535,-0.949868 -0.330517,-1.19382 0.192324,-1.674574 1.036949,-0.9534813 2.334282,-1.7727693 2.807158,-1.7727693 0.828153,0 0.463202,0.614767 -0.634989,1.0696533 -1.489746,0.617073 -2.200435,1.763169 -1.766298,2.848431 0.320855,0.802079 0.338912,0.786931 0.360152,-0.302111 0.01247,-0.63934 0.217434,-1.170298 0.463334,-1.200261 0.242535,-0.02955 0.61575,-0.07171 0.829368,-0.09368 0.213617,-0.02197 0.946179,-0.529689 1.627916,-1.128261 0.777159,-0.6823553 1.816608,-1.1816643 2.786604,-1.3385723 1.302737,-0.210732 1.445132,-0.307893 0.901572,-0.615178 -0.690685,-0.390457 -3.151047,-0.257278 -4.263054,0.230758 -0.480782,0.211005 -0.601776,0.17749 -0.420152,-0.116383 0.479096,-0.775193 -0.39222,-0.413531 -2.647627,1.098967 -1.850563,1.2410063 -2.238993,1.6674023 -2.169229,2.3812513 l 0.08498,0.869554 -0.35736,-0.845553 c -0.432258,-1.022772 0.05079,-1.652762 2.443287,-3.1865253 1.556446,-0.997793 4.623277,-1.975195 4.623277,-1.473441 0,0.132174 0.635,0.265638 1.411111,0.296587 1.509087,0.06018 1.836124,-0.359617 0.737998,-0.947317 -0.805065,-0.430857 -5.063773,-0.572676 -5.684111,-0.189286 -0.282359,0.174507 -0.380406,0.100092 -0.276971,-0.210213 0.08806,-0.26419 0.545221,-0.57365 1.015906,-0.687687 0.793671,-0.192291 0.769367,-0.225006 -0.334836,-0.450703 -2.412669,-0.493146 -3.505978,-0.295441 -4.712837,0.852229 l -1.152093,1.095592 1.343081,-0.742814 c 0.738695,-0.408548 1.536852,-0.742814 1.773682,-0.742814 0.400155,0 1.834684,1.398729 1.582803,1.543303 -0.0624,0.03582 -0.738804,0.349981 -1.503119,0.698142 -1.083013,0.493336 -1.277628,0.706584 -0.881945,0.966382 0.42817,0.281128 0.403154,0.413225 -0.159668,0.8431 -0.367064,0.280357 -0.811072,0.5576343 -0.986684,0.6161723 -0.175612,0.05854 -0.06892,0.705662 0.237093,1.438055 0.306013,0.732393 0.693699,1.24676 0.861523,1.143039 0.167825,-0.103722 0.401145,0.06161 0.51849,0.367409 0.394923,1.029151 0.231321,1.28484 -0.676336,1.057033 -0.586517,-0.147206 -0.951408,-0.06247 -1.070804,0.248674 -0.257024,0.669795 0.647113,3.249525 1.138885,3.249525 0.725276,0 0.941977,0.505121 0.319223,0.744095 -0.770029,0.295487 -1.277517,-0.217883 -1.563956,-1.582082 -0.171885,-0.818624 -0.347939,-1.004439 -0.727985,-0.768348 -0.42649,0.264943 -0.41212,0.447461 0.09633,1.22345 0.32868,0.501629 0.439159,0.912052 0.245509,0.912052 -0.353442,0 -0.221038,1.310267 0.338664,3.351389 0.484948,1.768509 0.778591,5.556589 0.413231,5.330783 -0.182722,-0.112928 -0.45204,-1.437927 -0.598484,-2.944442 l -0.266262,-2.739119 -0.607599,2.487391 c -0.85096,3.483667 -1.804298,5.053429 -3.088864,5.086112 -0.71384,0.01816 -0.505513,-0.498713 0.352778,-0.875266 0.437752,-0.192052 0.847973,-0.732187 0.914648,-1.20431 0.06649,-0.47084 0.362564,-1.224902 0.657934,-1.675694 0.660725,-1.008394 0.152013,-1.060736 -1.058089,-0.10887 -1.386702,1.09078 -4.761176,2.784811 -7.120685,3.57468 -3.774285,1.263478 -4.864937,2.974424 -4.914152,7.709014 -0.02512,2.416316 0.124297,3.336156 0.769427,4.736842 0.622622,1.351817 0.700828,1.79982 0.351799,2.015268 -0.672753,0.415276 -0.936818,5.193214 -0.630931,11.415946 0.05723,1.164167 -0.01452,2.917628 -0.159442,3.896579 -0.39538,2.670849 0.612061,7.045403 2.677335,11.625644 0.962379,2.134306 1.911732,4.171643 2.109674,4.52742 0.561528,1.009276 2.076609,5.648685 1.901773,5.823521 -0.388062,0.388063 -1.198625,-0.819495 -1.416766,-2.110666 -0.131996,-0.781272 -1.274031,-3.589944 -2.537857,-6.241496 -3.28761,-6.897522 -4.263243,-11.141654 -3.460022,-15.051557 0.27778,-1.35217 0.319926,-2.427877 0.116692,-2.978313 -0.401974,-1.088697 -0.479166,-7.280445 -0.125726,-10.084855 0.198195,-1.572606 0.120552,-2.62381 -0.297867,-4.03278 -0.702688,-2.366207 -0.716839,-4.338898 -0.0495,-6.900976 0.783013,-3.006193 2.194324,-4.260553 5.727896,-5.0909 1.009036,-0.237112 2.000751,-0.631298 2.20381,-0.87597 0.20306,-0.244672 1.36186,-0.948957 2.575112,-1.565077 2.922708,-1.484225 3.974534,-2.990058 3.956693,-5.664547 -0.0089,-1.332292 -0.260661,-2.41924 -0.782001,-3.376029 -0.518634,-0.951821 -0.812886,-2.214868 -0.904051,-3.880556 -0.07434,-1.358194 -0.256889,-2.8266323 -0.405672,-3.2631943 -0.148783,-0.436563 -0.127477,-0.79375 0.04735,-0.79375 0.484142,0 1.600341,2.0675053 1.341931,2.4856223 -0.124923,0.202129 -0.02523,0.610777 0.221526,0.908107 0.36421,0.438847 0.360251,0.59524 -0.02104,0.830887 -0.258332,0.159658 -0.372169,0.544434 -0.252971,0.855058 0.244181,0.636324 1.485598,0.763368 1.840949,0.188398 0.139627,-0.225922 -0.02832,-0.331686 -0.420153,-0.264583 -0.468169,0.08018 -0.652762,-0.103659 -0.652762,-0.650085 0,-0.419031 -0.119062,-0.882052 -0.264583,-1.028935 -0.410223,-0.414066 -0.311821,-0.925859 0.125989,-0.655278 0.270068,0.166911 0.305641,-0.01714 0.115299,-0.596541 -0.1514,-0.46086 -0.28747,-1.1554283 -0.302378,-1.5434843 -0.01491,-0.388055 -0.225632,-0.787039 -0.468276,-0.88663 -0.619738,-0.254367 0.756635,-2.12351 2.316744,-3.146186 1.048732,-0.687461 1.558,-0.777119 3.642234,-0.641225 1.46154,0.09529 2.667343,0.370838 3.038722,0.694392 0.338632,0.295025 1.059985,0.511807 1.603007,0.481739 0.543023,-0.03007 1.731243,0.347786 2.640489,0.839676 1.407099,0.761222 1.696468,1.104389 1.94403,2.305457 0.578961,2.8088923 0.700708,6.1585033 0.243847,6.7089873 -0.348908,0.420408 -0.34786,0.849619 0.0052,2.110457 0.460011,1.643003 0.135096,2.645834 -0.85725,2.645834 -0.632189,0 -1.672762,2.656555 -1.54681,3.948972 0.09681,0.993404 0.409487,1.310186 2.445387,2.477492 1.283911,0.736146 3.079384,1.477628 3.989938,1.647738 2.216754,0.414134 3.216212,1.423485 4.868817,4.917 1.208786,2.555317 1.361359,3.15136 1.173907,4.58611 -0.205786,1.575086 -0.136627,1.749891 1.541374,3.896015 1.647942,2.107667 3.375801,5.208912 4.251537,7.630841 0.210471,0.582083 1.390096,1.910394 2.621389,2.951798 1.652764,1.397878 2.349331,2.262664 2.661331,3.304035 0.599165,1.999824 2.367432,5.16181 3.735458,6.679686 0.641368,0.71162 1.449373,1.743495 1.795568,2.293055 1.131341,1.795932 2.871379,3.29226 3.828475,3.29226 1.40891,0 3.001571,0.823821 5.121434,2.649115 2.262703,1.948282 2.447992,2.269183 1.459509,2.527681 -0.694062,0.1815 -0.704988,0.254723 -0.213558,1.430884 0.737927,1.766094 0.684086,3.270099 -0.117058,3.270099 -0.832912,0 -1.481667,-0.674501 -1.481667,-1.540465 0,-1.107295 -0.497685,-0.310261 -0.881945,1.412424 -0.194027,0.869851 -0.47184,1.572006 -0.617361,1.56035 -0.145521,-0.01168 -0.968262,-0.0212 -1.828309,-0.0212 -1.266113,0 -1.607372,-0.137505 -1.793036,-0.722485 -0.126594,-0.398858 -0.03083,-0.961648 0.213812,-1.256411 0.367453,-0.44275 0.284695,-0.680833 -0.484622,-1.394185 -0.510261,-0.473135 -1.161277,-0.860249 -1.446706,-0.860249 -0.593746,0 -1.981278,-1.627568 -1.981278,-2.324033 0,-1.284122 -1.066242,-2.410926 -4.14602,-4.381507 -1.833319,-1.173039 -3.40741,-2.416175 -3.497983,-2.762522 -0.09057,-0.346347 -0.742583,-1.096158 -1.448911,-1.666247 -3.729799,-3.01038 -4.55513,-4.001414 -5.34579,-6.419053 -0.964491,-2.949166 -2.433584,-5.286711 -4.29618,-6.835853 -0.785061,-0.652946 -1.793371,-1.712362 -2.240686,-2.354263 l -0.813297,-1.167084 -0.426516,1.167084 c -0.480314,1.314295 -0.907249,10.968737 -0.565591,12.789928 0.141651,0.75506 0.952303,1.980053 2.236057,3.378951 2.565213,2.795299 2.995454,3.525905 3.773135,6.407267 0.558264,2.068417 0.587675,2.763823 0.238718,5.644445 -0.218895,1.806963 -0.481267,4.691218 -0.583047,6.409451 -0.213451,3.60343 -0.553586,4.46066 -1.76991,4.46066 -0.641372,0 -0.869534,0.18973 -0.869534,0.72307 0,0.39769 -0.253425,1.21315 -0.563171,1.81213 -0.422949,0.8179 -0.576661,2.25854 -0.617361,5.78613 -0.05031,4.36069 0.0071,4.809573 0.801807,6.267763 0.734272,1.34731 1.248548,1.75708 3.616375,2.88148 3.260707,1.5484 4.422577,2.76017 6.162932,6.42762 0.705139,1.48594 1.815349,3.53535 2.467134,4.55426 0.651785,1.0189 1.185062,1.94295 1.185062,2.05344 0,0.56898 2.094036,3.18954 4.89307,6.1234 1.727281,1.81049 3.427257,3.82424 3.777721,4.47501 0.617897,1.14737 0.616578,1.22153 -0.04359,2.44739 -0.857839,1.59291 -2.163519,1.98984 -5.275809,1.60387 -1.369904,-0.16989 -2.824135,-0.14927 -3.546923,0.0503 -0.673781,0.18604 -1.367618,0.25015 -1.541862,0.14246 -0.174244,-0.10769 -0.787202,0.0742 -1.362131,0.40414 -0.989044,0.56763 -1.161785,0.56467 -3.208489,-0.055 -1.189743,-0.36022 -2.258653,-0.55946 -2.375362,-0.44276 -0.116706,0.11671 0.598685,1.75248 1.589761,3.63504 0.991073,1.88257 1.80195,3.56193 1.80195,3.73191 0,0.16999 0.413378,0.9639 0.918616,1.76425 1.363373,2.15972 1.330928,2.95373 -0.171937,4.20765 -1.027215,0.85705 -1.48209,1.02072 -2.334179,0.83983 -2.143062,-0.45492 -6.340725,-0.45112 -7.231944,0.007 -1.00873,0.51803 -5.628947,0.80602 -8.398563,0.52352 z m 3.918108,-0.74583 c 2.49143,0.0767 3.615299,-0.0247 4.023628,-0.3632 0.399948,-0.33154 1.715555,-0.46408 4.473216,-0.45066 3.7046,0.018 3.948056,-0.0257 4.707622,-0.84526 0.99562,-1.07429 0.999832,-1.46203 0.02981,-2.74215 -0.424162,-0.55974 -0.807261,-1.07009 -0.851337,-1.1341 -0.04408,-0.064 -0.451101,0.12558 -0.904498,0.42132 -1.058897,0.69069 -5.492669,1.00092 -7.128714,0.49881 -1.178303,-0.36164 -1.395466,-0.29634 -3.299316,0.99207 -1.120898,0.75855 -2.196743,1.38338 -2.390771,1.38851 -0.194028,0.005 -0.590903,0.15898 -0.881945,0.34189 -0.291041,0.18291 -0.846666,0.29917 -1.234722,0.25836 -0.388055,-0.0408 -1.023055,0.17234 -1.411111,0.47367 -0.690657,0.53631 -0.691422,0.55835 -0.03622,1.04393 0.368133,0.27283 0.844383,0.38677 1.058333,0.25319 0.21395,-0.13357 1.944669,-0.19494 3.846046,-0.13638 z m 14.906368,-14.20315 c 0.813036,-0.56948 2.304228,-0.71157 6.50742,-0.62006 3.841538,0.0836 4.455428,-0.0795 5.117511,-1.35982 0.494181,-0.95564 0.491063,-1.13358 -0.0339,-1.93476 -0.644366,-0.98343 -1.417482,-0.98489 -3.309927,-0.006 -0.623538,0.32245 -1.223412,0.49657 -1.333049,0.38693 -0.109636,-0.10964 -0.402237,-0.0309 -0.650222,0.17485 -0.318724,0.26452 -0.666432,0.25884 -1.186275,-0.0194 -0.40447,-0.21647 -0.901429,-0.29096 -1.104357,-0.16555 -0.202928,0.12542 -0.591474,-0.0657 -0.863434,-0.42466 -0.604174,-0.79748 -0.662376,-1.31339 -0.109629,-0.97177 0.246627,0.15242 0.311749,0.0971 0.165089,-0.14017 -0.247198,-0.39998 -1.27793,-0.19577 -1.27793,0.25319 0,0.13618 -0.246345,0.55576 -0.547434,0.93239 -0.526739,0.6589 -0.539323,0.65145 -0.332906,-0.19716 l 0.214525,-0.88194 -0.813622,0.88826 c -0.447488,0.48854 -1.157867,1.36137 -1.578618,1.93963 -0.420747,0.57826 -0.886414,0.92995 -1.034813,0.78155 -0.1484,-0.14839 -0.08196,-0.45766 0.147637,-0.68727 0.581449,-0.58144 0.520623,-0.98189 -0.149144,-0.98189 -0.64752,0 -3.313959,2.01078 -3.313959,2.49909 0,0.17772 0.515938,0.33429 1.146528,0.34793 0.63059,0.0137 1.464028,0.16122 1.852083,0.32798 1.042995,0.44819 1.70028,0.41092 2.488414,-0.14111 z m -4.233341,-2.7703 c 0.78654,-0.53303 1.795498,-0.96915 2.242129,-0.96915 0.446634,0 1.283716,-0.39687 1.86019,-0.88194 0.576471,-0.48507 1.255561,-0.88195 1.509085,-0.88195 0.253527,0 0.543948,-0.31736 0.645382,-0.70524 0.225111,-0.86083 -2.177676,-3.82413 -4.577059,-5.64476 -0.894972,-0.6791 -2.731664,-2.34597 -4.081536,-3.70417 -1.852063,-1.86347 -2.392225,-2.25302 -2.201284,-1.5875 0.13917,0.48507 0.463899,2.70757 0.721621,4.93889 0.257725,2.23132 0.632008,4.69195 0.83174,5.46806 0.199736,0.77611 0.278282,1.72861 0.174548,2.11667 -0.136017,0.50883 -0.09681,0.57325 0.140624,0.23106 0.251337,-0.36223 0.381642,-0.26566 0.550771,0.4082 0.121846,0.48548 0.303988,1.17525 0.404756,1.53282 0.100767,0.35758 -0.05015,0.17389 -0.335365,-0.40819 -0.614055,-1.2532 -0.737574,-0.6204 -0.136433,0.69896 0.227683,0.49971 0.505495,0.78454 0.617361,0.63297 0.111869,-0.15157 0.846931,-0.7117 1.63347,-1.24473 z M -42.05778,84.866807 c 0,-0.24767 -0.147524,-0.23261 -0.423333,0.0432 -0.610902,0.6109 -1.100455,0.52025 -0.841058,-0.15573 0.171225,-0.4462 0.116459,-0.49131 -0.238671,-0.19657 -0.253482,0.21037 -0.658517,0.26035 -0.900074,0.11106 -0.322213,-0.19914 -0.154626,-0.62953 0.629193,-1.61583 1.14887,-1.44567 1.481575,-2.299972 0.382743,-0.98279 -0.787446,0.94391 -1.23703,1.04618 -0.775452,0.17638 0.223587,-0.42132 0.179758,-0.7541 -0.13802,-1.047993 -0.366554,-0.338998 -0.498426,-0.338998 -0.61969,0 -0.08472,0.236848 -0.277773,0.315413 -0.429002,0.17458 -0.151225,-0.140833 -0.116512,-0.458333 0.07714,-0.705556 0.616306,-0.786797 0.783621,-2.036999 0.272616,-2.036999 -0.257461,0 -0.573017,-0.477636 -0.701238,-1.061413 -0.128217,-0.583777 -0.378957,-0.971282 -0.557195,-0.861124 -0.484921,0.299699 -0.390754,-0.687892 0.1169,-1.226005 0.353099,-0.374283 0.350164,-0.50063 -0.01471,-0.63403 -0.348209,-0.1273 -0.359582,-0.282405 -0.04822,-0.657574 0.224109,-0.270034 0.549455,-0.403225 0.722987,-0.295977 0.173531,0.107248 0.552418,-0.04191 0.841971,-0.331463 0.595693,-0.595697 0.708194,-1.083592 0.173683,-0.753248 -0.194028,0.119917 -0.352778,0.03292 -0.352778,-0.193311 0,-0.226237 0.236506,-0.320587 0.525572,-0.209663 0.352481,0.135262 0.59744,-0.08467 0.743797,-0.667812 0.205747,-0.819746 1.552853,-1.300741 1.552853,-0.554457 0,0.17327 0.238125,0.40641 0.529167,0.518096 0.646109,0.247932 0.673089,0.07357 0.08408,-0.543348 -0.843908,-0.883885 -1.263555,-2.240104 -0.896232,-2.896468 0.191213,-0.34168 0.265437,-0.703453 0.164945,-0.803946 -0.100492,-0.100492 -0.439032,0.31295 -0.752309,0.918764 -0.581244,1.124 -0.446434,1.987681 0.243677,1.561169 0.223863,-0.138352 0.281813,-0.07308 0.139524,0.157156 -0.165312,0.267476 -0.522298,0.287764 -1.112841,0.06324 -0.555713,-0.211282 -0.869456,-0.206417 -0.869456,0.01348 0,0.189226 0.169827,0.344046 0.377391,0.344046 0.207564,0 -0.225531,0.693099 -0.962438,1.540221 -1.102695,1.267619 -1.44642,1.473655 -1.942073,1.164114 -0.710061,-0.443428 -0.513945,-0.940442 0.371076,-0.940442 0.412471,0 0.61504,-0.257412 0.59654,-0.758046 -0.01542,-0.416927 0.192525,-0.834397 0.462069,-0.92771 0.298601,-0.103378 0.393841,-0.01397 0.243762,0.228879 -0.135474,0.219198 -0.0675,0.398543 0.151056,0.398543 0.218553,0 0.310921,-0.277812 0.205264,-0.617361 -0.105661,-0.339548 -0.03942,-0.855486 0.147214,-1.146528 0.186626,-0.291041 0.341753,-0.388694 0.344724,-0.217007 0.0028,0.171686 0.323331,-0.09202 0.711909,-0.586024 0.407017,-0.517437 0.612217,-1.143907 0.484067,-1.477857 -0.183691,-0.478695 -0.33154,-0.407335 -0.848695,0.409631 -0.344438,0.544121 -1.505976,1.941813 -2.581197,3.10598 -1.075221,1.164166 -2.23163,2.424243 -2.569796,2.800173 -0.364832,0.405575 -0.667886,0.52439 -0.745282,0.292199 -0.130873,-0.392617 0.31163,-1.017968 2.114811,-2.988666 0.533577,-0.583146 0.970139,-1.202228 0.970139,-1.375738 0,-0.173507 0.219283,-0.315469 0.487296,-0.315469 0.268012,0 0.903012,-0.545034 1.411111,-1.211184 1.005695,-1.318532 1.109373,-1.611038 0.571038,-1.611038 -0.194028,0 -0.352778,0.227429 -0.352778,0.505393 0,0.277968 -0.3094,0.603596 -0.687553,0.723614 -0.378933,0.120269 -0.607505,0.42683 -0.509214,0.682968 0.150492,0.392176 -0.516117,0.803472 -1.684253,1.039181 -0.347574,0.07014 -0.816804,0.588899 -0.867244,0.958797 -0.09028,0.662076 -0.140427,0.71277 -0.490823,0.496214 -0.197192,-0.121871 -0.23931,-0.409053 -0.0936,-0.638183 0.145712,-0.229125 0.267367,-0.560211 0.270338,-0.735742 0.0028,-0.175532 0.300404,-0.362444 0.66096,-0.415364 0.700889,-0.10287 2.217717,-1.382586 2.701534,-2.279231 0.213473,-0.395626 0.11605,-0.557681 -0.356666,-0.593291 -0.640616,-0.04826 -1.135637,0.635543 -1.202443,1.660984 -0.01877,0.28787 -0.330708,0.58094 -0.693236,0.651274 -0.47335,0.09184 -0.579787,-0.006 -0.377613,-0.347007 0.154841,-0.261186 0.659408,-1.109885 1.121261,-1.885996 l 0.839735,-1.411111 -0.991288,1.058852 c -0.545207,0.582369 -1.361436,1.534869 -1.813839,2.116667 -0.452402,0.581797 -0.735199,0.780002 -0.628434,0.440453 0.124463,-0.395834 0.0082,-0.617361 -0.323974,-0.617361 -0.284953,0 -0.518096,0.165178 -0.518096,0.367062 0,0.201884 -0.34591,0.834933 -0.768691,1.406772 -0.946162,1.279754 -0.588629,1.821357 0.433968,0.657391 0.814751,-0.927382 0.58752,-0.318086 -0.429894,1.152723 -0.356912,0.515962 -0.559883,1.170164 -0.451049,1.453783 0.11127,0.289962 -0.05239,0.611706 -0.37392,0.735086 -0.31449,0.120682 -0.480905,0.366494 -0.36981,0.546252 0.111095,0.179754 0.0021,0.543006 -0.242223,0.807223 -1.5202,1.644011 -1.856964,2.166165 -1.255931,1.947326 0.428466,-0.156005 0.543017,-0.07132 0.401694,0.296961 -0.140604,0.366406 -0.02974,0.450748 0.383883,0.292026 0.33536,-0.12869 0.88116,0.04794 1.289182,0.417192 0.544382,0.492661 0.659707,0.515567 0.499973,0.09931 -0.114728,-0.298976 0.06662,-0.763655 0.405315,-1.038557 0.487334,-0.395541 0.553861,-0.39938 0.324655,-0.01873 -0.22335,0.370924 -0.107386,0.421354 0.514812,0.223872 0.660558,-0.209652 0.762321,-0.148625 0.573345,0.343839 -0.126365,0.3293 -0.229754,0.753865 -0.229754,0.943472 0,0.189611 -0.198437,0.225531 -0.440972,0.07982 -0.30897,-0.185625 -0.298482,-0.0892 0.03503,0.322121 0.403327,0.49742 0.389861,0.673192 -0.08819,1.151252 -0.31031,0.31031 -0.584045,0.394109 -0.608298,0.186224 -0.02425,-0.207888 -0.06777,-0.576414 -0.0967,-0.818949 -0.02894,-0.242535 -0.32659,-0.418924 -0.661459,-0.391975 -0.379017,0.03051 -0.608847,-0.202533 -0.608847,-0.617354 0,-0.941701 -0.332129,-0.833653 -1.476004,0.480169 l -0.99822,1.146528 0.09058,-1.011357 c 0.0821,-0.916644 -0.02505,-1.023867 -1.144138,-1.144948 -0.84438,-0.09136 -1.074604,-0.03108 -0.72824,0.190719 0.440125,0.28182 0.440125,0.405818 0,0.946418 -0.449872,0.55257 -0.439487,0.597013 0.09291,0.39763 0.428496,-0.160471 0.543464,-0.07872 0.403229,0.286727 -0.115801,0.30177 0.01368,0.5112 0.316067,0.5112 0.281729,0 0.781817,0.297886 1.111307,0.661967 0.56124,0.620165 0.561504,0.676387 0.0042,0.89025 -0.327189,0.12555 -0.493766,0.3294 -0.370171,0.453 0.3123,0.3123 1.668069,-0.969094 1.431071,-1.352564 -0.105845,-0.171259 -0.356693,-0.209874 -0.55744,-0.08581 -0.200746,0.124068 -0.08101,-0.207835 0.266081,-0.737563 0.555706,-0.848113 0.680105,-0.896087 1.041613,-0.401694 0.225796,0.308793 0.513904,0.458078 0.64024,0.331742 0.126336,-0.126337 0.229701,0.0179 0.229701,0.320516 0,0.302623 -0.238125,0.641597 -0.529166,0.753283 -0.291042,0.111682 -0.529167,0.446165 -0.529167,0.7433 0,0.29713 -0.15875,0.54024 -0.352778,0.54024 -0.194027,0 -0.352777,0.14678 -0.352777,0.32617 0,0.52176 2.548833,0.0601 3.331425,-0.60333 0.676243,-0.573321 0.688484,-0.572668 0.235271,0.0126 -0.262947,0.33955 -0.33165,0.61736 -0.152668,0.61736 0.563343,0 1.124803,-0.77106 0.930384,-1.277712 -0.102612,-0.267381 -0.01083,-0.486163 0.203955,-0.486163 0.491501,0 1.606546,-1.099443 1.905706,-1.879032 0.210957,-0.549752 0.95426,-0.847232 0.95426,-0.381907 0,0.114677 -0.555625,0.857624 -1.234722,1.650997 -0.679098,0.793372 -1.234723,1.638827 -1.234723,1.878767 0,0.23995 -0.198437,0.50714 -0.440972,0.59376 -0.242535,0.0866 -0.320255,0.28671 -0.172709,0.44465 0.147546,0.15794 0.742858,-0.16752 1.322916,-0.72326 0.580059,-0.55573 1.054654,-0.84141 1.054654,-0.63484 0,0.20658 -0.243413,0.5776 -0.540914,0.82451 -0.297504,0.2469 -0.48756,0.60899 -0.422345,0.80463 0.20187,0.60562 1.570189,0.61147 2.070311,0.009 0.421369,-0.50772 0.381025,-0.54244 -0.357805,-0.30795 -0.622155,0.19747 -0.792476,0.14343 -0.673558,-0.21369 0.24119,-0.72432 1.260277,-0.77992 1.934637,-0.10557 0.565263,0.56527 0.554154,0.63773 -0.19013,1.24042 l -0.790466,0.64008 0.808052,0.44407 c 0.44443,0.24424 1.021034,0.47948 1.281349,0.52276 0.260315,0.0433 0.563206,0.1686 0.673096,0.27849 0.263635,0.26364 1.146662,-0.48039 1.146662,-0.96616 z m -4.107674,-4.617231 c 0.02791,-0.465166 0.169792,-0.772248 0.315313,-0.682399 0.365573,0.225707 0.332444,1.096469 -0.05073,1.333285 -0.173422,0.107181 -0.292485,-0.18572 -0.264583,-0.650886 z m -3.300659,-2.265775 c 0,-0.161692 0.105579,-0.399563 0.234622,-0.528602 0.335788,-0.335788 0.472786,-1.99964 0.164645,-1.99964 -0.141986,0 -0.484131,0.198437 -0.760325,0.440972 -0.276189,0.242535 -0.228564,0.110973 0.105834,-0.292361 0.334401,-0.403334 0.608002,-0.893791 0.608002,-1.089903 0,-0.196113 0.396875,-0.537394 0.881944,-0.758409 0.724267,-0.329996 0.881945,-0.308586 0.881945,0.119764 0,0.286883 -0.228756,0.521603 -0.508346,0.521603 -0.702293,0 -0.906717,0.437861 -0.654572,1.402052 0.202773,0.775413 0.239176,0.784723 0.684893,0.175169 0.846942,-1.158262 0.768922,-0.375264 -0.09769,0.980418 -0.780906,1.221603 -1.540951,1.729109 -1.540952,1.028937 z m -2.822222,-2.230254 c 0,-0.76296 0.256782,-1.419384 0.705555,-1.803633 0.797782,-0.683084 1.03099,-0.02166 0.264584,0.750436 -0.353695,0.356309 -0.310661,0.394596 0.217428,0.193453 0.568511,-0.216546 0.607264,-0.15523 0.283844,0.449082 -0.206006,0.38493 -0.62135,0.904688 -0.922984,1.155023 -0.477763,0.396508 -0.548427,0.300598 -0.548427,-0.744361 z m 1.411111,-3.232584 c 0,-0.658601 0.575377,-1.089219 0.853683,-0.638909 0.108285,0.175207 -0.0395,0.514734 -0.328401,0.754507 -0.427097,0.354457 -0.525282,0.332849 -0.525282,-0.115598 z m -3.880556,10.716524 c 0,-0.41622 -0.688041,-0.86148 -0.940741,-0.60878 -0.252699,0.2527 0.192555,0.94074 0.608783,0.94074 0.182577,0 0.331958,-0.14938 0.331958,-0.33196 z m 12.933638,-0.81457 c -0.09786,-0.24253 -0.177938,-0.0441 -0.177938,0.44098 0,0.48506 0.08007,0.6835 0.177938,0.44097 0.09786,-0.24254 0.09786,-0.63941 0,-0.88195 z m -13.542934,-0.947353 c 0.101041,-0.386384 -0.02644,-0.761432 -0.293667,-0.863978 -0.324477,-0.124513 -0.401986,0.0063 -0.247742,0.41819 0.195884,0.523051 0.148665,0.537731 -0.370744,0.115228 -0.675526,-0.549494 -0.818977,-0.05709 -0.171884,0.590003 0.595953,0.59595 0.877999,0.52845 1.084037,-0.259443 z m 13.662074,-0.02278 c 0,-0.194027 -0.16812,-0.352777 -0.373599,-0.352777 -0.205479,0 -0.275484,0.15875 -0.155568,0.352777 0.119917,0.194023 0.288036,0.352773 0.373599,0.352773 0.08556,0 0.155568,-0.15875 0.155568,-0.352773 z m -15.598066,-0.617361 c -0.07017,-0.339548 -0.399308,-0.595312 -0.731423,-0.568364 -0.698066,0.05664 -0.814973,-0.438054 -0.162872,-0.6892 0.242535,-0.0934 0.08378,-0.152228 -0.352778,-0.130715 -0.95449,0.04704 -0.999246,0.36946 -0.176389,1.270688 0.786292,0.861175 1.590859,0.927635 1.423462,0.117591 z m 14.186898,-2.028645 c -0.225269,-0.682576 -0.55554,-1.150842 -0.733929,-1.040589 -0.178393,0.11025 -0.324347,-0.0564 -0.324347,-0.370349 0,-0.313944 -0.153318,-0.476053 -0.340703,-0.360243 -0.377828,0.233511 0.635939,2.653298 1.111596,2.653298 0.158094,0 0.299974,0.277813 0.315292,0.617362 0.0164,0.363668 0.100548,0.437416 0.204762,0.179465 0.0973,-0.240845 -0.0074,-0.996372 -0.232671,-1.678944 z m -16.592911,0.552531 c 0.448221,-0.837508 0.478746,-2.139858 0.05016,-2.139858 -0.370568,0 -0.793394,0.910241 -0.942269,2.028472 -0.129586,0.973353 0.395703,1.038938 0.892113,0.111386 z m 17.6459,-1.934072 c 0.0028,-0.177857 -0.09797,-0.220014 -0.224299,-0.09368 -0.255634,0.255633 -1.158971,-0.794127 -1.158971,-1.346831 0,-0.194028 0.19339,-0.100771 0.429751,0.207235 0.405183,0.527996 1.67156,0.79628 1.65838,0.351328 -0.01404,-0.474475 -1.76699,-1.829241 -2.100316,-1.623236 -0.524284,0.324026 -0.448567,1.044635 0.254328,2.420518 0.553907,1.084251 1.123721,1.126525 1.141127,0.08466 z m 24.694445,0.03798 c 0.003,-0.156972 -0.153349,-0.18729 -0.347377,-0.06737 -0.194028,0.119916 -0.350347,0.486473 -0.347377,0.814571 0.0047,0.514092 0.05267,0.523406 0.347377,0.06737 0.188087,-0.291041 0.344406,-0.657599 0.347377,-0.814571 z m 1.684436,-1.016233 c 0.406065,-1.709441 0.384411,-1.884539 -0.326648,-2.641427 -0.582845,-0.620409 -0.872864,-0.718238 -1.235942,-0.416909 -0.38679,0.321006 -0.311048,0.545105 0.410135,1.213471 0.919586,0.852244 1.138778,1.713008 0.531753,2.088169 -0.410961,0.25399 -0.48109,1.5875 -0.08348,1.5875 0.14811,0 0.464997,-0.823863 0.704187,-1.830804 z m -39.45631,0.331499 c 0.164993,-0.436563 0.211868,-0.941963 0.104165,-1.123111 -0.198281,-0.333498 -0.709315,0.665649 -0.754873,1.475888 -0.03975,0.706992 0.324896,0.509299 0.650708,-0.352777 z m 9.85963,-0.294372 c -0.218496,-0.13504 -0.140631,-0.310417 0.195009,-0.439212 0.307311,-0.117927 0.558747,-0.457518 0.558747,-0.754652 0,-0.297131 0.145803,-0.540237 0.324005,-0.540237 0.345073,0 1.792661,-2.167043 1.792661,-2.683616 0,-0.317443 -2.125006,1.959695 -3.005522,3.220692 -0.283721,0.406319 -0.406364,1.06461 -0.284892,1.529126 0.155197,0.593478 0.290992,0.689956 0.498513,0.354182 0.159131,-0.257478 0.124422,-0.56086 -0.07852,-0.686283 z m -11.158706,-0.123794 c 0.241742,-1.264592 -0.326121,-1.989603 -0.625155,-0.798159 -0.131379,0.523458 -0.469155,0.951741 -0.750614,0.951741 -0.281458,0 -0.41363,0.15875 -0.293714,0.352778 0.429081,0.694267 1.502188,0.36879 1.669483,-0.50636 z m -2.44921,-1.257529 c -0.101479,-0.388056 -0.245367,-0.705556 -0.319751,-0.705556 -0.07438,0 -0.135244,0.3175 -0.135244,0.705556 0,0.388056 0.143888,0.705556 0.319751,0.705556 0.175863,0 0.236723,-0.3175 0.135244,-0.705556 z m 1.724605,-0.17363 c 0.279495,-0.613428 0.525193,-0.775773 0.812811,-0.537073 0.612666,0.50847 1.66542,-1.856182 1.284645,-2.885514 l -0.291265,-0.787365 -0.433978,0.810895 c -0.238687,0.445989 -0.5284,0.716471 -0.643807,0.601063 -0.296885,-0.296883 -1.849673,1.230334 -1.849673,1.819215 0,0.27474 0.19296,0.390751 0.440973,0.265123 0.242534,-0.122854 0.147263,0.01598 -0.211716,0.308487 -0.358978,0.29252 -0.548046,0.701167 -0.420152,0.908107 0.38414,0.621548 0.887762,0.428515 1.312162,-0.502938 z m 3.789316,-0.08151 c 0.304286,-0.667837 0.321548,-0.999423 0.05663,-1.08773 -0.550535,-0.183515 -0.468969,-0.773794 0.106924,-0.773794 0.268412,0 0.579616,-0.350255 0.691563,-0.778344 0.274158,-1.048378 0.02687,-1.215919 -0.457859,-0.310205 -0.216574,0.404675 -0.546936,0.735771 -0.734138,0.735771 -0.58656,0 -0.370751,-1.34899 0.293094,-1.83208 0.348402,-0.253535 0.896567,-1.0166 1.218143,-1.695698 0.321576,-0.679097 1.005082,-1.681681 1.518904,-2.227961 0.959721,-1.020349 0.95159,-1.752656 -0.01058,-0.954115 -0.295739,0.245434 -0.5377,0.33843 -0.5377,0.206657 0,-0.131773 -0.32777,-0.01002 -0.728377,0.270587 -0.400608,0.280596 -1.035608,0.429832 -1.411112,0.331636 -0.525006,-0.13729 -0.682733,0.0039 -0.682733,0.611357 0,0.620804 0.101348,0.705785 0.473431,0.396985 0.260387,-0.216102 0.586519,-0.279824 0.724737,-0.141605 0.138218,0.138218 0.398993,0.01778 0.5795,-0.267646 0.256886,-0.406195 0.329368,-0.415004 0.333596,-0.04055 0.0052,0.458071 -1.921635,3.156853 -2.590838,3.628852 -0.189821,0.133883 -0.160348,0.688739 0.07198,1.35521 0.317347,0.910343 0.292471,1.229438 -0.128672,1.650584 -0.28714,0.28714 -0.519642,0.709168 -0.51667,0.937846 0.0032,0.243727 0.14691,0.196804 0.347375,-0.113394 0.276534,-0.427905 0.343008,-0.377274 0.347376,0.264584 0.0073,1.079387 0.50405,0.999303 1.035429,-0.166949 z m 11.310118,-0.635328 c -0.245434,-0.29573 -0.538084,-0.445848 -0.650338,-0.333594 -0.112254,0.112251 0.02942,0.351783 0.314854,0.532289 0.74682,0.472302 0.844402,0.41451 0.335484,-0.198695 z m -18.048779,-1.049807 c 0.221013,-0.485069 0.545479,-0.881944 0.721037,-0.881944 0.175558,0 0.412743,-0.277813 0.527079,-0.617361 0.382616,-1.136277 1.537008,-2.894112 1.756472,-2.674649 0.119328,0.119327 0.551717,-0.162715 0.960865,-0.626766 0.492147,-0.558186 0.681321,-0.643541 0.558979,-0.252215 -0.224292,0.717427 0.522063,2.444221 0.990732,2.292195 0.184634,-0.05989 0.616456,-0.611449 0.959606,-1.225688 0.61912,-1.108226 0.617897,-1.116168 -0.159308,-1.03463 -0.628015,0.06588 -0.761346,-0.07512 -0.672848,-0.711581 0.114458,-0.823147 -0.252788,-1.030527 -0.833563,-0.470701 -0.184327,0.17768 -0.890764,0.374368 -1.569861,0.437088 -1.103379,0.101911 -1.355522,0.335697 -2.370324,2.197764 -0.624581,1.146044 -1.066229,2.195967 -0.98144,2.333159 0.08479,0.137192 -0.07383,0.55064 -0.352484,0.918775 -0.578456,0.764201 -0.662864,1.198499 -0.232934,1.198499 0.162883,0 0.47698,-0.396875 0.697992,-0.881945 z m 1.133742,-3.195768 c -0.0062,-0.205451 0.221857,-0.681701 0.506728,-1.058333 0.284871,-0.376633 0.522996,-0.516693 0.529167,-0.311242 0.0062,0.205451 -0.221857,0.681701 -0.506728,1.058333 -0.284871,0.376633 -0.522996,0.516693 -0.529167,0.311242 z m 1.954257,1.1043 c 0.277183,-0.277184 0.503968,-0.703992 0.503968,-0.948464 0,-0.253203 -0.303646,-0.118572 -0.705555,0.312829 -1.03342,1.109243 -0.85009,1.687312 0.201587,0.635635 z m -3.376587,-1.798835 c 0,-0.275865 0.214969,-0.414785 0.482804,-0.312007 0.283612,0.108832 0.558621,-0.104655 0.66657,-0.517455 0.201344,-0.769937 -0.71892,-1.386811 -0.975872,-0.654148 -0.08391,0.239264 -0.315549,0.88066 -0.514747,1.425324 -0.235368,0.643566 -0.239033,0.914192 -0.01047,0.772929 0.193442,-0.119553 0.351712,-0.441141 0.351712,-0.714643 z m 0.380628,-1.077983 c 0.01693,-0.410968 0.100521,-0.494559 0.213137,-0.213138 0.101907,0.25466 0.08937,0.558931 -0.02785,0.676159 -0.117225,0.117224 -0.200604,-0.09114 -0.185286,-0.463021 z m 18.803978,1.422185 c 0.12047,-0.313944 0.06133,-0.455549 -0.138646,-0.331957 -0.191805,0.11854 -0.348738,0.364913 -0.348738,0.54749 0,0.507446 0.252861,0.395626 0.487384,-0.215533 z m -6.499836,-4.518943 c 0.31345,-0.882046 0.291444,-0.953639 -0.174318,-0.56709 -0.293183,0.243318 -0.459408,0.516051 -0.369386,0.606069 0.09002,0.09002 -0.144272,0.494206 -0.520644,0.898193 -0.376371,0.403987 -0.68078,0.982402 -0.676465,1.285364 0.01048,0.735281 1.253811,-0.852124 1.740813,-2.222536 z m 3.19023,-0.225234 c 0,-0.194028 -0.07,-0.352778 -0.155568,-0.352778 -0.08556,0 -0.253683,0.15875 -0.373599,0.352778 -0.119916,0.194028 -0.04991,0.352778 0.155568,0.352778 0.205479,0 0.373599,-0.15875 0.373599,-0.352778 z m -1.559596,-0.859451 c 0.316742,-0.316742 0.373416,-0.589034 0.15119,-0.726377 -0.480127,-0.296735 -1.061039,0.100037 -1.061039,0.724704 0,0.643605 0.267427,0.644095 0.909849,0.0018 z M -63.53416,14.892442 c -0.307464,-0.528735 -0.376304,-0.543975 -0.385114,-0.08526 -0.01141,0.594106 0.359548,1.12903 0.609572,0.879006 0.08246,-0.08246 -0.01855,-0.439649 -0.224458,-0.79375 z m 0.567727,-3.743757 c -0.361348,-0.551486 -0.420355,-1.037079 -0.198801,-1.6359973 0.190672,-0.515438 0.183676,-0.983123 -0.01772,-1.184519 -0.501454,-0.501454 -1.099826,0.03293 -1.099826,0.982218 0,0.9882653 1.483793,3.6618553 1.689602,3.0444303 0.07734,-0.232023 -0.09062,-0.774782 -0.373255,-1.206132 z m 0.80032,-3.0308763 c 0,-0.170488 0.474232,-0.506412 1.05385,-0.746498 0.579617,-0.240085 0.967123,-0.576845 0.861124,-0.748354 -0.323699,-0.523757 -1.171885,-0.34937 -1.914974,0.39372 -0.759519,0.759519 -0.922417,1.411111 -0.352778,1.411111 0.194028,0 0.352778,-0.139491 0.352778,-0.309979 z m 22.2885,131.6751013 c 0.535414,-0.59798 0.546192,-0.88341 0.111566,-2.9545 -0.264608,-1.2609 -0.590529,-2.61006 -0.724271,-2.99811 -0.231401,-0.67143 -0.216393,-0.66987 0.310251,0.0323 0.30438,0.40581 0.740629,1.51706 0.969444,2.46944 0.228815,0.95238 0.646994,2.10257 0.929291,2.55596 0.608164,0.97679 0.619273,0.96171 -0.954226,1.29518 -1.189231,0.25204 -1.212885,0.23729 -0.642055,-0.40025 z m -3.405985,-5.87515 c -0.351825,-1.11855 -0.553618,-2.11979 -0.44843,-2.22497 0.26615,-0.26616 1.412526,3.28545 1.233668,3.82203 -0.08006,0.24016 -0.433409,-0.47852 -0.785238,-1.59706 z M 109.84923,133.5704 c -0.47189,-0.35408 -0.60607,-0.75265 -0.45481,-1.35091 0.32041,-1.26724 2.76984,-4.88168 4.43908,-6.55041 l 1.46888,-1.46844 -1.17821,-0.38884 c -1.14476,-0.37781 -2.92951,-0.28989 -5.51747,0.2718 -1.57659,0.34218 -4.04199,-0.31458 -4.19853,-1.11844 -0.0623,-0.31978 0.19976,-1.17869 0.58229,-1.90869 1.24907,-2.38365 1.94013,-4.13205 2.01677,-5.10248 0.0414,-0.52413 0.33245,-1.21016 0.64679,-1.5245 0.31435,-0.31434 0.57154,-0.79832 0.57154,-1.0755 0,-0.77498 -0.003,-0.76276 0.57267,-2.1412 0.35016,-0.83805 0.60542,-2.93202 0.72111,-5.91543 0.0985,-2.54 0.33757,-5.13815 0.53129,-5.773663 0.37211,-1.22074 1.89658,-3.25424 2.43962,-3.25424 0.57823,0 0.33853,0.75975 -0.58655,1.85915 -0.861,1.02324 -0.90336,1.26412 -0.81902,4.657113 0.0489,1.96793 0.009,3.72777 -0.0879,3.91076 -0.1915,0.3603 -0.7486,2.22319 -1.41824,4.74243 -0.5342,2.00972 -0.56432,2.10051 -1.34613,4.05694 -0.37309,0.93364 -1.06519,3.51438 -1.06519,3.97194 0,0.19926 0.24009,0.45443 0.53353,0.56703 0.42134,0.16168 0.48604,0.0155 0.30771,-0.69499 -0.12419,-0.49485 -0.0666,-1.24468 0.1281,-1.6663 0.19466,-0.42161 0.52904,-1.20313 0.74306,-1.73671 0.21403,-0.53357 0.5513,-0.97014 0.74948,-0.97014 0.50338,0 0.44921,0.5663 -0.1074,1.12291 -0.25726,0.25726 -0.56792,0.96862 -0.69035,1.58079 -0.25417,1.27083 0.12953,1.56098 1.67386,1.26576 0.66329,-0.12679 0.92119,-0.0633 0.76563,0.18835 -0.3726,0.6029 0.33725,0.81884 1.38376,0.42096 1.162,-0.44179 1.547,-0.17306 0.80914,0.5648 -0.39825,0.39825 -1.39322,0.55421 -3.77754,0.59212 -2.93595,0.0467 -3.28516,0.12513 -3.75596,0.84366 -0.66233,1.01085 -0.45382,1.10828 2.11893,0.99004 1.16416,-0.0535 3.1776,-0.13539 4.4743,-0.18195 1.2967,-0.0466 2.48733,-0.17998 2.64584,-0.29647 0.30668,-0.22539 1.17014,-1.67304 1.17014,-1.96184 0,-0.30117 -2.05649,-1.24846 -2.71651,-1.25132 -0.76916,-0.003 -1.51683,-1.49285 -1.51683,-3.02184 0,-1.6314 1.07516,-4.445 3.58081,-9.37066 0.83996,-1.65123 0.8252,-1.98149 -0.053,-1.18669 -0.38806,0.35118 -0.70556,0.46734 -0.70556,0.25813 0,-0.42043 1.144,-1.89101 3.36766,-4.32905 1.15736,-1.268943 1.50916,-1.967193 1.6943,-3.362873 0.12851,-0.96877 0.51059,-2.02288 0.84905,-2.34246 0.90183,-0.85152 1.58646,-1.72103 1.44472,-1.83487 -0.0681,-0.0547 -1.24165,-0.27841 -2.60794,-0.49717 -1.36629,-0.21876 -3.49134,-0.71949 -4.72234,-1.11275 -1.73855,-0.5554 -2.52277,-0.6416 -3.51306,-0.38613 -2.86192,0.7383 -6.40315,0.93745 -7.37936,0.415 -0.95429,-0.51072 -2.93796,-0.53637 -4.635952,-0.0599 -2.67301,0.75001 -5.00783,1.09377 -8.37802,1.23351 -1.7839,0.074 -3.418042,0.24239 -3.63143,0.37428 -0.213388,0.13187 -0.61915,0.0479 -0.901689,-0.18656 -0.401656,-0.33335 -0.626167,-0.33302 -1.02923,0.001 -0.673064,0.55859 -2.615752,-0.0534 -4.079557,-1.28507 -0.577155,-0.48564 -1.049373,-0.77273 -1.049373,-0.63797 0,0.44207 1.680372,2.25307 1.893136,2.0403 0.239596,-0.23959 2.686943,1.34871 2.690566,1.74615 0.0032,0.33343 2.973729,0.35067 3.305214,0.0192 0.408233,-0.40823 1.417773,-0.46972 2.165253,-0.13189 0.66291,0.29961 5.99861,0.99192 7.9375,1.02988 0.9609,0.0188 4.091932,0.24199 6.879172,0.49033 1.01614,0.0905 2.23092,-0.0377 2.8656,-0.3025 0.60595,-0.25282 1.17879,-0.3826 1.27299,-0.2884 0.0942,0.0942 0.86842,-0.12535 1.7205,-0.48789 1.49841,-0.63753 3.91339,-1.02866 8.18222,-1.32522 2.61694,-0.18179 2.32164,0.39488 -0.36651,0.71576 -4.99144,0.59582 -8.01211,1.27646 -8.75274,1.97224 -0.6013,0.56489 -1.26508,0.7198 -3.19335,0.74522 -2.83931,0.0374 -11.918092,-0.59196 -15.487052,-1.07366 -2.47036,-0.33343 -3.723868,-0.30536 -5.04162,0.11287 -0.386172,0.12257 -1.394164,-0.0182 -2.23998,-0.31272 -0.845813,-0.29457 -1.782089,-0.53788 -2.080613,-0.54071 -0.603363,-0.006 -2.901784,-1.11439 -3.722758,-1.79574 -0.290996,-0.24151 -0.440196,-0.67073 -0.331555,-0.95385 0.149747,-0.39023 -0.01693,-0.47374 -0.689088,-0.34525 -0.487634,0.0932 -1.164611,-0.0467 -1.504385,-0.31092 -0.583488,-0.45374 -0.577113,-0.51504 0.114829,-1.10456 0.402936,-0.34329 0.660583,-0.84025 0.572548,-1.10435 -0.268288,-0.80487 3.863209,-0.16454 4.470513,0.69288 0.519592,0.73357 2.651597,0.9651 3.043777,0.33055 0.127204,-0.20582 -0.231521,-0.35278 -0.861124,-0.35278 -0.724062,7e-5 -1.079154,-0.17405 -1.079154,-0.52909 0,-0.29104 0.228755,-0.52917 0.508346,-0.52917 0.27959,0 0.600188,-0.1486 0.712442,-0.33023 0.199453,-0.32272 -0.577843,-0.83778 -2.901443,-1.92256 -1.304219,-0.60888 -1.833675,-1.5528 -1.118806,-1.99461 0.389576,-0.24077 0.359967,-0.42645 -0.15954,-1.0005 -0.669604,-0.7399 -0.46579,-1.62622 0.305865,-1.33011 0.24777,0.0951 0.615209,0.008 0.816529,-0.19316 0.252864,-0.25286 0.606905,-0.19733 1.145074,0.17962 0.600686,0.42074 0.923992,0.45513 1.412194,0.15025 0.744238,-0.46479 1.64047,0.11326 2.116381,1.36501 0.315659,0.83024 2.535785,1.44146 3.789958,1.0434 0.37825,-0.12005 1.35141,0.15854 2.28179,0.65323 1.32564,0.70485 2.03018,0.84283 3.85326,0.75463 1.22705,-0.0594 2.6779,-0.28678 3.22411,-0.50535 0.54621,-0.21857 1.37964,-0.3974 1.85208,-0.3974 1.033852,0 1.145642,-0.69664 0.153432,-0.95611 -0.388062,-0.10148 -0.705562,-0.35575 -0.705562,-0.56503 0,-0.20929 -0.37482,-0.78609 -0.83295,-1.28177 -0.45812,-0.49569 -1.29155,-1.77438 -1.85208,-2.841531 -0.56052,-1.067153 -1.12287,-2.019653 -1.24965,-2.116667 -0.53425,-0.408817 -1.07699,-6.066843 -0.63449,-6.614584 0.1216,-0.150509 0.21856,-0.562895 0.5163,-2.195816 0.22363,-1.226523 0.6673,-1.948092 1.98988,-3.236323 2.902502,-2.827126 7.750462,-4.061654 13.680572,-3.483741 1.66248,0.162017 3.3402,0.304543 3.72826,0.316724 1.0393,0.03263 4.7037,0.622762 6.52638,1.051045 0.87313,0.205161 2.54,0.535887 3.70417,0.734942 4.02767,0.688679 9.35206,2.388708 11.38474,3.635044 2.00915,1.231903 6.92176,6.444989 7.35254,7.802241 0.32331,1.018671 4.1845,4.81269 4.8979,4.81269 0.34276,0 1.13193,-0.314409 1.7537,-0.698687 l 1.1305,-0.698683 2.03429,0.787968 c 1.7157,0.664568 2.16383,1.030158 2.86143,2.334408 0.56368,1.05386 0.76279,1.86818 0.62512,2.55655 -0.12655,0.63276 -0.0538,1.01011 0.19485,1.01011 0.21828,0 0.39688,0.46688 0.39688,1.03751 0,0.57064 0.17569,1.1461 0.39044,1.27882 0.28074,0.17351 0.27323,0.31375 -0.0267,0.49915 -0.22946,0.14181 -0.50544,0.91571 -0.61329,1.71979 -0.10785,0.80408 -0.31467,1.46195 -0.45961,1.46195 -0.14494,0 -0.4608,0.47625 -0.70191,1.05834 -0.2411,0.58208 -0.58179,1.05833 -0.75708,1.05833 -0.1753,0 -0.46961,0.39688 -0.65403,0.88195 -0.18442,0.48506 -0.48078,0.88194 -0.65858,0.88194 -0.1778,0 -0.42287,0.39687 -0.54462,0.88194 -0.25962,1.03442 -0.56867,1.07867 -2.18307,0.31259 -1.30153,-0.61762 -1.49788,-1.00468 -0.67067,-1.32211 0.96248,-0.36933 0.54946,-0.93075 -0.68474,-0.93075 -0.66764,0 -1.31671,-0.16635 -1.44236,-0.36966 -0.12566,-0.20331 -0.49221,-0.34378 -0.81457,-0.31216 -0.32236,0.0316 -1.2715,0.0392 -2.10919,0.0169 -1.28418,-0.0343 -1.49217,-0.138 -1.32604,-0.66144 0.25765,-0.81178 -1.48089,-1.61784 -2.784,-1.29078 -0.76361,0.19165 -0.97265,0.0967 -1.13241,-0.51418 -0.10776,-0.41207 -0.29648,-0.74538 -0.41937,-0.74067 -0.12289,0.005 -0.68731,0.99689 -1.25426,2.20486 -1.0015,2.13383 -2.57219,4.54302 -3.11971,4.78515 -0.14849,0.0657 -0.58463,0.8101 -0.96921,1.654303 -0.38458,0.84419 -0.8584,1.63328 -1.05294,1.75351 -0.19454,0.12021 -0.35371,0.52672 -0.35371,0.90332 0,0.37661 -0.14108,0.68474 -0.31352,0.68474 -0.17243,0 -0.41775,0.55562 -0.54515,1.23472 -0.1274,0.67909 -0.36766,1.23472 -0.53392,1.23472 -0.16625,0 -0.46711,0.47284 -0.66857,1.05075 -0.37719,1.08201 -0.83622,1.74535 -1.90759,2.75664 -0.33955,0.32051 -0.61736,0.78237 -0.61736,1.02635 0,0.24399 -0.59531,1.23184 -1.32292,2.19523 -0.7276,0.9634 -1.71936,2.51443 -2.20391,3.44675 -0.48455,0.93231 -1.17655,2.14082 -1.53779,2.68557 -0.36124,0.54474 -0.59979,1.02099 -0.53012,1.05833 2.03739,1.09176 2.1163,1.51991 0.36698,1.99095 -1.64284,0.44237 -2.0119,0.83199 -2.35549,2.48665 -0.24873,1.19783 -1.0758,2.46945 -1.60615,2.46945 -0.31174,0 0.2291,-2.60249 0.82477,-3.96875 0.23263,-0.53358 0.54297,-0.97014 0.68963,-0.97014 0.14667,0 0.26666,-0.18894 0.26666,-0.41987 0,-0.64099 2.19684,-4.8718 2.52966,-4.8718 0.16091,0 0.29257,-0.15328 0.29257,-0.34063 0,-0.57938 2.41258,-4.66544 4.06892,-6.89131 0.86629,-1.16417 1.68535,-2.35479 1.82014,-2.64584 0.13479,-0.29104 0.45239,-0.73894 0.70578,-0.99533 0.25339,-0.2564 0.4676,-0.73265 0.47601,-1.05834 0.008,-0.32569 0.40091,-1.22716 0.8722,-2.00327 0.47129,-0.77611 1.09128,-1.92699 1.37775,-2.5575 0.45356,-0.998283 2.12011,-3.457453 2.68967,-3.968893 0.10804,-0.097 0.70749,-1.09254 1.33212,-2.21227 l 1.13569,-2.03588 -0.92371,-1.66829 c -1.25115,-2.25964 -5.40115,-5.96095 -8.84835,-7.89167 -3.63162,-2.034026 -11.77124,-5.947447 -12.37022,-5.947447 -0.34626,0 -1.18445,0.716287 -1.86264,1.591755 -0.6782,0.875464 -2.04816,2.185151 -3.04438,2.910416 -1.85774,1.352486 -5.14276,5.321816 -4.82706,5.832626 0.26928,0.4357 6.63476,3.42354 7.29373,3.42354 0.31864,0 0.57935,0.12161 0.57935,0.27024 0,0.28241 4.32071,1.32728 7.05555,1.70623 0.87313,0.12098 1.74625,0.33874 1.94028,0.48391 0.19403,0.14516 0.93607,0.35341 1.64899,0.46277 1.41305,0.21674 3.25635,1.65019 4.02219,3.12787 0.42297,0.8161 0.41436,0.96284 -0.0673,1.14767 -0.72736,0.27912 -1.28952,-0.0913 -1.05723,-0.69669 0.10177,-0.2652 0.0568,-0.56145 -0.1,-0.65832 -0.15674,-0.0969 -0.46402,0.42144 -0.68285,1.1518 -0.21882,0.73036 -1.44817,2.590483 -2.73188,4.133593 -1.28372,1.54311 -2.5014,3.12315 -2.70595,3.51121 -0.20455,0.38805 -0.54225,0.81614 -0.75044,0.95131 -0.20818,0.13517 -0.39327,0.92892 -0.41129,1.76389 -0.018,0.83497 -0.2208,1.86488 -0.45061,2.28869 -0.22981,0.4238 -0.41784,1.11419 -0.41784,1.53418 0,0.42 -0.25431,1.34325 -0.56513,2.05167 -0.86981,1.98243 -1.07686,2.57967 -1.45555,4.19845 -0.38681,1.65352 -0.11559,1.9252 0.70437,0.70556 0.2935,-0.43657 0.63118,-0.70033 0.7504,-0.58615 0.11922,0.11418 -0.18073,0.6698 -0.66657,1.23472 -0.48582,0.56491 -0.88352,1.39095 -0.88375,1.83562 -2.4e-4,0.44468 -0.31793,1.1493 -0.70599,1.56583 -0.38805,0.41653 -0.70555,1.01843 -0.70555,1.33756 0,0.31913 -0.11477,0.695 -0.25503,0.83527 -0.29442,0.29442 -0.50001,2.68479 -0.23092,2.68479 0.0987,0 0.47698,-0.15918 0.8405,-0.35373 0.40261,-0.21547 0.74027,-0.2254 0.86388,-0.0254 0.11161,0.18058 -0.11688,0.42983 -0.50776,0.55389 -0.39087,0.12406 -0.71067,0.37361 -0.71067,0.55456 0,0.42291 0.23862,0.41492 1.08152,-0.0362 0.52,-0.2783 0.68236,-0.25041 0.68236,0.1172 0,0.51576 -2.36442,1.40887 -2.62285,0.99072 -0.0848,-0.13714 -0.76808,-0.28557 -1.51851,-0.32985 -1.24129,-0.0732 -1.44891,0.0486 -2.30104,1.35011 -1.36216,2.08052 -1.01066,2.62736 1.46984,2.28672 2.44412,-0.33564 3.96215,-0.35319 7.81773,-0.0904 2.49232,0.16989 6.01089,-0.18066 6.64191,-0.66173 0.44628,-0.34022 -0.94135,-1.18094 -1.94917,-1.18094 -0.79609,0 -1.78168,-0.41227 -2.95179,-1.23473 -1.86377,-1.31001 -2.45666,-1.45519 -3.55097,-0.86953 -1.12781,0.60358 -0.74146,-0.13375 0.47775,-0.91177 l 1.13294,-0.72297 1.92871,1.2238 c 1.0608,0.6731 2.63138,1.35508 3.49019,1.51552 0.8588,0.16045 1.79833,0.4883 2.08785,0.72857 0.2895,0.24028 0.78267,0.43925 1.09592,0.44218 0.31325,0.003 0.61668,0.33503 0.67428,0.73803 0.0805,0.56307 -0.23955,0.88797 -1.38227,1.40326 -1.26859,0.57206 -2.16484,0.65402 -6.10195,0.55808 -7.01151,-0.17087 -8.34486,-0.15622 -10.2594,0.11274 -1.29179,0.18147 -1.94305,0.11337 -2.43327,-0.25447 z m 4.94868,-5.99191 c -0.117,-0.43656 -0.21489,-0.92218 -0.21754,-1.07915 -0.003,-0.15698 -0.16356,-0.18729 -0.35759,-0.0674 -0.59543,0.368 -0.41915,1.94028 0.21753,1.94028 0.41928,0 0.51398,-0.21021 0.3576,-0.79375 z m 2.27762,-10.75972 c 0.23864,-1.11566 0.56753,-2.17929 0.73085,-2.36361 0.16333,-0.18433 0.29695,-0.62305 0.29695,-0.97493 0,-0.60364 0.11802,-0.90382 1.11145,-2.82714 0.22324,-0.43219 0.37907,-1.54344 0.3463,-2.46944 -0.0328,-0.926 0.0828,-1.68363 0.25686,-1.68363 0.17406,0 0.50079,-0.44499 0.72607,-0.98887 0.22528,-0.54388 0.76058,-1.37732 1.18955,-1.85209 3.19743,-3.53878 4.83644,-6.034013 4.83644,-7.363023 0,-0.75906 -1.58023,-1.79047 -2.74321,-1.79047 -1.07401,0 -2.90123,2.35434 -2.90123,3.73817 0,0.56991 -2.77531,5.673823 -3.72214,6.845173 -0.23526,0.29104 -0.54439,0.92604 -0.68695,1.41111 -0.14257,0.48507 -0.81843,2.05575 -1.50191,3.49041 -0.68347,1.43466 -1.32063,3.29997 -1.41589,4.14514 -0.0953,0.84517 -0.31131,1.53667 -0.4801,1.53667 -0.5831,0 -0.30292,0.68554 0.78798,1.928 0.66367,0.75589 1.41786,1.247 1.91498,1.247 0.71288,0 0.87682,-0.26518 1.254,-2.02847 z m 36.40806,-22.754173 c 1.34465,-0.94266 1.68053,-1.35935 1.42672,-1.77003 -0.10347,-0.16742 -0.46268,-0.0559 -0.79825,0.24774 -0.33556,0.30369 -0.82599,0.55215 -1.08983,0.55215 -0.30211,0 -0.18106,-0.27824 0.32697,-0.75154 0.61578,-0.57369 0.6986,-0.81834 0.34994,-1.03382 -0.34479,-0.21309 -0.24519,-0.45997 0.40637,-1.00722 l 0.8631,-0.72495 -1.66527,0.12289 c -1.93394,0.14271 -2.14748,0.0234 -1.64343,-0.91846 0.32436,-0.60607 0.27876,-0.66339 -0.36519,-0.45901 -0.7596,0.24109 -1.03293,-0.2943 -0.36194,-0.70899 0.23577,-0.14572 0.13824,-0.40338 -0.26403,-0.69753 -0.35085,-0.25655 -0.55879,-0.53085 -0.46208,-0.60955 1.48131,-1.20542 2.54013,-1.67405 3.33287,-1.47508 1.16863,0.29331 1.16005,-0.29773 -0.0134,-0.92577 -0.80212,-0.42928 -0.9526,-0.41867 -1.23564,0.0871 -0.17725,0.31674 -1.07593,1.06358 -1.99706,1.65966 -0.92113,0.59607 -1.94499,1.27851 -2.27523,1.51652 -0.33024,0.23802 -0.71005,0.32315 -0.84402,0.18918 -0.34019,-0.34019 0.54823,-1.331 1.5272,-1.7032 0.44951,-0.1709 0.92156,-0.59093 1.049,-0.93339 0.39518,-1.06187 1.62425,-2.56293 2.09853,-2.56293 0.24847,0 0.36482,0.22654 0.25857,0.50343 -0.14102,0.3675 0.005,0.45168 0.53962,0.31179 0.40303,-0.1054 1.12437,0.0649 1.60295,0.37852 1.28086,0.83925 1.36916,0.70029 0.31022,-0.48818 -0.68484,-0.76862 -1.25931,-1.05834 -2.09857,-1.05834 -0.63557,0 -1.24941,0.15182 -1.36409,0.33737 -0.11468,0.18556 -0.43191,0.25165 -0.70495,0.14687 -0.27304,-0.10478 -0.7839,-0.008 -1.13523,0.21406 -0.53613,0.33956 -0.46871,0.36917 0.41955,0.18429 l 1.05833,-0.22028 -0.94993,0.96354 c -0.80072,0.81219 -1.03622,0.89192 -1.49931,0.50759 -0.30215,-0.25077 -0.54937,-0.65977 -0.54937,-0.90889 0,-0.27926 -0.27055,-0.38219 -0.70556,-0.26843 -0.8079,0.21127 -0.98091,-0.51982 -0.19443,-0.82162 0.37399,-0.14351 0.11371,-0.565275 -0.97014,-1.572029 -0.81469,-0.756743 -1.56064,-1.378246 -1.65765,-1.381121 -0.097,-0.0028 -0.12438,1.272762 -0.0608,2.83475 0.0786,1.93031 -0.0625,3.36253 -0.4403,4.47141 l -0.55588,1.63143 0.79307,-0.73486 c 0.90359,-0.83728 2.42438,-1.17036 2.62772,-0.57552 0.0763,0.22325 -0.4183,0.50288 -1.12354,0.63518 -0.69293,0.13 -1.16672,0.38709 -1.05286,0.57131 0.11385,0.18422 0.0699,0.33495 -0.0977,0.33495 -0.56559,0 -2.91198,2.38348 -2.91198,2.958 0,0.41599 0.33326,0.56978 1.23472,0.56978 0.6791,0 1.23472,0.15875 1.23472,0.35278 0,0.46291 1.16813,0.45464 1.63434,-0.0116 0.45118,-0.45118 1.61939,-0.0482 1.43798,0.496 -0.0729,0.21863 -0.34417,0.39751 -0.60287,0.39751 -0.25871,0 -0.53652,0.19843 -0.61736,0.44097 -0.0974,0.29213 0.24991,0.44634 1.02893,0.45688 0.64676,0.009 1.65218,0.23398 2.23426,0.50052 1.60156,0.73334 3.2371,0.64205 4.5122,-0.25185 z m -5.34451,-0.92039 -0.8323,-0.64011 1.19065,-0.70251 c 1.2452,-0.73468 2.36442,-0.73197 1.7534,0.004 -0.18562,0.22367 -0.34075,0.48604 -0.34472,0.58306 -0.0183,0.44669 -0.5044,1.4103 -0.70788,1.40326 -0.12476,-0.004 -0.60138,-0.29589 -1.05915,-0.64796 z m -3.71642,-2.00305 c -1.11575,-1.11575 -0.38205,-1.93311 0.84404,-0.94028 0.67968,0.55037 0.71149,0.68604 0.25051,1.06861 -0.4266,0.35405 -0.63683,0.3294 -1.09455,-0.12833 z m -64.066551,2.31715 c 0,-0.47238 -0.169231,-0.62954 -0.529167,-0.49142 -0.37804,0.14507 -0.529367,-0.0344 -0.529872,-0.62843 -7.05e-4,-0.71156 -0.191424,-0.84275 -1.322916,-0.90946 l -1.322212,-0.078 1.17141,0.51237 c 0.676853,0.29606 1.07152,0.67399 0.934811,0.89519 -0.130129,0.21055 0.05711,0.60533 0.416091,0.87729 0.896585,0.67925 1.181855,0.63639 1.181855,-0.17757 z m 5.820833,-1.03263 c 0.698511,-0.15347 0.878421,-0.3011 0.529167,-0.43422 -0.73708,-0.28093 -3.175,0.0539 -3.175,0.43604 0,0.35032 1.04636,0.3496 2.645833,-0.002 z m 8.478336,-0.46002 c 0.09,-0.09 -0.51077,-0.31442 -1.3351,-0.49867 -1.71386,-0.38306 -5.625367,0.0901 -4.82649,0.58377 0.48118,0.2974 5.8533,0.2232 6.16159,-0.0851 z m 3.22856,-0.6724 c 1.59139,-0.6251 4.311612,-0.76914 5.936042,-0.31433 1.29523,0.36264 1.6314,0.33649 2.43391,-0.18933 0.51211,-0.33555 1.44307,-0.71861 2.0688,-0.85125 l 1.13769,-0.24116 -1.75887,-0.78777 c -1.29729,-0.58103 -2.10745,-0.72887 -3.08715,-0.56335 -1.09643,0.18524 -1.51061,0.071 -2.3728,-0.65449 -0.85909,-0.72287 -1.25191,-0.83212 -2.21281,-0.6154 -0.642572,0.14492 -1.499892,0.44096 -1.905172,0.65785 -0.40527,0.2169 -1.27466,0.48555 -1.93197,0.597 -0.65732,0.11145 -1.45957,0.28278 -1.78279,0.38072 -0.32322,0.0979 -0.68978,0.0129 -0.81457,-0.18905 -0.36204,-0.58579 -0.98819,-0.42415 -0.75102,0.19387 0.33055,0.86142 -0.0957,1.2364 -0.86171,0.75803 -0.85514,-0.53405 -0.88595,-0.95864 -0.0718,-0.99013 0.44536,-0.0172 0.37165,-0.13124 -0.26458,-0.40925 -0.48507,-0.21196 -1.3429,-0.59809 -1.90628,-0.85806 -1.22667,-0.56606 -1.26872,-0.57004 -1.26872,-0.11992 0,0.19403 0.19994,0.35278 0.44431,0.35278 0.24437,0 0.65587,0.33877 0.91446,0.75283 0.55773,0.89307 0.0979,1.34955 -1.36847,1.35843 -0.490405,0.003 -1.257845,0.2619 -1.705421,0.5754 -0.598794,0.41941 -0.917765,0.46601 -1.207385,0.17639 -0.444712,-0.44472 -1.663605,-0.5358 -1.663605,-0.12432 0,0.14811 0.817492,0.46349 1.81665,0.70083 1.596648,0.37927 1.868001,0.36131 2.240654,-0.14832 0.249943,-0.34182 0.916177,-0.57916 1.622927,-0.57816 1.74257,0.002 6.08155,0.79831 6.47296,1.18724 0.42766,0.42493 0.63603,0.41849 1.84676,-0.0571 z m 12.969912,-0.31065 c 0.44629,-0.003 0.56725,-0.12549 0.34437,-0.34836 -0.43409,-0.4341 -3.03193,-0.0379 -2.74935,0.4193 0.11505,0.18617 0.54846,0.24745 0.96313,0.13618 0.41466,-0.11126 1.0635,-0.20447 1.44185,-0.20712 z m 30.11908,-1.79283 c 0.36875,-0.4718 1.03,-1.84768 1.46947,-3.0575 0.78386,-2.15796 0.80591,-2.83653 0.21503,-6.619764 -0.16633,-1.064993 -1.03557,-2.998611 -1.34801,-2.998611 -0.15149,0 -0.27543,-0.238125 -0.27543,-0.529166 0,-0.291042 -0.23813,-0.529167 -0.52917,-0.529167 -0.64026,0 -0.70432,-0.584204 -0.0882,-0.804249 0.28031,-0.100111 -0.009,-0.600156 -0.79375,-1.372461 -1.52398,-1.499602 -4.05382,-3.467223 -4.46049,-3.469213 -0.16611,-7.06e-4 -1.07602,-0.394162 -2.02203,-0.874116 -2.15136,-1.091474 -7.21043,-2.652184 -8.5971,-2.652184 -0.57358,0 -1.50312,-0.15131 -2.06566,-0.336246 -0.56253,-0.184934 -1.49903,-0.404566 -2.08111,-0.488072 -0.58208,-0.08351 -1.76896,-0.344865 -2.6375,-0.580799 -1.37914,-0.374636 -6.35942,-0.712858 -6.35863,-0.431829 1.7e-4,0.05683 0.60397,0.929958 1.3418,1.940278 0.73783,1.010321 1.566,2.313196 1.8404,2.895279 0.27439,0.582084 0.54,1.120645 0.59025,1.196799 0.0502,0.07616 0.34359,-0.07087 0.65188,-0.326729 0.30829,-0.255855 1.44315,-0.584969 2.52192,-0.731361 2.20055,-0.298623 3.27433,0.114198 3.30094,1.269069 0.009,0.411466 0.62414,1.152927 1.46501,1.767223 2.71917,1.986477 4.24159,3.723834 4.06637,4.640435 -0.11161,0.583854 0.28158,1.473017 1.29103,2.919564 1.59185,2.2811 4.94309,4.88747 5.37848,4.183 0.14138,-0.22877 0.26836,-1.602 0.28217,-3.051613 0.0159,-1.670724 0.17542,-2.685768 0.43569,-2.772526 0.95421,-0.318068 1.28598,4.610969 0.40126,5.961399 -0.58128,0.88726 -0.5712,0.93881 0.35278,1.80484 1.66645,1.56194 2.91876,3.09781 3.26201,4.00062 0.29994,0.78891 0.4024,0.82789 1.02667,0.39064 0.38141,-0.26715 0.99517,-0.87174 1.36391,-1.34354 z m -52.630602,-1.21061 c -0.18109,-0.52427 -2.726446,-0.34211 -3.076391,0.22017 -0.245716,0.39481 -0.434865,0.4031 -1.013622,0.0444 -0.999412,-0.61939 -1.759765,-0.53707 -0.918263,0.0994 0.376633,0.28487 1.05132,0.51795 1.499306,0.51795 0.495896,0 0.814518,0.21112 0.814518,0.5397 0,0.44022 0.259545,0.39146 1.408158,-0.26458 0.774485,-0.44236 1.353324,-0.96304 1.286294,-1.15707 z m 66.006972,0.1898 c 0.36453,-0.5837 0.30873,-0.83186 -0.35611,-1.58388 l -0.78837,-0.89174 -0.88194,0.72405 c -0.79456,0.65231 -0.80823,0.7036 -0.138,0.51759 0.84509,-0.23454 2.08862,0.86032 1.28453,1.13095 -0.57402,0.1932 -0.5715,0.79518 0.003,0.79518 0.24437,0 0.63882,-0.31147 0.87656,-0.69215 z m -68.701424,-1.44534 c 0,-0.18258 -0.238125,-0.33196 -0.529167,-0.33196 -0.545539,0 -0.700864,0.41627 -0.303572,0.81356 0.281845,0.28185 0.832739,-0.0367 0.832739,-0.4816 z m 20.250834,-1.44513 c -0.1212,-0.19611 -0.52035,0.13672 -0.88699,0.73961 -0.9226,1.5171 -0.81487,1.80217 0.23151,0.61262 0.48172,-0.54762 0.77668,-1.15613 0.65548,-1.35223 z m -22.727355,1.28104 c -0.245435,-0.29573 -0.518894,-0.46505 -0.607688,-0.37625 -0.244648,0.24465 0.25243,0.91394 0.678779,0.91394 0.233927,0 0.207162,-0.20242 -0.07109,-0.53769 z m 20.115415,-2.4401 c 0,-0.37235 -0.67702,-0.52878 -0.87839,-0.20296 -0.12187,0.19719 0.0259,0.35853 0.3284,0.35853 0.30249,0 0.54999,-0.07 0.54999,-0.15557 z m 3.175,-1.89407 c 0,-0.43391 -0.127,-0.41423 -0.70556,0.10936 -0.38805,0.35119 -0.70555,0.87664 -0.70555,1.16769 0,0.43391 0.12699,0.41423 0.70555,-0.10936 0.38806,-0.35118 0.70556,-0.87664 0.70556,-1.16769 z m -5.29167,-0.0794 c 0,-0.50117 -0.16887,-0.42434 -0.91546,0.41652 -0.668442,0.75283 -0.667792,0.75466 0.12171,0.34037 0.43656,-0.22909 0.79375,-0.56969 0.79375,-0.75689 z m 1.29917,-1.246277 c -0.14871,-0.916386 -0.0809,-1.12723 0.3139,-0.975741 0.30753,0.118008 0.5036,-0.02747 0.5036,-0.373662 0,-0.311802 -0.15317,-0.56691 -0.34037,-0.56691 -0.50402,0 -1.20232,-1.460641 -0.82255,-1.720558 0.17657,-0.120847 0.52971,-0.735658 0.78477,-1.366248 0.46635,-1.152952 0.87185,-1.421938 1.24163,-0.82362 0.10976,0.177599 -0.18396,0.778704 -0.65272,1.33579 -0.68796,0.817598 -0.77925,1.146433 -0.47348,1.705564 0.20835,0.380975 0.54092,0.799645 0.73905,0.930377 0.236,0.15572 0.20237,0.427927 -0.0975,0.78926 -0.25177,0.303357 -0.36447,0.794649 -0.25046,1.091759 0.26281,0.684886 2.37146,0.385141 2.81057,-0.399518 0.2591,-0.462989 0.36077,-0.448779 0.76737,0.107273 0.33485,0.457934 0.36192,0.769624 0.0948,1.091471 -0.20563,0.24778 -0.27188,0.5525 -0.14722,0.67716 0.27555,0.27554 0.24924,0.30658 1.40291,-1.654821 0.87688,-1.490822 0.93395,-1.527775 0.93708,-0.606799 l 0.003,0.980697 1.14653,-0.803116 c 0.63059,-0.441717 1.18962,-0.820297 1.2423,-0.84129 0.0527,-0.02099 -0.0427,-0.412521 -0.21197,-0.870067 l -0.30774,-0.831896 -0.46079,0.861004 c -0.43779,0.818014 -0.47321,0.82617 -0.70936,0.163322 -0.35459,-0.99532 -0.0574,-1.530318 0.73492,-1.323114 0.45925,0.120096 0.68277,-0.0014 0.68277,-0.370629 0,-0.925985 -3.25781,-0.129229 -3.61887,0.885063 -0.0908,0.255073 -0.2851,0.352267 -0.43177,0.215985 -0.14668,-0.136282 -0.01,-0.504807 0.30448,-0.818949 0.31414,-0.314142 0.57116,-0.684128 0.57116,-0.822198 0,-0.320114 -1.48968,-0.262453 -2.04224,0.07905 -0.45739,0.282684 -0.28699,-0.335912 0.52182,-1.894283 0.6226,-1.199585 0.59339,-1.303761 -0.41985,-1.497453 -0.48507,-0.09273 -0.88195,-0.03186 -0.88195,0.135262 0,0.167121 0.23813,0.303858 0.52917,0.303858 0.74291,0 0.65824,0.480921 -0.22327,1.26824 -0.7473,0.667445 -0.75068,0.666372 -0.49434,-0.156539 0.22599,-0.725519 0.16601,-0.799348 -0.48229,-0.593587 -0.52496,0.166613 -0.74038,0.08266 -0.74038,-0.288555 0,-0.287947 0.19844,-0.603613 0.44097,-0.701477 0.24254,-0.09786 0.11972,-0.190468 -0.27293,-0.205786 -0.53771,-0.02099 -1.0123,0.55983 -1.92299,2.353398 -0.665,1.309688 -1.52285,2.635702 -1.90631,2.946697 -0.670852,0.544061 -0.656502,0.55947 0.37959,0.407405 0.96454,-0.141566 1.07681,-0.06259 1.07681,0.757471 0,0.50353 -0.13891,0.915511 -0.30868,0.915511 -0.16978,0 -0.30868,0.238125 -0.30868,0.529167 0,0.291041 0.15875,0.529166 0.35278,0.529166 0.19402,0 0.35277,0.247493 0.35277,0.549983 0,0.31322 0.16861,0.44578 0.39166,0.30793 0.22728,-0.14046 0.31204,-0.73269 0.20196,-1.411044 z m 1.52305,-0.814786 c 0,-0.217784 0.17819,-0.395972 0.39598,-0.395972 0.26683,0 0.2827,-0.143813 0.0486,-0.440972 -0.53563,-0.680036 -0.86146,-2.38125 -0.45607,-2.38125 0.19512,0 0.59866,0.583731 0.89676,1.297182 0.41568,0.994868 0.63877,1.200407 0.95723,0.881944 0.22839,-0.228381 0.64105,-0.415237 0.91705,-0.415237 0.41141,0 0.42074,0.09767 0.0518,0.542191 -0.24749,0.298207 -0.7188,0.496655 -1.04734,0.440994 -0.32854,-0.05566 -0.85987,0.116667 -1.18072,0.382947 -0.37896,0.314512 -0.58336,0.345408 -0.58336,0.08817 z m 3.36646,-0.0188 c -0.11163,-0.180622 -0.0318,-0.434167 0.17733,-0.563435 0.20916,-0.129269 0.54817,-0.656178 0.75336,-1.170905 0.20518,-0.514728 0.44316,-0.748196 0.52883,-0.518813 0.14674,0.392896 -0.79437,2.581554 -1.11005,2.581554 -0.0806,0 -0.23784,-0.147782 -0.34947,-0.328401 z m -2.6609,2.092273 c 0,-0.19403 -0.07,-0.35278 -0.15557,-0.35278 -0.0856,0 -0.25368,0.15875 -0.3736,0.35278 -0.11991,0.19403 -0.0499,0.35278 0.15557,0.35278 0.20548,0 0.3736,-0.15875 0.3736,-0.35278 z m -5.468062,-1.763886 c 0.11992,-0.194028 -0.0295,-0.352778 -0.33195,-0.352778 -0.3025,0 -0.54999,0.15875 -0.54999,0.352778 0,0.194028 0.14938,0.352778 0.33196,0.352778 0.18257,0 0.43007,-0.15875 0.54998,-0.352778 z m 26.967072,-1.010525 c -0.41772,-0.564998 -0.77931,-1.636931 -0.82014,-2.431327 -0.0568,-1.105916 -0.31536,-1.624715 -1.16646,-2.340864 -0.60138,-0.506035 -1.2441,-0.920062 -1.42825,-0.920062 -0.18416,0 -0.98182,-0.767292 -1.77258,-1.705092 -1.17866,-1.397822 -1.64952,-1.707582 -2.61286,-1.718906 -1.85538,-0.0218 -3.11539,1.374444 -3.11539,3.452255 0,1.085011 0.16843,1.724777 0.48618,1.846711 0.55712,0.213787 1.27771,-0.386038 1.27771,-1.063579 0,-0.731693 0.75295,-0.529978 0.9587,0.256836 0.13325,0.509549 0.37757,0.654996 0.84892,0.505397 0.4282,-0.135908 0.66183,-0.03883 0.66183,0.27499 0,0.266778 0.65019,0.771913 1.44486,1.122525 0.79468,0.350608 1.94562,1.067146 2.55764,1.592298 2.57844,2.21246 3.88922,2.764592 2.67984,1.128818 z m -25.55596,0.304969 c 0.11992,-0.194027 0.0499,-0.352777 -0.15556,-0.352777 -0.20548,0 -0.3736,0.15875 -0.3736,0.352777 0,0.194028 0.07,0.352778 0.15557,0.352778 0.0856,0 0.25368,-0.15875 0.37359,-0.352778 z m -1.587502,-1.058333 c 0,-0.194028 -0.07,-0.352778 -0.15556,-0.352778 -0.0856,0 -0.25369,0.15875 -0.3736,0.352778 -0.11992,0.194028 -0.0499,0.352778 0.15557,0.352778 0.20547,0 0.37359,-0.15875 0.37359,-0.352778 z m -0.60477,-1.052837 c 0.10227,-0.391079 0.0421,-0.711052 -0.13381,-0.711052 -0.17586,0 -0.31975,0.145768 -0.31975,0.323924 0,0.17816 -0.10635,0.601077 -0.23634,0.939818 -0.14862,0.38729 -0.099,0.53098 0.13381,0.387128 0.20358,-0.125819 0.45382,-0.548739 0.55609,-0.939818 z m 1.738392,-0.09966 c 0.47381,-0.245819 0.80617,-0.61287 0.73857,-0.815664 -0.0676,-0.202798 0.28212,-1.13048 0.77716,-2.061517 0.69279,-1.302964 0.80751,-1.804321 0.49813,-2.177098 -0.31816,-0.38336 -0.20569,-0.558924 0.53957,-0.842271 0.51784,-0.196882 0.84322,-0.517014 0.72309,-0.711405 -0.36613,-0.592402 -1.02519,-0.377345 -1.7053,0.556465 -0.51955,0.713348 -0.56165,0.990035 -0.21432,1.40855 0.23774,0.286452 0.30852,0.636048 0.15729,0.77688 -0.15123,0.140829 -0.34583,0.05762 -0.43245,-0.184916 -0.0866,-0.242534 -0.32245,-0.440972 -0.52406,-0.440972 -0.2267,0 -0.20437,0.195453 0.0585,0.512237 0.45073,0.543098 0.24373,1.65148 -0.45003,2.409734 -0.515892,0.563841 -1.356462,2.016918 -1.166732,2.016918 0.0765,0 0.52672,-0.201125 1.000532,-0.446941 z m 13.83618,-0.573761 c 0.10713,-0.173331 -0.21974,-0.419181 -0.72636,-0.546333 -1.02076,-0.256194 -1.38176,-0.08592 -1.02878,0.485232 0.28219,0.456579 1.48485,0.498446 1.75514,0.0611 z M 99.358958,74.360618 c -0.26511,-0.167951 -0.64077,-0.295265 -0.83479,-0.282918 -0.19403,0.01235 -0.15434,0.102521 0.0882,0.200385 0.24253,0.09786 0.4458,0.521896 0.4517,0.942287 0.0101,0.72014 0.0329,0.726211 0.39381,0.104984 0.29039,-0.499809 0.26645,-0.73327 -0.0989,-0.964738 z m 9.753042,0.648497 c 0.002,-0.30915 0.12154,-0.679129 0.26458,-0.822177 0.14305,-0.143044 0.26009,-0.430442 0.26009,-0.638655 0,-0.208213 -0.40507,0.05828 -0.90015,0.592198 -0.49508,0.533922 -0.79803,1.135994 -0.67323,1.337934 0.3226,0.521967 1.04336,0.199426 1.04871,-0.4693 z m 2.28856,0.446444 c 0,-0.194028 -0.22876,-0.352778 -0.50835,-0.352778 -0.27959,0 -0.60646,0.15875 -0.72638,0.352778 -0.11991,0.194028 0.10884,0.352778 0.50835,0.352778 0.39951,0 0.72638,-0.15875 0.72638,-0.352778 z M 96.583888,74.905571 c 0,-0.302493 -0.15875,-0.451873 -0.35278,-0.331957 -0.19403,0.119917 -0.35278,0.367411 -0.35278,0.549988 0,0.182577 0.15875,0.331957 0.35278,0.331957 0.19403,0 0.35278,-0.247495 0.35278,-0.549988 z m 15.663142,-0.649972 c -0.21571,-0.562116 -1.55203,-1.019231 -1.55203,-0.530902 0,0.175863 0.23813,0.319751 0.52917,0.319751 0.29104,0 0.52916,0.15875 0.52916,0.352777 0,0.194028 0.15377,0.352778 0.34171,0.352778 0.18794,0 0.25633,-0.222483 0.15199,-0.494404 z M 98.700558,73.3157 c 0,-0.206784 -0.18152,-0.715133 -0.40337,-1.129665 -0.30263,-0.565481 -0.30263,-0.787273 0,-0.888149 0.47515,-0.158387 0.54557,-0.781216 0.0883,-0.781216 -0.50426,0 -0.74138,0.979741 -0.51322,2.120526 0.19762,0.988099 0.82825,1.504714 0.82825,0.678504 z m 9.701392,-0.329586 c 0.11991,-0.194028 0.0593,-0.352778 -0.13476,-0.352778 -0.19402,0 -0.45088,0.15875 -0.5708,0.352778 -0.11992,0.194028 -0.0593,0.352778 0.13475,0.352778 0.19403,0 0.45089,-0.15875 0.57081,-0.352778 z m 1.45542,-1.569385 c -0.32569,-0.49706 -0.92508,-0.900059 -1.33868,-0.900059 -0.71324,0 -0.70444,0.04124 0.18452,0.865099 0.5134,0.475806 0.93346,1.063181 0.93346,1.305278 0,0.331431 0.10011,0.340067 0.40522,0.03496 0.3051,-0.305107 0.25952,-0.627584 -0.18452,-1.305278 z m -8.78959,0.158274 c 0.10148,-0.388056 0.32475,-0.705556 0.49614,-0.705556 0.1714,0 0.31164,-0.265796 0.31164,-0.590659 0,-0.500842 -0.12469,-0.47353 -0.81993,0.179613 -0.45095,0.423655 -0.9272,0.662993 -1.058332,0.531866 -0.13112,-0.131128 -0.23841,-2.86e-4 -0.23841,0.290756 0,1.139976 1.027322,1.370718 1.308892,0.29398 z m 6.78762,0.08385 c -0.28148,-0.07686 -0.74991,-0.231588 -1.04095,-0.343832 -0.29105,-0.112243 -0.72761,-0.172081 -0.97014,-0.132972 -0.62374,0.100573 -0.54983,-0.645753 0.0882,-0.890584 0.61932,-0.237656 0.71126,-0.833131 0.12865,-0.833131 -0.46422,0 -2.06893,1.645846 -2.06893,2.121966 0,0.17695 0.72058,0.307262 1.60128,0.289584 0.88071,-0.01767 1.6966,0.06318 1.8131,0.179677 0.11649,0.116498 0.38029,0.107689 0.5862,-0.01958 0.23694,-0.146434 0.1865,-0.282695 -0.1374,-0.371136 z m -10.213182,-2.18464 c 0,-0.319176 0.18786,-0.768177 0.41746,-0.997776 0.2296,-0.229602 0.29707,-0.537841 0.14993,-0.684978 -0.30517,-0.30517 -0.89208,0.599789 -1.4975,2.308994 -0.40362,1.139494 -0.39663,1.154766 0.25762,0.562684 0.36987,-0.334729 0.67249,-0.869745 0.67249,-1.188924 z m 13.287242,-0.251786 c -0.0734,-0.07341 -0.39141,-0.0345 -0.70667,0.08648 -0.46596,0.178805 -0.49857,0.359413 -0.17426,0.965373 l 0.39893,0.745416 0.30774,-0.831896 c 0.16925,-0.457546 0.24767,-0.891964 0.17426,-0.965373 z M 99.229718,69.105558 c 0.11992,-0.194027 0.0593,-0.352777 -0.13475,-0.352777 -0.19403,0 -0.45089,0.15875 -0.5708,0.352777 -0.11992,0.194028 -0.0593,0.352778 0.13475,0.352778 0.19403,0 0.45089,-0.15875 0.5708,-0.352778 z m 5.815442,-0.440972 c -0.004,-0.641858 -0.0708,-0.692488 -0.34738,-0.264583 -0.442,0.683951 -0.442,1.058333 0,1.058333 0.19403,0 0.35035,-0.357187 0.34738,-0.79375 z m 4.94429,-0.836944 c 0,-0.663995 -0.58078,-0.614426 -0.84421,0.07205 -0.37349,0.973307 -0.24595,1.318669 0.31504,0.853091 0.29104,-0.241544 0.52917,-0.657857 0.52917,-0.925139 z m 1.18668,0.397997 c -0.11126,-0.289927 -0.36135,-0.428833 -0.55576,-0.308681 -0.21735,0.134331 -0.16915,0.335259 0.12516,0.521741 0.64234,0.407007 0.66436,0.396113 0.4306,-0.21306 z m -9.54586,-0.551353 c 0.15572,-0.595478 0.0998,-0.651037 -0.31163,-0.309584 -0.56122,0.465766 -0.66562,1.035301 -0.18978,1.035301 0.17139,0 0.39703,-0.326574 0.50141,-0.725717 z m 2.70933,-0.970799 c 0.003,-0.253985 -0.15335,-0.363678 -0.34738,-0.243762 -0.19402,0.119916 -0.35034,0.565849 -0.34737,0.99096 0.004,0.628378 0.0694,0.673968 0.34737,0.243762 0.18809,-0.291041 0.34441,-0.736974 0.34738,-0.99096 z m 2.26316,1.073754 c -0.70024,-0.467664 -0.72584,-1.261932 -0.0621,-1.925694 0.35875,-0.358754 0.80524,-0.557746 0.99219,-0.442204 0.51072,0.315645 0.40908,-0.746097 -0.1129,-1.179297 -0.62812,-0.521296 -1.13843,-0.111192 -1.78048,1.430853 -0.49004,1.176979 -0.49158,1.374944 -0.0145,1.852083 0.29383,0.293832 0.72134,0.531812 0.95002,0.528842 0.2942,-0.0038 0.3023,-0.08119 0.0277,-0.264583 z m 2.21979,-0.786825 c 0.21939,-0.581244 0.26967,-1.136679 0.11171,-1.234303 -0.15796,-0.09762 -0.46141,0.322256 -0.67434,0.933062 -0.46144,1.323704 -0.46427,1.35805 -0.11171,1.35805 0.15149,0 0.45495,-0.475562 0.67434,-1.056809 z m -7.4566,-0.572001 c 0.26785,0.102785 0.57655,0.042 0.68599,-0.135079 0.10945,-0.17708 0.43203,-0.232537 0.71686,-0.123239 0.88784,0.340698 0.56047,-0.383614 -0.36803,-0.814278 -1.17071,-0.543 -2.570162,0.448564 -2.11695,1.49993 0.27524,0.638489 0.29749,0.639953 0.44246,0.02903 0.0884,-0.372565 0.3576,-0.564617 0.63967,-0.456378 z m 6.15405,0.04131 c 0,-0.291042 -0.0624,-0.529167 -0.13864,-0.529167 -0.0763,0 -0.23003,0.238125 -0.34171,0.529167 -0.11168,0.291042 -0.0493,0.529167 0.13864,0.529167 0.18794,0 0.34171,-0.238125 0.34171,-0.529167 z m 3.175,-0.176389 c 0,-0.194028 -0.15875,-0.352778 -0.35278,-0.352778 -0.19402,0 -0.35277,0.15875 -0.35277,0.352778 0,0.194028 0.15875,0.352778 0.35277,0.352778 0.19403,0 0.35278,-0.15875 0.35278,-0.352778 z m -6.01339,-1.088549 c -0.21658,-0.404671 -0.4799,-0.649644 -0.58516,-0.544378 -0.29078,0.29078 0.17499,1.280149 0.60267,1.280149 0.2609,0 0.25553,-0.225587 -0.0175,-0.735771 z M -44.462355,130.314 c -0.221386,-0.48589 -0.265688,-0.88344 -0.09845,-0.88344 0.292929,0 0.820706,1.44714 0.606061,1.66179 -0.0578,0.0578 -0.286226,-0.29246 -0.507611,-0.77835 z m 18.103186,-4.05844 c 0.119917,-0.19402 0.288036,-0.35277 0.373599,-0.35277 0.08556,0 0.155568,0.15875 0.155568,0.35277 0,0.19403 -0.16812,0.35278 -0.373599,0.35278 -0.205479,0 -0.275484,-0.15875 -0.155568,-0.35278 z m -1.688355,-2.46207 c -0.911804,-0.96608 -2.055873,-1.85641 -2.542375,-1.97852 -0.486501,-0.1221 -0.884547,-0.36354 -0.884547,-0.53654 0,-1.00162 2.404353,0.63733 4.184346,2.85229 1.540923,1.91748 1.247154,1.78668 -0.757424,-0.33723 z m -20.139343,-2.87319 c -1.009166,-1.17862 -3.04392,-5.07293 -3.033884,-5.80653 0.0058,-0.42345 0.264229,-0.14874 0.691316,0.73485 0.594526,1.23 0.654354,1.27528 0.466154,0.35278 -0.118752,-0.58209 -0.425069,-1.66007 -0.680699,-2.39551 -0.255632,-0.73545 -0.328399,-1.25288 -0.161706,-1.14986 0.166694,0.10302 0.410806,0.62537 0.542473,1.16078 0.131667,0.53541 0.883708,2.44829 1.671207,4.25084 1.466381,3.35651 1.604525,4.13664 0.505139,2.85265 z m 170.170757,-4.82474 c 0,-0.371 0.76622,-1.12889 1.1413,-1.12889 0.16205,0 0.12471,0.3175 -0.083,0.70556 -0.37287,0.69672 -1.05833,0.9709 -1.05833,0.42333 z m 1.41111,-1.83444 c 0,-0.19403 0.15875,-0.35278 0.35278,-0.35278 0.19403,0 0.35278,-0.21352 0.35278,-0.47449 0,-0.48881 1.0886,-1.64218 1.54996,-1.64218 0.33928,0 -1.64468,2.80484 -1.99094,2.8147 -0.14552,0.004 -0.26458,-0.15122 -0.26458,-0.34525 z m -1.78791,-1.0246 c 0.40127,-0.56353 0.72958,-1.17909 0.72958,-1.36791 0,-0.18883 0.22277,-0.52821 0.49505,-0.75417 0.60346,-0.50083 2.32717,-3.9578 2.32717,-4.66723 0,-0.28141 0.13847,-0.66246 0.3077,-0.84679 0.16924,-0.18432 0.58322,-1.48607 0.91995,-2.89277 0.33673,-1.4067 0.75389,-2.55764 0.92702,-2.55764 0.17312,0 0.31477,-0.218693 0.31477,-0.485983 0,-0.75583 0.93378,-1.41208 1.25945,-0.88513 0.1528,0.24723 -0.0196,0.66293 -0.40957,0.98727 -0.68779,0.572133 -1.55543,3.237243 -1.55543,4.777803 0,0.47084 -0.15875,0.95418 -0.35278,1.07409 -0.19403,0.11992 -0.35278,0.4555 -0.35278,0.74573 0,0.71247 -1.36584,3.66913 -1.97755,4.28084 -0.27054,0.27054 -0.49189,0.61709 -0.49189,0.77012 0,0.33842 -2.33155,2.84637 -2.64617,2.84637 -0.12325,0 0.10421,-0.46107 0.50548,-1.0246 z m -173.507483,-1.68861 c -0.01934,-0.61914 0.123585,-1.22382 0.317613,-1.34374 0.405687,-0.25073 0.405687,0.32075 0,1.5875 -0.269736,0.84226 -0.28403,0.83129 -0.317613,-0.24376 z m 177.588453,-0.46179 c 0.11991,-0.19403 0.28803,-0.35278 0.3736,-0.35278 0.0856,0 0.15556,0.15875 0.15556,0.35278 0,0.19403 -0.16812,0.35278 -0.3736,0.35278 -0.20547,0 -0.27548,-0.15875 -0.15556,-0.35278 z m 0.88194,-1.05833 c 0,-0.19403 0.15875,-0.35278 0.35278,-0.35278 0.19403,0 0.35278,0.15875 0.35278,0.35278 0,0.19402 -0.15875,0.35277 -0.35278,0.35277 -0.19403,0 -0.35278,-0.15875 -0.35278,-0.35277 z m -182.027933,-1.49931 c 0.003,-0.63059 0.139696,-1.35838 0.303834,-1.61732 0.455917,-0.71924 0.775163,0.88547 0.381924,1.91976 -0.443143,1.16556 -0.692158,1.05574 -0.685758,-0.30244 z M 127.27556,108.2639 c 0,-0.19403 0.23812,-0.35278 0.52916,-0.35278 0.29104,0 0.52917,0.15875 0.52917,0.35278 0,0.19402 -0.23813,0.35277 -0.52917,0.35277 -0.29104,0 -0.52916,-0.15875 -0.52916,-0.35277 z m -181.499194,-5.64445 c 0.193457,-1.59133 1.850545,-5.494013 2.189041,-5.155513 0.09915,0.0991 -0.234886,1.01336 -0.742294,2.0316 -0.507408,1.018233 -0.933717,2.177353 -0.947354,2.575823 -0.01364,0.39846 -0.175003,1.04198 -0.35859,1.43004 -0.241141,0.50971 -0.280224,0.2649 -0.140803,-0.88195 z M 133.17495,97.465137 c -0.12657,-0.12657 -0.0808,-0.50909 0.10165,-0.85004 0.18247,-0.34096 0.35756,-1.15352 0.3891,-1.8057 0.0748,-1.54807 0.72132,-3.12606 1.2807,-3.12606 0.4854,0 0.61131,0.9127 0.16404,1.18913 -0.15345,0.0948 -0.3149,0.69952 -0.35877,1.34374 -0.16742,2.45871 -0.88609,3.93956 -1.57672,3.24893 z m -184.75773,-0.41834 c 0,-0.1968 0.572846,-1.04752 1.272992,-1.8905 1.624351,-1.95572 1.54923,-1.88315 1.54923,-1.49682 0,0.18142 -0.635,1.09829 -1.411111,2.03749 -0.776111,0.9392 -1.411111,1.54662 -1.411111,1.34983 z m 3.175,-1.79404 c 0,-0.19403 0.15875,-0.45089 0.352778,-0.57081 0.194028,-0.11991 0.352778,-0.0593 0.352778,0.13475 0,0.19403 -0.15875,0.45089 -0.352778,0.57081 -0.194028,0.11991 -0.352778,0.0593 -0.352778,-0.13475 z m 206.46397,-1.98192 c 0.004,-0.77611 0.0762,-1.05207 0.16054,-0.61325 0.0844,0.43883 0.0812,1.07383 -0.007,1.41111 -0.0883,0.33729 -0.15734,-0.0218 -0.15342,-0.79786 z m -49.12508,0.38081 c 0,-0.54538 0.77516,-0.75154 4.14514,-1.10244 1.79552,-0.18697 2.20486,-0.13472 2.20486,0.28141 0,0.38246 -0.53384,0.52702 -2.12231,0.57468 -1.16727,0.035 -2.52698,0.21754 -3.02158,0.40558 -1.16109,0.44145 -1.20611,0.43551 -1.20611,-0.15923 z m -156.603136,-0.028 c 0.03673,-0.66824 0.624684,-1.79347 0.64516,-1.23472 0.01065,0.29104 -0.134493,0.76729 -0.32258,1.05833 -0.188087,0.29104 -0.333248,0.37042 -0.32258,0.17639 z m 170.185086,-1.81788 c -1.16417,-0.48921 -2.3548,-1.03715 -2.64584,-1.21765 -0.29104,-0.1805 -2.16056,-1.13746 -4.15448,-2.12658 -3.38794,-1.68064 -5.14426,-3.1282 -3.79543,-3.1282 0.29787,0 0.54158,0.13718 0.54158,0.30485 0,0.16767 0.75406,0.58472 1.67569,0.92678 0.92164,0.34206 3.02507,1.37789 4.67431,2.30182 1.64924,0.92395 3.39549,1.79828 3.88056,1.94297 0.48506,0.14468 1.19508,0.4798 1.5778,0.74471 0.38272,0.26491 1.0574,0.48165 1.4993,0.48165 0.4419,0 0.80345,0.15875 0.80345,0.35278 0,0.60854 -1.85595,0.34177 -4.05694,-0.58313 z m -169.376393,-0.82799 c 0.13063,-0.48506 0.334458,-1.632 0.452949,-2.54874 0.118495,-0.91673 0.338339,-1.59084 0.488545,-1.498 0.280931,0.17362 -0.576471,4.38947 -0.963077,4.73545 -0.118762,0.10628 -0.109047,-0.20364 0.02159,-0.68871 z m 179.783333,0 c 0,-0.19402 -0.22927,-0.35277 -0.50949,-0.35277 -0.61632,0 -2.66656,-1.73689 -2.06897,-1.75274 0.23108,-0.006 0.5156,0.14328 0.63226,0.33204 0.11666,0.18875 0.8404,0.51237 1.60832,0.71915 1.35033,0.36361 1.99333,1.4071 0.86705,1.4071 -0.29104,0 -0.52917,-0.15875 -0.52917,-0.35278 z m -4.44665,-4.01693 c -0.7558,-0.85112 -2.28964,-2.29075 -3.40854,-3.19917 -1.11889,-0.90843 -1.94175,-1.80152 -1.82857,-1.98464 0.32431,-0.524743 7.52661,5.63821 7.55729,6.46672 0.0266,0.71925 -1.09106,0.10123 -2.32018,-1.28291 z m 29.8745,0.63615 c 0.0169,-0.41097 0.10052,-0.49456 0.21314,-0.21314 0.1019,0.25466 0.0894,0.55893 -0.0278,0.67616 -0.11722,0.11722 -0.2006,-0.0911 -0.18528,-0.46302 z m -226.143477,-1.13408 c -1.14757,-0.56486 -2.521093,-2.18057 -3.73433,-4.39277 -0.800029,-1.458769 -0.212199,-1.169862 2.131899,1.04778 1.774854,1.67911 1.903034,1.87261 0.79375,1.19823 -0.727604,-0.44234 -1.322916,-0.71812 -1.322916,-0.61283 0,0.34901 1.571165,1.68134 2.645833,2.24363 0.981039,0.5133 1.022972,0.51111 0.574165,-0.0299 -0.772324,-0.93105 0.09952,-0.67444 1.013335,0.29827 l 0.828544,0.88195 -0.855244,-0.0169 c -0.470385,-0.009 -1.404151,-0.28714 -2.075036,-0.61737 z M 122.33667,81.079183 c 0,-0.205479 0.15875,-0.275485 0.35278,-0.155568 0.19402,0.119916 0.35277,0.288036 0.35277,0.373598 0,0.08556 -0.15875,0.155568 -0.35277,0.155568 -0.19403,0 -0.35278,-0.168119 -0.35278,-0.373598 z M 46.665831,68.618535 c -3.047312,-0.639333 -5.135816,-1.719471 -6.7858,-3.509494 -2.010858,-2.181521 -2.643389,-3.572828 -2.832912,-6.231227 -0.201803,-2.830668 0.56314,-5.633653 2.038439,-7.469463 0.579635,-0.721282 1.053884,-1.414346 1.053884,-1.540143 0,-0.479556 1.674824,-1.661644 3.880556,-2.738889 1.83327,-0.895343 2.842779,-1.146221 5.034647,-1.251194 2.409278,-0.115379 2.974767,-0.01721 4.665278,0.809876 2.724788,1.333115 5.192088,4.19687 5.943081,6.89804 0.733147,2.636986 0.736625,4.128852 0.01542,6.609758 -0.767497,2.640097 -2.016034,4.603175 -3.871733,6.087537 -3.157477,2.525649 -5.446204,3.110347 -9.140846,2.335199 z m 4.182019,-0.57131 c 0.425107,0 1.746218,-0.575776 2.935795,-1.2795 2.106179,-1.245962 2.153447,-1.306541 1.80327,-2.311065 -0.43603,-1.250795 -0.101699,-1.724484 0.569386,-0.806722 0.408701,0.558934 0.576753,0.592286 1.041369,0.206693 0.83784,-0.695347 1.918656,-3.903247 2.167353,-6.432791 0.202594,-2.060624 0.175398,-2.195851 -0.318512,-1.583672 -0.297014,0.368134 -0.465307,0.790226 -0.373987,0.937983 0.179751,0.290848 -1.811168,2.096851 -2.311551,2.096851 -0.730536,0 -0.617372,-0.649633 0.146561,-0.841368 0.545786,-0.136983 1.140481,-0.800315 1.694177,-1.889714 0.725025,-1.426489 0.794677,-1.837612 0.463705,-2.736973 -1.039393,-2.824378 -2.800012,-4.646387 -5.94801,-6.155398 -1.444907,-0.692623 -2.057354,-0.786994 -3.956445,-0.609656 -3.104917,0.289941 -5.249573,1.368668 -7.550672,3.797857 -2.511083,2.650857 -3.716034,5.572203 -3.432288,8.321418 0.329727,3.194766 3.151822,7.206196 5.840215,8.301493 1.260644,0.513613 5.404111,1.289089 5.986886,1.120489 0.258402,-0.07476 0.81764,-0.135925 1.242748,-0.135925 z m -3.300074,-1.029328 c 0,-0.188041 0.448652,-0.606919 0.997006,-0.930839 0.548354,-0.323921 1.302417,-1.239055 1.675695,-2.033627 0.373277,-0.794575 0.872998,-1.502879 1.110491,-1.574006 0.633882,-0.189851 -0.154675,1.995985 -1.098031,3.043679 -0.881793,0.979321 -2.685161,1.983232 -2.685161,1.494793 z m 2.469444,-6.731783 c 0,-0.194028 0.463021,-0.352778 1.028937,-0.352778 0.565912,0 1.109006,-0.198438 1.20687,-0.440972 0.112945,-0.279905 0.188108,-0.230509 0.205786,0.135244 0.01531,0.316918 -0.329336,0.671939 -0.765898,0.788931 -1.156222,0.309859 -1.675695,0.269424 -1.675695,-0.130425 z M 47.724165,58.31235 c -0.526267,-0.402939 -1.424524,-0.516537 -3.534932,-0.447043 -2.648476,0.08721 -3.697214,-0.107626 -3.696865,-0.68682 2.58e-4,-0.431211 4.360425,-0.460872 5.89122,-0.04008 0.814906,0.224007 1.752321,0.706381 2.083149,1.07194 0.720185,0.795793 0.248239,0.860619 -0.742572,0.101999 z m 4.344409,-0.05471 c -0.223676,-0.935531 0.07307,-1.908013 0.535911,-1.756244 0.63482,0.208167 0.746182,2.373605 0.122065,2.373605 -0.280705,0 -0.576795,-0.277812 -0.657976,-0.617361 z m -3.109687,-1.082511 c 0,-0.42635 0.66929,-0.923428 0.913941,-0.67878 0.08879,0.08879 -0.08052,0.362253 -0.376248,0.607688 -0.335276,0.278253 -0.537693,0.305018 -0.537693,0.07109 z m 1.761564,-4.209155 c -0.0025,-1.782826 -0.618991,-3.028121 -2.114342,-4.270731 -0.485069,-0.403084 -0.713207,-0.738159 -0.506973,-0.744615 0.412545,-0.01291 1.833767,1.436705 2.745927,2.800787 0.631634,0.94457 0.80616,3.890254 0.230491,3.890254 -0.194028,0 -0.353826,-0.754063 -0.355103,-1.675695 z m -76.286053,13.039391 c -0.533675,-0.720242 -1.763988,-2.254155 -2.734028,-3.408694 -0.970036,-1.154543 -1.763705,-2.226106 -1.763705,-2.381251 0,-0.587089 0.607278,-0.249216 0.965609,0.537235 0.20532,0.450628 1.224495,1.839691 2.264833,3.086806 2.671629,3.20264 2.891402,3.50387 2.545391,3.488821 -0.169277,-0.0074 -0.744421,-0.602675 -1.2781,-1.322917 z M -72.35493,63.93094 c -0.02295,-1.778889 -0.138098,-3.485452 -0.255871,-3.792362 -0.117773,-0.306913 -0.05049,-0.55802 0.149526,-0.55802 0.421373,0 0.706609,5.056929 0.370929,6.576163 -0.126032,0.570403 -0.240978,-0.396568 -0.264584,-2.225781 z m 12.66121,-1.519206 c -0.402914,-0.254473 -0.429136,-0.429433 -0.111907,-0.746661 0.498113,-0.498116 1.636624,-0.141122 1.439163,0.451262 -0.192398,0.577191 -0.701642,0.690531 -1.327256,0.295399 z m 1.319968,-2.723861 c -1.073863,-0.170663 -1.338639,-0.812871 -0.335139,-0.812871 0.34925,0 0.807191,-0.17219 1.017646,-0.382644 0.63118,-0.631183 2.051521,-0.244143 2.051521,0.559033 0,0.747477 -0.825854,0.939737 -2.734028,0.636482 z m 2.390585,-0.744739 c -0.108616,-0.108616 -0.393275,-2.25e-4 -0.632576,0.24087 -0.345816,0.34841 -0.305295,0.38893 0.197483,0.197485 0.347917,-0.132479 0.543709,-0.329738 0.435093,-0.438355 z m -4.423192,-0.602279 c -0.59846,-0.721103 -0.907394,-3.699186 -0.383738,-3.699186 0.21333,0 0.387873,0.465917 0.387873,1.035367 0,0.569454 0.163191,1.464596 0.362648,1.989205 0.431971,1.13617 0.267435,1.438797 -0.366783,0.674614 z m 5.493745,-1.9128 c -0.545816,-0.569708 -1.170829,-1.381044 -1.388918,-1.802967 -0.218089,-0.421925 -1.00365,-0.973028 -1.745692,-1.224675 -1.575263,-0.534215 -1.795805,-0.705968 -1.506856,-1.173498 0.609464,-0.986133 4.468014,1.85867 5.60074,4.129275 0.692406,1.387962 0.327794,1.415278 -0.959274,0.07187 z m -6.312317,-4.520414 c -0.369516,-0.6157 -0.393803,-4.793301 -0.02859,-4.917317 0.223178,-0.07578 0.403041,0.391513 0.430356,1.118094 0.02581,0.686562 0.216041,1.564284 0.422734,1.950494 0.269589,0.503728 0.26587,0.702201 -0.01315,0.702201 -0.228422,0 -0.296536,0.291211 -0.165028,0.705556 0.210792,0.664146 -0.302286,1.014211 -0.646318,0.440972 z m 13.052338,-1.381714 c -0.442296,-0.442295 -0.22526,-2.761979 0.456593,-4.880092 0.374763,-1.164167 0.689927,-1.769812 0.700359,-1.345882 0.01044,0.423933 -0.152128,1.217683 -0.361252,1.763889 -0.209123,0.546209 -0.388754,1.826542 -0.399178,2.845188 -0.02004,1.956752 -0.02723,1.986178 -0.396522,1.616897 z m 10.575953,-1.092733 c -0.107594,-0.174089 -0.458149,-1.097463 -0.779011,-2.051943 -0.320862,-0.954479 -1.279518,-2.585769 -2.130344,-3.625095 -0.850826,-1.039322 -1.446043,-2.052955 -1.322705,-2.252521 0.131565,-0.212881 0.385724,-0.07886 0.614945,0.324262 0.214884,0.37791 0.83161,1.253483 1.370506,1.945722 0.945825,1.214959 2.864354,5.553978 2.581014,5.837319 -0.07633,0.07633 -0.226812,-0.0037 -0.334405,-0.177744 z m -18.925029,-3.580278 c -1.067152,-0.113895 -1.781245,-0.311157 -1.586871,-0.438366 0.484993,-0.317401 3.269757,-0.496478 3.538676,-0.227559 0.414422,0.414422 2.265008,-0.371909 3.417644,-1.452188 1.032445,-0.967635 2.038885,-1.412099 2.038885,-0.900413 0,0.102941 -0.581085,0.698253 -1.291301,1.322917 -1.319201,1.16029 -3.058702,2.063228 -3.776285,1.960192 -0.220258,-0.03162 -1.273595,-0.150685 -2.340748,-0.264583 z m -8.907639,-0.988925 c -0.533576,-0.08083 -0.970138,-0.316074 -0.970138,-0.52276 0,-0.236044 0.535506,-0.303971 1.43999,-0.182654 1.139219,0.152802 1.56086,0.05198 2.018679,-0.482717 0.318279,-0.371722 0.813284,-0.675858 1.10001,-0.675858 0.385297,0 0.418057,0.103261 0.125555,0.395767 -0.217671,0.217671 -0.320094,0.592959 -0.227607,0.833977 0.145796,0.379938 -1.577972,1.006165 -2.295864,0.834066 -0.121267,-0.02907 -0.657048,-0.118992 -1.190625,-0.199821 z m 4.488823,-1.612007 c -0.163328,-0.87061 -0.01823,-1.522635 0.555075,-2.494312 0.968303,-1.641151 1.346448,-1.405848 0.524465,0.326355 -0.335179,0.706338 -0.536001,1.668303 -0.44627,2.137699 0.08973,0.469396 0.03371,0.933447 -0.124495,1.031222 -0.158204,0.09777 -0.387152,-0.352661 -0.508775,-1.000964 z m 7.241039,0.336797 c 0,-0.46282 1.634585,-1.5523 1.898626,-1.265467 0.07469,0.08114 6.7e-4,0.504708 -0.164489,0.941271 -0.324117,0.856731 -1.734137,1.120334 -1.734137,0.324196 z m 4.938888,-1.560291 c 0,-0.699611 1.423498,-2.204554 2.710837,-2.865938 0.9487,-0.487405 1.169719,-0.495551 1.169719,-0.04311 0,0.194028 -0.16934,0.352778 -0.376315,0.352778 -0.612454,0 -2.798685,1.807697 -2.798685,2.314106 0,0.256561 -0.15875,0.564589 -0.352778,0.684505 -0.194028,0.119916 -0.352778,-0.07914 -0.352778,-0.442345 z M -59.8338,37.083047 c -0.404825,-1.209954 0.08236,-2.808197 1.100017,-3.608687 1.16901,-0.919544 1.507442,-0.597676 0.499588,0.475135 -0.426013,0.45347 -0.899851,1.524405 -1.052975,2.37986 -0.238254,1.331051 -0.31709,1.439749 -0.54663,0.753692 z m 10.279492,-1.341568 c -0.44294,-0.447665 -0.296164,-2.240448 0.273643,-3.34233 0.635208,-1.228356 1.063851,-1.379536 0.700504,-0.247065 -0.140067,0.436563 -0.357022,1.482937 -0.482117,2.325276 -0.125095,0.842337 -0.346509,1.411192 -0.49203,1.264119 z m -22.489583,-2.147516 c 0,-0.131887 0.270766,-0.538988 0.601702,-0.904668 0.491217,-0.542789 0.523606,-0.789926 0.176389,-1.345908 -0.57881,-0.926822 -0.534645,-1.220515 0.103854,-0.690608 0.764227,0.634252 0.66238,2.216532 -0.176389,2.740352 -0.388056,0.242345 -0.705556,0.332719 -0.705556,0.200832 z m 2.660339,-3.270491 c -0.127894,-0.206937 -0.523681,-0.376249 -0.879527,-0.376249 -0.355845,0 -0.738369,-0.238125 -0.850052,-0.529166 -0.329459,-0.858555 1.440148,-0.666901 1.907633,0.206602 0.40268,0.752415 0.242824,1.379807 -0.178054,0.698813 z m 1.925772,-0.335123 c 0,-0.171408 0.357188,-0.389119 0.79375,-0.483801 0.436563,-0.09468 1.11125,-0.285226 1.499306,-0.423432 0.612974,-0.21831 0.596273,-0.154827 -0.127277,0.483801 -0.839783,0.74122 -2.165779,1.000465 -2.165779,0.423432 z m 4.536999,-0.382167 c -0.57864,-0.482055 -0.671323,-0.693977 -0.303665,-0.694336 0.566387,-5.64e-4 1.763888,0.788641 1.763888,1.162463 0,0.426297 -0.62842,0.224834 -1.460223,-0.468127 z m 1.641347,-1.995097 c -0.616946,-1.476559 -0.762381,-7.894418 -0.178896,-7.894418 0.214601,0 0.343854,1.29059 0.326812,3.263195 -0.01939,2.244092 0.146654,3.676344 0.531673,4.586111 0.314817,0.743885 0.405459,1.322917 0.207089,1.322917 -0.194027,0 -0.593033,-0.575012 -0.886678,-1.277805 z m 5.110543,-0.05034 c 0,-0.375085 0.757884,-1.141301 1.128889,-1.141301 0.547567,0 0.273382,0.685463 -0.423333,1.058334 -0.388056,0.207681 -0.705556,0.245016 -0.705556,0.08297 z m -4.233333,-5.091357 v -1.083983 l 0.705555,0.896969 c 0.388056,0.493332 0.705556,0.957208 0.705556,1.030835 0,0.07363 -0.3175,0.157784 -0.705556,0.187016 -0.564006,0.04248 -0.705555,-0.164322 -0.705555,-1.030837 z m 2.822222,-0.847323 c 0,-0.509059 1.168345,-2.610954 1.451307,-2.610954 0.470148,0 0.38553,0.327855 -0.421746,1.634054 -0.698086,1.129527 -1.029561,1.444047 -1.029561,0.9769 z m 3.527778,-4.323011 c 0,-0.12919 0.3175,-0.433173 0.705555,-0.675518 0.57866,-0.361379 0.705556,-0.352317 0.705556,0.05038 0,0.270056 -0.3175,0.574039 -0.705556,0.675518 -0.388055,0.101478 -0.705555,0.07881 -0.705555,-0.05038 z m -4.321528,-0.295011 c -0.960683,-0.251053 -0.725858,-0.738055 0.264583,-0.54872 0.48507,0.09273 0.881945,0.308838 0.881945,0.480247 0,0.325901 -0.131414,0.33375 -1.146528,0.06847 z m -3.439583,-0.786302 c 0,-0.178159 -0.09192,-0.563451 -0.204255,-0.856205 -0.153841,-0.400903 -0.0214,-0.484461 0.536601,-0.338541 0.535263,0.139974 0.641744,0.313162 0.383705,0.62408 -0.196434,0.236688 -0.252696,0.534798 -0.125028,0.662466 0.127669,0.127669 0.04692,0.232125 -0.179449,0.232125 -0.226366,0 -0.411574,-0.145766 -0.411574,-0.323925 z m 6.702777,0.0094 c 0,-0.215062 0.15875,-0.391022 0.352778,-0.391022 0.194028,0 0.352778,-0.255109 0.352778,-0.56691 0,-0.372279 -0.191793,-0.493311 -0.558645,-0.352538 -0.350228,0.134396 -0.504904,0.05315 -0.414597,-0.217772 0.190462,-0.571384 2.401824,-1.008539 3.082962,-0.609457 0.413823,0.24246 0.425672,0.316558 0.05194,0.324839 -0.37667,0.0083 -0.392448,0.121242 -0.07106,0.508487 0.282402,0.340273 0.296069,0.570092 0.0432,0.726375 -0.20345,0.125739 -0.372339,0.100185 -0.37531,-0.05679 -0.003,-0.156972 -0.123624,-0.09955 -0.268117,0.127599 -0.36949,0.580858 -2.195926,1.002704 -2.195926,0.507186 z m -5.969371,-4.477364 c 0.01693,-0.410966 0.100521,-0.494559 0.213137,-0.213137 0.101907,0.254661 0.08937,0.558932 -0.02785,0.676158 -0.117225,0.117224 -0.200604,-0.09114 -0.185286,-0.463021 z"
       style="fill:#000000;stroke-width:0.35277778" />
  </g>
</svg>
