<?xml version="1.0" encoding="UTF-8" standalone="no"?>
<svg
   xmlns:dc="http://purl.org/dc/elements/1.1/"
   xmlns:cc="http://creativecommons.org/ns#"
   xmlns:rdf="http://www.w3.org/1999/02/22-rdf-syntax-ns#"
   xmlns:svg="http://www.w3.org/2000/svg"
   xmlns="http://www.w3.org/2000/svg"
   id="svg2886"
   version="1.1"
   viewBox="0 0 231.69594 148.37074"
   height="148.37074mm"
   width="231.69594mm">
  <defs
     id="defs2880" />
  <metadata
     id="metadata2883">
    <rdf:RDF>
      <cc:Work
         rdf:about="">
        <dc:format>image/svg+xml</dc:format>
        <dc:type
           rdf:resource="http://purl.org/dc/dcmitype/StillImage" />
        <dc:title></dc:title>
      </cc:Work>
    </rdf:RDF>
  </metadata>
  <g
     transform="translate(0.85138925,-43.671137)"
     id="layer1">
    <path
       id="path3493"
       d="m 211.31269,191.60492 c -2.18287,-0.63929 -10.46746,-4.82819 -11.55348,-5.84172 -0.53357,-0.49796 -0.97013,-1.15197 -0.97013,-1.45334 0,-0.30137 -0.14635,-0.69876 -0.32522,-0.88309 -0.32675,-0.33671 -1.19093,-2.64331 -3.41735,-9.12128 -0.66057,-1.92196 -1.36304,-3.68968 -1.56105,-3.92826 -0.198,-0.23858 -1.38585,-0.49911 -2.63967,-0.57895 -2.75961,-0.17572 -3.63926,-0.75774 -5.37062,-3.55349 -1.3592,-2.1948 -1.57289,-3.79695 -0.64339,-4.82403 0.30346,-0.33533 0.54987,-1.07343 0.54756,-1.64024 -0.006,-1.3926 -0.86803,-4.5429 -1.72407,-6.29811 -1.66266,-3.4091 -3.5634,-10.7619 -3.5634,-13.78459 0,-1.42626 -1.81078,-5.46591 -2.4501,-5.46591 -0.15424,0 -0.47182,0.75406 -0.70574,1.67569 -0.23391,0.92164 -0.80229,2.70757 -1.26304,3.96875 -0.82419,2.25598 -1.37732,6.77848 -1.18654,9.70139 0.27221,4.1705 -0.43379,13.51323 -1.15963,15.34584 -1.10899,2.79996 -3.01274,6.26079 -4.17106,7.58259 -3.90569,4.4569 -11.53583,10.83306 -14.27404,11.92816 -1.0989,0.43949 -8.17299,1.30314 -10.67389,1.30314 -1.23805,0 -2.82485,0.24688 -3.55021,0.55237 -1.01557,0.4277 -1.86893,0.49256 -3.78103,0.28738 -1.35819,-0.14574 -2.59469,-0.23349 -2.74776,-0.19501 -0.15307,0.0385 -1.3437,-0.10342 -2.64583,-0.31534 -1.30214,-0.21191 -4.74877,-0.43274 -7.65919,-0.49074 -6.30036,-0.12553 -11.74837,-0.4729 -13.93472,-0.88849 -3.9852,-0.75753 -7.41645,-1.5196 -9.525,-2.11549 -5.490255,-1.55159 -6.62398,-1.81485 -8.290277,-1.92511 -0.970138,-0.0642 -2.370599,-0.23772 -3.112131,-0.38563 -2.543503,-0.50733 -8.512615,1.23438 -9.841169,2.87153 -0.350601,0.43203 -1.221839,0.84532 -2.066844,0.98044 -0.803416,0.12847 -2.100082,0.54247 -2.881481,0.92 -0.781396,0.37753 -1.540976,0.6121 -1.687957,0.52126 -0.146978,-0.0908 -0.958826,0.0852 -1.804102,0.39111 -3.012186,1.09027 -4.752484,1.39354 -7.727491,1.34662 -3.888285,-0.0613 -8.449655,-0.48983 -8.449655,-0.7938 0,-0.13036 -0.718171,-0.1799 -1.595938,-0.11009 -0.877764,0.0698 -1.813458,-0.0536 -2.079315,-0.27424 -0.265857,-0.22064 -1.333623,-0.49687 -2.372811,-0.61384 -1.039192,-0.11698 -2.048185,-0.33251 -2.242213,-0.47896 -0.492429,-0.37169 -7.507922,-2.1062 -8.518845,-2.1062 -0.456371,0 -0.829765,0.15875 -0.829765,0.35278 0,0.19403 -0.3175,0.35278 -0.705556,0.35278 -0.388055,0 -0.705555,0.14369 -0.705555,0.3193 0,0.17562 -0.674688,0.53281 -1.499306,0.79375 -1.218735,0.38567 -1.519801,0.65192 -1.60883,1.42281 -0.06488,0.56179 -0.667632,1.45258 -1.478706,2.18533 -1.210021,1.09318 -1.578549,1.23221 -3.170274,1.19595 -0.990601,-0.0226 -1.882365,-0.17253 -1.981697,-0.33325 -0.09933,-0.16072 -0.453454,-0.29222 -0.786938,-0.29222 -0.709535,0 -1.821471,-1.18693 -1.821471,-1.94431 0,-0.28883 -0.154106,-0.52514 -0.342457,-0.52514 -0.484896,0 -5.654765,-5.07692 -5.654765,-5.5531 0,-0.21651 -0.992187,-1.14938 -2.204861,-2.07305 -1.55338,-1.18318 -2.491512,-1.65805 -3.174999,-1.60713 -0.533577,0.0397 -0.970139,-0.089 -0.970139,-0.28612 0,-0.1971 0.192441,-0.35838 0.427646,-0.35838 0.235206,0 -0.121982,-0.47822 -0.79375,-1.06272 -1.2961422,-1.12776 -3.1616742,-2.2659 -3.1616742,-1.92891 0,0.37051 -1.618104,-1.41128 -1.864326,-2.05293 -0.134008,-0.34922 -0.521772,-0.58602 -0.86498,-0.52823 -0.421811,0.071 -0.622082,-0.1224 -0.622082,-0.60082 0,-0.38805 -0.238125,-0.89894 -0.529167,-1.13531 -0.291042,-0.23636 -0.408113,-0.43479 -0.260158,-0.44097 0.292409,-0.0122 -1.362482,-2.76776 -2.014744,-3.35475 -0.22040004,-0.19835 -0.71152404,-0.5369 -1.09138504,-0.75233 -0.838673,-0.47564 -0.970499,-3.15595 -0.248714,-5.05689 0.397693,-1.04739 0.376613,-1.45113 -0.152612,-2.92286 -0.571474,-1.58921 -0.57389,-1.77399 -0.03485,-2.6653 0.318556,-0.52673 0.856379,-1.01446 1.195162,-1.08383 0.67050604,-0.13729 5.02220304,0.76974 7.52084104,1.56759 0.859182,0.27435 1.9307452,0.49882 2.3812502,0.49882 0.481565,0 0.819101,0.21147 0.819101,0.51318 0,0.31533 0.510038,0.60534 1.322917,0.75222 0.727604,0.13147 2.244234,0.77366 3.370289,1.42709 1.126055,0.65344 2.129327,1.18807 2.229494,1.18807 0.100166,0 0.874326,0.47625 1.720355,1.05833 0.846029,0.58208 1.747757,1.05931 2.00384,1.06051 0.256082,0.001 0.931416,0.24508 1.500742,0.54196 0.569326,0.29689 1.224669,0.46707 1.456318,0.37817 0.231649,-0.0889 0.563675,-0.0191 0.737835,0.15504 1.029242,1.02924 6.508315,1.95413 5.918,0.99898 -0.298635,-0.4832 1.534136,-0.3689 2.600089,0.16215 1.545555,0.77 6.851685,0.11502 9.15726,-1.13035 0.890771,-0.48116 3.895883,-0.71292 12.377066,-0.95454 3.170774,-0.0903 7.060148,-0.39401 8.643055,-0.67483 7.787294,-1.38156 8.963695,-1.6386 10.109958,-2.20899 0.679097,-0.33792 1.314097,-0.70578 1.411111,-0.81746 0.469836,-0.54089 4.219938,-2.42855 5.468055,-2.75243 0.776111,-0.2014 3.077986,-0.39916 5.115277,-0.43947 2.037292,-0.0403 4.418542,-0.28493 5.291667,-0.54359 0.873124,-0.25866 1.894769,-0.47201 2.270318,-0.47411 0.37555,-0.002 1.020011,-0.3206 1.432137,-0.70777 0.412126,-0.38717 1.186402,-0.74012 1.720617,-0.78433 0.534215,-0.0442 1.139504,-0.28306 1.345085,-0.53078 0.205585,-0.24771 0.592476,-0.45038 0.859758,-0.45038 0.267286,0 0.485977,-0.15238 0.485977,-0.33861 0,-0.40136 4.28049,-1.77806 5.5284,-1.77806 0.47739,0 1.17081,-0.16207 1.54094,-0.36016 0.86424,-0.46253 7.95148,-1.00953 16.01542,-1.23608 4.54613,-0.12773 6.48306,-0.31025 6.87917,-0.64826 0.30324,-0.25876 0.82915,-0.569 1.1687,-0.68942 0.33955,-0.12041 0.61736,-0.46204 0.61736,-0.75918 0,-0.36365 0.34188,-0.54023 1.04593,-0.54023 0.69952,0 1.17646,-0.24393 1.44009,-0.73653 0.28803,-0.53819 0.61296,-0.68161 1.20666,-0.5326 0.7368,0.18492 0.87376,0.002 1.47032,-1.9576 0.49961,-1.6416 0.91239,-2.31885 1.71617,-2.81566 0.58208,-0.35978 1.05926,-0.77461 1.0604,-0.92185 0.005,-0.69291 1.76544,-2.99945 2.50278,-3.27978 l 0.82803,-0.31481 -1.08855,-2.39351 c -1.41936,-3.12092 -2.00411,-5.55553 -2.26949,-9.44905 -0.11903,-1.74625 -0.51607,-4.07928 -0.88233,-5.18451 -0.36625,-1.10523 -0.69754,-2.45461 -0.7362,-2.99862 -0.0769,-1.08146 0.98101,-4.5691 1.47931,-4.87707 0.17096,-0.10566 1.16745,-1.89347 2.21442,-3.9729 4.77961,-9.492954 6.97286,-13.072634 8.78893,-14.344654 0.43995,-0.30816 1.3713,-1.3911 2.06965,-2.40655 0.95619,-1.39035 1.65344,-1.99017 2.82361,-2.42903 l 1.55388,-0.58277 -0.0525,-2.41584 c -0.0289,-1.32871 -0.22341,-2.85241 -0.43224,-3.38598 -0.34199,-0.87382 -0.55051,-0.97014 -2.10014,-0.97014 -2.98889,0 -5.48506,-2.45761 -4.34704,-4.27987 0.37087,-0.59387 0.35322,-0.86278 -0.10225,-1.55792 -0.30277,-0.46209 -0.5505,-1.16823 -0.5505,-1.56921 0,-0.73937 -0.15525,-0.84263 -1.80742,-1.20211 -1.21061,-0.2634 -1.96137,-1.92305 -1.36988,-3.02827 0.39355,-0.73535 1.49441,-4.036903 1.58943,-4.76679 0.0253,-0.194028 -0.16276,-0.781457 -0.41782,-1.305398 -0.70715,-1.452598 -0.54874,-4.746602 0.35287,-7.337658 0.74936,-2.153528 0.86977,-2.3 1.97885,-2.407176 1.09283,-0.105606 1.16163,-0.05297 0.92225,0.705555 -0.14227,0.450822 -0.58703,2.31297 -0.98834,4.138105 l -0.72967,3.31843 0.80312,0.65032 c 0.44758,0.362435 1.37144,0.652454 2.08694,0.655139 1.62355,0.0061 2.87134,0.334697 2.87134,0.756168 0,0.179255 -0.34736,0.795739 -0.7719,1.369966 -0.88086,1.191429 -2.15976,1.373619 -3.17741,0.452662 -0.84024,-0.760406 -1.12211,-0.436321 -1.85435,2.132047 -0.72173,2.53154 -0.55881,3.13645 0.7687,2.85405 0.53791,-0.11443 1.21006,-0.23724 1.49366,-0.27291 0.75732,-0.0953 0.88165,1.1496 0.16701,1.67215 -0.66632,0.48723 -0.42296,1.26161 0.3965,1.26161 0.28851,0 0.51342,-0.34326 0.52008,-0.79375 l 0.0118,-0.79375 0.69382,0.83283 c 0.97501,1.17038 0.90987,2.16578 -0.14174,2.16578 -0.77448,0 -0.8368,0.14041 -0.8528,1.92126 -0.0234,2.60628 0.3518,2.86253 4.03632,2.75661 2.54232,-0.0731 2.94369,-0.005 2.94369,0.50138 0,0.32232 -0.24906,0.86123 -0.55346,1.19759 -0.50471,0.5577 -0.48918,0.73759 0.17639,2.0422 0.40142,0.78685 0.72975,1.87352 0.72963,2.41482 -2.8e-4,1.21015 -2.89942,5.04114 -3.81494,5.04114 -0.67535,0 -1.47651,0.63758 -1.47651,1.17505 0,0.18061 0.56392,0.23686 1.25316,0.12502 1.80093,-0.29225 2.04286,0.60874 0.52712,1.96305 -1.15749,1.03422 -1.3972,1.06247 -3.51156,0.41385 -0.82942,-0.25444 -0.84423,-0.22338 -0.632,1.32504 0.22469,1.63927 -0.16427,2.58576 -1.58576,3.85881 -0.35039,0.3138 -0.63707,0.73222 -0.63707,0.92982 0,0.61894 -2.60619,4.990504 -3.21405,5.391174 -0.1575,0.10381 -0.54269,0.81819 -0.85599,1.5875 -0.3133,0.76931 -0.88792,2.0707 -1.27694,2.89199 -0.62823,1.32629 -0.66632,1.75653 -0.34067,3.84824 0.20165,1.29525 0.53199,2.52036 0.73409,2.72245 0.2021,0.2021 0.36745,0.58254 0.36745,0.84542 0,0.26288 0.31661,1.17297 0.70358,2.02241 0.38697,0.84945 0.60967,1.78916 0.4949,2.08825 -0.11477,0.29909 0.0389,0.79136 0.34146,1.09393 0.56173,0.56174 1.27677,2.67814 1.28031,3.78953 0.002,0.74955 -1.14715,0.82894 -1.73563,0.11987 -0.22708,-0.27362 -0.44496,-1.42456 -0.48417,-2.55764 -0.0482,-1.39178 -0.25044,-2.1949 -0.62352,-2.47551 -0.30373,-0.22844 -0.84675,-1.06847 -1.20671,-1.86673 -0.43449,-0.96352 -0.82181,-1.38716 -1.15231,-1.26033 -0.27381,0.10506 -0.63963,0.19103 -0.81294,0.19103 -0.45392,0 0.0521,2.22675 0.60121,2.64584 0.66534,0.50776 0.6628,2.21636 -0.006,4.11049 -0.55454,1.57028 -0.48764,2.76867 0.15456,2.76867 0.35727,0 1.38703,3.30839 1.38703,4.45622 0,0.44022 0.24864,0.93954 0.55254,1.10961 0.3039,0.17007 0.68555,0.85264 0.84812,1.51683 0.16256,0.66419 0.68868,2.18147 1.16916,3.37173 0.93085,2.30596 0.80367,3.17762 -0.41704,2.8584 -0.57757,-0.15104 -0.74167,-0.0321 -0.74167,0.53737 0,0.40223 0.10639,0.62493 0.23642,0.4949 0.13004,-0.13003 0.58319,-0.009 1.007,0.26848 0.42382,0.2777 2.26212,0.85484 4.08511,1.28255 6.44219,1.51144 9.67713,2.51615 10.76751,3.34416 0.60665,0.46066 1.18507,0.75549 1.2854,0.65517 0.10032,-0.10032 1.72281,0.23725 3.60553,0.75016 l 3.42313,0.93256 0.83686,-0.78618 c 0.95747,-0.89951 0.83086,-1.38918 -0.35921,-1.38918 -0.86607,0 -1.35715,-0.72568 -1.04375,-1.54239 0.11295,-0.29435 -0.63633,-1.15844 -1.9119,-2.20486 -2.08966,-1.71425 -2.75254,-2.99715 -2.12659,-4.11565 0.36006,-0.6434 -1.83074,-2.28292 -5.60621,-4.19548 -1.02675,-0.52013 -1.0021,-1.02845 0.10007,-2.06389 0.4916,-0.46183 0.84879,-1.06041 0.79375,-1.33018 -0.0998,-0.48907 -2.41057,-1.46549 -3.49208,-1.47557 -0.96946,-0.009 -2.42882,-1.4054 -2.42882,-2.32397 0,-1.1436 1.25052,-1.15565 2.14331,-0.0206 0.36155,0.45963 1.17814,0.93892 1.81466,1.0651 0.63652,0.12617 1.84267,0.49013 2.68035,0.8088 l 1.52303,0.57939 -0.1653,1.6187 c -0.0909,0.89029 -0.22066,1.85608 -0.28832,2.14621 -0.0804,0.34482 0.5202,0.83352 1.73424,1.41111 1.29243,0.61489 1.92695,1.1489 2.08644,1.75594 0.12605,0.47979 0.55458,1.13583 0.95229,1.45787 0.64262,0.52037 0.67309,0.69527 0.27377,1.57169 -0.41539,0.91169 -0.37448,1.04524 0.54185,1.76848 1.94655,1.53637 2.4812,2.10166 2.7285,2.88486 0.28559,0.90449 1.54657,1.71288 1.97639,1.26703 0.25272,-0.26213 0.85378,-2.215 1.72274,-5.59723 0.15072,-0.58664 0.46215,-1.41812 0.69206,-1.84771 0.22991,-0.42959 0.63252,-2.01336 0.89469,-3.51948 0.41015,-2.35624 0.40458,-2.95994 -0.0399,-4.3259 -0.28411,-0.87312 -0.74722,-1.76809 -1.02912,-1.98883 -0.2819,-0.22073 -0.47583,-0.53823 -0.43093,-0.70555 0.0863,-0.32156 -1.36188,-5.21626 -1.81559,-6.13664 -0.1466,-0.29741 -0.37462,-1.09116 -0.50671,-1.76389 -0.22832,-1.16288 -0.92949,-3.14815 -1.69712,-4.80516 -0.19359,-0.41788 -0.7699,-0.8396 -1.28069,-0.93715 -0.51078,-0.0975 -1.27817,-0.28809 -1.70531,-0.4234 -0.5689,-0.18024 -0.9935,-0.0199 -1.5875,0.59939 -0.9962,1.03862 -3.88546,2.93223 -7.13874,4.67867 -1.81046,0.97191 -2.75766,1.27755 -3.63997,1.17454 -0.87053,-0.10163 -1.28141,0.0266 -1.52119,0.47459 -0.25262,0.47203 -0.16606,0.66539 0.37469,0.83702 0.38676,0.12275 0.90258,0.42217 1.14626,0.66537 0.82506,0.82342 4.00606,2.94703 4.78452,3.1941 1.10472,0.35062 0.98773,1.25639 -0.16228,1.25639 -1.73471,0 -7.21739,-3.05717 -8.00502,-4.46364 -0.23327,-0.41655 -0.6742,-0.48052 -2.02847,-0.29426 -1.7804,0.24487 -2.13784,-0.0505 -1.42384,-1.17664 0.34637,-0.54628 2.50097,-1.10061 4.32454,-1.1126 0.70385,-0.005 1.47061,-0.23842 1.70392,-0.51954 0.2333,-0.28111 1.0068,-0.70099 1.71888,-0.93307 0.71209,-0.23207 1.37408,-0.518 1.47109,-0.6354 0.097,-0.11741 0.81139,-0.5029 1.5875,-0.85666 2.39783,-1.09293 4.08814,-2.40575 3.89561,-3.02561 -0.2043,-0.65777 0.0638,-1.09798 1.04328,-1.7133 1.31684,-0.82722 1.67996,-0.90348 2.33979,-0.49141 0.36235,0.22629 0.65882,0.26204 0.65882,0.0794 0,-0.18259 -0.3175,-0.43276 -0.70555,-0.55592 -0.76215,-0.2419 -0.91788,-0.70909 -0.35278,-1.05834 0.61201,-0.37824 0.38632,-1.69181 -0.67679,-3.939 -1.05371,-2.22736 -1.05714,-2.5874 -0.0246,-2.5874 0.75808,0 1.52457,0.90562 2.09005,2.46945 0.24556,0.67909 0.62128,1.6017 0.83492,2.05024 0.29512,0.61959 0.27502,0.99714 -0.0837,1.57148 -0.39613,0.63429 -0.39417,0.78194 0.0122,0.91738 0.74986,0.24996 4.02597,3.90217 4.76467,5.31167 0.36369,0.69395 0.77319,1.34512 0.91,1.44706 0.57786,0.43055 3.11158,6.07098 4.15421,9.2479 0.62021,1.8898 1.27385,3.52636 1.45254,3.63679 0.17868,0.11043 0.32487,0.47359 0.32487,0.80703 0,0.99115 1.07522,2.29857 1.5225,1.85129 0.72415,-0.72416 1.15492,-0.3759 2.47226,1.99874 0.72655,1.30969 1.45496,2.61938 1.61868,2.91042 0.51653,0.91821 1.08934,3.01245 1.08934,3.98272 0,1.37734 -0.9137,0.85571 -1.7288,-0.98696 -0.36852,-0.83308 -0.99118,-1.61662 -1.38371,-1.74121 -0.39253,-0.12458 -1.46768,-1.33002 -2.38923,-2.67875 -1.93143,-2.82675 -2.44264,-3.04377 -0.86431,-0.36691 0.59091,1.00218 1.07438,1.91668 1.07438,2.0322 0,0.11553 0.84552,1.25948 1.87894,2.54212 2.54196,3.155 3.03472,3.95905 3.62186,5.90998 0.33858,1.125 0.38665,1.78825 0.147,2.0279 -0.62524,0.62524 -0.38579,1.2399 0.7022,1.80252 0.58209,0.30101 1.05834,0.75006 1.05834,0.9979 0,0.24783 0.4426,1.07719 0.98355,1.84302 0.54096,0.76583 1.44936,2.42429 2.01868,3.68547 0.56932,1.26118 1.56805,3.14923 2.21939,4.19567 1.56994,2.52224 1.87758,3.38068 1.38726,3.871 -0.29168,0.29168 -0.21378,0.64982 0.2975,1.36771 0.38096,0.53491 0.94587,1.52819 1.25536,2.20729 0.30949,0.67909 0.82948,1.79714 1.15555,2.48454 0.89826,1.89368 1.89614,6.24373 1.55175,6.76452 -0.23075,0.34893 -0.41856,0.29579 -0.82159,-0.23246 -0.28735,-0.37663 -0.52246,-0.88718 -0.52246,-1.13456 0,-0.24737 -0.22501,-0.97109 -0.50002,-1.60827 -0.27501,-0.63717 -1.07505,-2.55006 -1.77787,-4.25086 -0.70283,-1.70081 -1.82202,-3.99569 -2.48709,-5.09973 -0.7953,-1.32024 -1.14298,-2.27126 -1.01571,-2.77833 0.11813,-0.47069 -0.12764,-1.30115 -0.63103,-2.13222 -0.45349,-0.74868 -1.36246,-2.43764 -2.01994,-3.75322 -0.65749,-1.31559 -1.3189,-2.46829 -1.4698,-2.56155 -0.60534,-0.37413 1.26502,4.93368 2.74001,7.77575 0.76671,1.47732 2.26802,4.16323 2.56343,4.58611 0.13554,0.19403 0.45427,0.9084 0.70828,1.5875 0.25402,0.6791 0.82204,2.10785 1.26228,3.175 0.44024,1.06715 1.16283,3.1309 1.60576,4.58611 0.44292,1.45521 0.90939,2.80458 1.03659,2.99861 0.12719,0.19403 0.60178,1.5434 1.05464,2.99861 1.00315,3.22352 1.48432,3.8651 2.44759,3.26353 0.85751,-0.53552 1.32606,0.0586 0.66983,0.8493 -0.38855,0.46817 -0.33246,0.65735 0.36149,1.21927 0.45176,0.36582 1.02767,0.66513 1.2798,0.66513 0.73541,0 4.63783,1.94348 6.02139,2.99878 1.53535,1.17106 3.36082,1.5061 4.0013,0.73438 0.38773,-0.46719 0.22491,-0.60151 -1.18687,-0.9791 -1.21714,-0.32554 -1.68803,-0.64394 -1.8384,-1.24307 -0.11119,-0.44299 -0.3437,-0.80544 -0.51669,-0.80544 -0.17299,0 -0.31453,-0.23812 -0.31453,-0.52917 0,-0.61518 1.42776,-0.72418 1.99931,-0.15263 0.20709,0.2071 2.02478,0.43418 4.0393,0.50463 2.01453,0.0705 4.82409,0.37727 6.24348,0.6818 3.24816,0.69691 3.28301,0.69427 2.00541,-0.15185 -0.58594,-0.38805 -1.65511,-0.70194 -2.39531,-0.70323 -1.5752,-0.003 -4.26779,-1.25962 -3.91642,-1.82815 0.13178,-0.21321 -0.13261,-0.6684 -0.58751,-1.01154 -0.70226,-0.52972 -0.75717,-0.70814 -0.36378,-1.18214 0.38373,-0.46237 0.38074,-0.5826 -0.0174,-0.69994 -0.26438,-0.0779 -1.20038,-0.39731 -2.07999,-0.70973 -0.87961,-0.31243 -2.02273,-0.56805 -2.54027,-0.56805 -2.51603,0 -4.54787,-0.78032 -6.51571,-2.50233 -1.08796,-0.95206 -2.07606,-1.731 -2.19578,-1.731 -1.07963,0 -3.25153,-10.13624 -4.23303,-19.75556 -0.28402,-2.78353 -1.21728,-6.17272 -1.79869,-6.53205 -0.18899,-0.11681 -0.34361,-0.67436 -0.34361,-1.23902 0,-0.56466 -0.31703,-1.63491 -0.70453,-2.37834 -0.81272,-1.55923 -1.5465,-5.09926 -1.25037,-6.03227 0.12844,-0.40466 -0.2381,-1.2122 -1.0077,-2.22011 -1.46813,-1.92274 -2.53956,-4.22139 -2.85089,-6.11627 -0.12752,-0.77611 -0.54111,-2.6832 -0.91908,-4.23798 -0.37798,-1.55478 -0.91158,-4.25353 -1.18578,-5.99722 -0.69978,-4.44998 -1.58952,-8.4018 -1.98064,-8.79716 -0.18236,-0.18432 -0.33156,-0.58732 -0.33156,-0.89555 0,-0.30822 -0.32588,-1.18928 -0.72417,-1.95791 -0.64322,-1.24129 -0.6992,-1.79187 -0.50078,-4.92529 0.19534,-3.08474 0.13367,-3.728 -0.49106,-5.1221 -0.91158,-2.034204 -3.05122,-4.164754 -4.83267,-4.812144 -3.44351,-1.25139 -5.60806,-1.88423 -6.46186,-1.88921 -1.29929,-0.008 -1.88651,-0.47356 -1.74833,-1.3873 0.0966,-0.63886 -0.1431,-0.87587 -1.29252,-1.278 -1.92067,-0.67195 -2.87507,-0.62784 -3.67266,0.16975 -1.02955,1.02955 -3.18514,1.95786 -3.59487,1.54814 -0.43163,-0.43164 3.34823,-3.63331 4.28945,-3.63331 0.35476,0 0.85246,-0.29283 1.106,-0.65073 0.36528,-0.51564 1.12009,-0.69761 3.63597,-0.87657 1.74625,-0.12422 3.77116,-0.086 4.4998,0.0848 0.82523,0.19353 1.40454,0.18166 1.53626,-0.0315 0.26004,-0.42074 -1.12474,-1.94021 -2.29061,-2.51339 -1.81104,-0.89037 -2.84867,-2.75075 -3.59018,-6.43683 -0.38623,-1.91999 -0.6677,-3.73343 -0.62549,-4.02989 0.0422,-0.29645 -0.27069,-1.09463 -0.69533,-1.77372 -0.42465,-0.6791 -0.77268,-1.55659 -0.7734,-1.94998 -0.001,-0.74771 -0.67121,-1.90412 -1.88891,-3.26108 -0.39551,-0.44074 -0.75569,-1.0506 -0.8004,-1.35525 -0.22117,-1.50692 -0.99277,-0.9501 -1.50559,1.0865 -0.4845,1.92415 -1.70746,2.92268 -2.83832,2.31747 -0.99053,-0.53012 -0.95194,-1.69571 0.0609,-1.84021 1.01054,-0.14418 1.31171,-1.34746 0.33725,-1.34746 -0.37852,0 -0.8969,-0.25143 -1.15194,-0.55873 -0.67302,-0.81095 0.0375,-1.76281 1.21873,-1.63277 0.50736,0.0558 0.92248,-0.0632 0.92248,-0.264588 0,-0.201372 -0.37989,-0.36613 -0.8442,-0.36613 -1.68889,0 -1.50648,-2.016946 0.21351,-2.360946 1.41609,-0.283218 1.60301,-1.020206 0.54734,-2.158031 -0.4843,-0.521993 -1.07253,-1.266579 -1.30718,-1.654634 l -0.42663,-0.705556 0.25689,0.705556 c 0.40967,1.125145 0.36218,2.469444 -0.0872,2.469444 -0.44065,0 -3.99693,-4.565673 -3.99693,-5.131404 0,-0.440854 0.93023,-0.430036 1.77227,0.02061 0.52455,0.280734 0.74419,0.214049 1.02535,-0.311301 0.19679,-0.36771 0.79877,-0.756984 1.33773,-0.865052 0.53896,-0.108068 1.39149,-0.29921 1.89451,-0.42476 0.76284,-0.190398 1.1573,0.02555 2.37745,1.301539 1.72794,1.807026 2.01868,3.304361 0.58852,3.030969 -1.23224,-0.235557 -1.11788,0.389255 0.39464,2.156302 1.17086,1.367881 1.32655,1.446185 1.87986,0.945443 0.33181,-0.300278 0.78922,-0.545959 1.01647,-0.545959 0.64519,0 0.49103,-0.558917 -0.46875,-1.699553 -0.82422,-0.979535 -1.14082,-1.828225 -0.68202,-1.828225 0.10997,0 0.72026,0.396875 1.35622,0.881945 0.63596,0.485069 1.32031,0.881944 1.52077,0.881944 0.20046,0 0.5621,0.238125 0.80364,0.529167 0.64274,0.77445 0.97359,0.658007 1.60619,-0.565295 0.53758,-1.03958 0.52878,-1.129105 -0.17561,-1.785343 -0.40787,-0.379985 -1.06694,-1.383065 -1.46461,-2.229067 -0.39767,-0.846002 -0.97111,-1.633383 -1.27432,-1.749735 -0.48255,-0.185172 -0.47872,-0.111669 0.0307,0.589501 0.8647,1.1901 1.02199,1.626526 0.79726,2.212161 -0.3354,0.874044 -0.8115,0.616297 -2.2279,-1.206141 -0.74178,-0.95442 -1.62651,-1.812682 -1.96606,-1.907251 -0.33954,-0.09457 -0.61736,-0.494936 -0.61736,-0.889706 0,-1.008628 -0.63543,-1.284991 -1.38819,-0.603754 -0.58087,0.525685 -0.77686,0.529249 -2.18263,0.03969 -1.97211,-0.686779 -4.45925,-0.694536 -6.07615,-0.01895 -1.58753,0.66331 -3.02785,0.659182 -3.9142,-0.01122 -0.87794,-0.664041 -2.46894,-0.665211 -3.13185,-0.0023 -0.39056,0.390557 -0.79007,0.436942 -1.64689,0.191209 -2.73662,-0.784852 -2.81417,-2.051557 -0.26911,-4.395706 2.77783,-2.558546 3.14612,-2.649773 10.18602,-2.523111 4.86584,0.08755 6.34819,0.229736 7.18828,0.689509 0.58208,0.31857 1.40236,0.580196 1.82284,0.581391 0.93982,0.0027 3.55216,1.148246 4.58495,2.010619 0.82303,0.687218 3.00701,3.484079 3.56227,4.561945 0.54199,1.052074 0.25346,9.768944 -0.36252,10.95246 -0.28568,0.548891 -0.85363,1.647384 -1.2621,2.441084 -1.77334,3.44576 -2.22383,8.16317 -1.26317,13.22739 0.69502,3.66386 1.14789,4.54168 2.96259,5.74259 1.49654,0.99037 2.82791,2.7831 2.83021,3.811 7.1e-4,0.32338 0.12675,0.64088 0.28006,0.70556 0.7483,0.31568 2.58636,3.50441 2.98083,5.17123 0.27815,1.17533 0.85894,2.3313 1.55138,3.08776 2.2731,2.48327 2.95045,5.371094 2.23745,9.539294 l -0.44924,2.6263 1.05155,1.48817 c 0.57836,0.81849 1.16786,1.80567 1.31002,2.19373 0.35572,0.97102 2.22676,10.40288 2.69935,13.60736 0.58234,3.94858 0.57457,3.90533 1.04062,5.79542 0.46753,1.89613 0.4509,1.85989 2.18524,4.7625 1.5205,2.54474 1.62494,2.82368 2.04745,5.46848 0.19767,1.23736 0.67352,2.98257 1.05746,3.87826 1.09912,2.56412 2.3797,7.85163 2.64908,10.93798 0.13547,1.55222 0.3491,3.61597 0.47471,4.58611 0.22177,1.71266 0.26427,1.76665 1.46313,1.85913 0.67909,0.0524 2.36712,0.3369 3.75116,0.63226 2.86827,0.6121 3.86355,1.40079 3.51587,2.78606 -0.12371,0.49289 -0.0886,0.89616 0.0779,0.89616 0.16658,0 0.47821,0.38482 0.69251,0.85516 0.72499,1.59119 -1.06298,2.04791 -5.83263,1.48988 -1.31884,-0.1543 -2.20486,-0.12518 -2.20486,0.0725 0,0.18173 0.32464,1.38149 0.72142,2.66613 0.61012,1.97534 0.9367,2.47817 2.11667,3.25904 0.76738,0.50783 1.39524,1.05654 1.39524,1.21937 0,0.33501 2.98896,1.23423 5.11528,1.53891 0.77611,0.11121 1.88736,0.35613 2.46944,0.54427 0.58208,0.18813 2.56235,0.66269 4.40059,1.05457 4.17848,0.89078 9.12011,2.41651 9.55048,2.94872 2.54214,3.14371 2.55714,3.21433 0.95378,4.4903 -2.50319,1.99206 -3.11058,2.05599 -8.02568,0.84464 -2.50184,-0.61658 -5.99723,-1.07103 -5.99723,-0.77971 0,0.10052 0.47625,0.69259 1.05834,1.31572 1.22998,1.3167 1.32662,1.94825 0.37597,2.45703 -0.88448,0.47336 -4.04368,0.40992 -5.84403,-0.11736 z m -181.709391,-4.3177 c 0.306911,-0.11777 0.55802,-0.50527 0.55802,-0.86112 0,-0.35585 0.15875,-0.74511 0.352777,-0.86502 0.730351,-0.45138 0.308238,-1.24386 -0.940438,-1.76559 -0.711268,-0.29719 -2.098565,-1.29151 -3.082882,-2.2096 -2.015798,-1.88017 -6.305204,-6.68342 -6.688817,-7.49009 -0.594932,-1.25103 -1.252387,-2.22322 -2.1061,-3.1143 -1.036425,-1.0818 -2.071132,-3.69409 -1.771981,-4.47366 0.119537,-0.31151 -0.06265,-0.61273 -0.454429,-0.75133 -1.325296,-0.46885 -3.834265,-1.63586 -4.005352,-1.86303 -0.09701,-0.12882 -0.890764,-0.44458 -1.7638882,-0.7017 -2.311132,-0.68059 -5.415841,-1.8596 -5.803194,-2.20376 -0.51405,-0.45674 -1.605828,-0.35369 -1.806998,0.17055 -0.251567,0.65558 0.414535,2.26193 1.446501,3.48836 0.479614,0.56998 0.872024,1.36007 0.872024,1.75576 0,0.39568 0.583082,1.51373 1.295737,2.48456 1.157321,1.57659 3.399971,3.44577 9.9311192,8.27729 2.004237,1.48267 3.578845,2.99265 8.112143,7.77918 2.235483,2.36036 2.53322,2.55764 3.860032,2.55764 0.790739,0 1.688815,-0.0964 1.995726,-0.21414 z m 197.554791,-1.0161 c -0.79239,-0.25021 -1.93432,-0.71018 -2.53762,-1.02216 -0.6033,-0.31198 -1.18282,-0.42824 -1.28782,-0.25835 -0.27254,0.44099 2.94686,1.78666 4.20781,1.75881 0.99525,-0.022 0.97246,-0.0505 -0.38237,-0.4783 z M 67.379371,185.1653 c 0.776111,-0.13491 1.728611,-0.44265 2.116666,-0.68388 0.388056,-0.24122 1.261181,-0.55242 1.940278,-0.69156 1.847677,-0.37856 6.243986,-2.64451 7.333248,-3.77971 0.988543,-1.03024 2.58362,-2.03379 3.232566,-2.03379 0.203662,0 0.370296,0.23812 0.370296,0.52916 0,0.58911 1.246315,0.72844 1.586869,0.17741 0.565788,-0.91546 10.451079,0.4212 16.757576,2.26591 2.8357,0.82947 8.49703,1.87878 12.42151,2.30228 4.15017,0.44786 3.89549,0.44668 3.62988,0.0169 -0.11992,-0.19403 -0.97873,-0.35278 -1.90846,-0.35278 -1.85739,0 -3.18508,-0.36685 -5.85266,-1.61715 -0.97013,-0.4547 -2.71638,-0.97911 -3.88055,-1.16535 -1.95661,-0.31301 -8.322062,-2.87861 -10.208079,-4.11437 -0.447082,-0.29294 -1.495686,-0.64919 -2.330231,-0.79166 -0.834549,-0.14246 -1.588467,-0.47235 -1.675377,-0.73309 -0.247512,-0.74253 2.262985,-0.18579 5.652219,1.25348 3.28084,1.39323 10.562398,3.85553 12.971188,4.38628 0.87313,0.19238 2.74111,0.57178 4.15107,0.84311 1.40996,0.27133 2.71323,0.58583 2.89615,0.69888 0.18292,0.11305 1.41057,0.28937 2.7281,0.39182 1.31753,0.10245 2.95114,0.32226 3.63024,0.48846 0.67909,0.1662 3.21909,0.49129 5.64444,0.72241 2.42535,0.23111 5.00825,0.64091 5.73978,0.91064 1.56956,0.57874 4.49078,0.65403 4.49078,0.11575 0,-0.90051 -1.21914,-4.09909 -1.81554,-4.76333 -0.79214,-0.88225 -0.82608,-1.21199 -0.12474,-1.21199 1.19507,0 0.41437,-1.43845 -2.55764,-4.7125 -1.40999,-1.55329 -2.20486,-2.73241 -2.20486,-3.27072 0,-0.70132 -1.66899,-3.89707 -4.23334,-8.10591 -0.62442,-1.02488 -2.19976,-1.90253 -3.4149,-1.90253 -0.47565,0 -1.18991,-0.17399 -1.58726,-0.38664 -1.46597,-0.78457 -10.882,-0.96566 -14.04783,-0.27017 -0.87313,0.19181 -2.93688,0.58148 -4.58611,0.86595 -2.82873,0.4879 -5.392022,1.1664 -9.877781,2.61466 -1.889718,0.6101 -4.881845,1.24485 -5.346336,1.13416 -0.127082,-0.0303 -2.032081,-0.0771 -4.233333,-0.104 l -4.002275,-0.0489 -2.99861,1.66261 c -1.649236,0.91443 -3.249235,1.88392 -3.555556,2.15442 -0.30632,0.27051 -0.869883,0.49183 -1.252361,0.49183 -0.382478,0 -0.846229,0.14985 -1.030555,0.33301 -0.435617,0.43284 -4.241313,1.03415 -9.330972,1.4743 -2.231319,0.19296 -5.485694,0.48352 -7.231944,0.64567 -1.74625,0.16216 -5.363287,0.47075 -8.037861,0.68577 -2.67457,0.21502 -5.53207,0.54537 -6.349999,0.73413 -1.986904,0.45854 -5.891611,0.44845 -8.521458,-0.022 -2.175887,-0.38925 -6.290273,-1.55872 -7.257426,-2.06286 -0.293378,-0.15292 -1.43408,-0.53987 -2.534895,-0.85989 -1.319878,-0.3837 -2.073292,-0.8081 -2.212346,-1.24622 -0.226347,-0.71315 -2.169462,-1.698 -2.566608,-1.30085 -0.131955,0.13195 -0.04749,0.54804 0.187701,0.92464 0.235189,0.37659 0.427617,0.98155 0.427617,1.34433 0,0.75036 1.875924,3.38264 4.01854,5.63878 3.127873,3.29361 4.884363,5.00008 5.146619,5.00008 0.150833,0 0.460044,0.43657 0.687134,0.97014 0.436089,1.02465 3.380956,3.05855 3.933763,2.7169 0.651614,-0.40272 0.292103,-0.84637 -1.232274,-1.52068 -0.856531,-0.37888 -1.729656,-1.01087 -1.940278,-1.40443 -0.567561,-1.06049 -0.482734,-2.52581 0.146218,-2.52581 0.291042,0 0.529167,0.28217 0.529167,0.62705 0,1.4433 0.937567,2.08654 3.424932,2.34974 1.317745,0.13944 2.96509,0.23917 3.660764,0.22162 0.695674,-0.0175 2.441924,0.35088 3.880555,0.81875 3.850467,1.25224 6.811256,1.913 10.376802,2.3158 4.566176,0.51585 8.438769,1.10675 8.643055,1.31882 0.20822,0.21614 5.556028,-0.11019 7.584722,-0.46284 z m -8.137898,-6.52224 c -0.391584,-0.63359 0.513206,-0.94893 2.722759,-0.94893 1.917323,0 3.066659,0.45126 1.997915,0.78443 -1.325256,0.41313 -4.498668,0.52372 -4.720674,0.1645 z m 7.344148,0.14266 c -1.827361,-0.35196 -0.581318,-0.80936 2.204861,-0.80936 3.004188,0 3.964283,0.42422 1.89618,0.83784 -1.171271,0.23426 -2.795516,0.22298 -4.101041,-0.0285 z m -24.389244,-1.19073 c -3.354602,-0.32346 -4.060824,-0.51838 -3.742763,-1.03301 0.122717,-0.19856 0.383762,-0.26174 0.5801,-0.1404 0.196339,0.12134 2.054426,0.21142 4.129087,0.20016 3.777872,-0.0205 4.938896,0.22861 4.485393,0.9624 -0.267071,0.43213 -1.066338,0.43372 -5.451817,0.0109 z m 40.881604,0.0553 c 0,-0.16718 0.238125,-0.39534 0.529166,-0.50702 0.291042,-0.11169 0.529167,-0.0663 0.529167,0.1009 0,0.16718 -0.238125,0.39534 -0.529167,0.50702 -0.291041,0.11169 -0.529166,0.0663 -0.529166,-0.1009 z m -7.584722,-5.31834 c 0.119916,-0.19403 0.383106,-0.35278 0.584867,-0.35278 0.20176,0 0.867078,-0.21951 1.478484,-0.4878 3.42997,-1.50512 4.66284,-1.60533 3.013707,-0.24497 -1.188392,0.98031 -5.594216,1.92233 -5.077058,1.08555 z m 11.631449,-1.93857 c -2.028793,-0.46252 -3.341172,-1.10263 -3.341172,-1.62965 0,-0.2104 0.41607,-0.29109 0.970139,-0.18814 0.533576,0.0992 2.041701,0.36786 3.351389,0.59714 1.471199,0.25757 2.38125,0.58814 2.38125,0.86498 0,0.66268 -1.376268,0.80829 -3.361606,0.35567 z m 15.194732,0.19906 c -0.25169,-0.40723 -0.0907,-0.49912 2.1016,-1.19953 4.71006,-1.50479 16.89172,-2.71086 17.83719,-1.766 0.22577,0.22562 0.31747,0.56074 0.20379,0.74469 -0.11369,0.18395 -2.87005,0.42247 -6.12524,0.53004 -6.06362,0.20037 -9.1392,0.60396 -11.48191,1.50668 -1.54103,0.59381 -2.25039,0.64533 -2.53543,0.18412 z m 120.36298,14.22637 c -0.11722,-0.11722 -0.4215,-0.12975 -0.67616,-0.0278 -0.28142,0.11261 -0.19783,0.19621 0.21314,0.21313 0.37188,0.0153 0.58024,-0.0681 0.46302,-0.18528 z m -74.69333,-1.90353 c 0,-0.19402 -0.1598,-0.35277 -0.35511,-0.35277 -0.19531,0 -0.70019,-0.39688 -1.12195,-0.88195 -0.72919,-0.83864 -1.69794,-1.18881 -1.69794,-0.61375 0,0.1475 0.4033,0.70313 0.89622,1.23472 0.87343,0.94195 2.27878,1.32046 2.27878,0.61375 z m 5.64444,0.0377 c 0,-0.38215 -0.87105,-0.7433 -1.79274,-0.7433 -0.75776,0 -0.91513,0.55055 -0.23573,0.8247 0.74846,0.302 2.02847,0.25064 2.02847,-0.0814 z m 3.88056,-2.35162 c 0,-0.27959 -0.15875,-0.50835 -0.35278,-0.50835 -0.19403,0 -0.35278,0.32687 -0.35278,0.72638 0,0.39951 0.15875,0.62826 0.35278,0.50834 0.19403,-0.11991 0.35278,-0.44678 0.35278,-0.72637 z m -12.89298,-6.94654 c -0.2102,-0.54257 -2.27646,-1.75989 -2.27646,-1.34115 0,0.23521 2.02033,1.74922 2.37018,1.77618 0.0424,0.003 2.4e-4,-0.1925 -0.0937,-0.43503 z m 4.56978,-2.5806 c 0.13698,-0.93333 0.65814,-0.97422 1.57151,-0.12328 0.44062,0.41049 0.83554,0.6907 0.87762,0.62268 0.0421,-0.068 0.28104,-0.39172 0.53104,-0.71934 0.39611,-0.5191 0.27102,-0.71713 -0.97303,-1.5404 -0.78517,-0.5196 -1.66529,-0.85351 -1.95582,-0.74202 -0.30664,0.11767 -0.74318,-0.10414 -1.04056,-0.5287 -0.28176,-0.40228 -0.98744,-1.02036 -1.56816,-1.37352 -0.8859,-0.53875 -1.08715,-0.5606 -1.25017,-0.13576 -0.25617,0.66757 0.0673,1.46273 0.69277,1.70273 0.27604,0.10592 0.50189,0.52356 0.50189,0.92807 0,0.91906 1.81897,3.25325 2.2215,2.85072 0.16326,-0.16326 0.3394,-0.58679 0.39141,-0.94118 z M 43.214095,170.38381 c 2.231319,-0.28117 6.438194,-0.59431 9.34861,-0.69587 2.910417,-0.10156 5.848724,-0.27008 6.529574,-0.37449 0.680851,-0.10441 2.823976,-0.3343 4.7625,-0.51088 5.529022,-0.50364 9.920393,-1.88825 14.398818,-4.54002 2.03357,-1.20411 2.111883,-1.21933 7.584722,-1.47399 3.251217,-0.15129 6.256785,-0.48148 7.293828,-0.80128 7.016673,-2.16381 6.477313,-2.04546 14.816663,-3.251 3.42103,-0.49455 7.448,-0.61067 13.91633,-0.4013 l 1.92188,0.0622 0.90034,-1.69111 c 0.49519,-0.93011 1.38832,-1.98234 1.98475,-2.33828 0.82737,-0.49379 1.26636,-1.18587 1.85208,-2.91988 1.198,-3.54667 1.18911,-3.56502 -1.61357,-3.32739 -1.30969,0.11105 -4.60375,0.29985 -7.32014,0.41956 -7.28288,0.32096 -13.92177,1.30288 -15.89596,2.35106 -0.57055,0.30294 -1.75175,0.82354 -2.62487,1.15689 -0.87313,0.33335 -2.936879,1.20848 -4.586115,1.94473 -4.014438,1.79212 -4.476488,1.88983 -9.172221,1.93964 -4.12665,0.0438 -6.459717,0.58382 -7.645714,1.76982 -0.285213,0.28521 -0.731668,0.51857 -0.992116,0.51857 -0.260453,0 -1.400052,0.46913 -2.532444,1.04251 -4.216696,2.13512 -8.985485,3.04738 -18.463057,3.53197 -6.142651,0.31407 -14.117749,1.38819 -15.451651,2.0811 -1.184328,0.6152 -4.282122,0.79919 -12.225144,0.72609 -0.379114,-0.004 -0.855363,-0.13988 -1.058333,-0.30309 -0.20297,-0.16321 -1.639036,-0.64224 -3.191258,-1.06451 -1.552223,-0.42227 -3.739783,-1.23381 -4.861246,-1.80342 -1.121463,-0.56961 -2.193025,-1.03565 -2.38125,-1.03565 -0.64937,0 -0.339755,1.66294 0.532165,2.85825 0.480916,0.65928 1.054076,1.53844 1.27369,1.95369 0.219613,0.41524 0.738949,0.90782 1.15408,1.09461 1.397484,0.62882 4.272945,1.58143 5.544469,1.83682 0.69405,0.13941 1.442073,0.36482 1.662275,0.50091 0.220201,0.13609 1.497125,0.52596 2.837608,0.86638 2.747254,0.69768 5.412391,0.66974 11.700707,-0.12265 z m 26.587582,-6.33626 c -0.779939,-0.57415 -0.651581,-0.63935 2.466103,-1.25265 1.427547,-0.28082 2.179341,-0.29329 2.432276,-0.0404 0.252935,0.25294 0.05046,0.43594 -0.655077,0.59208 -0.561639,0.12429 -1.598002,0.4419 -2.303024,0.7058 -1.083459,0.40555 -1.383775,0.40479 -1.940278,-0.005 z m 14.229827,-3.70017 c 0.100055,-0.3826 0.595979,-1.13666 1.102056,-1.67569 0.817563,-0.8708 0.934879,-0.90735 1.052365,-0.32782 0.075,0.36999 -0.292093,1.09513 -0.848307,1.6757 -1.145403,1.19554 -1.560259,1.29967 -1.306114,0.32781 z m 2.574254,-2.76158 c 0,-0.49854 0.827338,-1.12889 1.481667,-1.12889 0.93992,0 0.770018,0.67169 -0.26991,1.06707 -1.096674,0.41695 -1.211757,0.42282 -1.211757,0.0618 z m 22.386882,-2.21069 c -0.12789,-0.20694 -0.14466,-0.46413 -0.0373,-0.57154 0.30044,-0.30043 1.99203,0.21054 1.99203,0.60173 0,0.46787 -1.66283,0.44219 -1.95478,-0.0302 z m 58.89001,14.04638 c -0.69817,-1.20073 -2.40807,-3.14387 -3.08281,-3.50333 -0.71297,-0.37982 -0.72703,-0.36329 -0.2302,0.27058 0.67338,0.8591 3.316,3.66018 3.46041,3.6679 0.06,0.003 -0.006,-0.19261 -0.1474,-0.43515 z m 24.90696,-1.23472 c -0.001,-0.14552 -0.55697,-1.29646 -1.23496,-2.55764 -0.67799,-1.26118 -1.47309,-2.7693 -1.7669,-3.35139 -0.2938,-0.58208 -0.6731,-1.29645 -0.84287,-1.5875 -0.4539,-0.77809 -1.82641,-4.00256 -2.32751,-5.46805 -0.13269,-0.38806 -0.46365,-1.54315 -0.73547,-2.56689 -0.27182,-1.02373 -0.71516,-2.21435 -0.9852,-2.64583 -0.27005,-0.43148 -0.57179,-2.06981 -0.67056,-3.64075 -0.17605,-2.80018 -0.74865,-4.52728 -1.78655,-5.38866 -0.28656,-0.23783 -0.60434,-0.29759 -0.70618,-0.13282 -0.23059,0.37311 1.04741,6.19338 1.6805,7.65334 0.25691,0.59244 0.67294,1.79154 0.92452,2.66466 0.25158,0.87313 0.72835,2.06375 1.05949,2.64584 0.61563,1.08216 1.55626,5.28742 1.96988,8.80673 0.1905,1.62085 0.4303,2.14146 1.36397,2.96123 0.62305,0.54705 1.23886,1.41711 1.36846,1.93348 0.1987,0.79166 0.42813,0.93884 1.46363,0.93884 0.6754,0 1.22699,-0.11907 1.22575,-0.26459 z m 14.81891,0.0684 c 0,-0.33089 -3.29146,-1.71394 -4.32153,-1.81587 -0.8241,-0.0816 -0.97014,0.0361 -0.97014,0.78169 0,0.85137 0.0686,0.87581 2.28883,0.81464 1.25885,-0.0347 2.39656,0.0447 2.52824,0.17635 0.29048,0.29048 0.4746,0.30723 0.4746,0.0432 z m -53.62221,-2.27322 c 0.29104,-0.18809 0.37042,-0.34197 0.17639,-0.34197 -0.19403,0 -0.5909,0.15388 -0.88194,0.34197 -0.29105,0.18809 -0.37042,0.34197 -0.17639,0.34197 0.19403,0 0.5909,-0.15388 0.88194,-0.34197 z m -137.024761,-2.7389 c -0.279018,-0.79082 -0.427721,-1.74218 -0.330452,-2.11414 0.144379,-0.55211 -0.309768,-0.91357 -2.473318,-1.96857 -1.457595,-0.71075 -2.779024,-1.29326 -2.93651,-1.29445 -0.157486,-0.001 -0.710611,-0.22353 -1.2291672,-0.49408 -1.439023,-0.75078 -4.278476,-1.26332 -5.710962,-1.03086 -0.706039,0.11458 -1.283709,0.31203 -1.283709,0.43879 0,0.12677 0.833438,1.04994 1.852083,2.0515 1.448824,1.42452 2.466575,2.0472 4.674306,2.8598 1.5522222,0.57133 3.6953472,1.43275 4.7624992,1.91428 2.103478,0.94914 2.947052,1.26267 3.090572,1.14864 0.05058,-0.0402 -0.136325,-0.72009 -0.415342,-1.51091 z m 126.747321,0.33035 c -0.45928,-0.56783 -1.14527,-1.23227 -1.52441,-1.47655 -0.68012,-0.43818 -0.68048,-0.4306 -0.0267,0.56721 0.69483,1.06045 2.03519,2.2901 2.25666,2.07029 0.0712,-0.0707 -0.24627,-0.59313 -0.70555,-1.16095 z m -2.06978,0.64466 c 0,-0.19403 -0.28575,-0.35278 -0.635,-0.35278 -0.34925,0 -0.82285,-0.18785 -1.05245,-0.41745 -0.2296,-0.2296 -0.51351,-0.3214 -0.63091,-0.204 -0.1174,0.11741 0.23714,0.45765 0.78787,0.75611 1.18905,0.64439 1.53049,0.69305 1.53049,0.21812 z m 19.70516,-2.35066 c -0.45735,-0.48902 -1.14312,-1.05695 -1.52392,-1.26206 -0.68087,-0.36675 -0.6816,-0.35596 -0.0441,0.64975 0.81578,1.28693 2.10544,2.34314 2.27357,1.862 0.0693,-0.19832 -0.2482,-0.76068 -0.70556,-1.24969 z m -23.03459,-0.42911 c -0.48304,-0.93409 -2.92018,-2.72988 -3.25306,-2.397 -0.39638,0.39639 2.57935,3.13719 3.68113,3.39052 0.0535,0.0123 -0.13914,-0.43478 -0.42807,-0.99352 z m -3.195,-0.39307 c -0.35227,-0.38924 -0.8023,-0.70771 -1.00008,-0.70771 -0.19777,0 0.0127,0.39625 0.46765,0.88055 0.97066,1.03322 1.47557,0.86932 0.53243,-0.17284 z m 13.22721,0.35504 c 0,-0.19159 -0.62137,-0.7406 -1.38081,-1.22001 -0.75945,-0.47942 -1.62892,-1.2259 -1.93216,-1.65884 -0.30325,-0.43294 -0.66002,-0.6785 -0.79283,-0.54569 -0.26608,0.26607 3.24155,3.7729 3.77377,3.7729 0.18261,0 0.33203,-0.15676 0.33203,-0.34836 z m 8.31547,-0.55879 c -0.66048,-0.66048 -0.68816,-1.00486 -0.14998,-1.86662 0.22577,-0.36152 0.30019,-1.06268 0.16848,-1.58744 -0.19884,-0.79226 -0.37433,-0.90519 -1.117,-0.71879 -0.73515,0.18451 -1.18843,-0.0923 -2.73655,-1.67096 -3.13464,-3.19656 -5.63922,-5.27589 -6.21978,-5.16373 -0.36046,0.0696 3.4e-4,0.47995 1.0338,1.17567 1.01965,0.68643 1.59158,1.33259 1.59889,1.80642 0.016,1.04008 0.76151,1.81659 1.86651,1.9443 0.67181,0.0776 0.94802,0.31537 0.95713,0.82381 0.007,0.39308 0.27824,1.09363 0.60265,1.5568 1.05753,1.50984 -0.29011,2.02703 -1.73786,0.66694 -0.4483,-0.42116 -0.93346,-0.64737 -1.07813,-0.5027 -0.14467,0.14467 -0.0236,0.39704 0.2691,0.56083 0.29268,0.16379 0.97422,0.7075 1.51454,1.20826 1.12492,1.04254 1.72938,1.13774 2.36456,0.3724 0.39922,-0.48104 0.51345,-0.47752 1.07773,0.0332 0.34716,0.31417 0.55086,0.78054 0.45269,1.03638 -0.15428,0.40204 0.3198,0.6865 1.39781,0.83873 0.15938,0.0225 0.0403,-0.20854 -0.26459,-0.51344 z m -16.61372,-0.86554 c -0.76186,-0.84185 -1.82049,-1.08017 -2.28924,-0.51536 -0.43935,0.52939 0.11648,1.06718 0.71845,0.69515 0.19884,-0.12289 0.33879,-0.0926 0.311,0.0674 -0.10699,0.6159 0.0628,0.71645 0.92987,0.55069 0.83479,-0.15958 0.85761,-0.21476 0.32992,-0.79785 z m 14.47186,0.36158 c 0.11991,-0.19403 0.0499,-0.35278 -0.15557,-0.35278 -0.20548,0 -0.3736,0.15875 -0.3736,0.35278 0,0.19402 0.07,0.35277 0.15557,0.35277 0.0856,0 0.25368,-0.15875 0.3736,-0.35277 z m 12.32835,-0.79375 c -1.98819,-2.40061 -4.74363,-4.24421 -4.74363,-3.17386 0,0.51073 2.11974,2.26146 2.55724,2.11208 0.44218,-0.15099 1.67609,0.99506 1.67609,1.55673 0,0.16434 0.26273,0.2988 0.58385,0.2988 0.52148,0 0.51362,-0.0848 -0.0736,-0.79375 z m 4.42859,-1.82502 c 0,-0.27616 -0.41434,-0.99452 -0.92077,-1.59637 -0.63903,-0.75945 -0.85646,-1.33443 -0.71058,-1.87915 0.1635,-0.61053 -0.10955,-1.07346 -1.22916,-2.08396 -1.45966,-1.31742 -2.23809,-1.42649 -2.51382,-0.35221 -0.25302,0.98579 0.54687,2.42381 2.48662,4.47033 1.80319,1.90244 2.88771,2.44377 2.88771,1.44136 z m -45.50833,-0.95065 c 0,-0.19403 -0.15875,-0.25467 -0.35278,-0.13475 -0.19403,0.11992 -0.35278,0.37678 -0.35278,0.5708 0,0.19403 0.15875,0.25467 0.35278,0.13476 0.19403,-0.11992 0.35278,-0.37678 0.35278,-0.57081 z m 22.21368,-0.29668 c 0.78646,-0.49739 -0.76838,-1.73377 -1.90669,-1.51617 -0.74391,0.14221 -0.80673,0.25626 -0.45306,0.82258 0.35065,0.56148 0.75876,0.80298 1.66551,0.98559 0.097,0.0195 0.40943,-0.11187 0.69424,-0.292 z m -10.18901,-1.21276 c -0.22492,-0.27102 -0.72061,-0.41125 -1.10153,-0.31163 -1.07942,0.28227 -0.81398,0.80438 0.40894,0.80438 0.90296,0 1.02781,-0.0888 0.69259,-0.49275 z m -8.2398,-1.13164 c -0.24691,-0.24691 -1.31543,0.25364 -1.31543,0.61621 0,0.18021 0.33084,0.15038 0.73577,-0.0663 0.40467,-0.21657 0.66552,-0.46402 0.57966,-0.54988 z m 9.97346,-0.63093 c 0,-0.0762 -0.24637,-0.23318 -0.54749,-0.34874 -0.31394,-0.12047 -0.45554,-0.0613 -0.33195,0.13865 0.20717,0.33521 0.87944,0.49581 0.87944,0.21009 z m 2.11667,-0.83264 c 0,-0.59551 -2.11011,-2.20297 -2.87873,-2.19298 -0.79544,0.0103 -0.7998,0.0252 -0.11988,0.40984 0.38806,0.21951 1.02306,0.76056 1.41111,1.20233 0.68832,0.78361 1.5875,1.11259 1.5875,0.58081 z m -11.16132,-0.61621 c -0.21218,-0.55294 -1.1859,-0.74605 -1.1859,-0.23519 0,0.43099 0.40546,0.76435 0.92966,0.76435 0.26333,0 0.37266,-0.22578 0.25624,-0.52916 z m 40.79465,0.31551 c 0,-0.11752 -0.39687,-0.68532 -0.88194,-1.26179 -0.96133,-1.14248 -1.07214,-1.54037 -0.52342,-1.8795 0.653,-0.40357 -0.0288,-0.87839 -1.26129,-0.87839 -1.4282,0 -1.57157,0.42934 -0.33196,0.99415 0.48507,0.22101 0.88195,0.57042 0.88195,0.77646 0,0.49391 1.46317,2.46272 1.83023,2.46272 0.15754,0 0.28643,-0.0961 0.28643,-0.21365 z m 16.35102,-1.73792 c -0.27984,-0.72923 -0.47602,-0.6433 -0.47602,0.20851 0,0.3995 0.15182,0.63255 0.33737,0.51786 0.18556,-0.11467 0.24795,-0.44154 0.13865,-0.72637 z m -27.63991,0.0805 c 0,-0.059 -0.55562,-0.64572 -1.23472,-1.30393 -1.49838,-1.45229 -1.65823,-1.16312 -0.18828,0.34062 0.93097,0.95236 1.423,1.28545 1.423,0.96331 z m 5.99723,-0.95955 c 0,-0.7626 -1.21779,-1.55238 -1.95655,-1.26889 -0.26967,0.10348 -0.57985,0.0433 -0.68929,-0.13382 -0.10944,-0.17708 -0.45065,-0.22539 -0.75825,-0.10735 -0.46069,0.17678 -0.4152,0.29171 0.25811,0.65205 0.44955,0.2406 1.02381,0.35823 1.27612,0.26141 0.28334,-0.10873 0.45874,0.0969 0.45874,0.53786 0,0.6993 0.62214,1.17717 1.14653,0.88066 0.14552,-0.0823 0.26459,-0.45215 0.26459,-0.82192 z m -12.76592,0.40938 c 0.9293,-0.58931 -3.5457,-4.63431 -5.12695,-4.63431 -0.28937,0 -1.01926,-0.41495 -1.62198,-0.92211 -0.66751,-0.56167 -1.14859,-0.76397 -1.23073,-0.51753 -0.2682,0.80457 0.27143,1.36544 3.22255,3.3494 1.65097,1.1099 3.08907,2.24551 3.19577,2.52357 0.2162,0.56341 0.85928,0.64619 1.56134,0.20098 z m 2.53536,-1.28292 c -0.85404,-0.90908 -1.41111,-1.12793 -1.41111,-0.55437 0,0.5273 1.05957,1.43631 1.67419,1.43631 0.44861,0 0.39424,-0.18225 -0.26308,-0.88194 z m -14.11111,-7.45764 c 0,-0.55476 -0.93723,-1.50356 -1.50836,-1.52698 -0.15051,-0.006 -0.0274,0.46503 0.27364,1.04712 0.59578,1.15212 1.23472,1.40044 1.23472,0.47986 z m -0.36939,-26.9382 c 0.51467,0 0.6775,-1.43396 0.28929,-2.5476 -0.35503,-1.0184 -0.41,-1.04654 -0.85521,-0.43768 -0.51568,0.70522 -0.63482,2.88724 -0.2144,3.92657 0.23427,0.57915 0.27342,0.56384 0.37731,-0.14754 0.0637,-0.43656 0.24511,-0.79375 0.40301,-0.79375 z m 40.58605,-21.290884 c 0,-0.98303 -1.64204,-2.85336 -3.17531,-3.61677 -1.23635,-0.61558 -2.39474,-0.82665 -5.23334,-0.95355 -3.58418,-0.16024 -4.54134,0.25238 -1.61506,0.69624 0.75936,0.11518 1.77753,0.54918 2.2626,0.96444 1.99378,1.70686 3.45333,2.50869 5.29167,2.90705 2.5475,0.55204 2.46944,0.55195 2.46944,0.002 z M 169.4934,63.794646 c 0.22908,-0.208589 -0.911,-2.014512 -1.36793,-2.16682 -0.53908,-0.179694 -0.85031,0.829957 -0.58351,1.892963 0.18461,0.735547 0.36993,0.857037 1.00819,0.660947 0.43009,-0.13215 0.85456,-0.30633 0.94325,-0.38709 z m -1.39598,-3.2933 c -0.20768,-0.388056 -0.53635,-0.705556 -0.73038,-0.705556 -0.22691,0 -0.21805,0.251735 0.0248,0.705556 0.20768,0.388055 0.53635,0.705555 0.73038,0.705555 0.22691,0 0.21805,-0.251734 -0.0248,-0.705555 z m 7.97997,-7.893882 c -0.29391,-1.171056 -1.90431,-3.039572 -2.63147,-3.053262 -0.3223,-0.0061 -1.37975,-0.401491 -2.34989,-0.878719 -1.79148,-0.881263 -3.50439,-1.130002 -3.85664,-0.560042 -0.10677,0.172753 0.39135,0.423933 1.10694,0.558178 0.71559,0.134245 1.68811,0.548527 2.16116,0.920626 0.47304,0.3721 1.16751,0.676545 1.54325,0.676545 0.37575,0 1.4259,0.77325 2.33368,1.718333 0.90778,0.945084 1.70925,1.666852 1.78106,1.603929 0.0718,-0.06292 0.0322,-0.506437 -0.0881,-0.985588 z m -17.32858,-3.747785 c 0.12739,-0.206117 -0.23521,-0.352778 -0.8722,-0.352778 -1.45509,0 -1.81497,-0.934403 -0.68744,-1.784903 1.09911,-0.829061 0.83289,-1.033399 -1.47505,-1.132195 -1.78997,-0.07662 -1.91142,-0.02861 -2.02456,0.800431 -0.0662,0.485069 -0.37938,1.17166 -0.69597,1.525758 -0.54479,0.609328 -0.52519,0.631158 0.36577,0.40754 0.61784,-0.155069 1.21745,-0.04291 1.74461,0.326326 0.88969,0.623161 3.3035,0.762116 3.64484,0.209821 z m 7.35184,-0.440973 c -0.15098,-0.242534 -0.22836,-0.798159 -0.17196,-1.234722 0.0967,-0.748075 -0.0221,-0.79375 -2.06279,-0.79375 -2.1468,0 -2.16439,0.0082 -2.05371,0.956188 0.12308,1.05436 0.9146,1.41778 3.21925,1.478092 0.99194,0.02596 1.27186,-0.08028 1.06921,-0.405808 z m 43.26869,134.471614 c -0.58233,-0.45486 -1.70891,-0.76821 -3.29402,-0.91624 -2.28814,-0.21366 -2.40108,-0.26639 -2.25114,-1.05076 0.0868,-0.4542 -0.0581,-1.00501 -0.32195,-1.22403 -0.54389,-0.45139 -0.64723,-1.37016 -0.15411,-1.37016 0.17914,0 0.77445,0.37336 1.32291,0.82968 0.54847,0.45632 1.39409,0.91956 1.87916,1.02942 1.63645,0.37063 4.05283,1.36682 4.6743,1.92706 1.53125,1.38037 -0.17016,2.09117 -1.85515,0.77503 z m -8.24083,-0.92823 c -0.45685,-0.45686 -0.23473,-2.9274 0.26321,-2.9274 1.17358,0 1.65054,2.24519 0.59676,2.80916 -0.35045,0.18756 -0.73744,0.24077 -0.85997,0.11824 z m -51.16236,-41.43472 c -0.64152,-0.91591 -0.18583,-2.06213 0.81983,-2.06213 0.72061,0 1.08367,0.65971 1.08367,1.96913 0,1.10102 -1.15784,1.15759 -1.9035,0.093 z m 0.66877,-3.71991 c -0.58208,-0.31416 -1.26059,-0.82374 -1.5078,-1.1324 -0.96753,-1.20804 -2.19636,-3.93878 -2.19636,-4.8808 0,-0.5551 -0.31061,-1.25761 -0.70556,-1.59577 -0.38805,-0.33227 -0.70555,-1.01359 -0.70555,-1.51405 0,-1.3288 1.34944,-1.01457 2.36301,0.55025 0.43987,0.67909 0.95386,1.41853 1.14219,1.64318 0.18833,0.22465 0.44849,1.20803 0.57813,2.18529 0.19745,1.48847 0.38619,1.83455 1.16299,2.13249 2.06543,0.79222 3.19481,2.52205 1.95677,2.99713 -0.75834,0.291 -0.87441,0.26958 -2.08782,-0.38532 z m 39.08589,0.15848 c -0.57673,-0.75866 -1.49551,-3.54542 -1.7272,-5.2388 -0.26007,-1.90079 0.2592,-3.13967 1.31599,-3.13967 0.66517,0 0.70656,0.14318 0.49209,1.70252 -0.17606,1.28014 -0.053,2.21797 0.49606,3.78014 0.40163,1.14268 0.73023,2.36092 0.73023,2.70719 0,0.72363 -0.81145,0.84072 -1.30717,0.18862 z m -14.40829,-23.07027 c -0.4758,-0.5134 -0.8651,-1.13517 -0.8651,-1.38171 0,-0.24654 -0.13637,-0.50117 -0.30304,-0.56585 -0.37927,-0.14717 -3.93029,-4.41449 -3.93029,-4.7231 0,-0.12468 -0.50078,-0.69449 -1.11283,-1.26623 -0.79863,-0.74603 -1.00498,-1.14739 -0.73084,-1.42153 0.27414,-0.27414 0.2738,-0.55523 -0.001,-0.99555 -0.45635,-0.73055 -0.1384,-1.76535 0.54231,-1.76535 0.62111,0 1.30242,1.49463 1.30242,2.85718 0,0.85553 0.19983,1.12974 1.0356,1.42109 1.75446,0.61161 6.45147,7.43812 5.8204,8.45921 -0.33217,0.53747 -0.85795,0.35255 -1.75757,-0.61816 z m -27.66738,-1.07573 c -0.88931,-1.13057 -0.83185,-2.69151 0.10561,-2.86941 1.32321,-0.25109 3.13424,2.35218 2.31939,3.33401 -0.63159,0.76102 -1.6081,0.57394 -2.425,-0.4646 z m 34.06336,0.0477 c -0.60221,-0.60222 -0.45303,-1.09563 0.92685,-3.06555 0.73707,-1.05225 2.04263,-1.31788 2.04263,-0.4156 0,0.58891 -1.6311,3.55508 -2.12166,3.85826 -0.16,0.0989 -0.54152,-0.0708 -0.84782,-0.37711 z M 161.54776,98.810636 c -0.11721,-0.467 -0.0618,-1.14168 0.12323,-1.49931 0.18499,-0.35762 0.44093,-1.2302 0.56876,-1.93907 0.25357,-1.40614 1.06594,-1.9668 1.87585,-1.29463 0.60741,0.50411 0.42849,1.742 -0.58198,4.02632 -0.75767,1.71284 -1.65334,2.031574 -1.98586,0.70669 z m 4.96021,-4.44574 c -0.4206,-0.68055 0.19295,-1.63702 1.42785,-2.2259 1.05611,-0.50362 1.27138,-0.51679 1.43599,-0.0878 0.46891,1.22197 -2.20397,3.38143 -2.86384,2.31374 z m -4.6946,-4.75934 c -0.78627,-0.9043 -0.9021,-0.94789 -2.70369,-1.01766 -0.66047,-0.0256 -1.09199,-0.25118 -1.16273,-0.60786 -0.0857,-0.43209 0.27605,-0.62045 1.51866,-0.79077 1.40147,-0.19209 1.79685,-0.0972 2.80779,0.67388 1.23184,0.93958 1.72951,1.76155 1.39463,2.30341 -0.34833,0.5636 -1.06543,0.34669 -1.85466,-0.561 z m 1.25697,-2.32255 c -1.36385,-1.13123 -1.72582,-2.08717 -0.7903,-2.08717 0.29294,0 0.80447,-0.3175 1.13674,-0.70556 1.13671,-1.32758 2.33152,-0.48484 1.50422,1.06098 -0.58612,1.09519 -0.25593,1.2097 1.63265,0.5662 0.9182,-0.31287 2.03806,-0.56885 2.48856,-0.56885 1.74163,0 0.43512,1.83498 -1.59877,2.24545 -3.03606,0.61273 -3.01531,0.61516 -4.3731,-0.51105 z m 0.0892,-5.43586 c -0.47093,-1.23864 -0.45103,-3.60514 0.0328,-3.90418 0.70256,-0.4342 1.31356,0.69794 1.43448,2.658 0.0996,1.61363 0.0178,1.95171 -0.49716,2.05414 -0.404,0.0804 -0.73823,-0.19798 -0.97014,-0.80796 z m -3.38452,-5.87549 c -0.23986,-0.3881 3.85071,-4.53416 4.47347,-4.53416 0.51967,0 0.7273,0.71771 0.50303,1.73882 -0.36145,1.64567 -4.31466,3.86622 -4.9765,2.79534 z m -0.84982,-3.62639 c 0,-0.32725 0.30163,-0.55503 0.73495,-0.55503 0.85974,0 0.73821,0.82436 -0.14682,0.99601 -0.34811,0.0675 -0.58813,-0.11246 -0.58813,-0.44098 z m -3.64477,-2.19764 c -0.24421,-1.5049 -0.0818,-1.88517 0.80512,-1.88517 0.8024,0 1.23929,1.50472 0.71911,2.47668 -0.58984,1.10213 -1.29372,0.82898 -1.52423,-0.59151 z m -3.76356,-4.00184 c 0,-0.53133 0.1842,-0.72181 0.61736,-0.63839 0.33955,0.0654 0.61736,0.35267 0.61736,0.63839 0,0.28573 -0.27781,0.57301 -0.61736,0.6384 -0.43316,0.0834 -0.61736,-0.10706 -0.61736,-0.6384 z m 5.3111,-0.15297 c -0.23813,-0.28692 -0.33054,-0.68738 -0.20537,-0.88991 0.30032,-0.48594 2.19538,-0.47434 2.49799,0.0153 0.52883,0.85568 -1.62608,1.67777 -2.29262,0.87463 z M 169.22631,54.08079 c -0.42678,-0.426783 -0.59414,-1.693334 -0.22375,-1.693334 0.64994,0 1.56431,0.832073 1.56431,1.423524 0,0.775174 -0.69526,0.915107 -1.34056,0.26981 z m -6.68514,-1.574194 c -0.60445,-0.243903 -0.55566,-1.057975 0.078,-1.301129 0.52637,-0.201989 1.59771,0.607486 1.59771,1.207188 0,0.344283 -0.92656,0.396227 -1.6757,0.09394 z"
       style="fill:#000000;stroke-width:0.35277778" />
  </g>
</svg>
