<?xml version="1.0" encoding="UTF-8" standalone="no"?>
<svg
   xmlns:dc="http://purl.org/dc/elements/1.1/"
   xmlns:cc="http://creativecommons.org/ns#"
   xmlns:rdf="http://www.w3.org/1999/02/22-rdf-syntax-ns#"
   xmlns:svg="http://www.w3.org/2000/svg"
   xmlns="http://www.w3.org/2000/svg"
   id="svg7330"
   version="1.1"
   viewBox="0 0 77.297478 122.4806"
   height="122.4806mm"
   width="77.297478mm">
  <defs
     id="defs7324" />
  <metadata
     id="metadata7327">
    <rdf:RDF>
      <cc:Work
         rdf:about="">
        <dc:format>image/svg+xml</dc:format>
        <dc:type
           rdf:resource="http://purl.org/dc/dcmitype/StillImage" />
        <dc:title></dc:title>
      </cc:Work>
    </rdf:RDF>
  </metadata>
  <g
     transform="translate(-43.519929,-54.020806)"
     id="layer1">
    <path
       id="path7999"
       d="m 100.13207,175.67455 c -0.540375,-0.82473 -0.532275,-0.9194 0.13582,-1.5875 0.39075,-0.39075 1.0205,-0.71047 1.39942,-0.71047 1.36322,0 2.38473,-0.79671 3.31753,-2.58744 0.52208,-1.00225 1.27309,-2.33056 1.66891,-2.95179 0.39582,-0.62123 0.79337,-1.9404 0.88343,-2.93149 0.14234,-1.56631 -7e-4,-2.10645 -1.09373,-4.13023 -0.69162,-1.28054 -1.72824,-2.86443 -2.30361,-3.51973 -1.16202,-1.32347 -2.80871,-4.37532 -2.80871,-5.20546 0,-0.65355 -3.372175,-7.14367 -4.079025,-7.85051 -0.54926,-0.54926 -0.58254,-0.72781 -0.67695,-3.63168 -0.0347,-1.06715 -0.31351,-2.97215 -0.61957,-4.23333 -1.12291,-4.62713 -1.50337,-7.68381 -1.49295,-11.99445 0.006,-2.42535 0.1173,-4.90734 0.24762,-5.51554 0.21592,-1.00762 0.14827,-1.12357 -0.76181,-1.30558 -0.68156,-0.13631 -1.06828,-0.47667 -1.21761,-1.07163 -0.15373,-0.61252 -0.6124,-0.99938 -1.5419,-1.30052 -3.22814,-1.04586 -7.97726,-3.78576 -10.62872,-6.13202 -2.108287,-1.8656 -2.955327,-2.3136 -4.374363,-2.3136 -1.180284,0 -1.629992,0.27299 -3.537477,2.14733 -2.643267,2.59734 -4.773855,3.90592 -6.924535,4.25297 -2.780315,0.44865 -8.297813,2.07287 -8.666316,2.55116 -0.194028,0.25183 -1.024205,0.88071 -1.844838,1.39751 -0.820633,0.51679 -1.809245,1.53501 -2.196915,2.26269 -2.009414,3.77182 -3.231137,3.45601 -4.758391,-1.23001 -0.359012,-1.10154 -1.002886,-2.16985 -1.594656,-2.64583 -0.545886,-0.43907 -1.329223,-1.43332 -1.740749,-2.20943 -0.411526,-0.77611 -0.938909,-1.68054 -1.171961,-2.00985 -0.595179,-0.84101 0.04399,-2.54384 1.006931,-2.68261 0.4059,-0.0585 1.209317,0.29023 1.78537,0.77494 1.207354,1.01592 3.580855,1.98226 5.478489,2.2305 0.898456,0.11753 1.79723,-0.0625 2.845408,-0.5699 0.842671,-0.40793 1.690198,-0.74169 1.883395,-0.74169 0.193196,0 0.659012,-0.28364 1.035147,-0.63031 1.61052,-1.48436 5.531457,-4.03098 8.042057,-5.22326 1.563541,-0.74252 3.86544,-2.27589 5.442755,-3.6256 4.05162,-3.466955 3.675671,-3.255913 5.041809,-2.83029 0.663995,0.206869 3.208497,0.356506 5.65445,0.332532 4.78537,-0.04691 6.69461,0.358884 9.10551,1.935288 0.69518,0.45456 1.66485,0.92376 2.15482,1.04268 0.82176,0.19944 0.94242,0.0645 1.55583,-1.740138 0.547,-1.609253 0.59627,-2.191452 0.27768,-3.281539 -0.25318,-0.866288 -0.27807,-1.874936 -0.0719,-2.912696 0.17348,-0.873125 0.32233,-2.864672 0.33078,-4.425657 0.0185,-3.414665 1.41932,-9.241875 2.68877,-11.18476 1.30993,-2.004825 1.75875,-1.582424 0.56227,0.529167 -1.34828,2.379501 -3.04319,8.608627 -2.63311,9.677256 0.22618,0.589421 1.90536,0.604703 2.65163,0.02413 0.31176,-0.242534 0.61992,-0.745199 0.68479,-1.117032 0.0764,-0.437957 0.47156,-0.723357 1.121945,-0.810353 l 1.004,-0.134293 -1.18038,1.420959 c -0.981405,1.181422 -1.462865,1.459492 -2.856085,1.649551 l -1.67569,0.228593 v 1.513198 c 0,0.832259 -0.0924,1.754022 -0.20536,2.048362 -0.12281,0.320022 0.16083,0.85356 0.70555,1.327192 0.50101,0.435617 0.91092,1.001529 0.91092,1.257582 0,0.580045 -0.43151,0.598484 -0.98778,0.04221 -0.32926,-0.329258 -0.42333,-0.127522 -0.42333,0.90781 0,1.080897 0.11606,1.307299 0.61736,1.204295 0.38366,-0.07883 0.57841,-0.389093 0.51446,-0.819616 -0.0823,-0.554069 -0.0339,-0.590126 0.24151,-0.1801 0.30027,0.446934 0.58486,0.441562 2.21958,-0.0419 1.891705,-0.559471 6.547475,-0.630739 7.788165,-0.119222 0.87892,0.362363 0.46174,-0.601539 -1.22028,-2.819431 -0.73639,-0.970996 -1.59154,-2.63168 -1.90033,-3.690409 -0.30879,-1.058728 -0.7856,-2.244987 -1.05957,-2.636133 -0.27396,-0.391147 -0.49812,-0.854041 -0.49812,-1.028654 0,-0.665844 0.9749,0.534947 1.883,2.319289 0.52044,1.022643 1.22249,2.249456 1.5601,2.726253 0.39778,0.561777 0.44252,0.761788 0.1271,0.568258 -0.33766,-0.207187 -0.43872,-0.148559 -0.32995,0.191424 0.0862,0.269543 0.50087,0.645566 0.92141,0.835607 0.94703,0.427944 1.41894,1.724113 1.84869,5.077605 0.37262,2.907732 1.63631,6.725922 2.31185,6.985152 0.24649,0.0946 0.71021,1.67803 1.049,3.58201 0.33398,1.87686 0.97854,4.19021 1.43237,5.14077 0.49509,1.03699 0.74444,2.04983 0.62337,2.53218 -0.4852,1.93318 0.85257,3.27127 2.44469,2.44527 0.51623,-0.26782 1.45598,-0.5368 2.08834,-0.59773 l 1.14975,-0.11079 -1.0059,-0.55776 c -0.84801,-0.47021 -1.02677,-0.82264 -1.13886,-2.24529 -0.10993,-1.39519 -0.38746,-1.96362 -1.60204,-3.28128 l -1.46907,-1.59375 0.22727,-4.09846 c 0.12905,-2.32721 0.0804,-4.63207 -0.11248,-5.33318 -0.18686,-0.6791 -0.38556,-2.107845 -0.44155,-3.174997 -0.056,-1.067153 -0.18625,-2.019653 -0.28945,-2.116667 -1.0362,-0.974122 -2.45908,-3.510799 -2.46301,-4.391025 -0.003,-0.592367 -0.10566,-1.453783 -0.22891,-1.914257 l -0.22408,-0.837226 -0.46875,0.837226 c -0.45122,0.8059 -0.46077,0.794191 -0.25544,-0.312949 0.11732,-0.632594 0.01,-1.902595 -0.23868,-2.822221 -0.58567,-2.166563 -0.7152,-2.37386 -1.12347,-1.797906 -0.37864,0.53416 -0.32225,0.21509 0.46001,-2.602762 0.45547,-1.640705 0.44345,-1.698989 -0.67859,-3.290847 -0.92905,-1.318053 -1.01645,-1.580624 -0.46823,-1.406626 0.4998,0.158631 0.7297,0.0062 0.88935,-0.589709 0.32818,-1.224962 0.3415,-1.196624 -1.53895,-3.273087 -1.75973,-1.943148 -1.76389,-1.953524 -1.76389,-4.393293 0,-1.830415 -0.18163,-2.75338 -0.72209,-3.669394 -0.46584,-0.789543 -0.59103,-1.304846 -0.35278,-1.452096 0.20312,-0.125535 0.36931,-0.615752 0.36931,-1.089371 0,-0.617211 0.19395,-0.861124 0.68474,-0.861124 0.3766,0 0.77549,-0.146854 0.88642,-0.326342 0.27192,-0.439969 -0.52841,-2.14173 -1.01043,-2.148505 -0.21138,-0.003 -0.14754,-0.15511 0.14188,-0.338088 0.378,-0.238981 0.41851,-0.440398 0.1438,-0.715105 -0.27471,-0.274706 -0.51053,-0.22806 -0.83725,0.165612 -0.40888,0.492669 -0.50649,0.48527 -0.96634,-0.07324 -0.48475,-0.588747 -0.50057,-0.586895 -0.30234,0.03537 0.15826,0.496766 0.0725,0.604207 -0.35201,0.441286 -0.75173,-0.288467 -3.327355,0.141518 -3.327355,0.555482 0,0.18068 0.150785,0.23532 0.335075,0.12142 0.28906,-0.178646 1.07603,0.820338 1.07603,1.365908 0,0.328253 -1.15609,-0.239882 -1.801525,-0.88532 -0.5363,-0.536303 -0.55142,-0.678201 -0.11123,-1.043531 0.44025,-0.365377 0.42797,-0.482421 -0.0904,-0.861452 -0.53475,-0.391022 -0.50038,-0.438627 0.31671,-0.438627 0.504105,0 1.365975,-0.416719 1.915255,-0.926042 0.54928,-0.509323 1.23844,-0.907627 1.53146,-0.885119 0.3872,0.02974 0.36409,0.085 -0.0846,0.202256 -0.33955,0.08873 -0.61736,0.269791 -0.61736,0.40235 0,0.308681 2.85097,1.207202 3.08569,0.972493 0.38976,-0.389769 -0.28748,-1.265244 -0.97877,-1.265244 -0.42101,0 -0.64009,-0.157531 -0.51055,-0.367128 0.1248,-0.20192 0.54982,-0.264636 0.9445,-0.139369 0.49693,0.15772 0.67119,0.08852 0.56668,-0.225029 -0.27531,-0.825932 -1.28296,-1.239987 -1.97138,-0.810064 -0.34659,0.216448 -1.14089,0.505716 -1.76511,0.642818 -0.62422,0.137102 -1.13495,0.361871 -1.13495,0.499487 0,0.137616 -0.850115,0.765436 -1.889145,1.395157 -1.03904,0.629721 -2.06986,1.541553 -2.29073,2.026293 -0.61341,1.346298 -0.91421,3.680613 -0.47428,3.680613 0.20619,0 0.78496,0.155903 1.28613,0.346451 l 0.91124,0.346452 -0.73549,0.735487 c -0.58173,0.581733 -0.8403,0.648498 -1.23687,0.319373 -0.39538,-0.328137 -0.53956,-0.295834 -0.68195,0.152784 -0.0993,0.312893 -0.26199,0.825341 -0.3615,1.138772 -0.14577,0.45909 0.0257,0.539548 0.88194,0.413876 1.10553,-0.162257 1.45521,0.201323 0.53372,0.554934 -0.29104,0.111684 -0.52917,0.463153 -0.52917,0.781042 0,0.368826 0.19149,0.5045 0.52917,0.374922 0.32233,-0.123692 0.52916,-5.64e-4 0.52916,0.315035 0,0.284952 -0.14024,0.518094 -0.31165,0.518094 -0.42227,0 -0.76385,1.866443 -0.40874,2.233444 0.36317,0.375331 3.02002,-0.973219 4.156565,-2.109773 1.10575,-1.10575 1.33907,-0.873208 0.75222,0.749703 -0.31359,0.867239 -0.52417,1.103106 -0.65411,0.732674 -0.15842,-0.451618 -0.35885,-0.391248 -1.156445,0.348329 l -0.96481,0.894627 0.96918,1.88018 c 0.574215,1.113968 1.148885,1.811951 1.410155,1.712755 0.5883,-0.223362 0.56392,0.425179 -0.0346,0.921953 -0.59707,0.495519 -1.219595,-0.175031 -2.313375,-2.491802 -0.60791,-1.287655 -0.99067,-1.678588 -1.72702,-1.763889 -0.52031,-0.06027 -0.97697,-0.347715 -1.0148,-0.638756 -0.0378,-0.291042 -0.16799,-1.283229 -0.28922,-2.204861 -0.14739,-1.120465 -0.3886,-1.675695 -0.72797,-1.675695 -0.59643,0 -0.6464,-0.647209 -0.15066,-1.951114 0.1963,-0.516292 0.41905,-2.039653 0.49501,-3.385247 0.076,-1.345594 0.33858,-2.688077 0.58359,-2.983296 0.24501,-0.295219 0.53819,-1.123755 0.65152,-1.841191 0.29763,-1.884277 2.44579,-2.867318 6.519495,-2.983451 2.74829,-0.07835 3.04954,-0.01712 3.92153,0.797077 1.58456,1.479535 2.02609,2.695769 1.86979,5.150472 -0.0946,1.485486 -0.35108,2.449808 -0.77669,2.920097 -0.99334,1.097637 -1.59433,3.192796 -1.61122,5.617089 -0.0171,2.461631 0.63113,4.125786 1.74491,4.479288 0.91138,0.289259 1.1494,0.760269 2.51498,4.976713 0.95533,2.949704 1.11976,3.956058 1.0604,6.489675 -0.0833,3.553594 0.64615,7.651743 1.61101,9.051505 1.53653,2.229079 1.92677,4.438149 2.06983,11.716713 l 0.0996,5.06961 1.11497,1.15035 c 0.74949,0.77329 1.25254,1.77117 1.53465,3.04429 0.39653,1.78949 0.48735,1.90365 1.64704,2.07031 1.07097,0.15391 1.21175,0.28877 1.10476,1.05833 -0.16097,1.15778 -0.53288,1.57462 -2.16297,2.42427 -1.47505,0.76884 -2.24428,0.68242 -4.14155,-0.46532 -1.35341,-0.81873 -1.4854,-1.11345 -1.72618,-3.85438 -0.10201,-1.16133 -0.41269,-2.43589 -0.69039,-2.83236 -0.2777,-0.39648 -0.50491,-1.01241 -0.50491,-1.36874 0,-0.35634 -0.15875,-0.54977 -0.35278,-0.42985 -0.19403,0.11991 -0.35278,0.59234 -0.35278,1.04985 0,0.98156 -2.12272,5.10694 -3.57016,6.93841 -0.98695,1.24879 -1.01595,1.40213 -1.01595,5.37155 0,3.12839 -0.25285,5.36949 -1.07884,9.56201 -1.05063,5.33279 -1.06444,5.53214 -0.52816,7.62546 0.40746,1.59047 0.96507,2.62276 2.14401,3.96917 1.60268,1.83034 1.90798,2.5184 2.84229,6.40577 1.2496,5.19916 3.02911,9.15466 5.52083,12.27177 1.45552,1.82083 1.70566,2.34445 1.5328,3.20872 -0.2991,1.49551 -0.66678,1.8158 -3.93384,3.42684 -1.62036,0.79903 -3.74431,2.20609 -4.71988,3.12682 -1.58837,1.49907 -2.03006,1.71638 -4.2257,2.07898 -3.17883,0.52497 -3.02528,0.54461 -3.69146,-0.47211 z m 6.03223,-0.98784 c 0.46964,-0.75539 5.11418,-4.07768 6.8085,-4.8702 1.75522,-0.82101 3.175,-1.9888 3.175,-2.61149 0,-0.22228 -0.44821,-0.90616 -0.99602,-1.51975 l -0.99602,-1.11561 -1.37162,0.69929 c -0.7544,0.38462 -2.03294,0.6993 -2.84121,0.6993 h -1.46957 l 0.17234,1.52904 c 0.21436,1.90173 -0.62779,3.68193 -1.96176,4.14695 -0.52357,0.18252 -1.14972,0.77866 -1.39145,1.32477 -0.39297,0.88778 -0.62609,0.99716 -2.20181,1.03306 -1.83824,0.0419 -2.4651,0.24694 -2.4651,0.80645 0,0.52753 5.2062,0.41304 5.53872,-0.12181 z m 2.22239,-6.95457 c 0,-0.19403 -0.07,-0.35278 -0.15557,-0.35278 -0.0856,0 -0.25368,0.15875 -0.3736,0.35278 -0.11991,0.19403 -0.0499,0.35278 0.15557,0.35278 0.20548,0 0.3736,-0.15875 0.3736,-0.35278 z m 2.35729,-3.26319 c 0.17987,-0.24254 0.5129,-0.87645 0.74009,-1.40869 0.38943,-0.91234 0.37355,-0.94304 -0.27752,-0.53644 -0.37983,0.2372 -0.84392,0.87111 -1.03132,1.40869 -0.34999,1.00398 -0.0134,1.32144 0.56875,0.53644 z m 2.36343,-1.16486 c 0.12047,-0.31394 0.0613,-0.45554 -0.13865,-0.33195 -0.1918,0.11854 -0.34874,0.36491 -0.34874,0.54749 0,0.50744 0.25287,0.39562 0.48739,-0.21554 z m -4.24735,-2.10635 c -0.074,-0.19844 0.34485,-0.64398 0.93077,-0.99009 0.58592,-0.34611 1.06531,-0.77087 1.06531,-0.94391 0,-0.17304 -0.38038,-1.55313 -0.84528,-3.06686 -0.46491,-1.51373 -0.94536,-3.44149 -1.06768,-4.28392 -0.28897,-1.99012 -1.17952,-3.67498 -3.16011,-5.97871 -2.40595,-2.7985 -2.86647,-5.37011 -1.78223,-9.95211 0.76987,-3.2535 1.22896,-6.67966 1.44649,-10.79516 l 0.18834,-3.56322 -2.06408,-0.24099 c -2.87794,-0.33601 -4.446835,-0.80173 -5.263275,-1.56235 -1.16496,-1.08533 -2.62905,-1.94011 -2.88488,-1.68429 -0.13268,0.13268 -0.30329,2.26609 -0.37915,4.7409 -0.19135,6.24327 1.06921,12.27236 2.87813,13.76566 0.83877,0.69243 0.76589,1.56059 -0.10774,1.28332 -0.64014,-0.20318 -0.66418,-0.13412 -0.30848,0.88624 0.21217,0.60862 0.58882,1.1845 0.83699,1.27974 0.31592,0.12123 0.43488,0.93273 0.39668,2.70596 -0.0498,2.31036 0.007,2.53286 0.64654,2.53342 0.896065,7.1e-4 1.452855,1.17165 1.911515,4.01964 0.4154,2.57938 1.70954,5.30577 3.3665,7.09224 0.62986,0.6791 1.67241,2.06816 2.31677,3.08681 0.64435,1.01864 1.2887,1.85208 1.43189,1.85208 0.14318,0 0.19256,0.35719 0.10973,0.79375 -0.1382,0.72837 -0.12497,0.73564 0.1606,0.0882 0.17116,-0.38805 0.25065,-0.86791 0.17665,-1.06634 z m -3.09522,-6.05431 c -0.91947,-0.98267 -2.08255,-4.28257 -2.45311,-6.96001 -0.13647,-0.98603 -0.0825,-1.27209 0.18876,-1.00082 0.20891,0.20892 0.46413,1.12762 0.56714,2.04156 0.11051,0.98046 0.74645,2.67895 1.55115,4.1429 0.75012,1.36465 1.29895,2.54607 1.21963,2.62539 -0.0793,0.0793 -0.56243,-0.30274 -1.07357,-0.84902 z m -6.550365,-12.6349 c 0,-0.29104 0.15875,-0.52917 0.35278,-0.52917 0.19402,0 0.35277,0.23813 0.35277,0.52917 0,0.29104 -0.15875,0.52916 -0.35277,0.52916 -0.19403,0 -0.35278,-0.23812 -0.35278,-0.52916 z m 2.969155,-0.26459 c -0.30849,-0.96638 -0.29676,-3.47011 0.0209,-4.4711 0.4138,-1.30378 0.84527,-0.77468 0.47166,0.57839 -0.19905,0.72092 -0.28893,2.0703 -0.19973,2.99861 0.17802,1.85269 0.0945,2.10762 -0.29286,0.8941 z m -4.131865,-8.49552 c -0.13662,-0.35541 -0.2484,-1.16889 -0.2484,-1.80772 0,-0.63884 -0.24598,-1.85617 -0.54662,-2.70518 -0.7173,-2.0257 -0.844,-4.94107 -0.2242,-5.15888 0.35156,-0.12355 0.40878,0.13083 0.23627,1.05038 -0.1601,0.85341 0.0411,2.01407 0.67826,3.91204 0.69894,2.08208 0.84275,3.00215 0.6295,4.02711 -0.21427,1.0298 -0.33225,1.18319 -0.52481,0.68225 z m 13.157145,26.88059 c 0,-0.76198 -0.87089,-0.0291 -1.34272,1.12996 l -0.49285,1.21067 0.91779,-0.98831 c 0.50478,-0.54358 0.91778,-1.15212 0.91778,-1.35232 z M 97.950315,142.20624 c -0.22681,-0.59105 -0.85251,-0.80935 -0.85251,-0.29743 0,0.3432 0.78703,1.165 0.95492,0.99711 0.066,-0.066 0.0199,-0.38086 -0.10241,-0.69968 z m -46.35412,-21.93082 c 0.362077,-0.43627 0.340881,-0.78443 -0.112754,-1.85208 -1.139533,-2.68195 -1.151108,-4.31342 -0.0306,-4.31342 0.411334,0 0.469096,0.27922 0.273669,1.32291 -0.225454,1.20406 -0.195194,1.27942 0.336793,0.83875 0.321476,-0.26629 0.58548,-0.74254 0.586675,-1.05833 0.0012,-0.31579 0.23932,-1.02888 0.529167,-1.58463 0.289846,-0.55576 0.526993,-1.07169 0.526993,-1.14653 0,-0.0748 -0.791878,-0.13606 -1.75973,-0.13606 -1.613904,0 -1.752766,0.0657 -1.675694,0.79261 0.127551,1.20305 -1.253405,1.27154 -1.792258,0.0889 -0.229219,-0.50308 -0.416763,-1.14212 -0.416763,-1.42009 0,-0.53505 -2.750414,-2.12025 -3.089841,-1.78082 -0.43728,0.43728 0.798245,3.06452 2.197325,4.67243 0.815452,0.93716 1.774073,2.49768 2.130269,3.46782 0.992404,2.70292 1.452739,3.12553 2.296752,2.10856 z m 54.321055,-1.93516 c 0,-1.33646 -0.0399,-1.38972 -0.72704,-0.97014 -0.62055,0.37893 -0.80141,0.34366 -1.23473,-0.24082 -0.61746,-0.83287 -0.61641,-0.90577 0.0253,-1.75371 0.49053,-0.6482 0.55819,-0.62404 1.72899,0.61736 1.42064,1.50632 1.77599,1.61418 1.4839,0.45039 -0.13367,-0.53256 -0.0182,-1.0018 0.31453,-1.27792 0.78345,-0.6502 0.65318,-1.13129 -0.70896,-2.61841 -1.39962,-1.52802 -1.43642,-1.61209 -0.70556,-1.61209 0.29104,0 0.52917,0.15875 0.52917,0.35277 0,0.19403 0.45773,0.35278 1.01719,0.35278 0.74414,0 1.08561,0.21307 1.27211,0.79375 0.21214,0.66051 0.28225,0.69193 0.41771,0.18718 0.0895,-0.33362 -0.16541,-0.95887 -0.56655,-1.38944 -0.40115,-0.43057 -0.72936,-0.89682 -0.72936,-1.03609 0,-0.13928 -0.27781,-0.18918 -0.61736,-0.11088 -0.69814,0.16097 -2.10771,-0.77593 -1.73225,-1.15138 0.13459,-0.13459 0.42396,-0.0655 0.64305,0.15363 0.22153,0.22153 0.8519,0.30764 1.42012,0.194 0.75217,-0.15044 1.1545,-0.029 1.52483,0.46007 0.27669,0.36544 0.50811,0.47219 0.51429,0.23721 0.006,-0.23498 -0.32317,-0.73875 -0.73186,-1.11951 -0.4405,-0.41038 -0.63378,-0.86912 -0.47466,-1.12658 0.18376,-0.29733 0.12244,-0.34409 -0.19444,-0.14825 -0.34475,0.21307 -0.41212,0.0921 -0.26401,-0.4743 0.10936,-0.41821 0.0473,-0.85404 -0.13795,-0.96852 -0.20258,-0.1252 -0.1627,-0.41792 0.10009,-0.73455 0.32976,-0.39735 0.33905,-0.68304 0.0379,-1.16528 -0.48398,-0.77498 -0.15845,-1.21281 0.49717,-0.66869 0.26038,0.2161 0.46772,0.25441 0.46074,0.0851 -0.0203,-0.49117 -1.65768,-2.36563 -2.16826,-2.48211 -0.25569,-0.0583 -0.91834,-0.21002 -1.47255,-0.33708 -0.68213,-0.15639 -1.10776,-0.073 -1.31751,0.25825 -0.55335,0.87376 -0.34832,1.01844 1.44323,1.01844 1.33272,0 1.76389,0.12935 1.76389,0.52917 0,0.36958 -0.37238,0.52917 -1.23472,0.52917 -1.46998,0 -1.5088,0.13246 -0.35278,1.20382 0.48507,0.44955 0.88194,1.07697 0.88194,1.39427 0,0.3173 0.15875,0.57691 0.35278,0.57691 0.19403,0 0.35278,0.15875 0.35278,0.35277 0,0.64433 -0.77078,0.36502 -1.47969,-0.53621 -0.3846,-0.48895 -1.16689,-1.13081 -1.73843,-1.42636 -0.57153,-0.29555 -0.99407,-0.75822 -0.93898,-1.02815 0.11086,-0.54324 -0.14506,-0.62387 -0.97243,-0.30638 -0.31415,0.12055 -0.89392,-0.11097 -1.34935,-0.53882 -0.81935,-0.76974 -2.340565,-1.02803 -2.340565,-0.39741 0,0.19403 0.15875,0.35278 0.35278,0.35278 0.19403,0 0.35278,0.23323 0.35278,0.5183 0,0.89901 1.471645,3.38566 2.340705,3.95509 0.45886,0.30065 0.83782,0.72682 0.84213,0.94704 0.004,0.22022 0.31829,0.79728 0.69771,1.28235 0.37943,0.48506 0.69583,1.35819 0.70312,1.94027 0.009,0.74204 0.10527,0.91304 0.32118,0.57217 0.16936,-0.2674 0.48975,-0.3738 0.71197,-0.23646 0.26814,0.16572 0.0998,0.48905 -0.50061,0.96131 -0.7261,0.57115 -1.00656,0.627 -1.42105,0.28301 -0.28402,-0.23572 -0.81718,-0.34992 -1.18479,-0.25379 -0.36761,0.0961 -0.88439,0.0355 -1.1484,-0.13475 -0.39995,-0.2579 -0.3934,-0.36523 0.0393,-0.64334 0.44554,-0.2864 0.4333,-0.36679 -0.0862,-0.56614 -0.3343,-0.12828 -0.49534,-0.41048 -0.3596,-0.63013 0.3578,-0.57893 0.38626,-1.64493 0.0439,-1.64493 -0.1616,0 -0.293815,-0.20638 -0.293815,-0.45861 0,-0.25224 -0.19843,-0.65705 -0.44097,-0.89959 -0.24253,-0.24253 -0.46232,-0.55209 -0.48843,-0.68791 -0.34117,-1.77534 -1.06974,-2.29703 -1.86675,-1.33669 -0.30519,0.36773 -0.30901,0.5621 -0.0146,0.74404 0.21917,0.13546 0.30772,0.60796 0.19677,1.05001 -0.13147,0.5238 -0.0493,0.78684 0.236,0.75526 0.24074,-0.0266 0.47741,0.11029 0.52591,0.30432 0.0485,0.19403 -0.11024,0.35278 -0.35278,0.35278 -0.5549,0 -0.91156,0.85335 -0.69798,1.67006 0.0982,0.37564 0.49674,0.62299 1.00371,0.62299 0.46244,0 0.8408,0.17596 0.8408,0.39103 0,0.24093 -0.33852,0.30605 -0.88194,0.16967 -0.53477,-0.13423 -0.88195,-0.0707 -0.88195,0.16133 0,0.70936 0.72659,1.74742 1.22312,1.74742 0.65346,0 2.003565,1.92426 1.772525,2.52634 -0.09999,0.26055 0.17008,0.69346 0.60013,0.96203 0.55545,0.34689 0.8206,0.37222 0.91552,0.0875 0.24138,-0.72413 0.81051,-0.41965 1.17615,0.62921 0.19749,0.56653 0.60378,1.12395 0.90287,1.23872 0.34737,0.1333 0.48215,0.0479 0.37313,-0.2363 -0.10515,-0.27417 0.15059,-0.4645 0.66628,-0.49585 0.60408,-0.0367 0.83694,0.13505 0.83694,0.61737 0,0.36752 0.0794,0.66823 0.17639,0.66823 0.097,0 0.17639,-0.63634 0.17639,-1.4141 z m -3.70167,-2.46242 c -0.1236,-0.19997 0.018,-0.25911 0.33195,-0.13864 0.61116,0.23452 0.72298,0.48738 0.21554,0.48738 -0.18258,0 -0.42895,-0.15693 -0.54749,-0.34874 z m 3.70167,-0.70959 c 0,-0.19403 0.23812,-0.35278 0.52916,-0.35278 0.29104,0 0.52917,0.15875 0.52917,0.35278 0,0.19403 -0.23813,0.35278 -0.52917,0.35278 -0.29104,0 -0.52916,-0.15875 -0.52916,-0.35278 z m -6.173615,-1.76389 c -0.35333,-0.39043 -0.56305,-0.78925 -0.46604,-0.88627 0.097,-0.097 0.46548,0.14306 0.818815,0.53349 0.35334,0.39044 0.56306,0.78926 0.46605,0.88627 -0.097,0.097 -0.46549,-0.14306 -0.818825,-0.53349 z m 3.604845,-5.02708 c -0.087,-0.24254 -0.014,-0.72114 0.1622,-1.06357 0.23095,-0.44888 0.169,-0.68066 -0.22203,-0.83072 -0.64819,-0.24873 -0.3759,-0.83974 0.38688,-0.83974 0.64567,0 3.65283,2.10196 3.65283,2.55327 0,0.17435 -0.46107,-0.0113 -1.0246,-0.41258 -1.21512,-0.86524 -1.90555,-0.92052 -2.50318,-0.20041 -0.35968,0.43339 -0.33558,0.52916 0.13319,0.52916 0.3148,0 0.57236,0.15875 0.57236,0.35278 0,0.50888 -0.97006,0.43498 -1.15765,-0.0882 z m 14.38682,11.0243 c -0.11992,-0.19402 -0.4071,-0.35034 -0.63818,-0.34737 -0.25245,0.003 -0.20894,0.14189 0.10901,0.34737 0.67773,0.43799 0.79986,0.43799 0.52917,0 z m -20.973015,-5.03827 c -0.20009,-0.89283 -0.46045,-3.25978 -0.57858,-5.25989 -0.29387,-4.97545 -0.62823,-6.1497 -1.94496,-6.83061 -0.58809,-0.30411 -1.41307,-0.50361 -1.83329,-0.44333 -0.73232,0.10505 -0.7205,0.14987 0.28486,1.07974 0.57689,0.53358 0.87668,0.97014 0.6662,0.97014 -0.21048,0 -0.63565,-0.27781 -0.94483,-0.61736 -0.48432,-0.53189 -1.40549,-1.05804 -4.56951,-2.60996 -0.33692,-0.16525 -0.89254,-0.30289 -1.23472,-0.30586 -0.52077,-0.005 -0.53758,-0.0589 -0.1032,-0.3336 0.28542,-0.180501 0.41338,-0.433764 0.28434,-0.562796 -0.50311,-0.503121 -5.02787,-0.590853 -7.398937,-0.143468 -2.250088,0.424561 -2.507485,0.41305 -2.808941,-0.125617 -0.182523,-0.326153 -0.717622,-0.593005 -1.189106,-0.593005 -0.644952,0 -1.035525,0.349458 -1.577141,1.411111 -0.79146,1.551385 -1.230371,1.857705 -0.884612,0.617365 0.190536,-0.683511 0.0836,-0.639548 -0.769977,0.31654 -1.457899,1.63299 -6.653491,5.06332 -7.668924,5.06332 -0.617676,0 -5.467371,3.18128 -6.645142,4.35905 -0.512935,0.51294 -1.257325,0.93261 -1.6542,0.93261 -0.396875,0 -0.721591,0.15875 -0.721591,0.35278 0,0.19403 0.152631,0.35278 0.33918,0.35278 0.18655,0 0.508859,0.63014 0.716244,1.40031 l 0.377064,1.4003 1.135839,-0.48111 c 1.925562,-0.81561 2.864301,-1.26773 3.781674,-1.82131 0.616499,-0.37203 1.454889,-0.48008 2.78556,-0.35899 2.470431,0.22482 4.342639,-0.7081 7.398357,-3.68658 l 2.246418,-2.18964 -1.717251,0.23222 c -1.583775,0.21416 -1.664025,0.19034 -1.032463,-0.30649 0.457289,-0.35974 1.45977,-0.53871 3.01754,-0.53871 2.680065,0 5.32423,1.07595 7.410179,3.0153 2.6401,2.45457 7.02297,4.91071 11.64166,6.52395 1.26118,0.44051 2.44387,0.93501 2.6282,1.09889 0.65655,0.58374 0.92225,-0.31977 0.56406,-1.91808 z m -5.48531,-0.75927 c -1.06813,-0.51447 -1.48559,-0.85427 -1.05834,-0.86147 0.38806,-0.007 1.41993,0.37065 2.29306,0.83818 2.068,1.10736 1.05566,1.12645 -1.23472,0.0233 z m -6.23515,-3.33787 c -0.88593,-0.56184 -1.82983,-1.31604 -2.09754,-1.676 -1.17427,-1.57885 -4.248873,-3.9376 -5.418681,-4.15706 -1.227656,-0.23031 -1.748673,-0.90653 -0.698468,-0.90653 0.968538,0 3.199801,1.33806 5.142829,3.08409 1.04427,0.93839 2.75285,2.37461 3.79684,3.1916 2.16382,1.69332 1.69084,1.99596 -0.72498,0.4639 z m -19.341244,-0.005 c 0,-0.41176 2.052869,-2.14803 2.539707,-2.14803 0.432089,0 -0.232348,0.95011 -1.289739,1.84424 -0.803179,0.67918 -1.249968,0.78777 -1.249968,0.30379 z m 23.702064,-3.02997 c -0.42176,-0.48507 -0.64446,-0.88194 -0.49489,-0.88194 0.4558,0 1.84005,1.0766 1.84005,1.43111 0,0.58541 -0.55603,0.35841 -1.34516,-0.54917 z m 4.69655,-2.64583 c -0.11992,-0.19403 -0.0499,-0.35278 0.15557,-0.35278 0.20548,0 0.3736,0.15875 0.3736,0.35278 0,0.19402 -0.07,0.35277 -0.15557,0.35277 -0.0856,0 -0.25368,-0.15875 -0.3736,-0.35277 z m -11.1125,-4.939343 c 0,-0.421262 0.95995,-0.421262 1.94028,0 0.56598,0.243212 0.44386,0.308092 -0.61736,0.327981 -0.72761,0.01364 -1.32292,-0.133953 -1.32292,-0.327981 z m 19.755555,11.330033 c 0,-0.1714 -0.32658,-0.39703 -0.72572,-0.50141 -0.59548,-0.15572 -0.65104,-0.0998 -0.30958,0.31163 0.46576,0.56121 1.0353,0.66561 1.0353,0.18978 z m 7.40833,-5.15642 c 0,-0.29104 -0.15377,-0.52917 -0.34171,-0.52917 -0.18793,0 -0.25033,0.23813 -0.13864,0.52917 0.11168,0.29104 0.26545,0.52917 0.3417,0.52917 0.0762,0 0.13865,-0.23813 0.13865,-0.52917 z m -11.641665,-1.23472 c 0,-0.19403 -0.16215,-0.35278 -0.36034,-0.35278 -0.19819,0 -0.54117,-0.39688 -0.76218,-0.88195 -0.371,-0.81425 -1.34692,-1.24862 -1.34692,-0.59949 0,0.92561 0.96369,2.18177 1.67569,2.18424 0.43656,0.001 0.79375,-0.156 0.79375,-0.35002 z m -2.46944,-3.52778 c 0,-0.19403 -0.23813,-0.35278 -0.52917,-0.35278 -0.29104,0 -0.52917,0.15875 -0.52917,0.35278 0,0.19403 0.23813,0.35278 0.52917,0.35278 0.29104,0 0.52917,-0.15875 0.52917,-0.35278 z m 2.46839,-0.25084 c 0.43279,0.11318 0.83018,-0.0326 1.0217,-0.37485 0.27579,-0.492811 0.37572,-0.497782 0.832105,-0.0414 0.35772,0.35772 0.99917,0.46894 2.06699,0.35841 l 1.54831,-0.16027 -1.41183,-0.38289 c -2.704845,-0.733566 -3.120585,-1.512185 -0.70484,-1.320052 0.94509,0.07517 1.5875,-0.02226 1.5875,-0.240746 0,-0.796844 -2.62867,-0.594984 -4.409715,0.338635 -0.97014,0.50854 -1.96233,0.852498 -2.20486,0.76435 -0.25515,-0.09273 -0.44097,0.124675 -0.44097,0.515893 0,0.92266 0.36988,1.21873 0.93579,0.74905 0.25936,-0.21524 0.79028,-0.30801 1.17982,-0.20614 z m -8.81839,-0.24382 c 0,-0.078 -0.47625,-0.3079 -1.05834,-0.51081 -1.22507,-0.427067 -1.44591,-0.185915 -0.26458,0.28892 0.89354,0.35916 1.32292,0.43118 1.32292,0.22189 z m 18.177475,-0.578922 c 0.26918,-0.435543 -1.336,-2.642507 -2.29541,-3.155968 -0.46136,-0.246912 -0.74241,-0.240996 -0.9031,0.01901 -0.12831,0.207613 0.0801,0.459444 0.46322,0.559622 0.84291,0.220426 2.31375,2.117789 2.01564,2.600148 -0.11735,0.18987 -0.0546,0.34522 0.13942,0.34522 0.19403,0 0.45513,-0.16561 0.58023,-0.368026 z m -1.9497,-1.043086 c 0,-0.194028 -0.22515,-0.352778 -0.50032,-0.352778 -0.27517,0 -0.79111,-0.109097 -1.14652,-0.24244 -0.56886,-0.213416 -0.58826,-0.171185 -0.16205,0.352778 0.52425,0.644501 1.80889,0.816674 1.80889,0.24244 z m -7.584725,-0.705556 c 0.46523,-0.199912 0.52531,-0.309792 0.17639,-0.32258 -0.29104,-0.01065 -0.76729,0.134493 -1.05833,0.32258 -0.64487,0.416744 -0.0879,0.416744 0.88194,0 z m 4.938885,-1.411111 c -0.11991,-0.194028 -0.44678,-0.352778 -0.72637,-0.352778 -0.27959,0 -0.50835,0.15875 -0.50835,0.352778 0,0.194028 0.32687,0.352778 0.72638,0.352778 0.3995,0 0.62826,-0.15875 0.50834,-0.352778 z m 7.65412,-13.670139 c -0.0957,-1.882317 -0.43801,-3.843913 -0.87728,-5.027084 -0.78678,-2.119155 -1.28912,-1.887715 -0.5676,0.261509 0.24483,0.729295 0.41129,2.26079 0.36992,3.403322 -0.0738,2.03754 0.4518,4.449058 0.96968,4.449058 0.1442,0 0.19157,-1.389062 0.10528,-3.086805 z m -4.5209,-19.332906 c 0.12047,-0.313946 0.0613,-0.45555 -0.13865,-0.331958 -0.1918,0.118542 -0.34873,0.364912 -0.34873,0.547489 0,0.507447 0.25286,0.395627 0.48738,-0.215531 z m 1.13588,-6.012898 c -0.11394,-0.296938 -0.36747,-0.440817 -0.56339,-0.31973 -0.23483,0.14513 -0.21553,0.483046 0.0566,0.991559 0.4496,0.840079 0.87205,0.280044 0.50678,-0.671829 z M 98.844715,56.06677 c 0.66976,-0.672937 1.05808,-1.223521 0.86295,-1.223521 -0.19513,0 -0.89332,0.555625 -1.55153,1.234722 -0.6582,0.679097 -1.04653,1.229682 -0.86295,1.223521 0.18358,-0.0062 0.88177,-0.561786 1.55153,-1.234722 z m 8.050015,0.474222 c -0.0768,-0.230408 -0.32826,-0.481798 -0.5588,-0.558645 -0.25779,-0.08593 -0.33663,0.07535 -0.20479,0.418924 0.24607,0.641249 0.97525,0.774672 0.76359,0.139721 z m 6.07807,42.752258 c 0,-0.582084 0.15875,-1.058334 0.35278,-1.058334 0.19403,0 0.35278,0.47625 0.35278,1.058334 0,0.582083 -0.15875,1.05833 -0.35278,1.05833 -0.19403,0 -0.35278,-0.476247 -0.35278,-1.05833 z m -1.76389,-0.705556 c 0,-0.194028 0.15875,-0.352778 0.35278,-0.352778 0.19403,0 0.35278,0.15875 0.35278,0.352778 0,0.194028 -0.15875,0.352778 -0.35278,0.352778 -0.19403,0 -0.35278,-0.15875 -0.35278,-0.352778 z m -3.0785,-6.260779 c -1.86965,-1.776677 -2.16555,-2.240573 -2.37524,-3.723884 -0.18568,-1.313411 -0.42804,-1.780271 -1.07793,-2.076378 -0.46111,-0.210098 -1.08512,-0.99865 -1.38669,-1.752339 -0.64637,-1.615433 -0.65706,-1.708843 -0.19553,-1.708843 0.19403,0 0.35278,0.225945 0.35278,0.5021 0,0.697024 1.71827,2.6729 2.32442,2.6729 0.3191,0 0.4978,0.383986 0.4978,1.069665 0,1.765413 0.97935,3.606959 2.74336,5.158525 0.9165,0.806132 1.5733,1.560657 1.45955,1.676721 -0.11375,0.116067 -1.16788,-0.702243 -2.34252,-1.818467 z m -9.445105,-0.958751 c 0.58208,-0.280367 1.534575,-0.498662 2.116665,-0.485102 1.03114,0.02403 1.02661,0.03111 -0.17639,0.275735 -0.679095,0.138091 -1.631595,0.356387 -2.116665,0.485098 -0.71144,0.188782 -0.67735,0.135477 0.17639,-0.275731 z m -0.88194,-0.894359 c 0,-0.194028 0.16812,-0.352778 0.3736,-0.352778 0.20547,0 0.27548,0.15875 0.15556,0.352778 -0.11991,0.194028 -0.28803,0.352778 -0.3736,0.352778 -0.0856,0 -0.15556,-0.15875 -0.15556,-0.352778 z m -1.24568,-3.192716 c -0.33521,-0.542391 0.12395,-0.89234 0.57674,-0.439555 0.25336,0.253358 0.25944,0.450683 0.0185,0.599597 -0.19753,0.122078 -0.46538,0.05006 -0.59523,-0.160042 z m 4.420675,-2.27534 c -0.24498,-0.295183 -0.28318,-0.529166 -0.0864,-0.529166 0.19402,0 0.5504,0.238125 0.79194,0.529166 0.24498,0.295184 0.28319,0.529167 0.0864,0.529167 -0.19402,0 -0.5504,-0.238125 -0.79194,-0.529167 z m 0.21997,-2.83586 c -0.12099,-0.315279 -0.20633,-0.838063 -0.18965,-1.161742 0.0167,-0.32368 0.17018,-0.120239 0.34111,0.452091 0.33255,1.113457 0.21494,1.664487 -0.15146,0.709651 z m -1.561025,-0.825008 c -0.36677,-0.226676 -0.37309,-0.472054 -0.0315,-1.221803 0.485795,-1.066219 1.031975,-1.242319 0.994955,-0.320801 -0.0459,1.143147 -0.48146,1.840504 -0.963465,1.542604 z m 6.838545,-0.975735 c -0.12234,-0.318813 -0.14988,-0.652209 -0.0612,-0.740882 0.28037,-0.280364 0.91372,0.282617 0.91372,0.812194 0,0.691982 -0.57816,0.643619 -0.8525,-0.07131 z M 103.673,77.950194 c 0.11169,-0.291042 0.43555,-0.529167 0.71969,-0.529167 0.44807,0 0.4464,0.07022 -0.0126,0.529167 -0.29104,0.291041 -0.6149,0.529166 -0.71969,0.529166 -0.10478,0 -0.0991,-0.238125 0.0126,-0.529166 z m -1.63631,-1.830926 c 0,-0.194028 0.3175,-0.640111 0.70556,-0.991297 0.38805,-0.351185 0.70555,-0.479769 0.70555,-0.285741 0,0.194028 -0.3175,0.640112 -0.70555,0.991297 -0.38806,0.351185 -0.70556,0.479769 -0.70556,0.285741 z m 2.46944,-1.873241 c -0.4302,-0.278019 -0.38461,-0.342984 0.24377,-0.347376 0.42511,-0.003 0.87104,0.153348 0.99096,0.347376 0.27759,0.449152 -0.53971,0.449152 -1.23473,0 z m -2.46944,-0.663916 c 0,-0.194028 0.15875,-0.450891 0.35278,-0.570806 0.19403,-0.119916 0.35278,-0.05928 0.35278,0.134749 0,0.194027 -0.15875,0.45089 -0.35278,0.570806 -0.19403,0.119916 -0.35278,0.05928 -0.35278,-0.134749 z m -1.99819,-1.300075 c -0.116685,-0.304084 -0.0323,-0.732709 0.18746,-0.9525 0.29764,-0.297642 0.39962,-0.156554 0.39962,0.55288 0,1.061403 -0.26414,1.241199 -0.58708,0.39962 z m -2.587915,-4.583218 c 0,-0.302493 0.15875,-0.451874 0.35278,-0.331958 0.19402,0.119916 0.35277,0.36741 0.35277,0.549987 0,0.182577 -0.15875,0.331958 -0.35277,0.331958 -0.19403,0 -0.35278,-0.247495 -0.35278,-0.549987 z m 3.527775,-1.919458 c 0,-0.194028 0.21516,-0.352778 0.47813,-0.352778 0.26298,0 0.65408,-0.515937 0.86913,-1.146528 l 0.39099,-1.146527 -0.20506,1.234722 c -0.11278,0.679097 -0.27513,1.353785 -0.36077,1.499305 -0.23065,0.391872 -1.17242,0.321028 -1.17242,-0.08819 z m 2.69464,-0.881944 c -0.11168,-0.291042 -0.0663,-0.529167 0.10091,-0.529167 0.16718,0 0.39534,0.238125 0.50702,0.529167 0.11168,0.291041 0.0663,0.529166 -0.1009,0.529166 -0.16718,0 -0.39534,-0.238125 -0.50703,-0.529166 z m -3.20874,-2.974235 c -0.11164,-0.180621 -0.0583,-0.417834 0.1186,-0.527141 0.17686,-0.109306 0.41259,0.03847 0.52385,0.328402 0.21932,0.571543 -0.31071,0.735506 -0.64245,0.198739 z m 1.07193,-2.017173 c -0.2992,-0.779688 -0.0487,-0.962017 0.46736,-0.340192 0.25052,0.301858 0.28574,0.589371 0.0872,0.712055 -0.18312,0.113173 -0.43269,-0.05416 -0.5546,-0.371863 z"
       style="fill:#000000;stroke-width:0.35277781" />
  </g>
</svg>
